Data/20220822/UCLA_to_R2B_HPOL_60_001_Math1.csv

"Record Length",6250,"Points",0.00000000e+000,-1.32821255e+001
"Sample Interval",4.00000000e+005,Hz,4.00000000e+005,-1.98297176e+001
"Trigger Point",0,"Samples",8.00000000e+005,-2.17756729e+001
"Trigger Time",0.00000000e+000,Hz,1.20000000e+006,-2.52337036e+001
"",,,1.60000000e+006,-3.19787712e+001
"Horizontal Offset",0.00000000e+000,Hz,2.00000000e+006,-6.98947983e+001
,,,2.40000000e+006,-3.51314621e+001
,,,2.80000000e+006,-3.25900307e+001
,,,3.20000000e+006,-3.38623085e+001
,,,3.60000000e+006,-3.93998070e+001
,,,4.00000000e+006,-7.21175232e+001
,,,4.40000000e+006,-4.06546593e+001
,,,4.80000000e+006,-3.74486809e+001
,,,5.20000000e+006,-3.78956413e+001
,,,5.60000000e+006,-4.27554359e+001
,,,6.00000000e+006,-6.52509232e+001
,,,6.40000000e+006,-4.34742165e+001
,,,6.80000000e+006,-4.04473038e+001
,,,7.20000000e+006,-4.09491692e+001
,,,7.60000000e+006,-4.58398170e+001
,,,8.00000000e+006,-7.37261276e+001
,,,8.40000000e+006,-4.56733818e+001
,,,8.80000000e+006,-4.29774628e+001
,,,9.20000000e+006,-4.29675179e+001
,,,9.60000000e+006,-4.74089966e+001
,,,1.00000000e+007,-8.02614746e+001
,,,1.04000000e+007,-4.84496803e+001
,,,1.08000000e+007,-4.36702995e+001
,,,1.12000000e+007,-4.45419121e+001
,,,1.16000000e+007,-4.85801468e+001
,,,1.20000000e+007,-6.56424179e+001
,,,1.24000000e+007,-4.89000320e+001
,,,1.28000000e+007,-4.50700455e+001
,,,1.32000000e+007,-4.69227066e+001
,,,1.36000000e+007,-5.18961945e+001
,,,1.40000000e+007,-7.11979446e+001
,,,1.44000000e+007,-5.06602859e+001
,,,1.48000000e+007,-4.73375130e+001
,,,1.52000000e+007,-4.85973587e+001
,,,1.56000000e+007,-5.11648712e+001
,,,1.60000000e+007,-8.33402252e+001
,,,1.64000000e+007,-5.21270943e+001
,,,1.68000000e+007,-4.84940262e+001
,,,1.72000000e+007,-4.87192650e+001
,,,1.76000000e+007,-5.07101440e+001
,,,1.80000000e+007,-8.37192230e+001
,,,1.84000000e+007,-5.11444702e+001
,,,1.88000000e+007,-4.89159279e+001
,,,1.92000000e+007,-4.86690445e+001
,,,1.96000000e+007,-5.44482193e+001
,,,2.00000000e+007,-6.44627762e+001
,,,2.04000000e+007,-5.25947533e+001
,,,2.08000000e+007,-5.10170479e+001
,,,2.12000000e+007,-5.05641098e+001
,,,2.16000000e+007,-5.47921982e+001
,,,2.20000000e+007,-6.65223236e+001
,,,2.24000000e+007,-5.43142471e+001
,,,2.28000000e+007,-5.19488907e+001
,,,2.32000000e+007,-5.08486252e+001
,,,2.36000000e+007,-5.39138756e+001
,,,2.40000000e+007,-6.30727043e+001
,,,2.44000000e+007,-5.53233452e+001
,,,2.48000000e+007,-5.15264130e+001
,,,2.52000000e+007,-5.29782143e+001
,,,2.56000000e+007,-5.69634094e+001
,,,2.60000000e+007,-6.28889313e+001
,,,2.64000000e+007,-5.60240250e+001
,,,2.68000000e+007,-5.42137756e+001
,,,2.72000000e+007,-5.18837051e+001
,,,2.76000000e+007,-5.63407478e+001
,,,2.80000000e+007,-7.22742691e+001
,,,2.84000000e+007,-5.46702728e+001
,,,2.88000000e+007,-5.47842751e+001
,,,2.92000000e+007,-5.23324242e+001
,,,2.96000000e+007,-5.92656784e+001
,,,3.00000000e+007,-6.80964661e+001
,,,3.04000000e+007,-5.83569298e+001
,,,3.08000000e+007,-5.29890213e+001
,,,3.12000000e+007,-5.31266174e+001
,,,3.16000000e+007,-5.70718498e+001
,,,3.20000000e+007,-7.27834396e+001
,,,3.24000000e+007,-5.90852165e+001
,,,3.28000000e+007,-5.27704773e+001
,,,3.32000000e+007,-5.14332809e+001
,,,3.36000000e+007,-6.12013512e+001
,,,3.40000000e+007,-7.85102081e+001
,,,3.44000000e+007,-5.30642891e+001
,,,3.48000000e+007,-5.53475800e+001
,,,3.52000000e+007,-5.59255066e+001
,,,3.56000000e+007,-5.90956993e+001
,,,3.60000000e+007,-6.53980484e+001
,,,3.64000000e+007,-6.04669685e+001
,,,3.68000000e+007,-5.68641472e+001
,,,3.72000000e+007,-5.46034775e+001
,,,3.76000000e+007,-5.81249542e+001
,,,3.80000000e+007,-6.17405777e+001
,,,3.84000000e+007,-6.29427567e+001
,,,3.88000000e+007,-5.54078178e+001
,,,3.92000000e+007,-5.27253304e+001
,,,3.96000000e+007,-6.23826065e+001
,,,4.00000000e+007,-7.41382446e+001
,,,4.04000000e+007,-5.87209969e+001
,,,4.08000000e+007,-5.50739250e+001
,,,4.12000000e+007,-5.40583496e+001
,,,4.16000000e+007,-6.74893417e+001
,,,4.20000000e+007,-6.30980911e+001
,,,4.24000000e+007,-6.33206978e+001
,,,4.28000000e+007,-5.88388138e+001
,,,4.32000000e+007,-5.60000992e+001
,,,4.36000000e+007,-6.13789597e+001
,,,4.40000000e+007,-7.63166885e+001
,,,4.44000000e+007,-6.20906601e+001
,,,4.48000000e+007,-5.61171150e+001
,,,4.52000000e+007,-5.47212601e+001
,,,4.56000000e+007,-6.09672279e+001
,,,4.60000000e+007,-6.29652481e+001
,,,4.64000000e+007,-6.08356857e+001
,,,4.68000000e+007,-5.57397957e+001
,,,4.72000000e+007,-5.68110886e+001
,,,4.76000000e+007,-6.29822121e+001
,,,4.80000000e+007,-6.26921005e+001
,,,4.84000000e+007,-6.05615387e+001
,,,4.88000000e+007,-5.68025513e+001
,,,4.92000000e+007,-6.10128403e+001
,,,4.96000000e+007,-6.72402115e+001
,,,5.00000000e+007,-6.34772568e+001
,,,5.04000000e+007,-6.43974762e+001
,,,5.08000000e+007,-5.70992966e+001
,,,5.12000000e+007,-5.63947182e+001
,,,5.16000000e+007,-6.65418243e+001
,,,5.20000000e+007,-7.11083603e+001
,,,5.24000000e+007,-6.97268066e+001
,,,5.28000000e+007,-5.57385826e+001
,,,5.32000000e+007,-5.90313911e+001
,,,5.36000000e+007,-6.22993507e+001
,,,5.40000000e+007,-7.33295822e+001
,,,5.44000000e+007,-6.37362442e+001
,,,5.48000000e+007,-5.69155159e+001
,,,5.52000000e+007,-6.15324860e+001
,,,5.56000000e+007,-5.88044739e+001
,,,5.60000000e+007,-7.15643311e+001
,,,5.64000000e+007,-6.44793930e+001
,,,5.68000000e+007,-5.80516624e+001
,,,5.72000000e+007,-5.95876236e+001
,,,5.76000000e+007,-5.97799911e+001
,,,5.80000000e+007,-8.09325562e+001
,,,5.84000000e+007,-6.21469612e+001
,,,5.88000000e+007,-5.61588821e+001
,,,5.92000000e+007,-5.84130936e+001
,,,5.96000000e+007,-6.48623962e+001
,,,6.00000000e+007,-6.72481995e+001
,,,6.04000000e+007,-6.17763023e+001
,,,6.08000000e+007,-5.87086296e+001
,,,6.12000000e+007,-5.96988335e+001
,,,6.16000000e+007,-6.16125145e+001
,,,6.20000000e+007,-6.52958298e+001
,,,6.24000000e+007,-6.42586746e+001
,,,6.28000000e+007,-6.10099525e+001
,,,6.32000000e+007,-5.69153023e+001
,,,6.36000000e+007,-6.75372238e+001
,,,6.40000000e+007,-7.78514404e+001
,,,6.44000000e+007,-6.11511803e+001
,,,6.48000000e+007,-6.06589127e+001
,,,6.52000000e+007,-5.90358772e+001
,,,6.56000000e+007,-6.42429657e+001
,,,6.60000000e+007,-7.39412155e+001
,,,6.64000000e+007,-5.84277039e+001
,,,6.68000000e+007,-6.16492844e+001
,,,6.72000000e+007,-5.86216278e+001
,,,6.76000000e+007,-7.22775955e+001
,,,6.80000000e+007,-7.54643555e+001
,,,6.84000000e+007,-6.12460899e+001
,,,6.88000000e+007,-6.53790894e+001
,,,6.92000000e+007,-6.01503067e+001
,,,6.96000000e+007,-6.17849731e+001
,,,7.00000000e+007,-7.63699341e+001
,,,7.04000000e+007,-6.05677872e+001
,,,7.08000000e+007,-6.66845703e+001
,,,7.12000000e+007,-5.96378975e+001
,,,7.16000000e+007,-6.05041847e+001
,,,7.20000000e+007,-8.15922546e+001
,,,7.24000000e+007,-6.01518860e+001
,,,7.28000000e+007,-5.94280663e+001
,,,7.32000000e+007,-6.06973495e+001
,,,7.36000000e+007,-6.60857849e+001
,,,7.40000000e+007,-6.77494354e+001
,,,7.44000000e+007,-6.91377640e+001
,,,7.48000000e+007,-5.70729866e+001
,,,7.52000000e+007,-6.09085732e+001
,,,7.56000000e+007,-8.04766388e+001
,,,7.60000000e+007,-7.47332230e+001
,,,7.64000000e+007,-6.19772110e+001
,,,7.68000000e+007,-6.31297455e+001
,,,7.72000000e+007,-6.17460670e+001
,,,7.76000000e+007,-6.26479759e+001
,,,7.80000000e+007,-7.09483948e+001
,,,7.84000000e+007,-6.29818497e+001
,,,7.88000000e+007,-5.85476074e+001
,,,7.92000000e+007,-6.07221336e+001
,,,7.96000000e+007,-6.62242661e+001
,,,8.00000000e+007,-6.70622940e+001
,,,8.04000000e+007,-5.98072319e+001
,,,8.08000000e+007,-6.10791893e+001
,,,8.12000000e+007,-6.54646225e+001
,,,8.16000000e+007,-6.94703064e+001
,,,8.20000000e+007,-7.18377533e+001
,,,8.24000000e+007,-6.57316055e+001
,,,8.28000000e+007,-6.60241852e+001
,,,8.32000000e+007,-6.16474457e+001
,,,8.36000000e+007,-6.00636673e+001
,,,8.40000000e+007,-7.03084183e+001
,,,8.44000000e+007,-5.94019051e+001
,,,8.48000000e+007,-6.19008980e+001
,,,8.52000000e+007,-6.04218979e+001
,,,8.56000000e+007,-7.24464264e+001
,,,8.60000000e+007,-6.47953186e+001
,,,8.64000000e+007,-6.46892471e+001
,,,8.68000000e+007,-6.48776779e+001
,,,8.72000000e+007,-6.40233078e+001
,,,8.76000000e+007,-6.61218033e+001
,,,8.80000000e+007,-7.03886948e+001
,,,8.84000000e+007,-6.14901199e+001
,,,8.88000000e+007,-6.61199417e+001
,,,8.92000000e+007,-6.27575073e+001
,,,8.96000000e+007,-7.33165131e+001
,,,9.00000000e+007,-6.96336594e+001
,,,9.04000000e+007,-6.92847519e+001
,,,9.08000000e+007,-6.45881805e+001
,,,9.12000000e+007,-6.57747498e+001
,,,9.16000000e+007,-6.01794319e+001
,,,9.20000000e+007,-7.77488632e+001
,,,9.24000000e+007,-6.76339645e+001
,,,9.28000000e+007,-6.02171898e+001
,,,9.32000000e+007,-5.86517296e+001
,,,9.36000000e+007,-6.52725601e+001
,,,9.40000000e+007,-7.90814514e+001
,,,9.44000000e+007,-5.90625877e+001
,,,9.48000000e+007,-6.24351387e+001
,,,9.52000000e+007,-6.39832573e+001
,,,9.56000000e+007,-6.16794777e+001
,,,9.60000000e+007,-6.53149033e+001
,,,9.64000000e+007,-6.21026917e+001
,,,9.68000000e+007,-6.34679489e+001
,,,9.72000000e+007,-6.17114830e+001
,,,9.76000000e+007,-6.31580429e+001
,,,9.80000000e+007,-7.50576782e+001
,,,9.84000000e+007,-6.21665726e+001
,,,9.88000000e+007,-5.87996140e+001
,,,9.92000000e+007,-6.31363220e+001
,,,9.96000000e+007,-7.04678268e+001
,,,1.00000000e+008,-6.32527237e+001
,,,1.00400000e+008,-7.33825684e+001
,,,1.00800000e+008,-5.96806297e+001
,,,1.01200000e+008,-6.30243721e+001
,,,1.01600000e+008,-6.48402557e+001
,,,1.02000000e+008,-6.77260361e+001
,,,1.02400000e+008,-6.54476547e+001
,,,1.02800000e+008,-5.78749733e+001
,,,1.03200000e+008,-6.60813751e+001
,,,1.03600000e+008,-7.00019608e+001
,,,1.04000000e+008,-6.26882133e+001
,,,1.04400000e+008,-6.62276230e+001
,,,1.04800000e+008,-6.05038414e+001
,,,1.05200000e+008,-6.08720741e+001
,,,1.05600000e+008,-7.05467606e+001
,,,1.06000000e+008,-7.34805984e+001
,,,1.06400000e+008,-6.25466690e+001
,,,1.06800000e+008,-6.29719505e+001
,,,1.07200000e+008,-6.14636192e+001
,,,1.07600000e+008,-6.92113266e+001
,,,1.08000000e+008,-6.61619720e+001
,,,1.08400000e+008,-6.24775200e+001
,,,1.08800000e+008,-6.43918610e+001
,,,1.09200000e+008,-6.23402023e+001
,,,1.09600000e+008,-6.62826538e+001
,,,1.10000000e+008,-7.64871674e+001
,,,1.10400000e+008,-6.98548660e+001
,,,1.10800000e+008,-6.56155396e+001
,,,1.11200000e+008,-6.26943054e+001
,,,1.11600000e+008,-6.98285217e+001
,,,1.12000000e+008,-7.70864563e+001
,,,1.12400000e+008,-5.86241035e+001
,,,1.12800000e+008,-7.59510193e+001
,,,1.13200000e+008,-6.76313629e+001
,,,1.13600000e+008,-6.50130692e+001
,,,1.14000000e+008,-6.61486588e+001
,,,1.14400000e+008,-6.51984406e+001
,,,1.14800000e+008,-6.50141602e+001
,,,1.15200000e+008,-6.63477554e+001
,,,1.15600000e+008,-7.31957169e+001
,,,1.16000000e+008,-7.22186584e+001
,,,1.16400000e+008,-7.28495178e+001
,,,1.16800000e+008,-6.82673264e+001
,,,1.17200000e+008,-6.03618011e+001
,,,1.17600000e+008,-6.88170929e+001
,,,1.18000000e+008,-7.46804504e+001
,,,1.18400000e+008,-6.81479416e+001
,,,1.18800000e+008,-5.96873322e+001
,,,1.19200000e+008,-6.31670113e+001
,,,1.19600000e+008,-7.14264450e+001
,,,1.20000000e+008,-7.00391617e+001
,,,1.20400000e+008,-6.91403580e+001
,,,1.20800000e+008,-6.67270203e+001
,,,1.21200000e+008,-6.26534805e+001
,,,1.21600000e+008,-7.50214615e+001
,,,1.22000000e+008,-6.60106049e+001
,,,1.22400000e+008,-6.24855499e+001
,,,1.22800000e+008,-6.62649231e+001
,,,1.23200000e+008,-6.14970093e+001
,,,1.23600000e+008,-7.86646652e+001
,,,1.24000000e+008,-7.37974243e+001
,,,1.24400000e+008,-6.33295593e+001
,,,1.24800000e+008,-6.55977478e+001
,,,1.25200000e+008,-7.62218170e+001
,,,1.25600000e+008,-6.12202606e+001
,,,1.26000000e+008,-6.79889374e+001
,,,1.26400000e+008,-6.72507019e+001
,,,1.26800000e+008,-5.96731987e+001
,,,1.27200000e+008,-6.60879974e+001
,,,1.27600000e+008,-8.42398911e+001
,,,1.28000000e+008,-6.44520493e+001
,,,1.28400000e+008,-7.23540573e+001
,,,1.28800000e+008,-5.84567528e+001
,,,1.29200000e+008,-5.81928749e+001
,,,1.29600000e+008,-5.57884254e+001
,,,1.30000000e+008,-5.15166702e+001
,,,1.30400000e+008,-5.09626465e+001
,,,1.30800000e+008,-4.88252754e+001
,,,1.31200000e+008,-4.95910645e+001
,,,1.31600000e+008,-5.19302254e+001
,,,1.32000000e+008,-5.77398491e+001
,,,1.32400000e+008,-5.61103516e+001
,,,1.32800000e+008,-5.76931000e+001
,,,1.33200000e+008,-5.55410919e+001
,,,1.33600000e+008,-6.22897797e+001
,,,1.34000000e+008,-6.69233170e+001
,,,1.34400000e+008,-5.64108353e+001
,,,1.34800000e+008,-6.43284302e+001
,,,1.35200000e+008,-6.62521210e+001
,,,1.35600000e+008,-6.82288132e+001
,,,1.36000000e+008,-8.20309296e+001
,,,1.36400000e+008,-6.41418152e+001
,,,1.36800000e+008,-6.30719032e+001
,,,1.37200000e+008,-6.40740204e+001
,,,1.37600000e+008,-6.58094940e+001
,,,1.38000000e+008,-6.67936630e+001
,,,1.38400000e+008,-6.74929352e+001
,,,1.38800000e+008,-6.54645004e+001
,,,1.39200000e+008,-6.34246254e+001
,,,1.39600000e+008,-6.49302521e+001
,,,1.40000000e+008,-6.45866089e+001
,,,1.40400000e+008,-6.21179085e+001
,,,1.40800000e+008,-7.34892960e+001
,,,1.41200000e+008,-6.02486916e+001
,,,1.41600000e+008,-6.43115540e+001
,,,1.42000000e+008,-6.49540482e+001
,,,1.42400000e+008,-6.14642639e+001
,,,1.42800000e+008,-6.23463593e+001
,,,1.43200000e+008,-5.69005890e+001
,,,1.43600000e+008,-5.81795082e+001
,,,1.44000000e+008,-5.70880470e+001
,,,1.44400000e+008,-5.54350624e+001
,,,1.44800000e+008,-5.79797058e+001
,,,1.45200000e+008,-5.36505623e+001
,,,1.45600000e+008,-5.42246361e+001
,,,1.46000000e+008,-5.14132843e+001
,,,1.46400000e+008,-4.95990601e+001
,,,1.46800000e+008,-5.03144226e+001
,,,1.47200000e+008,-4.61071091e+001
,,,1.47600000e+008,-4.48890343e+001
,,,1.48000000e+008,-4.38054390e+001
,,,1.48400000e+008,-4.20296097e+001
,,,1.48800000e+008,-4.00894699e+001
,,,1.49200000e+008,-4.05740318e+001
,,,1.49600000e+008,-4.14770470e+001
,,,1.50000000e+008,-4.31085892e+001
,,,1.50400000e+008,-4.64743271e+001
,,,1.50800000e+008,-4.85167770e+001
,,,1.51200000e+008,-5.33193970e+001
,,,1.51600000e+008,-5.32223854e+001
,,,1.52000000e+008,-5.55967674e+001
,,,1.52400000e+008,-5.54799118e+001
,,,1.52800000e+008,-5.56797600e+001
,,,1.53200000e+008,-6.42000809e+001
,,,1.53600000e+008,-5.55220299e+001
,,,1.54000000e+008,-5.56784477e+001
,,,1.54400000e+008,-6.04061089e+001
,,,1.54800000e+008,-5.38299332e+001
,,,1.55200000e+008,-5.84588013e+001
,,,1.55600000e+008,-5.32354012e+001
,,,1.56000000e+008,-5.35864182e+001
,,,1.56400000e+008,-5.83714943e+001
,,,1.56800000e+008,-5.35303650e+001
,,,1.57200000e+008,-6.00642204e+001
,,,1.57600000e+008,-5.67210312e+001
,,,1.58000000e+008,-5.39464455e+001
,,,1.58400000e+008,-5.75940590e+001
,,,1.58800000e+008,-5.54774132e+001
,,,1.59200000e+008,-5.73661842e+001
,,,1.59600000e+008,-5.35994377e+001
,,,1.60000000e+008,-5.33083572e+001
,,,1.60400000e+008,-5.36059494e+001
,,,1.60800000e+008,-5.07095947e+001
,,,1.61200000e+008,-5.30213852e+001
,,,1.61600000e+008,-5.11352615e+001
,,,1.62000000e+008,-5.09497681e+001
,,,1.62400000e+008,-4.97870941e+001
,,,1.62800000e+008,-4.81299744e+001
,,,1.63200000e+008,-4.96076431e+001
,,,1.63600000e+008,-4.81096153e+001
,,,1.64000000e+008,-4.76958733e+001
,,,1.64400000e+008,-4.68004417e+001
,,,1.64800000e+008,-4.68786545e+001
,,,1.65200000e+008,-4.76268768e+001
,,,1.65600000e+008,-4.84635963e+001
,,,1.66000000e+008,-4.82174416e+001
,,,1.66400000e+008,-4.76475945e+001
,,,1.66800000e+008,-5.09810600e+001
,,,1.67200000e+008,-4.91815491e+001
,,,1.67600000e+008,-4.91671448e+001
,,,1.68000000e+008,-5.11020737e+001
,,,1.68400000e+008,-5.00350037e+001
,,,1.68800000e+008,-5.18149033e+001
,,,1.69200000e+008,-5.02901344e+001
,,,1.69600000e+008,-4.98932037e+001
,,,1.70000000e+008,-5.26616020e+001
,,,1.70400000e+008,-5.35472488e+001
,,,1.70800000e+008,-5.44937630e+001
,,,1.71200000e+008,-5.29257736e+001
,,,1.71600000e+008,-5.59150925e+001
,,,1.72000000e+008,-5.63135109e+001
,,,1.72400000e+008,-5.75822830e+001
,,,1.72800000e+008,-6.53705978e+001
,,,1.73200000e+008,-5.51353836e+001
,,,1.73600000e+008,-5.33423729e+001
,,,1.74000000e+008,-5.49426880e+001
,,,1.74400000e+008,-5.65210648e+001
,,,1.74800000e+008,-5.93165321e+001
,,,1.75200000e+008,-6.02383881e+001
,,,1.75600000e+008,-6.10447083e+001
,,,1.76000000e+008,-5.39918175e+001
,,,1.76400000e+008,-5.53488388e+001
,,,1.76800000e+008,-5.19776764e+001
,,,1.77200000e+008,-4.64727478e+001
,,,1.77600000e+008,-5.13327675e+001
,,,1.78000000e+008,-4.87737885e+001
,,,1.78400000e+008,-4.50307541e+001
,,,1.78800000e+008,-4.53848724e+001
,,,1.79200000e+008,-4.71020508e+001
,,,1.79600000e+008,-4.79985046e+001
,,,1.80000000e+008,-4.67941437e+001
,,,1.80400000e+008,-4.70363045e+001
,,,1.80800000e+008,-4.65539360e+001
,,,1.81200000e+008,-4.47397614e+001
,,,1.81600000e+008,-4.45890427e+001
,,,1.82000000e+008,-4.21385078e+001
,,,1.82400000e+008,-4.11292419e+001
,,,1.82800000e+008,-4.04733887e+001
,,,1.83200000e+008,-3.96032295e+001
,,,1.83600000e+008,-3.93239365e+001
,,,1.84000000e+008,-3.89508934e+001
,,,1.84400000e+008,-3.93722572e+001
,,,1.84800000e+008,-3.90893288e+001
,,,1.85200000e+008,-3.97127495e+001
,,,1.85600000e+008,-3.98589630e+001
,,,1.86000000e+008,-4.06687431e+001
,,,1.86400000e+008,-4.15373840e+001
,,,1.86800000e+008,-4.08637772e+001
,,,1.87200000e+008,-4.19870567e+001
,,,1.87600000e+008,-4.20588875e+001
,,,1.88000000e+008,-4.32312241e+001
,,,1.88400000e+008,-4.48785515e+001
,,,1.88800000e+008,-4.34177704e+001
,,,1.89200000e+008,-4.40503235e+001
,,,1.89600000e+008,-4.46502800e+001
,,,1.90000000e+008,-4.46998749e+001
,,,1.90400000e+008,-4.51765976e+001
,,,1.90800000e+008,-4.54043350e+001
,,,1.91200000e+008,-4.58112411e+001
,,,1.91600000e+008,-4.41219559e+001
,,,1.92000000e+008,-4.34374847e+001
,,,1.92400000e+008,-4.37246857e+001
,,,1.92800000e+008,-4.33401642e+001
,,,1.93200000e+008,-4.38113098e+001
,,,1.93600000e+008,-4.69504433e+001
,,,1.94000000e+008,-4.83917999e+001
,,,1.94400000e+008,-4.83727417e+001
,,,1.94800000e+008,-4.80935020e+001
,,,1.95200000e+008,-4.60904121e+001
,,,1.95600000e+008,-4.39464417e+001
,,,1.96000000e+008,-4.32084465e+001
,,,1.96400000e+008,-4.19082451e+001
,,,1.96800000e+008,-4.25142365e+001
,,,1.97200000e+008,-4.28304443e+001
,,,1.97600000e+008,-4.34606743e+001
,,,1.98000000e+008,-4.40479126e+001
,,,1.98400000e+008,-4.51865959e+001
,,,1.98800000e+008,-5.20779915e+001
,,,1.99200000e+008,-4.96520119e+001
,,,1.99600000e+008,-4.65362091e+001
,,,2.00000000e+008,-4.42186203e+001
,,,2.00400000e+008,-4.14445724e+001
,,,2.00800000e+008,-4.13013420e+001
,,,2.01200000e+008,-4.10501518e+001
,,,2.01600000e+008,-4.12183113e+001
,,,2.02000000e+008,-4.18051987e+001
,,,2.02400000e+008,-4.15563698e+001
,,,2.02800000e+008,-4.32172928e+001
,,,2.03200000e+008,-4.35322762e+001
,,,2.03600000e+008,-4.35059547e+001
,,,2.04000000e+008,-4.44969940e+001
,,,2.04400000e+008,-4.44696350e+001
,,,2.04800000e+008,-4.49380188e+001
,,,2.05200000e+008,-4.87203903e+001
,,,2.05600000e+008,-5.08242798e+001
,,,2.06000000e+008,-4.53472061e+001
,,,2.06400000e+008,-4.27713585e+001
,,,2.06800000e+008,-4.42642097e+001
,,,2.07200000e+008,-4.55007477e+001
,,,2.07600000e+008,-4.58225822e+001
,,,2.08000000e+008,-4.49891014e+001
,,,2.08400000e+008,-4.41797218e+001
,,,2.08800000e+008,-4.25380974e+001
,,,2.09200000e+008,-4.08913422e+001
,,,2.09600000e+008,-4.15278778e+001
,,,2.10000000e+008,-4.14612885e+001
,,,2.10400000e+008,-4.12642250e+001
,,,2.10800000e+008,-4.08822556e+001
,,,2.11200000e+008,-4.05768852e+001
,,,2.11600000e+008,-4.10663490e+001
,,,2.12000000e+008,-3.99472923e+001
,,,2.12400000e+008,-3.81798058e+001
,,,2.12800000e+008,-3.68640633e+001
,,,2.13200000e+008,-3.58404007e+001
,,,2.13600000e+008,-3.56701050e+001
,,,2.14000000e+008,-3.62713165e+001
,,,2.14400000e+008,-3.72587395e+001
,,,2.14800000e+008,-3.78123169e+001
,,,2.15200000e+008,-3.88196373e+001
,,,2.15600000e+008,-3.90091133e+001
,,,2.16000000e+008,-4.00795784e+001
,,,2.16400000e+008,-4.17117043e+001
,,,2.16800000e+008,-4.15666122e+001
,,,2.17200000e+008,-4.19865456e+001
,,,2.17600000e+008,-4.11833687e+001
,,,2.18000000e+008,-4.01983337e+001
,,,2.18400000e+008,-4.00885391e+001
,,,2.18800000e+008,-4.00968971e+001
,,,2.19200000e+008,-4.10835648e+001
,,,2.19600000e+008,-4.03451500e+001
,,,2.20000000e+008,-3.95275269e+001
