Data/20220822/UCLA_to_T1A_HPOL_NEG40_001_Math1.csv

"Record Length",6250,"Points",0.00000000e+000,-1.39174328e+001
"Sample Interval",4.00000000e+005,Hz,4.00000000e+005,-2.04915714e+001
"Trigger Point",0,"Samples",8.00000000e+005,-2.23866138e+001
"Trigger Time",0.00000000e+000,Hz,1.20000000e+006,-2.58981380e+001
"",,,1.60000000e+006,-3.25288811e+001
"Horizontal Offset",0.00000000e+000,Hz,2.00000000e+006,-6.89591293e+001
,,,2.40000000e+006,-3.57874222e+001
,,,2.80000000e+006,-3.33850250e+001
,,,3.20000000e+006,-3.43788986e+001
,,,3.60000000e+006,-3.98421173e+001
,,,4.00000000e+006,-7.68334351e+001
,,,4.40000000e+006,-4.14483757e+001
,,,4.80000000e+006,-3.80244102e+001
,,,5.20000000e+006,-3.84883499e+001
,,,5.60000000e+006,-4.36732635e+001
,,,6.00000000e+006,-6.62710114e+001
,,,6.40000000e+006,-4.45802345e+001
,,,6.80000000e+006,-4.09487267e+001
,,,7.20000000e+006,-4.13718376e+001
,,,7.60000000e+006,-4.62500229e+001
,,,8.00000000e+006,-6.55486450e+001
,,,8.40000000e+006,-4.70414734e+001
,,,8.80000000e+006,-4.28020782e+001
,,,9.20000000e+006,-4.38546257e+001
,,,9.60000000e+006,-4.79074097e+001
,,,1.00000000e+007,-6.82003021e+001
,,,1.04000000e+007,-4.83613319e+001
,,,1.08000000e+007,-4.47703362e+001
,,,1.12000000e+007,-4.60969238e+001
,,,1.16000000e+007,-4.84583893e+001
,,,1.20000000e+007,-6.47719574e+001
,,,1.24000000e+007,-5.10235329e+001
,,,1.28000000e+007,-4.67185326e+001
,,,1.32000000e+007,-4.70183105e+001
,,,1.36000000e+007,-5.07818375e+001
,,,1.40000000e+007,-7.77652283e+001
,,,1.44000000e+007,-5.16078987e+001
,,,1.48000000e+007,-4.85085945e+001
,,,1.52000000e+007,-4.76469727e+001
,,,1.56000000e+007,-5.06812973e+001
,,,1.60000000e+007,-8.13159332e+001
,,,1.64000000e+007,-5.10102234e+001
,,,1.68000000e+007,-4.94972076e+001
,,,1.72000000e+007,-4.91989212e+001
,,,1.76000000e+007,-5.23757629e+001
,,,1.80000000e+007,-8.27065125e+001
,,,1.84000000e+007,-5.39122276e+001
,,,1.88000000e+007,-4.89232521e+001
,,,1.92000000e+007,-5.06061554e+001
,,,1.96000000e+007,-5.41865311e+001
,,,2.00000000e+007,-7.01374664e+001
,,,2.04000000e+007,-5.50931892e+001
,,,2.08000000e+007,-4.95786476e+001
,,,2.12000000e+007,-5.07217102e+001
,,,2.16000000e+007,-5.77739410e+001
,,,2.20000000e+007,-7.47512589e+001
,,,2.24000000e+007,-5.69235001e+001
,,,2.28000000e+007,-5.02945862e+001
,,,2.32000000e+007,-5.23072701e+001
,,,2.36000000e+007,-5.65405922e+001
,,,2.40000000e+007,-7.55560379e+001
,,,2.44000000e+007,-5.54081039e+001
,,,2.48000000e+007,-5.29372025e+001
,,,2.52000000e+007,-5.22872887e+001
,,,2.56000000e+007,-5.81961250e+001
,,,2.60000000e+007,-6.47593994e+001
,,,2.64000000e+007,-5.89938583e+001
,,,2.68000000e+007,-5.25694656e+001
,,,2.72000000e+007,-5.25253716e+001
,,,2.76000000e+007,-5.60812721e+001
,,,2.80000000e+007,-7.03008728e+001
,,,2.84000000e+007,-6.12090874e+001
,,,2.88000000e+007,-5.14061203e+001
,,,2.92000000e+007,-5.45316544e+001
,,,2.96000000e+007,-5.77270851e+001
,,,3.00000000e+007,-6.40629120e+001
,,,3.04000000e+007,-5.66417313e+001
,,,3.08000000e+007,-5.65912476e+001
,,,3.12000000e+007,-5.40667610e+001
,,,3.16000000e+007,-5.60097847e+001
,,,3.20000000e+007,-8.68032608e+001
,,,3.24000000e+007,-5.64389763e+001
,,,3.28000000e+007,-5.56906433e+001
,,,3.32000000e+007,-5.37180710e+001
,,,3.36000000e+007,-5.81402664e+001
,,,3.40000000e+007,-6.58306808e+001
,,,3.44000000e+007,-5.86448174e+001
,,,3.48000000e+007,-5.79663391e+001
,,,3.52000000e+007,-5.39241333e+001
,,,3.56000000e+007,-6.44486542e+001
,,,3.60000000e+007,-6.57314529e+001
,,,3.64000000e+007,-6.19848175e+001
,,,3.68000000e+007,-5.61590385e+001
,,,3.72000000e+007,-5.45337944e+001
,,,3.76000000e+007,-5.91259575e+001
,,,3.80000000e+007,-7.98667908e+001
,,,3.84000000e+007,-6.09097290e+001
,,,3.88000000e+007,-5.39434471e+001
,,,3.92000000e+007,-5.78549614e+001
,,,3.96000000e+007,-6.23866577e+001
,,,4.00000000e+007,-7.68902588e+001
,,,4.04000000e+007,-6.07231827e+001
,,,4.08000000e+007,-5.67750130e+001
,,,4.12000000e+007,-5.90043182e+001
,,,4.16000000e+007,-5.87219429e+001
,,,4.20000000e+007,-7.07199478e+001
,,,4.24000000e+007,-6.12802582e+001
,,,4.28000000e+007,-5.94307938e+001
,,,4.32000000e+007,-5.68772011e+001
,,,4.36000000e+007,-5.98074684e+001
,,,4.40000000e+007,-6.70355835e+001
,,,4.44000000e+007,-6.24716873e+001
,,,4.48000000e+007,-5.57248268e+001
,,,4.52000000e+007,-6.13249817e+001
,,,4.56000000e+007,-5.61431694e+001
,,,4.60000000e+007,-7.19229431e+001
,,,4.64000000e+007,-5.85376015e+001
,,,4.68000000e+007,-5.74791946e+001
,,,4.72000000e+007,-5.55401077e+001
,,,4.76000000e+007,-7.01527100e+001
,,,4.80000000e+007,-7.23608246e+001
,,,4.84000000e+007,-6.15394821e+001
,,,4.88000000e+007,-5.78204041e+001
,,,4.92000000e+007,-5.92818489e+001
,,,4.96000000e+007,-6.01622429e+001
,,,5.00000000e+007,-6.85390549e+001
,,,5.04000000e+007,-6.22019043e+001
,,,5.08000000e+007,-5.85306664e+001
,,,5.12000000e+007,-6.28609695e+001
,,,5.16000000e+007,-5.93955536e+001
,,,5.20000000e+007,-6.96571655e+001
,,,5.24000000e+007,-6.16337357e+001
,,,5.28000000e+007,-5.68851357e+001
,,,5.32000000e+007,-5.96399803e+001
,,,5.36000000e+007,-6.56222382e+001
,,,5.40000000e+007,-7.28041229e+001
,,,5.44000000e+007,-6.74426422e+001
,,,5.48000000e+007,-5.51740379e+001
,,,5.52000000e+007,-6.12633934e+001
,,,5.56000000e+007,-6.17015915e+001
,,,5.60000000e+007,-6.54635696e+001
,,,5.64000000e+007,-7.06212234e+001
,,,5.68000000e+007,-5.89539185e+001
,,,5.72000000e+007,-6.32110558e+001
,,,5.76000000e+007,-6.20901833e+001
,,,5.80000000e+007,-7.37796783e+001
,,,5.84000000e+007,-6.87657242e+001
,,,5.88000000e+007,-6.19139442e+001
,,,5.92000000e+007,-5.93438759e+001
,,,5.96000000e+007,-5.95372200e+001
,,,6.00000000e+007,-6.34240646e+001
,,,6.04000000e+007,-6.63574142e+001
,,,6.08000000e+007,-6.02808342e+001
,,,6.12000000e+007,-6.01389923e+001
,,,6.16000000e+007,-5.94132881e+001
,,,6.20000000e+007,-7.22034073e+001
,,,6.24000000e+007,-6.29836617e+001
,,,6.28000000e+007,-6.14992447e+001
,,,6.32000000e+007,-5.50238647e+001
,,,6.36000000e+007,-6.55932922e+001
,,,6.40000000e+007,-7.08875656e+001
,,,6.44000000e+007,-6.13321152e+001
,,,6.48000000e+007,-6.13656616e+001
,,,6.52000000e+007,-5.85932541e+001
,,,6.56000000e+007,-6.82673798e+001
,,,6.60000000e+007,-7.09322662e+001
,,,6.64000000e+007,-6.42328491e+001
,,,6.68000000e+007,-5.86337852e+001
,,,6.72000000e+007,-5.98227959e+001
,,,6.76000000e+007,-7.17280731e+001
,,,6.80000000e+007,-6.82069321e+001
,,,6.84000000e+007,-7.19334564e+001
,,,6.88000000e+007,-6.22551994e+001
,,,6.92000000e+007,-5.80241356e+001
,,,6.96000000e+007,-6.58848953e+001
,,,7.00000000e+007,-7.22605896e+001
,,,7.04000000e+007,-6.56683350e+001
,,,7.08000000e+007,-5.95777512e+001
,,,7.12000000e+007,-6.09581833e+001
,,,7.16000000e+007,-7.41608963e+001
,,,7.20000000e+007,-6.16278305e+001
,,,7.24000000e+007,-7.27236328e+001
,,,7.28000000e+007,-6.16126060e+001
,,,7.32000000e+007,-5.64932556e+001
,,,7.36000000e+007,-7.01611099e+001
,,,7.40000000e+007,-7.41794510e+001
,,,7.44000000e+007,-6.45836716e+001
,,,7.48000000e+007,-6.81093903e+001
,,,7.52000000e+007,-5.94152565e+001
,,,7.56000000e+007,-6.21919975e+001
,,,7.60000000e+007,-7.82423172e+001
,,,7.64000000e+007,-6.67560120e+001
,,,7.68000000e+007,-6.56870728e+001
,,,7.72000000e+007,-6.05028801e+001
,,,7.76000000e+007,-6.24506721e+001
,,,7.80000000e+007,-7.37012558e+001
,,,7.84000000e+007,-7.24012222e+001
,,,7.88000000e+007,-5.80175323e+001
,,,7.92000000e+007,-6.77243805e+001
,,,7.96000000e+007,-6.14098434e+001
,,,8.00000000e+007,-6.96526260e+001
,,,8.04000000e+007,-6.82336349e+001
,,,8.08000000e+007,-6.13301468e+001
,,,8.12000000e+007,-5.77506218e+001
,,,8.16000000e+007,-6.55930328e+001
,,,8.20000000e+007,-7.61291428e+001
,,,8.24000000e+007,-7.46778564e+001
,,,8.28000000e+007,-5.70562210e+001
,,,8.32000000e+007,-6.68905792e+001
,,,8.36000000e+007,-6.41208267e+001
,,,8.40000000e+007,-6.92085419e+001
,,,8.44000000e+007,-6.42412109e+001
,,,8.48000000e+007,-6.00087357e+001
,,,8.52000000e+007,-6.51907654e+001
,,,8.56000000e+007,-6.11493187e+001
,,,8.60000000e+007,-7.45927658e+001
,,,8.64000000e+007,-6.80174561e+001
,,,8.68000000e+007,-6.02040176e+001
,,,8.72000000e+007,-6.32243080e+001
,,,8.76000000e+007,-6.03234787e+001
,,,8.80000000e+007,-6.55558701e+001
,,,8.84000000e+007,-6.19753685e+001
,,,8.88000000e+007,-5.89824982e+001
,,,8.92000000e+007,-6.54474030e+001
,,,8.96000000e+007,-6.27533760e+001
,,,9.00000000e+007,-5.80448952e+001
,,,9.04000000e+007,-7.67779312e+001
,,,9.08000000e+007,-6.54255371e+001
,,,9.12000000e+007,-5.95440178e+001
,,,9.16000000e+007,-6.29534760e+001
,,,9.20000000e+007,-7.22869720e+001
,,,9.24000000e+007,-6.15032463e+001
,,,9.28000000e+007,-5.46925812e+001
,,,9.32000000e+007,-5.70514145e+001
,,,9.36000000e+007,-6.89570923e+001
,,,9.40000000e+007,-7.78585968e+001
,,,9.44000000e+007,-6.56050415e+001
,,,9.48000000e+007,-5.92512970e+001
,,,9.52000000e+007,-7.72686539e+001
,,,9.56000000e+007,-5.36983643e+001
,,,9.60000000e+007,-6.00524368e+001
,,,9.64000000e+007,-5.20573578e+001
,,,9.68000000e+007,-7.49838638e+001
,,,9.72000000e+007,-6.20631714e+001
,,,9.76000000e+007,-5.49380951e+001
,,,9.80000000e+007,-4.86219330e+001
,,,9.84000000e+007,-6.72625732e+001
,,,9.88000000e+007,-5.70845490e+001
,,,9.92000000e+007,-5.76960030e+001
,,,9.96000000e+007,-5.68592758e+001
,,,1.00000000e+008,-6.75630951e+001
,,,1.00400000e+008,-7.22385406e+001
,,,1.00800000e+008,-5.10596046e+001
,,,1.01200000e+008,-4.87830696e+001
,,,1.01600000e+008,-6.42923584e+001
,,,1.02000000e+008,-5.79590874e+001
,,,1.02400000e+008,-6.13499298e+001
,,,1.02800000e+008,-5.74414482e+001
,,,1.03200000e+008,-5.60712852e+001
,,,1.03600000e+008,-5.33553429e+001
,,,1.04000000e+008,-6.06331940e+001
,,,1.04400000e+008,-6.60402527e+001
,,,1.04800000e+008,-6.13912277e+001
,,,1.05200000e+008,-5.88365631e+001
,,,1.05600000e+008,-5.83162193e+001
,,,1.06000000e+008,-5.72846718e+001
,,,1.06400000e+008,-6.22303848e+001
,,,1.06800000e+008,-6.47079773e+001
,,,1.07200000e+008,-5.29048462e+001
,,,1.07600000e+008,-5.37857208e+001
,,,1.08000000e+008,-7.72461395e+001
,,,1.08400000e+008,-7.17666702e+001
,,,1.08800000e+008,-6.49134064e+001
,,,1.09200000e+008,-5.86531525e+001
,,,1.09600000e+008,-6.46698837e+001
,,,1.10000000e+008,-6.47721024e+001
,,,1.10400000e+008,-6.13978310e+001
,,,1.10800000e+008,-6.86436539e+001
,,,1.11200000e+008,-6.05917473e+001
,,,1.11600000e+008,-5.84821854e+001
,,,1.12000000e+008,-5.81836815e+001
,,,1.12400000e+008,-5.70511131e+001
,,,1.12800000e+008,-5.71524239e+001
,,,1.13200000e+008,-6.41031647e+001
,,,1.13600000e+008,-6.72439346e+001
,,,1.14000000e+008,-6.76725235e+001
,,,1.14400000e+008,-6.29510651e+001
,,,1.14800000e+008,-5.85844879e+001
,,,1.15200000e+008,-6.99069290e+001
,,,1.15600000e+008,-6.55043106e+001
,,,1.16000000e+008,-6.26076393e+001
,,,1.16400000e+008,-6.31116409e+001
,,,1.16800000e+008,-6.38198318e+001
,,,1.17200000e+008,-6.81786804e+001
,,,1.17600000e+008,-6.16723595e+001
,,,1.18000000e+008,-6.26709175e+001
,,,1.18400000e+008,-8.42389374e+001
,,,1.18800000e+008,-6.19977150e+001
,,,1.19200000e+008,-6.67135010e+001
,,,1.19600000e+008,-6.35533447e+001
,,,1.20000000e+008,-6.36747437e+001
,,,1.20400000e+008,-6.68506699e+001
,,,1.20800000e+008,-6.74629974e+001
,,,1.21200000e+008,-6.56382599e+001
,,,1.21600000e+008,-6.34898605e+001
,,,1.22000000e+008,-7.57329636e+001
,,,1.22400000e+008,-6.97801056e+001
,,,1.22800000e+008,-5.92283745e+001
,,,1.23200000e+008,-6.58786850e+001
,,,1.23600000e+008,-5.81151276e+001
,,,1.24000000e+008,-6.06721268e+001
,,,1.24400000e+008,-6.19842300e+001
,,,1.24800000e+008,-5.76385307e+001
,,,1.25200000e+008,-7.73627548e+001
,,,1.25600000e+008,-6.25261459e+001
,,,1.26000000e+008,-6.78508148e+001
,,,1.26400000e+008,-6.38884430e+001
,,,1.26800000e+008,-6.15384712e+001
,,,1.27200000e+008,-7.19306107e+001
,,,1.27600000e+008,-5.90950012e+001
,,,1.28000000e+008,-6.26776543e+001
,,,1.28400000e+008,-5.81818199e+001
,,,1.28800000e+008,-5.51026306e+001
,,,1.29200000e+008,-6.15303154e+001
,,,1.29600000e+008,-5.45935860e+001
,,,1.30000000e+008,-5.40290871e+001
,,,1.30400000e+008,-5.45906029e+001
,,,1.30800000e+008,-4.87558136e+001
,,,1.31200000e+008,-4.79248543e+001
,,,1.31600000e+008,-4.86058617e+001
,,,1.32000000e+008,-4.92441597e+001
,,,1.32400000e+008,-4.87438622e+001
,,,1.32800000e+008,-5.12608414e+001
,,,1.33200000e+008,-5.18023605e+001
,,,1.33600000e+008,-5.65506477e+001
,,,1.34000000e+008,-5.49144859e+001
,,,1.34400000e+008,-5.39525986e+001
,,,1.34800000e+008,-6.04733353e+001
,,,1.35200000e+008,-5.53097458e+001
,,,1.35600000e+008,-5.50605850e+001
,,,1.36000000e+008,-5.26563225e+001
,,,1.36400000e+008,-5.23031235e+001
,,,1.36800000e+008,-5.54647141e+001
,,,1.37200000e+008,-5.27997665e+001
,,,1.37600000e+008,-5.54906158e+001
,,,1.38000000e+008,-5.48346481e+001
,,,1.38400000e+008,-5.31313438e+001
,,,1.38800000e+008,-5.71093941e+001
,,,1.39200000e+008,-5.52141304e+001
,,,1.39600000e+008,-5.79595070e+001
,,,1.40000000e+008,-5.42895927e+001
,,,1.40400000e+008,-5.49341888e+001
,,,1.40800000e+008,-6.07929955e+001
,,,1.41200000e+008,-5.35642014e+001
,,,1.41600000e+008,-5.67824097e+001
,,,1.42000000e+008,-5.54107780e+001
,,,1.42400000e+008,-5.43651276e+001
,,,1.42800000e+008,-5.91610336e+001
,,,1.43200000e+008,-5.45932312e+001
,,,1.43600000e+008,-6.04220276e+001
,,,1.44000000e+008,-6.04724350e+001
,,,1.44400000e+008,-5.29791756e+001
,,,1.44800000e+008,-5.27868576e+001
,,,1.45200000e+008,-5.13565407e+001
,,,1.45600000e+008,-5.41478271e+001
,,,1.46000000e+008,-5.21782990e+001
,,,1.46400000e+008,-4.90723495e+001
,,,1.46800000e+008,-4.91939812e+001
,,,1.47200000e+008,-4.72935410e+001
,,,1.47600000e+008,-4.64508743e+001
,,,1.48000000e+008,-4.45199509e+001
,,,1.48400000e+008,-4.19690170e+001
,,,1.48800000e+008,-4.02022896e+001
,,,1.49200000e+008,-3.89364243e+001
,,,1.49600000e+008,-3.85327187e+001
,,,1.50000000e+008,-3.93824081e+001
,,,1.50400000e+008,-4.00314674e+001
,,,1.50800000e+008,-4.07972374e+001
,,,1.51200000e+008,-4.19382362e+001
,,,1.51600000e+008,-4.21721764e+001
,,,1.52000000e+008,-4.48105698e+001
,,,1.52400000e+008,-4.65470734e+001
,,,1.52800000e+008,-4.79022522e+001
,,,1.53200000e+008,-5.04857674e+001
,,,1.53600000e+008,-4.83190651e+001
,,,1.54000000e+008,-5.12468414e+001
,,,1.54400000e+008,-5.22980347e+001
,,,1.54800000e+008,-5.11007080e+001
,,,1.55200000e+008,-5.35055771e+001
,,,1.55600000e+008,-4.93738632e+001
,,,1.56000000e+008,-4.94628448e+001
,,,1.56400000e+008,-4.98139343e+001
,,,1.56800000e+008,-4.93467293e+001
,,,1.57200000e+008,-4.91090889e+001
,,,1.57600000e+008,-4.67980957e+001
,,,1.58000000e+008,-4.86415253e+001
,,,1.58400000e+008,-4.87994995e+001
,,,1.58800000e+008,-4.65633087e+001
,,,1.59200000e+008,-4.78542252e+001
,,,1.59600000e+008,-4.58611221e+001
,,,1.60000000e+008,-4.57042999e+001
,,,1.60400000e+008,-4.54098206e+001
,,,1.60800000e+008,-4.48577194e+001
,,,1.61200000e+008,-4.56389656e+001
,,,1.61600000e+008,-4.47019463e+001
,,,1.62000000e+008,-4.53874092e+001
,,,1.62400000e+008,-4.54535255e+001
,,,1.62800000e+008,-4.43694496e+001
,,,1.63200000e+008,-4.47047691e+001
,,,1.63600000e+008,-4.17169533e+001
,,,1.64000000e+008,-4.02543030e+001
,,,1.64400000e+008,-3.95926018e+001
,,,1.64800000e+008,-3.81637459e+001
,,,1.65200000e+008,-3.76935234e+001
,,,1.65600000e+008,-3.73050003e+001
,,,1.66000000e+008,-3.54422455e+001
,,,1.66400000e+008,-3.31030731e+001
,,,1.66800000e+008,-3.14457188e+001
,,,1.67200000e+008,-3.07302341e+001
,,,1.67600000e+008,-3.15578461e+001
,,,1.68000000e+008,-3.26252975e+001
,,,1.68400000e+008,-3.32644310e+001
,,,1.68800000e+008,-3.44514084e+001
,,,1.69200000e+008,-3.53368835e+001
,,,1.69600000e+008,-3.64588661e+001
,,,1.70000000e+008,-3.74925461e+001
,,,1.70400000e+008,-3.81097488e+001
,,,1.70800000e+008,-3.87264099e+001
,,,1.71200000e+008,-3.89751167e+001
,,,1.71600000e+008,-4.04548454e+001
,,,1.72000000e+008,-4.33291359e+001
,,,1.72400000e+008,-4.33360252e+001
,,,1.72800000e+008,-4.30136642e+001
,,,1.73200000e+008,-4.33766594e+001
,,,1.73600000e+008,-4.43165703e+001
,,,1.74000000e+008,-4.55784187e+001
,,,1.74400000e+008,-4.47127037e+001
,,,1.74800000e+008,-4.43438339e+001
,,,1.75200000e+008,-4.31723442e+001
,,,1.75600000e+008,-4.24585419e+001
,,,1.76000000e+008,-4.25299606e+001
,,,1.76400000e+008,-4.07438583e+001
,,,1.76800000e+008,-4.05158234e+001
,,,1.77200000e+008,-4.11305733e+001
,,,1.77600000e+008,-3.90253677e+001
,,,1.78000000e+008,-3.93068199e+001
,,,1.78400000e+008,-4.03478966e+001
,,,1.78800000e+008,-3.96985016e+001
,,,1.79200000e+008,-3.92303886e+001
,,,1.79600000e+008,-3.81217003e+001
,,,1.80000000e+008,-3.86363564e+001
,,,1.80400000e+008,-3.84759903e+001
,,,1.80800000e+008,-3.73727989e+001
,,,1.81200000e+008,-3.81033859e+001
,,,1.81600000e+008,-3.80353203e+001
,,,1.82000000e+008,-3.80102386e+001
,,,1.82400000e+008,-3.72447357e+001
,,,1.82800000e+008,-3.62133064e+001
,,,1.83200000e+008,-3.63575172e+001
,,,1.83600000e+008,-3.61459427e+001
,,,1.84000000e+008,-3.70894775e+001
,,,1.84400000e+008,-3.86875610e+001
,,,1.84800000e+008,-4.16614113e+001
,,,1.85200000e+008,-4.33501320e+001
,,,1.85600000e+008,-4.21142769e+001
,,,1.86000000e+008,-4.23788872e+001
,,,1.86400000e+008,-4.17023125e+001
,,,1.86800000e+008,-4.08810349e+001
,,,1.87200000e+008,-4.20190277e+001
,,,1.87600000e+008,-4.36298523e+001
,,,1.88000000e+008,-4.51273651e+001
,,,1.88400000e+008,-4.50023994e+001
,,,1.88800000e+008,-4.39435806e+001
,,,1.89200000e+008,-4.34244385e+001
,,,1.89600000e+008,-4.26408997e+001
,,,1.90000000e+008,-4.29555969e+001
,,,1.90400000e+008,-4.28121567e+001
,,,1.90800000e+008,-4.29207573e+001
,,,1.91200000e+008,-4.25340538e+001
,,,1.91600000e+008,-4.19401016e+001
,,,1.92000000e+008,-4.28051987e+001
,,,1.92400000e+008,-4.33512611e+001
,,,1.92800000e+008,-4.44836388e+001
,,,1.93200000e+008,-4.46293221e+001
,,,1.93600000e+008,-4.36369019e+001
,,,1.94000000e+008,-4.29742432e+001
,,,1.94400000e+008,-4.15015945e+001
,,,1.94800000e+008,-4.03674049e+001
,,,1.95200000e+008,-3.95031090e+001
,,,1.95600000e+008,-3.81495705e+001
,,,1.96000000e+008,-3.72529678e+001
,,,1.96400000e+008,-3.63183861e+001
,,,1.96800000e+008,-3.53441734e+001
,,,1.97200000e+008,-3.46113739e+001
,,,1.97600000e+008,-3.40713196e+001
,,,1.98000000e+008,-3.32869186e+001
,,,1.98400000e+008,-3.29060898e+001
,,,1.98800000e+008,-3.24917755e+001
,,,1.99200000e+008,-3.16453705e+001
,,,1.99600000e+008,-3.20864525e+001
,,,2.00000000e+008,-3.25031013e+001
,,,2.00400000e+008,-3.26475754e+001
,,,2.00800000e+008,-3.23981857e+001
,,,2.01200000e+008,-3.15053539e+001
,,,2.01600000e+008,-3.13926525e+001
,,,2.02000000e+008,-3.09850693e+001
,,,2.02400000e+008,-3.13565655e+001
,,,2.02800000e+008,-3.25225334e+001
,,,2.03200000e+008,-3.28616066e+001
,,,2.03600000e+008,-3.36259384e+001
,,,2.04000000e+008,-3.36763725e+001
,,,2.04400000e+008,-3.32363968e+001
,,,2.04800000e+008,-3.40900764e+001
,,,2.05200000e+008,-3.45855217e+001
,,,2.05600000e+008,-3.44354019e+001
,,,2.06000000e+008,-3.48929100e+001
,,,2.06400000e+008,-3.51491699e+001
,,,2.06800000e+008,-3.51879272e+001
,,,2.07200000e+008,-3.42672501e+001
,,,2.07600000e+008,-3.36947746e+001
,,,2.08000000e+008,-3.42149277e+001
,,,2.08400000e+008,-3.66363983e+001
,,,2.08800000e+008,-3.54590302e+001
,,,2.09200000e+008,-3.39255905e+001
,,,2.09600000e+008,-3.40221481e+001
,,,2.10000000e+008,-3.37984047e+001
,,,2.10400000e+008,-3.29406776e+001
,,,2.10800000e+008,-3.19130249e+001
,,,2.11200000e+008,-3.14338989e+001
,,,2.11600000e+008,-3.13264732e+001
,,,2.12000000e+008,-3.10976124e+001
,,,2.12400000e+008,-3.12181187e+001
,,,2.12800000e+008,-3.16258602e+001
,,,2.13200000e+008,-3.20237694e+001
,,,2.13600000e+008,-3.20489044e+001
,,,2.14000000e+008,-3.18943958e+001
,,,2.14400000e+008,-3.17554436e+001
,,,2.14800000e+008,-3.19167633e+001
,,,2.15200000e+008,-3.22574234e+001
,,,2.15600000e+008,-3.23379364e+001
,,,2.16000000e+008,-3.29311485e+001
,,,2.16400000e+008,-3.34059715e+001
,,,2.16800000e+008,-3.32266235e+001
,,,2.17200000e+008,-3.31677971e+001
,,,2.17600000e+008,-3.26393623e+001
,,,2.18000000e+008,-3.17725716e+001
,,,2.18400000e+008,-3.09172173e+001
,,,2.18800000e+008,-3.04697876e+001
,,,2.19200000e+008,-3.03960800e+001
,,,2.19600000e+008,-3.03909760e+001
,,,2.20000000e+008,-3.05810375e+001
