Data/20220822/UCLA_to_T1B_VPOL_60_001_Ch2.csv

"Record Length",10000,"Points",-5.00800000e-007,1.05703035e-003
"Sample Interval",2.00000000e-010,s,-5.00600000e-007,1.09140535e-003
"Trigger Point",2504,"Samples",-5.00400000e-007,1.00546784e-003
"Trigger Time",0.00000000e+000,s,-5.00200000e-007,9.44530339e-004
"",,,-5.00000000e-007,9.57811590e-004
"Horizontal Offset",-5.00800000e-007,s,-4.99800000e-007,8.75780334e-004
,,,-4.99600000e-007,8.51561582e-004
,,,-4.99400000e-007,8.45311582e-004
,,,-4.99200000e-007,8.32030331e-004
,,,-4.99000000e-007,9.43749089e-004
,,,-4.98800000e-007,9.58592840e-004
,,,-4.98600000e-007,9.82030342e-004
,,,-4.98400000e-007,1.01718659e-003
,,,-4.98200000e-007,9.32811588e-004
,,,-4.98000000e-007,9.39842839e-004
,,,-4.97800000e-007,8.46874082e-004
,,,-4.97600000e-007,7.87499078e-004
,,,-4.97400000e-007,8.48436582e-004
,,,-4.97200000e-007,8.17186580e-004
,,,-4.97000000e-007,8.96092836e-004
,,,-4.96800000e-007,1.01562409e-003
,,,-4.96600000e-007,9.89842842e-004
,,,-4.96400000e-007,1.00312409e-003
,,,-4.96200000e-007,9.57030340e-004
,,,-4.96000000e-007,8.89842835e-004
,,,-4.95800000e-007,8.42186582e-004
,,,-4.95600000e-007,7.10936572e-004
,,,-4.95400000e-007,7.91405328e-004
,,,-4.95200000e-007,8.92967835e-004
,,,-4.95000000e-007,9.93749092e-004
,,,-4.94800000e-007,1.01874909e-003
,,,-4.94600000e-007,9.64061590e-004
,,,-4.94400000e-007,9.83592842e-004
,,,-4.94200000e-007,9.15624087e-004
,,,-4.94000000e-007,8.46874082e-004
,,,-4.93800000e-007,8.34374081e-004
,,,-4.93600000e-007,8.20311580e-004
,,,-4.93400000e-007,9.42186589e-004
,,,-4.93200000e-007,1.04453035e-003
,,,-4.93000000e-007,9.94530343e-004
,,,-4.92800000e-007,9.49217839e-004
,,,-4.92600000e-007,9.14061587e-004
,,,-4.92400000e-007,8.65624083e-004
,,,-4.92200000e-007,8.84374085e-004
,,,-4.92000000e-007,8.31249081e-004
,,,-4.91800000e-007,9.78124091e-004
,,,-4.91600000e-007,9.96874093e-004
,,,-4.91400000e-007,1.01953034e-003
,,,-4.91200000e-007,9.99217843e-004
,,,-4.91000000e-007,8.83592835e-004
,,,-4.90800000e-007,8.10155329e-004
,,,-4.90600000e-007,8.96092836e-004
,,,-4.90400000e-007,9.17186587e-004
,,,-4.90200000e-007,9.80467842e-004
,,,-4.90000000e-007,9.48436589e-004
,,,-4.89800000e-007,9.39842839e-004
,,,-4.89600000e-007,8.85155335e-004
,,,-4.89400000e-007,8.45311582e-004
,,,-4.89200000e-007,8.84374085e-004
,,,-4.89000000e-007,8.92186585e-004
,,,-4.88800000e-007,8.84374085e-004
,,,-4.88600000e-007,8.43749082e-004
,,,-4.88400000e-007,8.42967832e-004
,,,-4.88200000e-007,9.03905336e-004
,,,-4.88000000e-007,8.84374085e-004
,,,-4.87800000e-007,8.65624083e-004
,,,-4.87600000e-007,8.21092830e-004
,,,-4.87400000e-007,8.38280331e-004
,,,-4.87200000e-007,9.42186589e-004
,,,-4.87000000e-007,8.71092834e-004
,,,-4.86800000e-007,9.32030338e-004
,,,-4.86600000e-007,9.22655337e-004
,,,-4.86400000e-007,8.92186585e-004
,,,-4.86200000e-007,8.90624085e-004
,,,-4.86000000e-007,8.42186582e-004
,,,-4.85800000e-007,8.74999084e-004
,,,-4.85600000e-007,9.55467840e-004
,,,-4.85400000e-007,9.41405339e-004
,,,-4.85200000e-007,9.50780339e-004
,,,-4.85000000e-007,9.35936588e-004
,,,-4.84800000e-007,9.27342838e-004
,,,-4.84600000e-007,9.57811590e-004
,,,-4.84400000e-007,9.10155337e-004
,,,-4.84200000e-007,7.92186578e-004
,,,-4.84000000e-007,7.89061578e-004
,,,-4.83800000e-007,8.71092834e-004
,,,-4.83600000e-007,1.02734284e-003
,,,-4.83400000e-007,1.02265534e-003
,,,-4.83200000e-007,9.41405339e-004
,,,-4.83000000e-007,8.98436586e-004
,,,-4.82800000e-007,7.71874077e-004
,,,-4.82600000e-007,7.46092825e-004
,,,-4.82400000e-007,8.17186580e-004
,,,-4.82200000e-007,8.85936585e-004
,,,-4.82000000e-007,1.01562409e-003
,,,-4.81800000e-007,1.07656160e-003
,,,-4.81600000e-007,1.09999910e-003
,,,-4.81400000e-007,1.01015534e-003
,,,-4.81200000e-007,8.83592835e-004
,,,-4.81000000e-007,8.33592831e-004
,,,-4.80800000e-007,7.60936576e-004
,,,-4.80600000e-007,7.74217827e-004
,,,-4.80400000e-007,8.64842833e-004
,,,-4.80200000e-007,9.78124091e-004
,,,-4.80000000e-007,1.01484284e-003
,,,-4.79800000e-007,9.95311593e-004
,,,-4.79600000e-007,9.81249092e-004
,,,-4.79400000e-007,8.99217836e-004
,,,-4.79200000e-007,7.57030326e-004
,,,-4.79000000e-007,6.90624071e-004
,,,-4.78800000e-007,7.03124072e-004
,,,-4.78600000e-007,8.39061582e-004
,,,-4.78400000e-007,1.00937409e-003
,,,-4.78200000e-007,9.43749089e-004
,,,-4.78000000e-007,1.00859284e-003
,,,-4.77800000e-007,9.96092843e-004
,,,-4.77600000e-007,8.95311585e-004
,,,-4.77400000e-007,7.99999079e-004
,,,-4.77200000e-007,7.46874075e-004
,,,-4.77000000e-007,8.24217830e-004
,,,-4.76800000e-007,9.11717837e-004
,,,-4.76600000e-007,9.25780338e-004
,,,-4.76400000e-007,9.89061592e-004
,,,-4.76200000e-007,9.09374086e-004
,,,-4.76000000e-007,9.47655339e-004
,,,-4.75800000e-007,8.68749084e-004
,,,-4.75600000e-007,8.14842830e-004
,,,-4.75400000e-007,8.69530334e-004
,,,-4.75200000e-007,8.44530332e-004
,,,-4.75000000e-007,8.89061585e-004
,,,-4.74800000e-007,8.42186582e-004
,,,-4.74600000e-007,7.74217827e-004
,,,-4.74400000e-007,8.30467831e-004
,,,-4.74200000e-007,9.46874089e-004
,,,-4.74000000e-007,1.02343659e-003
,,,-4.73800000e-007,1.02109284e-003
,,,-4.73600000e-007,9.42967839e-004
,,,-4.73400000e-007,8.59374083e-004
,,,-4.73200000e-007,7.98436579e-004
,,,-4.73000000e-007,7.43749075e-004
,,,-4.72800000e-007,8.05467829e-004
,,,-4.72600000e-007,8.65624083e-004
,,,-4.72400000e-007,9.01561586e-004
,,,-4.72200000e-007,9.93749092e-004
,,,-4.72000000e-007,1.03124910e-003
,,,-4.71800000e-007,1.08593660e-003
,,,-4.71600000e-007,9.10155337e-004
,,,-4.71400000e-007,8.37499081e-004
,,,-4.71200000e-007,7.74217827e-004
,,,-4.71000000e-007,6.58592819e-004
,,,-4.70800000e-007,7.61717826e-004
,,,-4.70600000e-007,8.53905333e-004
,,,-4.70400000e-007,9.32811588e-004
,,,-4.70200000e-007,9.92967842e-004
,,,-4.70000000e-007,1.02343659e-003
,,,-4.69800000e-007,1.03515535e-003
,,,-4.69600000e-007,9.53124090e-004
,,,-4.69400000e-007,8.32030331e-004
,,,-4.69200000e-007,6.61717819e-004
,,,-4.69000000e-007,6.87499071e-004
,,,-4.68800000e-007,7.58592826e-004
,,,-4.68600000e-007,8.46092832e-004
,,,-4.68400000e-007,9.73436591e-004
,,,-4.68200000e-007,1.19296786e-003
,,,-4.68000000e-007,1.10312410e-003
,,,-4.67800000e-007,1.02421784e-003
,,,-4.67600000e-007,8.57811583e-004
,,,-4.67400000e-007,7.13280323e-004
,,,-4.67200000e-007,7.21092823e-004
,,,-4.67000000e-007,7.18749073e-004
,,,-4.66800000e-007,7.96874079e-004
,,,-4.66600000e-007,9.67967841e-004
,,,-4.66400000e-007,1.17265536e-003
,,,-4.66200000e-007,1.19609286e-003
,,,-4.66000000e-007,1.07031160e-003
,,,-4.65800000e-007,9.64842840e-004
,,,-4.65600000e-007,7.57030326e-004
,,,-4.65400000e-007,6.60155319e-004
,,,-4.65200000e-007,6.71874070e-004
,,,-4.65000000e-007,7.42967825e-004
,,,-4.64800000e-007,1.00546784e-003
,,,-4.64600000e-007,1.16328035e-003
,,,-4.64400000e-007,1.21406161e-003
,,,-4.64200000e-007,1.21015536e-003
,,,-4.64000000e-007,9.92186592e-004
,,,-4.63800000e-007,7.86717828e-004
,,,-4.63600000e-007,7.13280323e-004
,,,-4.63400000e-007,5.79686563e-004
,,,-4.63200000e-007,8.17967830e-004
,,,-4.63000000e-007,9.86717842e-004
,,,-4.62800000e-007,1.00781159e-003
,,,-4.62600000e-007,1.12265535e-003
,,,-4.62400000e-007,1.09062410e-003
,,,-4.62200000e-007,9.82030342e-004
,,,-4.62000000e-007,8.68749084e-004
,,,-4.61800000e-007,7.28124074e-004
,,,-4.61600000e-007,8.67967834e-004
,,,-4.61400000e-007,8.57030333e-004
,,,-4.61200000e-007,8.64842833e-004
,,,-4.61000000e-007,9.55467840e-004
,,,-4.60800000e-007,9.56249090e-004
,,,-4.60600000e-007,9.99999093e-004
,,,-4.60400000e-007,9.90624092e-004
,,,-4.60200000e-007,1.02734284e-003
,,,-4.60000000e-007,1.10156160e-003
,,,-4.59800000e-007,9.46874089e-004
,,,-4.59600000e-007,8.05467829e-004
,,,-4.59400000e-007,7.11717822e-004
,,,-4.59200000e-007,7.03124072e-004
,,,-4.59000000e-007,8.72655334e-004
,,,-4.58800000e-007,9.58592840e-004
,,,-4.58600000e-007,1.07109285e-003
,,,-4.58400000e-007,1.10390535e-003
,,,-4.58200000e-007,1.01796784e-003
,,,-4.58000000e-007,1.03046785e-003
,,,-4.57800000e-007,8.22655330e-004
,,,-4.57600000e-007,7.42967825e-004
,,,-4.57400000e-007,7.83592828e-004
,,,-4.57200000e-007,7.13280323e-004
,,,-4.57000000e-007,8.87499085e-004
,,,-4.56800000e-007,1.09999910e-003
,,,-4.56600000e-007,1.15546785e-003
,,,-4.56400000e-007,1.20234286e-003
,,,-4.56200000e-007,9.96874093e-004
,,,-4.56000000e-007,8.85155335e-004
,,,-4.55800000e-007,7.44530325e-004
,,,-4.55600000e-007,6.48436568e-004
,,,-4.55400000e-007,7.61717826e-004
,,,-4.55200000e-007,8.90624085e-004
,,,-4.55000000e-007,1.00468659e-003
,,,-4.54800000e-007,1.08593660e-003
,,,-4.54600000e-007,1.13984285e-003
,,,-4.54400000e-007,1.06015535e-003
,,,-4.54200000e-007,8.98436586e-004
,,,-4.54000000e-007,6.99999072e-004
,,,-4.53800000e-007,6.67967819e-004
,,,-4.53600000e-007,7.40624075e-004
,,,-4.53400000e-007,8.46874082e-004
,,,-4.53200000e-007,9.45311589e-004
,,,-4.53000000e-007,1.08437410e-003
,,,-4.52800000e-007,1.15624910e-003
,,,-4.52600000e-007,1.02578034e-003
,,,-4.52400000e-007,9.72655341e-004
,,,-4.52200000e-007,8.75780334e-004
,,,-4.52000000e-007,8.18749080e-004
,,,-4.51800000e-007,7.82811578e-004
,,,-4.51600000e-007,7.38280324e-004
,,,-4.51400000e-007,9.19530337e-004
,,,-4.51200000e-007,1.05234285e-003
,,,-4.51000000e-007,1.10390535e-003
,,,-4.50800000e-007,1.11953035e-003
,,,-4.50600000e-007,1.02499909e-003
,,,-4.50400000e-007,9.37499088e-004
,,,-4.50200000e-007,7.13280323e-004
,,,-4.50000000e-007,6.74217820e-004
,,,-4.49800000e-007,7.03905322e-004
,,,-4.49600000e-007,8.01561579e-004
,,,-4.49400000e-007,1.02968659e-003
,,,-4.49200000e-007,1.08046785e-003
,,,-4.49000000e-007,1.03359285e-003
,,,-4.48800000e-007,9.49217839e-004
,,,-4.48600000e-007,7.97655329e-004
,,,-4.48400000e-007,7.56249076e-004
,,,-4.48200000e-007,7.49217825e-004
,,,-4.48000000e-007,7.33592824e-004
,,,-4.47800000e-007,8.78905334e-004
,,,-4.47600000e-007,9.74999091e-004
,,,-4.47400000e-007,9.60155340e-004
,,,-4.47200000e-007,9.50780339e-004
,,,-4.47000000e-007,8.33592831e-004
,,,-4.46800000e-007,8.40624082e-004
,,,-4.46600000e-007,7.78905327e-004
,,,-4.46400000e-007,8.10936580e-004
,,,-4.46200000e-007,8.69530334e-004
,,,-4.46000000e-007,8.70311584e-004
,,,-4.45800000e-007,9.28905338e-004
,,,-4.45600000e-007,8.50780332e-004
,,,-4.45400000e-007,7.55467826e-004
,,,-4.45200000e-007,8.35936581e-004
,,,-4.45000000e-007,9.04686586e-004
,,,-4.44800000e-007,9.35936588e-004
,,,-4.44600000e-007,9.26561588e-004
,,,-4.44400000e-007,9.06249086e-004
,,,-4.44200000e-007,9.20311587e-004
,,,-4.44000000e-007,8.46874082e-004
,,,-4.43800000e-007,8.09374079e-004
,,,-4.43600000e-007,8.57811583e-004
,,,-4.43400000e-007,9.42186589e-004
,,,-4.43200000e-007,9.61717840e-004
,,,-4.43000000e-007,1.00703034e-003
,,,-4.42800000e-007,1.05390535e-003
,,,-4.42600000e-007,1.05703035e-003
,,,-4.42400000e-007,8.88280335e-004
,,,-4.42200000e-007,7.44530325e-004
,,,-4.42000000e-007,6.93749071e-004
,,,-4.41800000e-007,8.46092832e-004
,,,-4.41600000e-007,1.05234285e-003
,,,-4.41400000e-007,1.06249910e-003
,,,-4.41200000e-007,1.10859285e-003
,,,-4.41000000e-007,1.05468660e-003
,,,-4.40800000e-007,8.23436580e-004
,,,-4.40600000e-007,7.30467824e-004
,,,-4.40400000e-007,6.14842816e-004
,,,-4.40200000e-007,7.46874075e-004
,,,-4.40000000e-007,8.97655336e-004
,,,-4.39800000e-007,1.05234285e-003
,,,-4.39600000e-007,1.17578036e-003
,,,-4.39400000e-007,1.09999910e-003
,,,-4.39200000e-007,8.80467834e-004
,,,-4.39000000e-007,6.69530320e-004
,,,-4.38800000e-007,5.85936564e-004
,,,-4.38600000e-007,6.85155321e-004
,,,-4.38400000e-007,8.02342829e-004
,,,-4.38200000e-007,1.00390534e-003
,,,-4.38000000e-007,1.13281160e-003
,,,-4.37800000e-007,1.11015535e-003
,,,-4.37600000e-007,9.32030338e-004
,,,-4.37400000e-007,7.13280323e-004
,,,-4.37200000e-007,6.67967819e-004
,,,-4.37000000e-007,7.40624075e-004
,,,-4.36800000e-007,8.16405330e-004
,,,-4.36600000e-007,9.04686586e-004
,,,-4.36400000e-007,9.99217843e-004
,,,-4.36200000e-007,1.04921785e-003
,,,-4.36000000e-007,1.01406159e-003
,,,-4.35800000e-007,8.55467833e-004
,,,-4.35600000e-007,8.40624082e-004
,,,-4.35400000e-007,8.50780332e-004
,,,-4.35200000e-007,8.93749085e-004
,,,-4.35000000e-007,8.82030335e-004
,,,-4.34800000e-007,8.89061585e-004
,,,-4.34600000e-007,9.44530339e-004
,,,-4.34400000e-007,9.16405337e-004
,,,-4.34200000e-007,8.58592833e-004
,,,-4.34000000e-007,9.35155338e-004
,,,-4.33800000e-007,9.30467838e-004
,,,-4.33600000e-007,9.87499092e-004
,,,-4.33400000e-007,9.32811588e-004
,,,-4.33200000e-007,9.14061587e-004
,,,-4.33000000e-007,9.28905338e-004
,,,-4.32800000e-007,8.03905329e-004
,,,-4.32600000e-007,7.25780323e-004
,,,-4.32400000e-007,8.61717833e-004
,,,-4.32200000e-007,1.01406159e-003
,,,-4.32000000e-007,1.10937410e-003
,,,-4.31800000e-007,1.11562410e-003
,,,-4.31600000e-007,9.80467842e-004
,,,-4.31400000e-007,8.30467831e-004
,,,-4.31200000e-007,6.38280317e-004
,,,-4.31000000e-007,6.49999068e-004
,,,-4.30800000e-007,8.00780329e-004
,,,-4.30600000e-007,8.45311582e-004
,,,-4.30400000e-007,1.03749910e-003
,,,-4.30200000e-007,1.07812410e-003
,,,-4.30000000e-007,1.05468660e-003
,,,-4.29800000e-007,8.80467834e-004
,,,-4.29600000e-007,6.88280321e-004
,,,-4.29400000e-007,5.28124059e-004
,,,-4.29200000e-007,6.16405316e-004
,,,-4.29000000e-007,8.46874082e-004
,,,-4.28800000e-007,9.67967841e-004
,,,-4.28600000e-007,1.03593660e-003
,,,-4.28400000e-007,1.09843660e-003
,,,-4.28200000e-007,9.51561589e-004
,,,-4.28000000e-007,7.46874075e-004
,,,-4.27800000e-007,7.10936572e-004
,,,-4.27600000e-007,7.79686577e-004
,,,-4.27400000e-007,9.46874089e-004
,,,-4.27200000e-007,9.42967839e-004
,,,-4.27000000e-007,8.81249084e-004
,,,-4.26800000e-007,9.36717838e-004
,,,-4.26600000e-007,9.08592836e-004
,,,-4.26400000e-007,9.05467836e-004
,,,-4.26200000e-007,9.06249086e-004
,,,-4.26000000e-007,9.47655339e-004
,,,-4.25800000e-007,1.03828035e-003
,,,-4.25600000e-007,9.70311591e-004
,,,-4.25400000e-007,8.19530330e-004
,,,-4.25200000e-007,8.14061580e-004
,,,-4.25000000e-007,7.39061574e-004
,,,-4.24800000e-007,7.92967828e-004
,,,-4.24600000e-007,8.85155335e-004
,,,-4.24400000e-007,1.07499910e-003
,,,-4.24200000e-007,1.19765536e-003
,,,-4.24000000e-007,1.12499910e-003
,,,-4.23800000e-007,9.51561589e-004
,,,-4.23600000e-007,7.68749077e-004
,,,-4.23400000e-007,6.58592819e-004
,,,-4.23200000e-007,6.35936567e-004
,,,-4.23000000e-007,7.93749078e-004
,,,-4.22800000e-007,1.03593660e-003
,,,-4.22600000e-007,1.27187411e-003
,,,-4.22400000e-007,1.31484287e-003
,,,-4.22200000e-007,1.11718660e-003
,,,-4.22000000e-007,8.76561584e-004
,,,-4.21800000e-007,6.09374065e-004
,,,-4.21600000e-007,5.24999059e-004
,,,-4.21400000e-007,6.53905318e-004
,,,-4.21200000e-007,8.48436582e-004
,,,-4.21000000e-007,9.97655343e-004
,,,-4.20800000e-007,1.14843660e-003
,,,-4.20600000e-007,1.14921785e-003
,,,-4.20400000e-007,9.71874091e-004
,,,-4.20200000e-007,7.30467824e-004
,,,-4.20000000e-007,5.46874061e-004
,,,-4.19800000e-007,6.16405316e-004
,,,-4.19600000e-007,8.12499080e-004
,,,-4.19400000e-007,1.00390534e-003
,,,-4.19200000e-007,1.07265535e-003
,,,-4.19000000e-007,1.07265535e-003
,,,-4.18800000e-007,9.74217841e-004
,,,-4.18600000e-007,7.27342824e-004
,,,-4.18400000e-007,6.85936571e-004
,,,-4.18200000e-007,8.33592831e-004
,,,-4.18000000e-007,1.01562409e-003
,,,-4.17800000e-007,1.08593660e-003
,,,-4.17600000e-007,1.00234284e-003
,,,-4.17400000e-007,8.96874086e-004
,,,-4.17200000e-007,7.75780327e-004
,,,-4.17000000e-007,7.19530323e-004
,,,-4.16800000e-007,7.14061573e-004
,,,-4.16600000e-007,8.71874084e-004
,,,-4.16400000e-007,1.11171785e-003
,,,-4.16200000e-007,1.14843660e-003
,,,-4.16000000e-007,1.08437410e-003
,,,-4.15800000e-007,9.68749091e-004
,,,-4.15600000e-007,7.02342822e-004
,,,-4.15400000e-007,5.90624064e-004
,,,-4.15200000e-007,5.84374063e-004
,,,-4.15000000e-007,8.57811583e-004
,,,-4.14800000e-007,1.15859285e-003
,,,-4.14600000e-007,1.37109287e-003
,,,-4.14400000e-007,1.21093661e-003
,,,-4.14200000e-007,9.89842842e-004
,,,-4.14000000e-007,6.71874070e-004
,,,-4.13800000e-007,5.27342809e-004
,,,-4.13600000e-007,5.74217813e-004
,,,-4.13400000e-007,7.39061574e-004
,,,-4.13200000e-007,1.02343659e-003
,,,-4.13000000e-007,1.21406161e-003
,,,-4.12800000e-007,1.27109286e-003
,,,-4.12600000e-007,1.09843660e-003
,,,-4.12400000e-007,8.53905333e-004
,,,-4.12200000e-007,5.70311562e-004
,,,-4.12000000e-007,5.51561561e-004
,,,-4.11800000e-007,7.05467822e-004
,,,-4.11600000e-007,8.73436584e-004
,,,-4.11400000e-007,1.03593660e-003
,,,-4.11200000e-007,1.13593660e-003
,,,-4.11000000e-007,1.09687410e-003
,,,-4.10800000e-007,8.57811583e-004
,,,-4.10600000e-007,6.70311570e-004
,,,-4.10400000e-007,6.61717819e-004
,,,-4.10200000e-007,7.75780327e-004
,,,-4.10000000e-007,9.43749089e-004
,,,-4.09800000e-007,9.48436589e-004
,,,-4.09600000e-007,9.66405341e-004
,,,-4.09400000e-007,1.00546784e-003
,,,-4.09200000e-007,8.95311585e-004
,,,-4.09000000e-007,6.32030317e-004
,,,-4.08800000e-007,6.52342818e-004
,,,-4.08600000e-007,9.09374086e-004
,,,-4.08400000e-007,1.01953034e-003
,,,-4.08200000e-007,1.03203035e-003
,,,-4.08000000e-007,9.57811590e-004
,,,-4.07800000e-007,8.58592833e-004
,,,-4.07600000e-007,8.04686579e-004
,,,-4.07400000e-007,7.05467822e-004
,,,-4.07200000e-007,7.50780325e-004
,,,-4.07000000e-007,8.84374085e-004
,,,-4.06800000e-007,1.07031160e-003
,,,-4.06600000e-007,1.11562410e-003
,,,-4.06400000e-007,1.04765535e-003
,,,-4.06200000e-007,9.61717840e-004
,,,-4.06000000e-007,7.85155328e-004
,,,-4.05800000e-007,7.14842823e-004
,,,-4.05600000e-007,6.94530321e-004
,,,-4.05400000e-007,8.84374085e-004
,,,-4.05200000e-007,1.05312410e-003
,,,-4.05000000e-007,1.08593660e-003
,,,-4.04800000e-007,1.05937410e-003
,,,-4.04600000e-007,9.37499088e-004
,,,-4.04400000e-007,8.08592829e-004
,,,-4.04200000e-007,7.90624078e-004
,,,-4.04000000e-007,8.15624080e-004
,,,-4.03800000e-007,8.14061580e-004
,,,-4.03600000e-007,9.51561589e-004
,,,-4.03400000e-007,9.66405341e-004
,,,-4.03200000e-007,9.71874091e-004
,,,-4.03000000e-007,9.38280339e-004
,,,-4.02800000e-007,8.69530334e-004
,,,-4.02600000e-007,8.89842835e-004
,,,-4.02400000e-007,8.68749084e-004
,,,-4.02200000e-007,9.24999088e-004
,,,-4.02000000e-007,8.67967834e-004
,,,-4.01800000e-007,9.10936587e-004
,,,-4.01600000e-007,9.07030336e-004
,,,-4.01400000e-007,7.65624076e-004
,,,-4.01200000e-007,7.51561575e-004
,,,-4.01000000e-007,8.25780331e-004
,,,-4.00800000e-007,9.42186589e-004
,,,-4.00600000e-007,1.01718659e-003
,,,-4.00400000e-007,9.03124086e-004
,,,-4.00200000e-007,8.09374079e-004
,,,-4.00000000e-007,7.60155326e-004
,,,-3.99800000e-007,7.12499073e-004
,,,-3.99600000e-007,7.53124075e-004
,,,-3.99400000e-007,7.63280326e-004
,,,-3.99200000e-007,9.69530341e-004
,,,-3.99000000e-007,1.06953035e-003
,,,-3.98800000e-007,9.82030342e-004
,,,-3.98600000e-007,9.64061590e-004
,,,-3.98400000e-007,8.38280331e-004
,,,-3.98200000e-007,7.15624073e-004
,,,-3.98000000e-007,7.09374072e-004
,,,-3.97800000e-007,7.62499076e-004
,,,-3.97600000e-007,9.36717838e-004
,,,-3.97400000e-007,1.05156160e-003
,,,-3.97200000e-007,1.04374910e-003
,,,-3.97000000e-007,9.78905341e-004
,,,-3.96800000e-007,8.46874082e-004
,,,-3.96600000e-007,7.74217827e-004
,,,-3.96400000e-007,6.99217822e-004
,,,-3.96200000e-007,8.05467829e-004
,,,-3.96000000e-007,9.56249090e-004
,,,-3.95800000e-007,9.93749092e-004
,,,-3.95600000e-007,1.07109285e-003
,,,-3.95400000e-007,8.58592833e-004
,,,-3.95200000e-007,8.21874080e-004
,,,-3.95000000e-007,7.68749077e-004
,,,-3.94800000e-007,7.17186573e-004
,,,-3.94600000e-007,8.86717835e-004
,,,-3.94400000e-007,9.33592838e-004
,,,-3.94200000e-007,1.02421784e-003
,,,-3.94000000e-007,1.09296785e-003
,,,-3.93800000e-007,9.34374088e-004
,,,-3.93600000e-007,7.96874079e-004
,,,-3.93400000e-007,7.28905324e-004
,,,-3.93200000e-007,6.80467820e-004
,,,-3.93000000e-007,8.28905331e-004
,,,-3.92800000e-007,9.47655339e-004
,,,-3.92600000e-007,1.00781159e-003
,,,-3.92400000e-007,1.06640535e-003
,,,-3.92200000e-007,9.86717842e-004
,,,-3.92000000e-007,8.19530330e-004
,,,-3.91800000e-007,5.57811562e-004
,,,-3.91600000e-007,5.27342809e-004
,,,-3.91400000e-007,7.93749078e-004
,,,-3.91200000e-007,9.17967837e-004
,,,-3.91000000e-007,9.99217843e-004
,,,-3.90800000e-007,9.69530341e-004
