Data/20220822/UCLA_to_R2B_HPOL_NEG10_001_Math1.csv

"Record Length",6250,"Points",0.00000000e+000,-1.25068369e+001
"Sample Interval",4.00000000e+005,Hz,4.00000000e+005,-1.90928040e+001
"Trigger Point",0,"Samples",8.00000000e+005,-2.09501095e+001
"Trigger Time",0.00000000e+000,Hz,1.20000000e+006,-2.45155487e+001
"",,,1.60000000e+006,-3.11132488e+001
"Horizontal Offset",0.00000000e+000,Hz,2.00000000e+006,-7.33742142e+001
,,,2.40000000e+006,-3.47559357e+001
,,,2.80000000e+006,-3.18186359e+001
,,,3.20000000e+006,-3.29060669e+001
,,,3.60000000e+006,-3.83063545e+001
,,,4.00000000e+006,-6.35216713e+001
,,,4.40000000e+006,-3.96529808e+001
,,,4.80000000e+006,-3.66877060e+001
,,,5.20000000e+006,-3.70154762e+001
,,,5.60000000e+006,-4.19582863e+001
,,,6.00000000e+006,-6.47750397e+001
,,,6.40000000e+006,-4.24494591e+001
,,,6.80000000e+006,-3.93690720e+001
,,,7.20000000e+006,-4.01456947e+001
,,,7.60000000e+006,-4.54639397e+001
,,,8.00000000e+006,-7.46869659e+001
,,,8.40000000e+006,-4.62846756e+001
,,,8.80000000e+006,-4.13068810e+001
,,,9.20000000e+006,-4.26644135e+001
,,,9.60000000e+006,-4.66557045e+001
,,,1.00000000e+007,-6.89581451e+001
,,,1.04000000e+007,-4.75103645e+001
,,,1.08000000e+007,-4.26190453e+001
,,,1.12000000e+007,-4.41876488e+001
,,,1.16000000e+007,-4.93188286e+001
,,,1.20000000e+007,-7.59283066e+001
,,,1.24000000e+007,-4.92376900e+001
,,,1.28000000e+007,-4.48008308e+001
,,,1.32000000e+007,-4.55629807e+001
,,,1.36000000e+007,-4.92530861e+001
,,,1.40000000e+007,-6.52318802e+001
,,,1.44000000e+007,-5.03151550e+001
,,,1.48000000e+007,-4.67270355e+001
,,,1.52000000e+007,-4.68910751e+001
,,,1.56000000e+007,-4.99611778e+001
,,,1.60000000e+007,-7.54864883e+001
,,,1.64000000e+007,-5.20381279e+001
,,,1.68000000e+007,-4.67482796e+001
,,,1.72000000e+007,-4.73276215e+001
,,,1.76000000e+007,-5.30175934e+001
,,,1.80000000e+007,-7.52025452e+001
,,,1.84000000e+007,-5.22550354e+001
,,,1.88000000e+007,-4.82539635e+001
,,,1.92000000e+007,-4.91447182e+001
,,,1.96000000e+007,-5.20522041e+001
,,,2.00000000e+007,-6.41386185e+001
,,,2.04000000e+007,-5.44288216e+001
,,,2.08000000e+007,-4.92046165e+001
,,,2.12000000e+007,-4.93335838e+001
,,,2.16000000e+007,-5.40138626e+001
,,,2.20000000e+007,-6.64230194e+001
,,,2.24000000e+007,-5.42673492e+001
,,,2.28000000e+007,-5.08682022e+001
,,,2.32000000e+007,-5.09891319e+001
,,,2.36000000e+007,-5.50679131e+001
,,,2.40000000e+007,-7.22638397e+001
,,,2.44000000e+007,-5.68480797e+001
,,,2.48000000e+007,-5.17414131e+001
,,,2.52000000e+007,-5.02365265e+001
,,,2.56000000e+007,-5.43264961e+001
,,,2.60000000e+007,-7.34485474e+001
,,,2.64000000e+007,-5.49758682e+001
,,,2.68000000e+007,-5.22280579e+001
,,,2.72000000e+007,-5.13217583e+001
,,,2.76000000e+007,-5.37841606e+001
,,,2.80000000e+007,-7.65616150e+001
,,,2.84000000e+007,-5.29062729e+001
,,,2.88000000e+007,-5.51981316e+001
,,,2.92000000e+007,-5.05919609e+001
,,,2.96000000e+007,-5.66338921e+001
,,,3.00000000e+007,-7.23962021e+001
,,,3.04000000e+007,-5.56524467e+001
,,,3.08000000e+007,-5.45415764e+001
,,,3.12000000e+007,-5.13558502e+001
,,,3.16000000e+007,-6.01557617e+001
,,,3.20000000e+007,-6.44082184e+001
,,,3.24000000e+007,-5.75861816e+001
,,,3.28000000e+007,-5.33242378e+001
,,,3.32000000e+007,-5.26263084e+001
,,,3.36000000e+007,-6.57682877e+001
,,,3.40000000e+007,-6.85003433e+001
,,,3.44000000e+007,-5.66613731e+001
,,,3.48000000e+007,-5.73065605e+001
,,,3.52000000e+007,-5.51977997e+001
,,,3.56000000e+007,-5.62171288e+001
,,,3.60000000e+007,-6.50537262e+001
,,,3.64000000e+007,-5.69401550e+001
,,,3.68000000e+007,-5.53866043e+001
,,,3.72000000e+007,-5.33278809e+001
,,,3.76000000e+007,-5.82841339e+001
,,,3.80000000e+007,-7.28204117e+001
,,,3.84000000e+007,-5.95414467e+001
,,,3.88000000e+007,-5.49046707e+001
,,,3.92000000e+007,-5.50429611e+001
,,,3.96000000e+007,-6.05741272e+001
,,,4.00000000e+007,-6.84824524e+001
,,,4.04000000e+007,-6.18670540e+001
,,,4.08000000e+007,-5.46867676e+001
,,,4.12000000e+007,-5.48186340e+001
,,,4.16000000e+007,-5.70185738e+001
,,,4.20000000e+007,-6.84279022e+001
,,,4.24000000e+007,-6.15302277e+001
,,,4.28000000e+007,-5.58920784e+001
,,,4.32000000e+007,-5.32375679e+001
,,,4.36000000e+007,-5.84456749e+001
,,,4.40000000e+007,-6.43434296e+001
,,,4.44000000e+007,-6.91218491e+001
,,,4.48000000e+007,-5.38451233e+001
,,,4.52000000e+007,-5.69986420e+001
,,,4.56000000e+007,-5.63278008e+001
,,,4.60000000e+007,-7.24044418e+001
,,,4.64000000e+007,-5.92740326e+001
,,,4.68000000e+007,-5.44059868e+001
,,,4.72000000e+007,-5.92985153e+001
,,,4.76000000e+007,-5.89133873e+001
,,,4.80000000e+007,-6.76128769e+001
,,,4.84000000e+007,-6.56254349e+001
,,,4.88000000e+007,-5.65473862e+001
,,,4.92000000e+007,-5.58935585e+001
,,,4.96000000e+007,-5.89720345e+001
,,,5.00000000e+007,-6.41705780e+001
,,,5.04000000e+007,-6.17579193e+001
,,,5.08000000e+007,-5.61131172e+001
,,,5.12000000e+007,-6.05299683e+001
,,,5.16000000e+007,-5.87588425e+001
,,,5.20000000e+007,-7.93442078e+001
,,,5.24000000e+007,-6.25808563e+001
,,,5.28000000e+007,-5.87588081e+001
,,,5.32000000e+007,-5.65162659e+001
,,,5.36000000e+007,-6.22255821e+001
,,,5.40000000e+007,-6.67908478e+001
,,,5.44000000e+007,-6.09943047e+001
,,,5.48000000e+007,-5.71424599e+001
,,,5.52000000e+007,-5.91663513e+001
,,,5.56000000e+007,-5.79368019e+001
,,,5.60000000e+007,-6.79501801e+001
,,,5.64000000e+007,-6.10109558e+001
,,,5.68000000e+007,-5.77745705e+001
,,,5.72000000e+007,-5.92564850e+001
,,,5.76000000e+007,-6.11160622e+001
,,,5.80000000e+007,-6.65287094e+001
,,,5.84000000e+007,-6.02776718e+001
,,,5.88000000e+007,-5.72828331e+001
,,,5.92000000e+007,-5.87421074e+001
,,,5.96000000e+007,-6.22239532e+001
,,,6.00000000e+007,-6.83605576e+001
,,,6.04000000e+007,-6.57799454e+001
,,,6.08000000e+007,-6.08214645e+001
,,,6.12000000e+007,-5.67329254e+001
,,,6.16000000e+007,-6.22171440e+001
,,,6.20000000e+007,-6.77178802e+001
,,,6.24000000e+007,-6.34498177e+001
,,,6.28000000e+007,-5.73006172e+001
,,,6.32000000e+007,-5.49391899e+001
,,,6.36000000e+007,-6.14364128e+001
,,,6.40000000e+007,-7.41605606e+001
,,,6.44000000e+007,-6.22367554e+001
,,,6.48000000e+007,-5.69265175e+001
,,,6.52000000e+007,-5.55146675e+001
,,,6.56000000e+007,-6.54301910e+001
,,,6.60000000e+007,-7.11919098e+001
,,,6.64000000e+007,-5.85358963e+001
,,,6.68000000e+007,-6.19507370e+001
,,,6.72000000e+007,-5.75086594e+001
,,,6.76000000e+007,-6.30469208e+001
,,,6.80000000e+007,-6.60012665e+001
,,,6.84000000e+007,-6.25151901e+001
,,,6.88000000e+007,-6.19641151e+001
,,,6.92000000e+007,-5.91500092e+001
,,,6.96000000e+007,-7.10932846e+001
,,,7.00000000e+007,-6.56193695e+001
,,,7.04000000e+007,-6.38964233e+001
,,,7.08000000e+007,-6.36387672e+001
,,,7.12000000e+007,-6.03593788e+001
,,,7.16000000e+007,-6.11180954e+001
,,,7.20000000e+007,-7.41878281e+001
,,,7.24000000e+007,-6.81375504e+001
,,,7.28000000e+007,-5.86345253e+001
,,,7.32000000e+007,-6.04317665e+001
,,,7.36000000e+007,-5.74721832e+001
,,,7.40000000e+007,-7.39361649e+001
,,,7.44000000e+007,-6.59923782e+001
,,,7.48000000e+007,-5.96945953e+001
,,,7.52000000e+007,-5.59998169e+001
,,,7.56000000e+007,-6.00672264e+001
,,,7.60000000e+007,-6.43434982e+001
,,,7.64000000e+007,-6.20071678e+001
,,,7.68000000e+007,-5.63713303e+001
,,,7.72000000e+007,-6.19111938e+001
,,,7.76000000e+007,-6.17297020e+001
,,,7.80000000e+007,-6.39871597e+001
,,,7.84000000e+007,-7.00758514e+001
,,,7.88000000e+007,-6.35648003e+001
,,,7.92000000e+007,-6.01302147e+001
,,,7.96000000e+007,-6.13198357e+001
,,,8.00000000e+007,-7.26494904e+001
,,,8.04000000e+007,-6.77452850e+001
,,,8.08000000e+007,-5.76197472e+001
,,,8.12000000e+007,-6.07348900e+001
,,,8.16000000e+007,-6.86625900e+001
,,,8.20000000e+007,-6.96270294e+001
,,,8.24000000e+007,-6.63671188e+001
,,,8.28000000e+007,-5.72095680e+001
,,,8.32000000e+007,-6.49864197e+001
,,,8.36000000e+007,-6.32792130e+001
,,,8.40000000e+007,-7.45815125e+001
,,,8.44000000e+007,-6.69637070e+001
,,,8.48000000e+007,-5.96948242e+001
,,,8.52000000e+007,-6.38750305e+001
,,,8.56000000e+007,-6.17577057e+001
,,,8.60000000e+007,-6.52881927e+001
,,,8.64000000e+007,-6.67811127e+001
,,,8.68000000e+007,-5.71749344e+001
,,,8.72000000e+007,-6.39677887e+001
,,,8.76000000e+007,-6.18851280e+001
,,,8.80000000e+007,-6.26679955e+001
,,,8.84000000e+007,-6.44926682e+001
,,,8.88000000e+007,-6.11828194e+001
,,,8.92000000e+007,-6.05294266e+001
,,,8.96000000e+007,-6.46334610e+001
,,,9.00000000e+007,-7.21428375e+001
,,,9.04000000e+007,-6.02401161e+001
,,,9.08000000e+007,-6.47280884e+001
,,,9.12000000e+007,-6.44527054e+001
,,,9.16000000e+007,-6.41673889e+001
,,,9.20000000e+007,-6.45009155e+001
,,,9.24000000e+007,-6.28469620e+001
,,,9.28000000e+007,-5.63842506e+001
,,,9.32000000e+007,-5.35867538e+001
,,,9.36000000e+007,-6.91169052e+001
,,,9.40000000e+007,-7.97126083e+001
,,,9.44000000e+007,-6.72155228e+001
,,,9.48000000e+007,-6.86337891e+001
,,,9.52000000e+007,-7.03070984e+001
,,,9.56000000e+007,-5.64748459e+001
,,,9.60000000e+007,-5.65743942e+001
,,,9.64000000e+007,-5.48764648e+001
,,,9.68000000e+007,-5.94589882e+001
,,,9.72000000e+007,-5.54313049e+001
,,,9.76000000e+007,-6.20156212e+001
,,,9.80000000e+007,-5.81931190e+001
,,,9.84000000e+007,-6.58454742e+001
,,,9.88000000e+007,-5.40058136e+001
,,,9.92000000e+007,-5.94328423e+001
,,,9.96000000e+007,-6.49916000e+001
,,,1.00000000e+008,-6.47219696e+001
,,,1.00400000e+008,-6.57231674e+001
,,,1.00800000e+008,-7.07585220e+001
,,,1.01200000e+008,-5.54693336e+001
,,,1.01600000e+008,-6.29513969e+001
,,,1.02000000e+008,-6.57725296e+001
,,,1.02400000e+008,-6.41966705e+001
,,,1.02800000e+008,-7.56494217e+001
,,,1.03200000e+008,-6.54318695e+001
,,,1.03600000e+008,-6.16514587e+001
,,,1.04000000e+008,-7.77728271e+001
,,,1.04400000e+008,-6.83094177e+001
,,,1.04800000e+008,-7.26068039e+001
,,,1.05200000e+008,-5.96686363e+001
,,,1.05600000e+008,-6.33049202e+001
,,,1.06000000e+008,-6.43690872e+001
,,,1.06400000e+008,-6.71044846e+001
,,,1.06800000e+008,-5.86419945e+001
,,,1.07200000e+008,-6.47121429e+001
,,,1.07600000e+008,-5.83098640e+001
,,,1.08000000e+008,-6.88032532e+001
,,,1.08400000e+008,-6.11438217e+001
,,,1.08800000e+008,-5.93712234e+001
,,,1.09200000e+008,-6.76841125e+001
,,,1.09600000e+008,-6.25040321e+001
,,,1.10000000e+008,-6.61349335e+001
,,,1.10400000e+008,-6.27976875e+001
,,,1.10800000e+008,-6.60513153e+001
,,,1.11200000e+008,-6.37069931e+001
,,,1.11600000e+008,-6.87317123e+001
,,,1.12000000e+008,-6.66918564e+001
,,,1.12400000e+008,-5.98235550e+001
,,,1.12800000e+008,-7.23736191e+001
,,,1.13200000e+008,-6.21542206e+001
,,,1.13600000e+008,-6.36366882e+001
,,,1.14000000e+008,-6.44221802e+001
,,,1.14400000e+008,-7.21131363e+001
,,,1.14800000e+008,-6.36067162e+001
,,,1.15200000e+008,-5.98408775e+001
,,,1.15600000e+008,-6.59073715e+001
,,,1.16000000e+008,-7.22036514e+001
,,,1.16400000e+008,-6.68725204e+001
,,,1.16800000e+008,-7.01987076e+001
,,,1.17200000e+008,-6.28143997e+001
,,,1.17600000e+008,-6.21411400e+001
,,,1.18000000e+008,-6.59987946e+001
,,,1.18400000e+008,-6.00308838e+001
,,,1.18800000e+008,-6.21521149e+001
,,,1.19200000e+008,-6.21281700e+001
,,,1.19600000e+008,-6.23263588e+001
,,,1.20000000e+008,-7.59668732e+001
,,,1.20400000e+008,-6.94446182e+001
,,,1.20800000e+008,-5.94952927e+001
,,,1.21200000e+008,-6.07948227e+001
,,,1.21600000e+008,-6.57881546e+001
,,,1.22000000e+008,-7.38276291e+001
,,,1.22400000e+008,-6.71942444e+001
,,,1.22800000e+008,-6.61331940e+001
,,,1.23200000e+008,-6.46232834e+001
,,,1.23600000e+008,-6.96156311e+001
,,,1.24000000e+008,-6.54780426e+001
,,,1.24400000e+008,-6.54342804e+001
,,,1.24800000e+008,-5.90298119e+001
,,,1.25200000e+008,-6.79784241e+001
,,,1.25600000e+008,-6.79577408e+001
,,,1.26000000e+008,-7.21819839e+001
,,,1.26400000e+008,-7.29189606e+001
,,,1.26800000e+008,-6.42860413e+001
,,,1.27200000e+008,-6.02779121e+001
,,,1.27600000e+008,-6.68431015e+001
,,,1.28000000e+008,-7.46397858e+001
,,,1.28400000e+008,-6.62518692e+001
,,,1.28800000e+008,-6.44728470e+001
,,,1.29200000e+008,-6.05970955e+001
,,,1.29600000e+008,-6.18913574e+001
,,,1.30000000e+008,-5.69810562e+001
,,,1.30400000e+008,-5.54526711e+001
,,,1.30800000e+008,-5.23625717e+001
,,,1.31200000e+008,-5.61922188e+001
,,,1.31600000e+008,-5.69061470e+001
,,,1.32000000e+008,-6.04669418e+001
,,,1.32400000e+008,-6.23537788e+001
,,,1.32800000e+008,-5.72143936e+001
,,,1.33200000e+008,-6.12427368e+001
,,,1.33600000e+008,-6.23262062e+001
,,,1.34000000e+008,-6.47616119e+001
,,,1.34400000e+008,-6.79559784e+001
,,,1.34800000e+008,-6.08863144e+001
,,,1.35200000e+008,-5.96368523e+001
,,,1.35600000e+008,-6.48271103e+001
,,,1.36000000e+008,-6.29042740e+001
,,,1.36400000e+008,-6.15378494e+001
,,,1.36800000e+008,-5.98769531e+001
,,,1.37200000e+008,-6.06958122e+001
,,,1.37600000e+008,-6.37485123e+001
,,,1.38000000e+008,-6.19131165e+001
,,,1.38400000e+008,-6.47827988e+001
,,,1.38800000e+008,-6.41856689e+001
,,,1.39200000e+008,-6.14733543e+001
,,,1.39600000e+008,-5.93913612e+001
,,,1.40000000e+008,-6.02409172e+001
,,,1.40400000e+008,-6.05994530e+001
,,,1.40800000e+008,-6.43490143e+001
,,,1.41200000e+008,-5.88711014e+001
,,,1.41600000e+008,-6.54859314e+001
,,,1.42000000e+008,-6.62957001e+001
,,,1.42400000e+008,-6.22785492e+001
,,,1.42800000e+008,-6.58119125e+001
,,,1.43200000e+008,-6.00713844e+001
,,,1.43600000e+008,-6.25246964e+001
,,,1.44000000e+008,-6.16669846e+001
,,,1.44400000e+008,-5.73548203e+001
,,,1.44800000e+008,-5.91884117e+001
,,,1.45200000e+008,-5.72464027e+001
,,,1.45600000e+008,-6.25492744e+001
,,,1.46000000e+008,-5.63404045e+001
,,,1.46400000e+008,-5.37862244e+001
,,,1.46800000e+008,-5.52592163e+001
,,,1.47200000e+008,-5.14746208e+001
,,,1.47600000e+008,-5.51491547e+001
,,,1.48000000e+008,-5.46248550e+001
,,,1.48400000e+008,-5.13008575e+001
,,,1.48800000e+008,-4.83105087e+001
,,,1.49200000e+008,-4.52072144e+001
,,,1.49600000e+008,-4.62991219e+001
,,,1.50000000e+008,-4.63546638e+001
,,,1.50400000e+008,-4.70519066e+001
,,,1.50800000e+008,-4.77096062e+001
,,,1.51200000e+008,-5.00006142e+001
,,,1.51600000e+008,-5.07629051e+001
,,,1.52000000e+008,-5.24828987e+001
,,,1.52400000e+008,-5.45730629e+001
,,,1.52800000e+008,-5.46841049e+001
,,,1.53200000e+008,-5.74493103e+001
,,,1.53600000e+008,-5.47838974e+001
,,,1.54000000e+008,-5.70201149e+001
,,,1.54400000e+008,-5.61876869e+001
,,,1.54800000e+008,-5.35413933e+001
,,,1.55200000e+008,-5.93548012e+001
,,,1.55600000e+008,-5.72056236e+001
,,,1.56000000e+008,-5.43910904e+001
,,,1.56400000e+008,-5.63064957e+001
,,,1.56800000e+008,-5.39174347e+001
,,,1.57200000e+008,-5.37054291e+001
,,,1.57600000e+008,-5.24389496e+001
,,,1.58000000e+008,-5.62332115e+001
,,,1.58400000e+008,-5.63004570e+001
,,,1.58800000e+008,-5.07752266e+001
,,,1.59200000e+008,-5.27715607e+001
,,,1.59600000e+008,-5.16905785e+001
,,,1.60000000e+008,-5.26804466e+001
,,,1.60400000e+008,-5.41136627e+001
,,,1.60800000e+008,-5.27194099e+001
,,,1.61200000e+008,-5.62084389e+001
,,,1.61600000e+008,-5.17576485e+001
,,,1.62000000e+008,-5.20085678e+001
,,,1.62400000e+008,-5.08987579e+001
,,,1.62800000e+008,-4.77618256e+001
,,,1.63200000e+008,-5.05147018e+001
,,,1.63600000e+008,-4.80739326e+001
,,,1.64000000e+008,-4.67111473e+001
,,,1.64400000e+008,-4.71348991e+001
,,,1.64800000e+008,-4.63052902e+001
,,,1.65200000e+008,-4.70300941e+001
,,,1.65600000e+008,-4.39961739e+001
,,,1.66000000e+008,-4.20231323e+001
,,,1.66400000e+008,-4.13583641e+001
,,,1.66800000e+008,-4.12172470e+001
,,,1.67200000e+008,-4.15570450e+001
,,,1.67600000e+008,-4.33794670e+001
,,,1.68000000e+008,-4.41798592e+001
,,,1.68400000e+008,-4.41216927e+001
,,,1.68800000e+008,-4.54279900e+001
,,,1.69200000e+008,-4.49958038e+001
,,,1.69600000e+008,-4.65209160e+001
,,,1.70000000e+008,-4.85832062e+001
,,,1.70400000e+008,-5.08566284e+001
,,,1.70800000e+008,-5.34476128e+001
,,,1.71200000e+008,-5.18647499e+001
,,,1.71600000e+008,-5.40855217e+001
,,,1.72000000e+008,-5.15085907e+001
,,,1.72400000e+008,-5.20667801e+001
,,,1.72800000e+008,-5.48357506e+001
,,,1.73200000e+008,-5.03810921e+001
,,,1.73600000e+008,-5.32601814e+001
,,,1.74000000e+008,-5.62807007e+001
,,,1.74400000e+008,-5.65321465e+001
,,,1.74800000e+008,-5.55535202e+001
,,,1.75200000e+008,-5.15152817e+001
,,,1.75600000e+008,-5.56599884e+001
,,,1.76000000e+008,-5.51308250e+001
,,,1.76400000e+008,-5.09591217e+001
,,,1.76800000e+008,-4.97032623e+001
,,,1.77200000e+008,-4.90420685e+001
,,,1.77600000e+008,-5.21124878e+001
,,,1.78000000e+008,-5.05941582e+001
,,,1.78400000e+008,-5.05781975e+001
,,,1.78800000e+008,-5.28671875e+001
,,,1.79200000e+008,-4.98036613e+001
,,,1.79600000e+008,-4.87915459e+001
,,,1.80000000e+008,-4.65665359e+001
,,,1.80400000e+008,-4.60739021e+001
,,,1.80800000e+008,-4.58052673e+001
,,,1.81200000e+008,-4.26024818e+001
,,,1.81600000e+008,-4.17720718e+001
,,,1.82000000e+008,-3.98742867e+001
,,,1.82400000e+008,-3.83090439e+001
,,,1.82800000e+008,-3.74686966e+001
,,,1.83200000e+008,-3.64410706e+001
,,,1.83600000e+008,-3.66251144e+001
,,,1.84000000e+008,-3.67510452e+001
,,,1.84400000e+008,-3.72024918e+001
,,,1.84800000e+008,-3.78849716e+001
,,,1.85200000e+008,-3.79638634e+001
,,,1.85600000e+008,-3.71563301e+001
,,,1.86000000e+008,-3.70654907e+001
,,,1.86400000e+008,-3.78757172e+001
,,,1.86800000e+008,-3.84623375e+001
,,,1.87200000e+008,-3.97612152e+001
,,,1.87600000e+008,-3.96414032e+001
,,,1.88000000e+008,-4.00493927e+001
,,,1.88400000e+008,-4.03682632e+001
,,,1.88800000e+008,-3.99686317e+001
,,,1.89200000e+008,-4.12292862e+001
,,,1.89600000e+008,-4.03005104e+001
,,,1.90000000e+008,-3.97701492e+001
,,,1.90400000e+008,-3.96709404e+001
,,,1.90800000e+008,-3.86478424e+001
,,,1.91200000e+008,-3.96382179e+001
,,,1.91600000e+008,-3.95118141e+001
,,,1.92000000e+008,-3.93545876e+001
,,,1.92400000e+008,-3.91639137e+001
,,,1.92800000e+008,-3.82496872e+001
,,,1.93200000e+008,-3.87693596e+001
,,,1.93600000e+008,-3.80172577e+001
,,,1.94000000e+008,-3.76539764e+001
,,,1.94400000e+008,-3.77009735e+001
,,,1.94800000e+008,-3.73875313e+001
,,,1.95200000e+008,-3.81453018e+001
,,,1.95600000e+008,-3.73182144e+001
,,,1.96000000e+008,-3.63283653e+001
,,,1.96400000e+008,-3.56363945e+001
,,,1.96800000e+008,-3.48787422e+001
,,,1.97200000e+008,-3.50026207e+001
,,,1.97600000e+008,-3.48816299e+001
,,,1.98000000e+008,-3.49559517e+001
,,,1.98400000e+008,-3.54213142e+001
,,,1.98800000e+008,-3.53990746e+001
,,,1.99200000e+008,-3.42442589e+001
,,,1.99600000e+008,-3.30941811e+001
,,,2.00000000e+008,-3.31260681e+001
,,,2.00400000e+008,-3.35340691e+001
,,,2.00800000e+008,-3.38671036e+001
,,,2.01200000e+008,-3.41733131e+001
,,,2.01600000e+008,-3.48744888e+001
,,,2.02000000e+008,-3.51500702e+001
,,,2.02400000e+008,-3.55680313e+001
,,,2.02800000e+008,-3.64129372e+001
,,,2.03200000e+008,-3.62357712e+001
,,,2.03600000e+008,-3.69180679e+001
,,,2.04000000e+008,-3.77667236e+001
,,,2.04400000e+008,-3.75792542e+001
,,,2.04800000e+008,-3.78612175e+001
,,,2.05200000e+008,-3.80440826e+001
,,,2.05600000e+008,-3.82213440e+001
,,,2.06000000e+008,-3.82252083e+001
,,,2.06400000e+008,-3.70244522e+001
,,,2.06800000e+008,-3.56173782e+001
,,,2.07200000e+008,-3.54087029e+001
,,,2.07600000e+008,-3.58514938e+001
,,,2.08000000e+008,-3.54274368e+001
,,,2.08400000e+008,-3.51245384e+001
,,,2.08800000e+008,-3.45917740e+001
,,,2.09200000e+008,-3.41693764e+001
,,,2.09600000e+008,-3.41895218e+001
,,,2.10000000e+008,-3.34921646e+001
,,,2.10400000e+008,-3.31509132e+001
,,,2.10800000e+008,-3.28420715e+001
,,,2.11200000e+008,-3.28203888e+001
,,,2.11600000e+008,-3.30180779e+001
,,,2.12000000e+008,-3.27497444e+001
,,,2.12400000e+008,-3.27665749e+001
,,,2.12800000e+008,-3.27793083e+001
,,,2.13200000e+008,-3.32833061e+001
,,,2.13600000e+008,-3.34991188e+001
,,,2.14000000e+008,-3.33492622e+001
,,,2.14400000e+008,-3.35770226e+001
,,,2.14800000e+008,-3.36510506e+001
,,,2.15200000e+008,-3.41731300e+001
,,,2.15600000e+008,-3.42908859e+001
,,,2.16000000e+008,-3.47028694e+001
,,,2.16400000e+008,-3.55422211e+001
,,,2.16800000e+008,-3.59264565e+001
,,,2.17200000e+008,-3.61478424e+001
,,,2.17600000e+008,-3.51030083e+001
,,,2.18000000e+008,-3.47639008e+001
,,,2.18400000e+008,-3.47376099e+001
,,,2.18800000e+008,-3.43861122e+001
,,,2.19200000e+008,-3.52035103e+001
,,,2.19600000e+008,-3.53186417e+001
,,,2.20000000e+008,-3.59062538e+001
