Data/20220822/UCLA_to_T1A_VPOL_60_001_Math1.csv

"Record Length",6250,"Points",0.00000000e+000,-1.15870409e+001
"Sample Interval",4.00000000e+005,Hz,4.00000000e+005,-1.81569347e+001
"Trigger Point",0,"Samples",8.00000000e+005,-2.00579147e+001
"Trigger Time",0.00000000e+000,Hz,1.20000000e+006,-2.35991840e+001
"",,,1.60000000e+006,-3.00775795e+001
"Horizontal Offset",0.00000000e+000,Hz,2.00000000e+006,-6.86032333e+001
,,,2.40000000e+006,-3.36580658e+001
,,,2.80000000e+006,-3.07518616e+001
,,,3.20000000e+006,-3.24373474e+001
,,,3.60000000e+006,-3.72235680e+001
,,,4.00000000e+006,-6.93447800e+001
,,,4.40000000e+006,-3.91333466e+001
,,,4.80000000e+006,-3.54410019e+001
,,,5.20000000e+006,-3.64197121e+001
,,,5.60000000e+006,-4.15399475e+001
,,,6.00000000e+006,-5.97118645e+001
,,,6.40000000e+006,-4.22082291e+001
,,,6.80000000e+006,-3.86002617e+001
,,,7.20000000e+006,-3.88083916e+001
,,,7.60000000e+006,-4.31827431e+001
,,,8.00000000e+006,-6.93298492e+001
,,,8.40000000e+006,-4.38305283e+001
,,,8.80000000e+006,-4.06249733e+001
,,,9.20000000e+006,-4.19519310e+001
,,,9.60000000e+006,-4.54167671e+001
,,,1.00000000e+007,-6.23953972e+001
,,,1.04000000e+007,-4.59848747e+001
,,,1.08000000e+007,-4.29589844e+001
,,,1.12000000e+007,-4.27634163e+001
,,,1.16000000e+007,-4.79333611e+001
,,,1.20000000e+007,-7.93672638e+001
,,,1.24000000e+007,-4.76994400e+001
,,,1.28000000e+007,-4.46017952e+001
,,,1.32000000e+007,-4.44628334e+001
,,,1.36000000e+007,-4.85112114e+001
,,,1.40000000e+007,-6.98321838e+001
,,,1.44000000e+007,-4.80407944e+001
,,,1.48000000e+007,-4.60964622e+001
,,,1.52000000e+007,-4.59825134e+001
,,,1.56000000e+007,-4.89923058e+001
,,,1.60000000e+007,-7.57248306e+001
,,,1.64000000e+007,-5.00561104e+001
,,,1.68000000e+007,-4.67443810e+001
,,,1.72000000e+007,-4.65136375e+001
,,,1.76000000e+007,-5.33204880e+001
,,,1.80000000e+007,-6.01149750e+001
,,,1.84000000e+007,-5.18769722e+001
,,,1.88000000e+007,-4.73295631e+001
,,,1.92000000e+007,-4.72371254e+001
,,,1.96000000e+007,-5.16485977e+001
,,,2.00000000e+007,-7.05246658e+001
,,,2.04000000e+007,-5.04585800e+001
,,,2.08000000e+007,-4.96615028e+001
,,,2.12000000e+007,-4.79878311e+001
,,,2.16000000e+007,-5.39840393e+001
,,,2.20000000e+007,-6.11252022e+001
,,,2.24000000e+007,-5.18904190e+001
,,,2.28000000e+007,-4.94103317e+001
,,,2.32000000e+007,-5.13350067e+001
,,,2.36000000e+007,-5.44093170e+001
,,,2.40000000e+007,-6.30891342e+001
,,,2.44000000e+007,-5.30766716e+001
,,,2.48000000e+007,-5.02784424e+001
,,,2.52000000e+007,-5.19619446e+001
,,,2.56000000e+007,-5.35381927e+001
,,,2.60000000e+007,-6.64850082e+001
,,,2.64000000e+007,-5.70344925e+001
,,,2.68000000e+007,-5.20167770e+001
,,,2.72000000e+007,-4.94734802e+001
,,,2.76000000e+007,-5.26899338e+001
,,,2.80000000e+007,-6.90208588e+001
,,,2.84000000e+007,-5.51042404e+001
,,,2.88000000e+007,-4.95893364e+001
,,,2.92000000e+007,-5.13848839e+001
,,,2.96000000e+007,-5.44001579e+001
,,,3.00000000e+007,-6.06203003e+001
,,,3.04000000e+007,-6.01857300e+001
,,,3.08000000e+007,-5.06539612e+001
,,,3.12000000e+007,-5.31195526e+001
,,,3.16000000e+007,-5.55962753e+001
,,,3.20000000e+007,-6.91044693e+001
,,,3.24000000e+007,-5.71709824e+001
,,,3.28000000e+007,-5.22486763e+001
,,,3.32000000e+007,-5.41012993e+001
,,,3.36000000e+007,-5.51794472e+001
,,,3.40000000e+007,-6.31542969e+001
,,,3.44000000e+007,-5.58817635e+001
,,,3.48000000e+007,-5.23997231e+001
,,,3.52000000e+007,-5.16405983e+001
,,,3.56000000e+007,-5.90484238e+001
,,,3.60000000e+007,-6.27213173e+001
,,,3.64000000e+007,-5.57512207e+001
,,,3.68000000e+007,-5.06863136e+001
,,,3.72000000e+007,-5.48900108e+001
,,,3.76000000e+007,-6.05832253e+001
,,,3.80000000e+007,-6.22004356e+001
,,,3.84000000e+007,-5.73526039e+001
,,,3.88000000e+007,-5.50351982e+001
,,,3.92000000e+007,-5.41360588e+001
,,,3.96000000e+007,-5.69164658e+001
,,,4.00000000e+007,-7.14915619e+001
,,,4.04000000e+007,-5.79632759e+001
,,,4.08000000e+007,-5.71544609e+001
,,,4.12000000e+007,-5.31934814e+001
,,,4.16000000e+007,-5.80049591e+001
,,,4.20000000e+007,-6.84064484e+001
,,,4.24000000e+007,-6.20934677e+001
,,,4.28000000e+007,-5.54687958e+001
,,,4.32000000e+007,-5.33593102e+001
,,,4.36000000e+007,-5.29544601e+001
,,,4.40000000e+007,-7.33347549e+001
,,,4.44000000e+007,-5.52011223e+001
,,,4.48000000e+007,-5.55758171e+001
,,,4.52000000e+007,-5.52966156e+001
,,,4.56000000e+007,-5.75869560e+001
,,,4.60000000e+007,-6.60772400e+001
,,,4.64000000e+007,-5.39552612e+001
,,,4.68000000e+007,-5.90871010e+001
,,,4.72000000e+007,-5.32259407e+001
,,,4.76000000e+007,-5.51185570e+001
,,,4.80000000e+007,-6.49806366e+001
,,,4.84000000e+007,-5.50925598e+001
,,,4.88000000e+007,-5.59790649e+001
,,,4.92000000e+007,-5.60345688e+001
,,,4.96000000e+007,-6.29234047e+001
,,,5.00000000e+007,-7.29819412e+001
,,,5.04000000e+007,-5.54223557e+001
,,,5.08000000e+007,-5.63232765e+001
,,,5.12000000e+007,-5.90276680e+001
,,,5.16000000e+007,-6.76175995e+001
,,,5.20000000e+007,-6.78064880e+001
,,,5.24000000e+007,-6.15058746e+001
,,,5.28000000e+007,-5.69313469e+001
,,,5.32000000e+007,-5.72268219e+001
,,,5.36000000e+007,-5.83262482e+001
,,,5.40000000e+007,-6.58429260e+001
,,,5.44000000e+007,-6.68988113e+001
,,,5.48000000e+007,-5.61271553e+001
,,,5.52000000e+007,-5.46234741e+001
,,,5.56000000e+007,-6.20014687e+001
,,,5.60000000e+007,-6.53699417e+001
,,,5.64000000e+007,-5.86942940e+001
,,,5.68000000e+007,-6.45783920e+001
,,,5.72000000e+007,-5.84585609e+001
,,,5.76000000e+007,-5.92370567e+001
,,,5.80000000e+007,-7.27747879e+001
,,,5.84000000e+007,-5.89526291e+001
,,,5.88000000e+007,-5.69929314e+001
,,,5.92000000e+007,-5.97754211e+001
,,,5.96000000e+007,-5.74971161e+001
,,,6.00000000e+007,-6.08608284e+001
,,,6.04000000e+007,-5.79312782e+001
,,,6.08000000e+007,-6.22302895e+001
,,,6.12000000e+007,-5.77711678e+001
,,,6.16000000e+007,-5.62834396e+001
,,,6.20000000e+007,-6.35644722e+001
,,,6.24000000e+007,-6.02964249e+001
,,,6.28000000e+007,-5.39895096e+001
,,,6.32000000e+007,-6.45914536e+001
,,,6.36000000e+007,-5.77730789e+001
,,,6.40000000e+007,-6.79798355e+001
,,,6.44000000e+007,-6.27185974e+001
,,,6.48000000e+007,-5.47866440e+001
,,,6.52000000e+007,-5.56075249e+001
,,,6.56000000e+007,-6.10040321e+001
,,,6.60000000e+007,-6.93340836e+001
,,,6.64000000e+007,-5.68174133e+001
,,,6.68000000e+007,-5.38478279e+001
,,,6.72000000e+007,-6.14039650e+001
,,,6.76000000e+007,-6.11090279e+001
,,,6.80000000e+007,-7.24048386e+001
,,,6.84000000e+007,-5.79725952e+001
,,,6.88000000e+007,-5.84217720e+001
,,,6.92000000e+007,-5.80092964e+001
,,,6.96000000e+007,-6.72404938e+001
,,,7.00000000e+007,-6.33470268e+001
,,,7.04000000e+007,-6.13405914e+001
,,,7.08000000e+007,-5.90042648e+001
,,,7.12000000e+007,-5.85069389e+001
,,,7.16000000e+007,-6.49270554e+001
,,,7.20000000e+007,-6.39989357e+001
,,,7.24000000e+007,-5.50715370e+001
,,,7.28000000e+007,-6.29420471e+001
,,,7.32000000e+007,-6.25065613e+001
,,,7.36000000e+007,-6.63066559e+001
,,,7.40000000e+007,-6.47190399e+001
,,,7.44000000e+007,-6.55564346e+001
,,,7.48000000e+007,-6.16134377e+001
,,,7.52000000e+007,-5.86068573e+001
,,,7.56000000e+007,-6.04893837e+001
,,,7.60000000e+007,-6.70968094e+001
,,,7.64000000e+007,-5.89979630e+001
,,,7.68000000e+007,-6.52983551e+001
,,,7.72000000e+007,-6.27821159e+001
,,,7.76000000e+007,-5.77079582e+001
,,,7.80000000e+007,-7.45645981e+001
,,,7.84000000e+007,-5.79700279e+001
,,,7.88000000e+007,-6.44091721e+001
,,,7.92000000e+007,-6.42714310e+001
,,,7.96000000e+007,-5.73671036e+001
,,,8.00000000e+007,-6.19289818e+001
,,,8.04000000e+007,-7.00391006e+001
,,,8.08000000e+007,-5.91236572e+001
,,,8.12000000e+007,-6.21324348e+001
,,,8.16000000e+007,-6.10576897e+001
,,,8.20000000e+007,-6.71148071e+001
,,,8.24000000e+007,-7.06052246e+001
,,,8.28000000e+007,-6.58593979e+001
,,,8.32000000e+007,-5.94333153e+001
,,,8.36000000e+007,-6.33408623e+001
,,,8.40000000e+007,-6.31894798e+001
,,,8.44000000e+007,-6.42913055e+001
,,,8.48000000e+007,-5.92436485e+001
,,,8.52000000e+007,-6.39200325e+001
,,,8.56000000e+007,-6.09184837e+001
,,,8.60000000e+007,-6.65078506e+001
,,,8.64000000e+007,-5.92306976e+001
,,,8.68000000e+007,-5.84584084e+001
,,,8.72000000e+007,-6.83134384e+001
,,,8.76000000e+007,-5.79152870e+001
,,,8.80000000e+007,-6.98246765e+001
,,,8.84000000e+007,-6.47624054e+001
,,,8.88000000e+007,-5.97747993e+001
,,,8.92000000e+007,-5.88743782e+001
,,,8.96000000e+007,-6.10340805e+001
,,,9.00000000e+007,-5.72054825e+001
,,,9.04000000e+007,-6.58912354e+001
,,,9.08000000e+007,-5.76617165e+001
,,,9.12000000e+007,-6.92061615e+001
,,,9.16000000e+007,-6.01650963e+001
,,,9.20000000e+007,-6.94969864e+001
,,,9.24000000e+007,-6.44525681e+001
,,,9.28000000e+007,-5.55128632e+001
,,,9.32000000e+007,-5.76260376e+001
,,,9.36000000e+007,-5.64506111e+001
,,,9.40000000e+007,-4.54549561e+001
,,,9.44000000e+007,-6.76197586e+001
,,,9.48000000e+007,-4.95105133e+001
,,,9.52000000e+007,-4.92189522e+001
,,,9.56000000e+007,-5.84765549e+001
,,,9.60000000e+007,-5.76638374e+001
,,,9.64000000e+007,-5.14685364e+001
,,,9.68000000e+007,-5.74685555e+001
,,,9.72000000e+007,-4.80855026e+001
,,,9.76000000e+007,-5.72727432e+001
,,,9.80000000e+007,-7.13504028e+001
,,,9.84000000e+007,-5.88476830e+001
,,,9.88000000e+007,-6.16755142e+001
,,,9.92000000e+007,-5.70345078e+001
,,,9.96000000e+007,-4.53051414e+001
,,,1.00000000e+008,-5.85674820e+001
,,,1.00400000e+008,-5.23058891e+001
,,,1.00800000e+008,-5.82415771e+001
,,,1.01200000e+008,-4.74957275e+001
,,,1.01600000e+008,-5.66960220e+001
,,,1.02000000e+008,-5.06916580e+001
,,,1.02400000e+008,-6.02057266e+001
,,,1.02800000e+008,-6.19086609e+001
,,,1.03200000e+008,-6.02414055e+001
,,,1.03600000e+008,-6.49026718e+001
,,,1.04000000e+008,-6.28347130e+001
,,,1.04400000e+008,-5.65156784e+001
,,,1.04800000e+008,-6.26199722e+001
,,,1.05200000e+008,-5.34210815e+001
,,,1.05600000e+008,-5.65312233e+001
,,,1.06000000e+008,-5.78548584e+001
,,,1.06400000e+008,-5.31969185e+001
,,,1.06800000e+008,-5.71400719e+001
,,,1.07200000e+008,-4.86138077e+001
,,,1.07600000e+008,-4.48918152e+001
,,,1.08000000e+008,-6.14857254e+001
,,,1.08400000e+008,-7.14126434e+001
,,,1.08800000e+008,-6.91747894e+001
,,,1.09200000e+008,-6.06090240e+001
,,,1.09600000e+008,-6.36256104e+001
,,,1.10000000e+008,-5.83327942e+001
,,,1.10400000e+008,-6.04847870e+001
,,,1.10800000e+008,-5.91614876e+001
,,,1.11200000e+008,-5.79325447e+001
,,,1.11600000e+008,-5.85805168e+001
,,,1.12000000e+008,-5.49731255e+001
,,,1.12400000e+008,-5.32853088e+001
,,,1.12800000e+008,-5.29849586e+001
,,,1.13200000e+008,-6.30301437e+001
,,,1.13600000e+008,-5.51131401e+001
,,,1.14000000e+008,-5.78335495e+001
,,,1.14400000e+008,-7.87916260e+001
,,,1.14800000e+008,-5.90295296e+001
,,,1.15200000e+008,-6.58260956e+001
,,,1.15600000e+008,-5.82933731e+001
,,,1.16000000e+008,-6.21394196e+001
,,,1.16400000e+008,-6.33301468e+001
,,,1.16800000e+008,-5.71441307e+001
,,,1.17200000e+008,-6.49395599e+001
,,,1.17600000e+008,-6.13105049e+001
,,,1.18000000e+008,-6.36579247e+001
,,,1.18400000e+008,-6.43695068e+001
,,,1.18800000e+008,-5.70434303e+001
,,,1.19200000e+008,-6.61785812e+001
,,,1.19600000e+008,-6.46344223e+001
,,,1.20000000e+008,-6.20639114e+001
,,,1.20400000e+008,-6.10337868e+001
,,,1.20800000e+008,-6.70326996e+001
,,,1.21200000e+008,-6.39848251e+001
,,,1.21600000e+008,-6.48351288e+001
,,,1.22000000e+008,-6.24665718e+001
,,,1.22400000e+008,-7.48156586e+001
,,,1.22800000e+008,-6.06428528e+001
,,,1.23200000e+008,-5.92198982e+001
,,,1.23600000e+008,-5.72253418e+001
,,,1.24000000e+008,-6.51288223e+001
,,,1.24400000e+008,-6.77216568e+001
,,,1.24800000e+008,-6.63290329e+001
,,,1.25200000e+008,-5.76251068e+001
,,,1.25600000e+008,-7.44907379e+001
,,,1.26000000e+008,-6.48348236e+001
,,,1.26400000e+008,-6.21223145e+001
,,,1.26800000e+008,-6.11638527e+001
,,,1.27200000e+008,-5.99974289e+001
,,,1.27600000e+008,-5.66527405e+001
,,,1.28000000e+008,-6.18268013e+001
,,,1.28400000e+008,-6.02100754e+001
,,,1.28800000e+008,-5.51756821e+001
,,,1.29200000e+008,-5.29019508e+001
,,,1.29600000e+008,-5.44382477e+001
,,,1.30000000e+008,-5.02481613e+001
,,,1.30400000e+008,-4.92177353e+001
,,,1.30800000e+008,-4.84648285e+001
,,,1.31200000e+008,-4.65866623e+001
,,,1.31600000e+008,-5.12046738e+001
,,,1.32000000e+008,-5.11920471e+001
,,,1.32400000e+008,-5.24904747e+001
,,,1.32800000e+008,-5.10205803e+001
,,,1.33200000e+008,-4.96039963e+001
,,,1.33600000e+008,-5.35328903e+001
,,,1.34000000e+008,-5.55126648e+001
,,,1.34400000e+008,-5.91820717e+001
,,,1.34800000e+008,-5.89307365e+001
,,,1.35200000e+008,-5.95900764e+001
,,,1.35600000e+008,-5.55494118e+001
,,,1.36000000e+008,-6.05638275e+001
,,,1.36400000e+008,-6.54488602e+001
,,,1.36800000e+008,-6.74970779e+001
,,,1.37200000e+008,-5.96461067e+001
,,,1.37600000e+008,-6.12699890e+001
,,,1.38000000e+008,-6.48519974e+001
,,,1.38400000e+008,-6.41732635e+001
,,,1.38800000e+008,-5.82485771e+001
,,,1.39200000e+008,-7.16136856e+001
,,,1.39600000e+008,-6.59078751e+001
,,,1.40000000e+008,-6.57928391e+001
,,,1.40400000e+008,-5.81753807e+001
,,,1.40800000e+008,-5.73135452e+001
,,,1.41200000e+008,-6.45041885e+001
,,,1.41600000e+008,-5.59651604e+001
,,,1.42000000e+008,-5.98826103e+001
,,,1.42400000e+008,-5.77082329e+001
,,,1.42800000e+008,-5.91180000e+001
,,,1.43200000e+008,-6.55674744e+001
,,,1.43600000e+008,-5.58162079e+001
,,,1.44000000e+008,-5.79710922e+001
,,,1.44400000e+008,-5.68075829e+001
,,,1.44800000e+008,-5.62229843e+001
,,,1.45200000e+008,-5.60971107e+001
,,,1.45600000e+008,-5.08874931e+001
,,,1.46000000e+008,-5.03303947e+001
,,,1.46400000e+008,-5.03337669e+001
,,,1.46800000e+008,-4.78113976e+001
,,,1.47200000e+008,-4.86851997e+001
,,,1.47600000e+008,-4.42275963e+001
,,,1.48000000e+008,-4.31968880e+001
,,,1.48400000e+008,-4.23818016e+001
,,,1.48800000e+008,-4.04623985e+001
,,,1.49200000e+008,-4.07571297e+001
,,,1.49600000e+008,-4.13311386e+001
,,,1.50000000e+008,-4.30459824e+001
,,,1.50400000e+008,-4.33914948e+001
,,,1.50800000e+008,-4.44909439e+001
,,,1.51200000e+008,-4.58566666e+001
,,,1.51600000e+008,-4.93436546e+001
,,,1.52000000e+008,-5.21514130e+001
,,,1.52400000e+008,-5.34148865e+001
,,,1.52800000e+008,-5.29078789e+001
,,,1.53200000e+008,-5.12329750e+001
,,,1.53600000e+008,-5.67136879e+001
,,,1.54000000e+008,-5.41757622e+001
,,,1.54400000e+008,-5.55737686e+001
,,,1.54800000e+008,-5.87642708e+001
,,,1.55200000e+008,-5.54965019e+001
,,,1.55600000e+008,-6.30775795e+001
,,,1.56000000e+008,-5.43618507e+001
,,,1.56400000e+008,-5.29480972e+001
,,,1.56800000e+008,-5.46958923e+001
,,,1.57200000e+008,-5.23091393e+001
,,,1.57600000e+008,-6.12544174e+001
,,,1.58000000e+008,-5.68103218e+001
,,,1.58400000e+008,-5.37695122e+001
,,,1.58800000e+008,-5.32077866e+001
,,,1.59200000e+008,-5.18096809e+001
,,,1.59600000e+008,-6.16258354e+001
,,,1.60000000e+008,-5.64939346e+001
,,,1.60400000e+008,-5.45792313e+001
,,,1.60800000e+008,-5.53336983e+001
,,,1.61200000e+008,-5.35572662e+001
,,,1.61600000e+008,-5.71979179e+001
,,,1.62000000e+008,-5.09969330e+001
,,,1.62400000e+008,-5.61953773e+001
,,,1.62800000e+008,-5.89881363e+001
,,,1.63200000e+008,-5.82220192e+001
,,,1.63600000e+008,-5.98242264e+001
,,,1.64000000e+008,-4.89004021e+001
,,,1.64400000e+008,-4.86117973e+001
,,,1.64800000e+008,-4.74839058e+001
,,,1.65200000e+008,-4.17758331e+001
,,,1.65600000e+008,-4.38074875e+001
,,,1.66000000e+008,-4.16421890e+001
,,,1.66400000e+008,-4.05108337e+001
,,,1.66800000e+008,-4.06780396e+001
,,,1.67200000e+008,-3.96337852e+001
,,,1.67600000e+008,-4.08103561e+001
,,,1.68000000e+008,-4.27072258e+001
,,,1.68400000e+008,-4.39462547e+001
,,,1.68800000e+008,-4.48976555e+001
,,,1.69200000e+008,-4.81658859e+001
,,,1.69600000e+008,-4.64317207e+001
,,,1.70000000e+008,-4.85063438e+001
,,,1.70400000e+008,-4.79787598e+001
,,,1.70800000e+008,-4.44873962e+001
,,,1.71200000e+008,-4.43284950e+001
,,,1.71600000e+008,-4.31209145e+001
,,,1.72000000e+008,-4.52362785e+001
,,,1.72400000e+008,-4.80587120e+001
,,,1.72800000e+008,-4.73967247e+001
,,,1.73200000e+008,-5.01874924e+001
,,,1.73600000e+008,-4.64340897e+001
,,,1.74000000e+008,-4.76063232e+001
,,,1.74400000e+008,-4.87693367e+001
,,,1.74800000e+008,-4.75297279e+001
,,,1.75200000e+008,-5.04085732e+001
,,,1.75600000e+008,-4.73726082e+001
,,,1.76000000e+008,-5.17305679e+001
,,,1.76400000e+008,-5.11319351e+001
,,,1.76800000e+008,-4.60870781e+001
,,,1.77200000e+008,-4.91479836e+001
,,,1.77600000e+008,-4.68852730e+001
,,,1.78000000e+008,-4.80449219e+001
,,,1.78400000e+008,-4.93289185e+001
,,,1.78800000e+008,-4.63901787e+001
,,,1.79200000e+008,-4.91821136e+001
,,,1.79600000e+008,-4.60589523e+001
,,,1.80000000e+008,-4.34341240e+001
,,,1.80400000e+008,-4.16709366e+001
,,,1.80800000e+008,-4.10711288e+001
,,,1.81200000e+008,-4.20834999e+001
,,,1.81600000e+008,-4.34827766e+001
,,,1.82000000e+008,-4.57956314e+001
,,,1.82400000e+008,-4.59720039e+001
,,,1.82800000e+008,-4.78893852e+001
,,,1.83200000e+008,-5.14434547e+001
,,,1.83600000e+008,-4.79001808e+001
,,,1.84000000e+008,-4.38670464e+001
,,,1.84400000e+008,-4.12350502e+001
,,,1.84800000e+008,-4.02370796e+001
,,,1.85200000e+008,-3.97807465e+001
,,,1.85600000e+008,-3.95708122e+001
,,,1.86000000e+008,-4.06046371e+001
,,,1.86400000e+008,-4.34360962e+001
,,,1.86800000e+008,-4.73355560e+001
,,,1.87200000e+008,-4.59711571e+001
,,,1.87600000e+008,-4.47649727e+001
,,,1.88000000e+008,-4.22044449e+001
,,,1.88400000e+008,-4.14688072e+001
,,,1.88800000e+008,-4.24002304e+001
,,,1.89200000e+008,-4.15604744e+001
,,,1.89600000e+008,-4.23176956e+001
,,,1.90000000e+008,-4.20876198e+001
,,,1.90400000e+008,-4.32983055e+001
,,,1.90800000e+008,-4.63477707e+001
,,,1.91200000e+008,-4.57302399e+001
,,,1.91600000e+008,-4.47203522e+001
,,,1.92000000e+008,-4.27937469e+001
,,,1.92400000e+008,-4.13495674e+001
,,,1.92800000e+008,-4.11420021e+001
,,,1.93200000e+008,-4.17035599e+001
,,,1.93600000e+008,-4.35761375e+001
,,,1.94000000e+008,-4.40384865e+001
,,,1.94400000e+008,-4.27061844e+001
,,,1.94800000e+008,-4.39483032e+001
,,,1.95200000e+008,-4.59102516e+001
,,,1.95600000e+008,-4.43083611e+001
,,,1.96000000e+008,-4.33681946e+001
,,,1.96400000e+008,-4.26411362e+001
,,,1.96800000e+008,-4.31146622e+001
,,,1.97200000e+008,-4.55081367e+001
,,,1.97600000e+008,-4.44623108e+001
,,,1.98000000e+008,-4.57460670e+001
,,,1.98400000e+008,-4.60948448e+001
,,,1.98800000e+008,-4.67277336e+001
,,,1.99200000e+008,-5.10781174e+001
,,,1.99600000e+008,-4.88818016e+001
,,,2.00000000e+008,-5.12901115e+001
,,,2.00400000e+008,-4.88644905e+001
,,,2.00800000e+008,-4.82075119e+001
,,,2.01200000e+008,-5.19577293e+001
,,,2.01600000e+008,-6.95143738e+001
,,,2.02000000e+008,-5.34056435e+001
,,,2.02400000e+008,-4.85696602e+001
,,,2.02800000e+008,-4.34152908e+001
,,,2.03200000e+008,-4.47766533e+001
,,,2.03600000e+008,-4.30841408e+001
,,,2.04000000e+008,-4.71068954e+001
,,,2.04400000e+008,-4.98139687e+001
,,,2.04800000e+008,-4.17535172e+001
,,,2.05200000e+008,-4.01359711e+001
,,,2.05600000e+008,-4.08743401e+001
,,,2.06000000e+008,-4.39076843e+001
,,,2.06400000e+008,-3.92462234e+001
,,,2.06800000e+008,-3.53472099e+001
,,,2.07200000e+008,-3.87606392e+001
,,,2.07600000e+008,-3.79247398e+001
,,,2.08000000e+008,-3.99819183e+001
,,,2.08400000e+008,-3.74027252e+001
,,,2.08800000e+008,-4.01432495e+001
,,,2.09200000e+008,-4.94637909e+001
,,,2.09600000e+008,-4.43878593e+001
,,,2.10000000e+008,-4.04966621e+001
,,,2.10400000e+008,-4.10640793e+001
,,,2.10800000e+008,-3.95779228e+001
,,,2.11200000e+008,-3.91968575e+001
,,,2.11600000e+008,-3.78859253e+001
,,,2.12000000e+008,-3.79515228e+001
,,,2.12400000e+008,-3.87104149e+001
,,,2.12800000e+008,-4.05653915e+001
,,,2.13200000e+008,-4.17569275e+001
,,,2.13600000e+008,-4.25514107e+001
,,,2.14000000e+008,-4.37595367e+001
,,,2.14400000e+008,-4.34193268e+001
,,,2.14800000e+008,-4.25499649e+001
,,,2.15200000e+008,-4.12650757e+001
,,,2.15600000e+008,-4.06649437e+001
,,,2.16000000e+008,-3.94080772e+001
,,,2.16400000e+008,-3.81043587e+001
,,,2.16800000e+008,-3.86767159e+001
,,,2.17200000e+008,-3.86543121e+001
,,,2.17600000e+008,-4.01042976e+001
,,,2.18000000e+008,-4.14214592e+001
,,,2.18400000e+008,-4.08294067e+001
,,,2.18800000e+008,-4.04602852e+001
,,,2.19200000e+008,-3.85306625e+001
,,,2.19600000e+008,-3.85685577e+001
,,,2.20000000e+008,-3.82216225e+001
