Data/20220822/UCLA_to_T1A_VPOL_30_001_Math2.csv

"Record Length",6250,"Points",0.00000000e+000,-7.20361786e+001
"Sample Interval",4.00000000e+005,Hz,4.00000000e+005,-7.84352798e+001
"Trigger Point",0,"Samples",8.00000000e+005,-8.08657455e+001
"Trigger Time",0.00000000e+000,Hz,1.20000000e+006,-8.35479126e+001
"",,,1.60000000e+006,-9.17136612e+001
"Horizontal Offset",0.00000000e+000,Hz,2.00000000e+006,-1.12582138e+002
,,,2.40000000e+006,-9.29245453e+001
,,,2.80000000e+006,-9.36750259e+001
,,,3.20000000e+006,-9.06653519e+001
,,,3.60000000e+006,-9.90770264e+001
,,,4.00000000e+006,-1.11055077e+002
,,,4.40000000e+006,-9.84526749e+001
,,,4.80000000e+006,-9.53071442e+001
,,,5.20000000e+006,-9.47843475e+001
,,,5.60000000e+006,-1.00887741e+002
,,,6.00000000e+006,-1.08954201e+002
,,,6.40000000e+006,-1.00754112e+002
,,,6.80000000e+006,-9.92241287e+001
,,,7.20000000e+006,-1.02191574e+002
,,,7.60000000e+006,-1.00753685e+002
,,,8.00000000e+006,-1.11852715e+002
,,,8.40000000e+006,-1.02413857e+002
,,,8.80000000e+006,-1.00040070e+002
,,,9.20000000e+006,-1.03425728e+002
,,,9.60000000e+006,-1.02811356e+002
,,,1.00000000e+007,-1.07635353e+002
,,,1.04000000e+007,-1.05933319e+002
,,,1.08000000e+007,-1.00124496e+002
,,,1.12000000e+007,-1.09712151e+002
,,,1.16000000e+007,-1.02824036e+002
,,,1.20000000e+007,-1.09079475e+002
,,,1.24000000e+007,-1.12644081e+002
,,,1.28000000e+007,-1.03024918e+002
,,,1.32000000e+007,-1.08742836e+002
,,,1.36000000e+007,-1.01532951e+002
,,,1.40000000e+007,-1.04000259e+002
,,,1.44000000e+007,-1.35795364e+002
,,,1.48000000e+007,-1.03174065e+002
,,,1.52000000e+007,-1.12999649e+002
,,,1.56000000e+007,-1.03298073e+002
,,,1.60000000e+007,-1.07429337e+002
,,,1.64000000e+007,-1.20530609e+002
,,,1.68000000e+007,-1.04606285e+002
,,,1.72000000e+007,-1.15096588e+002
,,,1.76000000e+007,-1.04079971e+002
,,,1.80000000e+007,-1.06924911e+002
,,,1.84000000e+007,-1.16783760e+002
,,,1.88000000e+007,-1.04574745e+002
,,,1.92000000e+007,-1.04710342e+002
,,,1.96000000e+007,-1.06973480e+002
,,,2.00000000e+007,-1.05869003e+002
,,,2.04000000e+007,-1.16821823e+002
,,,2.08000000e+007,-1.06684196e+002
,,,2.12000000e+007,-1.07330109e+002
,,,2.16000000e+007,-1.06292328e+002
,,,2.20000000e+007,-1.08527748e+002
,,,2.24000000e+007,-1.08887878e+002
,,,2.28000000e+007,-1.11615997e+002
,,,2.32000000e+007,-1.05802406e+002
,,,2.36000000e+007,-1.05211060e+002
,,,2.40000000e+007,-1.13226791e+002
,,,2.44000000e+007,-1.10676109e+002
,,,2.48000000e+007,-1.09690712e+002
,,,2.52000000e+007,-1.05658615e+002
,,,2.56000000e+007,-1.08201126e+002
,,,2.60000000e+007,-1.08659210e+002
,,,2.64000000e+007,-1.08484505e+002
,,,2.68000000e+007,-1.17512543e+002
,,,2.72000000e+007,-1.05276360e+002
,,,2.76000000e+007,-1.14441742e+002
,,,2.80000000e+007,-1.09111404e+002
,,,2.84000000e+007,-1.09091354e+002
,,,2.88000000e+007,-1.18837891e+002
,,,2.92000000e+007,-1.04384491e+002
,,,2.96000000e+007,-1.13493477e+002
,,,3.00000000e+007,-1.13234932e+002
,,,3.04000000e+007,-1.07482140e+002
,,,3.08000000e+007,-1.21039063e+002
,,,3.12000000e+007,-1.08063683e+002
,,,3.16000000e+007,-1.19321106e+002
,,,3.20000000e+007,-1.14863365e+002
,,,3.24000000e+007,-1.08188187e+002
,,,3.28000000e+007,-1.27303139e+002
,,,3.32000000e+007,-1.08144165e+002
,,,3.36000000e+007,-1.21808937e+002
,,,3.40000000e+007,-1.12625694e+002
,,,3.44000000e+007,-1.06438637e+002
,,,3.48000000e+007,-1.18006149e+002
,,,3.52000000e+007,-1.12063782e+002
,,,3.56000000e+007,-1.14648987e+002
,,,3.60000000e+007,-1.12677971e+002
,,,3.64000000e+007,-1.08896408e+002
,,,3.68000000e+007,-1.16877190e+002
,,,3.72000000e+007,-1.07857941e+002
,,,3.76000000e+007,-1.16217751e+002
,,,3.80000000e+007,-1.08602219e+002
,,,3.84000000e+007,-1.07408386e+002
,,,3.88000000e+007,-1.11743774e+002
,,,3.92000000e+007,-1.10750038e+002
,,,3.96000000e+007,-1.11913483e+002
,,,4.00000000e+007,-1.09874496e+002
,,,4.04000000e+007,-1.07017456e+002
,,,4.08000000e+007,-1.09679085e+002
,,,4.12000000e+007,-1.12459312e+002
,,,4.16000000e+007,-1.11325409e+002
,,,4.20000000e+007,-1.11380005e+002
,,,4.24000000e+007,-1.10381386e+002
,,,4.28000000e+007,-1.13176132e+002
,,,4.32000000e+007,-1.10334114e+002
,,,4.36000000e+007,-1.08431175e+002
,,,4.40000000e+007,-1.13572144e+002
,,,4.44000000e+007,-1.10041290e+002
,,,4.48000000e+007,-1.06136276e+002
,,,4.52000000e+007,-1.16689392e+002
,,,4.56000000e+007,-1.13624664e+002
,,,4.60000000e+007,-1.15554733e+002
,,,4.64000000e+007,-1.11918022e+002
,,,4.68000000e+007,-1.08645164e+002
,,,4.72000000e+007,-1.18310165e+002
,,,4.76000000e+007,-1.07837128e+002
,,,4.80000000e+007,-1.16700378e+002
,,,4.84000000e+007,-1.22068619e+002
,,,4.88000000e+007,-1.06799088e+002
,,,4.92000000e+007,-1.14471245e+002
,,,4.96000000e+007,-1.09331497e+002
,,,5.00000000e+007,-1.13731888e+002
,,,5.04000000e+007,-1.21235733e+002
,,,5.08000000e+007,-1.08571228e+002
,,,5.12000000e+007,-1.22465584e+002
,,,5.16000000e+007,-1.09005234e+002
,,,5.20000000e+007,-1.12620422e+002
,,,5.24000000e+007,-1.17986946e+002
,,,5.28000000e+007,-1.09345856e+002
,,,5.32000000e+007,-1.10849022e+002
,,,5.36000000e+007,-1.07739365e+002
,,,5.40000000e+007,-1.08725067e+002
,,,5.44000000e+007,-1.13555344e+002
,,,5.48000000e+007,-1.09361382e+002
,,,5.52000000e+007,-1.10528893e+002
,,,5.56000000e+007,-1.09798264e+002
,,,5.60000000e+007,-1.09783897e+002
,,,5.64000000e+007,-1.14660782e+002
,,,5.68000000e+007,-1.12182907e+002
,,,5.72000000e+007,-1.09526306e+002
,,,5.76000000e+007,-1.10318817e+002
,,,5.80000000e+007,-1.12295296e+002
,,,5.84000000e+007,-1.11656319e+002
,,,5.88000000e+007,-1.09986961e+002
,,,5.92000000e+007,-1.10921188e+002
,,,5.96000000e+007,-1.10056503e+002
,,,6.00000000e+007,-1.11100098e+002
,,,6.04000000e+007,-1.10687492e+002
,,,6.08000000e+007,-1.10591667e+002
,,,6.12000000e+007,-1.08272987e+002
,,,6.16000000e+007,-1.15079025e+002
,,,6.20000000e+007,-1.12914337e+002
,,,6.24000000e+007,-1.10739052e+002
,,,6.28000000e+007,-1.15955757e+002
,,,6.32000000e+007,-1.07172295e+002
,,,6.36000000e+007,-1.12212334e+002
,,,6.40000000e+007,-1.09311279e+002
,,,6.44000000e+007,-1.07466888e+002
,,,6.48000000e+007,-1.18115646e+002
,,,6.52000000e+007,-1.07283974e+002
,,,6.56000000e+007,-1.07437691e+002
,,,6.60000000e+007,-1.07746407e+002
,,,6.64000000e+007,-1.07418243e+002
,,,6.68000000e+007,-1.09392265e+002
,,,6.72000000e+007,-1.08232048e+002
,,,6.76000000e+007,-1.13227730e+002
,,,6.80000000e+007,-1.07031158e+002
,,,6.84000000e+007,-1.11064842e+002
,,,6.88000000e+007,-1.15619003e+002
,,,6.92000000e+007,-1.06530853e+002
,,,6.96000000e+007,-1.15248428e+002
,,,7.00000000e+007,-1.12101913e+002
,,,7.04000000e+007,-1.09205757e+002
,,,7.08000000e+007,-1.13849670e+002
,,,7.12000000e+007,-1.10023682e+002
,,,7.16000000e+007,-1.11600281e+002
,,,7.20000000e+007,-1.09606255e+002
,,,7.24000000e+007,-1.09540085e+002
,,,7.28000000e+007,-1.16350777e+002
,,,7.32000000e+007,-1.17802643e+002
,,,7.36000000e+007,-1.08774673e+002
,,,7.40000000e+007,-1.10572823e+002
,,,7.44000000e+007,-1.12296486e+002
,,,7.48000000e+007,-1.08965408e+002
,,,7.52000000e+007,-1.12944611e+002
,,,7.56000000e+007,-1.10167397e+002
,,,7.60000000e+007,-1.09059700e+002
,,,7.64000000e+007,-1.11229012e+002
,,,7.68000000e+007,-1.13292488e+002
,,,7.72000000e+007,-1.20692116e+002
,,,7.76000000e+007,-1.08224312e+002
,,,7.80000000e+007,-1.05934349e+002
,,,7.84000000e+007,-1.11861969e+002
,,,7.88000000e+007,-1.09925751e+002
,,,7.92000000e+007,-1.16598030e+002
,,,7.96000000e+007,-1.09172920e+002
,,,8.00000000e+007,-1.05653389e+002
,,,8.04000000e+007,-1.13144020e+002
,,,8.08000000e+007,-1.15506943e+002
,,,8.12000000e+007,-1.15564400e+002
,,,8.16000000e+007,-1.08870171e+002
,,,8.20000000e+007,-1.11523376e+002
,,,8.24000000e+007,-1.14134384e+002
,,,8.28000000e+007,-1.12980087e+002
,,,8.32000000e+007,-1.19580696e+002
,,,8.36000000e+007,-1.12506752e+002
,,,8.40000000e+007,-1.13410645e+002
,,,8.44000000e+007,-1.16991943e+002
,,,8.48000000e+007,-1.08504448e+002
,,,8.52000000e+007,-1.17382004e+002
,,,8.56000000e+007,-1.12328049e+002
,,,8.60000000e+007,-1.13980865e+002
,,,8.64000000e+007,-1.13061111e+002
,,,8.68000000e+007,-1.08317825e+002
,,,8.72000000e+007,-1.14221985e+002
,,,8.76000000e+007,-1.05827423e+002
,,,8.80000000e+007,-1.05778671e+002
,,,8.84000000e+007,-1.10689125e+002
,,,8.88000000e+007,-1.08893143e+002
,,,8.92000000e+007,-1.16114883e+002
,,,8.96000000e+007,-1.09553070e+002
,,,9.00000000e+007,-1.07625328e+002
,,,9.04000000e+007,-1.07162994e+002
,,,9.08000000e+007,-1.06329163e+002
,,,9.12000000e+007,-1.24660965e+002
,,,9.16000000e+007,-1.14316551e+002
,,,9.20000000e+007,-1.13915451e+002
,,,9.24000000e+007,-1.16250671e+002
,,,9.28000000e+007,-1.00114914e+002
,,,9.32000000e+007,-9.82572861e+001
,,,9.36000000e+007,-1.03007317e+002
,,,9.40000000e+007,-1.02678780e+002
,,,9.44000000e+007,-1.00908913e+002
,,,9.48000000e+007,-1.01322807e+002
,,,9.52000000e+007,-1.08610382e+002
,,,9.56000000e+007,-1.00841934e+002
,,,9.60000000e+007,-1.09243622e+002
,,,9.64000000e+007,-1.06298737e+002
,,,9.68000000e+007,-1.03065186e+002
,,,9.72000000e+007,-9.71601715e+001
,,,9.76000000e+007,-1.07672714e+002
,,,9.80000000e+007,-1.06705841e+002
,,,9.84000000e+007,-9.57906647e+001
,,,9.88000000e+007,-9.03281250e+001
,,,9.92000000e+007,-1.01185089e+002
,,,9.96000000e+007,-9.18916016e+001
,,,1.00000000e+008,-1.05471107e+002
,,,1.00400000e+008,-1.07345428e+002
,,,1.00800000e+008,-1.05026924e+002
,,,1.01200000e+008,-1.07830421e+002
,,,1.01600000e+008,-1.04558632e+002
,,,1.02000000e+008,-1.00484833e+002
,,,1.02400000e+008,-1.16609482e+002
,,,1.02800000e+008,-1.05712059e+002
,,,1.03200000e+008,-1.15982651e+002
,,,1.03600000e+008,-1.10659477e+002
,,,1.04000000e+008,-1.05768364e+002
,,,1.04400000e+008,-9.95465546e+001
,,,1.04800000e+008,-1.07541435e+002
,,,1.05200000e+008,-1.06105164e+002
,,,1.05600000e+008,-9.87527695e+001
,,,1.06000000e+008,-9.69323807e+001
,,,1.06400000e+008,-1.09550514e+002
,,,1.06800000e+008,-1.17565506e+002
,,,1.07200000e+008,-1.07688263e+002
,,,1.07600000e+008,-1.07556618e+002
,,,1.08000000e+008,-1.13792404e+002
,,,1.08400000e+008,-1.11374474e+002
,,,1.08800000e+008,-1.06796921e+002
,,,1.09200000e+008,-1.14729759e+002
,,,1.09600000e+008,-1.09337769e+002
,,,1.10000000e+008,-1.12426331e+002
,,,1.10400000e+008,-1.07322372e+002
,,,1.10800000e+008,-1.05195969e+002
,,,1.11200000e+008,-1.06960602e+002
,,,1.11600000e+008,-1.04503098e+002
,,,1.12000000e+008,-1.01678947e+002
,,,1.12400000e+008,-1.01893272e+002
,,,1.12800000e+008,-1.07726738e+002
,,,1.13200000e+008,-1.10781029e+002
,,,1.13600000e+008,-1.14083557e+002
,,,1.14000000e+008,-1.13552147e+002
,,,1.14400000e+008,-1.28614334e+002
,,,1.14800000e+008,-1.23106422e+002
,,,1.15200000e+008,-1.20991295e+002
,,,1.15600000e+008,-1.11539276e+002
,,,1.16000000e+008,-1.17866005e+002
,,,1.16400000e+008,-1.24911133e+002
,,,1.16800000e+008,-1.14021324e+002
,,,1.17200000e+008,-1.21105003e+002
,,,1.17600000e+008,-1.15067253e+002
,,,1.18000000e+008,-1.12362671e+002
,,,1.18400000e+008,-1.17389114e+002
,,,1.18800000e+008,-1.18200645e+002
,,,1.19200000e+008,-1.12554054e+002
,,,1.19600000e+008,-1.08536186e+002
,,,1.20000000e+008,-1.13484535e+002
,,,1.20400000e+008,-1.10982018e+002
,,,1.20800000e+008,-1.15638580e+002
,,,1.21200000e+008,-1.16704941e+002
,,,1.21600000e+008,-1.10462402e+002
,,,1.22000000e+008,-1.12695389e+002
,,,1.22400000e+008,-1.12902863e+002
,,,1.22800000e+008,-1.10721954e+002
,,,1.23200000e+008,-1.12275322e+002
,,,1.23600000e+008,-1.12386360e+002
,,,1.24000000e+008,-1.08837006e+002
,,,1.24400000e+008,-1.15350143e+002
,,,1.24800000e+008,-1.24207161e+002
,,,1.25200000e+008,-1.08096466e+002
,,,1.25600000e+008,-1.18167671e+002
,,,1.26000000e+008,-1.17211540e+002
,,,1.26400000e+008,-1.12557121e+002
,,,1.26800000e+008,-1.21109337e+002
,,,1.27200000e+008,-1.09578949e+002
,,,1.27600000e+008,-1.10342346e+002
,,,1.28000000e+008,-1.06586845e+002
,,,1.28400000e+008,-1.04962349e+002
,,,1.28800000e+008,-1.13597725e+002
,,,1.29200000e+008,-1.07917274e+002
,,,1.29600000e+008,-1.05959068e+002
,,,1.30000000e+008,-1.03190598e+002
,,,1.30400000e+008,-1.02865654e+002
,,,1.30800000e+008,-1.02565575e+002
,,,1.31200000e+008,-1.08283661e+002
,,,1.31600000e+008,-1.08486198e+002
,,,1.32000000e+008,-1.20321762e+002
,,,1.32400000e+008,-1.16596184e+002
,,,1.32800000e+008,-1.15570061e+002
,,,1.33200000e+008,-1.17513786e+002
,,,1.33600000e+008,-1.17237488e+002
,,,1.34000000e+008,-1.25450714e+002
,,,1.34400000e+008,-1.13421570e+002
,,,1.34800000e+008,-1.23414612e+002
,,,1.35200000e+008,-1.18346275e+002
,,,1.35600000e+008,-1.14298271e+002
,,,1.36000000e+008,-1.17662277e+002
,,,1.36400000e+008,-1.14414848e+002
,,,1.36800000e+008,-1.12263512e+002
,,,1.37200000e+008,-1.17689461e+002
,,,1.37600000e+008,-1.13820923e+002
,,,1.38000000e+008,-1.10451843e+002
,,,1.38400000e+008,-1.17248291e+002
,,,1.38800000e+008,-1.22540138e+002
,,,1.39200000e+008,-1.18481880e+002
,,,1.39600000e+008,-1.13550964e+002
,,,1.40000000e+008,-1.22202217e+002
,,,1.40400000e+008,-1.15403015e+002
,,,1.40800000e+008,-1.24618332e+002
,,,1.41200000e+008,-1.18650436e+002
,,,1.41600000e+008,-1.19242149e+002
,,,1.42000000e+008,-1.23659164e+002
,,,1.42400000e+008,-1.13200165e+002
,,,1.42800000e+008,-1.19424324e+002
,,,1.43200000e+008,-1.21786819e+002
,,,1.43600000e+008,-1.12026344e+002
,,,1.44000000e+008,-1.23152977e+002
,,,1.44400000e+008,-1.19080444e+002
,,,1.44800000e+008,-1.18780930e+002
,,,1.45200000e+008,-1.21806465e+002
,,,1.45600000e+008,-1.12286972e+002
,,,1.46000000e+008,-1.09160774e+002
,,,1.46400000e+008,-1.11781647e+002
,,,1.46800000e+008,-1.08989418e+002
,,,1.47200000e+008,-1.05712059e+002
,,,1.47600000e+008,-1.03920448e+002
,,,1.48000000e+008,-1.04336777e+002
,,,1.48400000e+008,-1.00773834e+002
,,,1.48800000e+008,-9.77393341e+001
,,,1.49200000e+008,-9.83648376e+001
,,,1.49600000e+008,-1.03119614e+002
,,,1.50000000e+008,-1.11472282e+002
,,,1.50400000e+008,-1.11199860e+002
,,,1.50800000e+008,-1.04022980e+002
,,,1.51200000e+008,-1.01567352e+002
,,,1.51600000e+008,-1.02390923e+002
,,,1.52000000e+008,-1.04173508e+002
,,,1.52400000e+008,-1.04346443e+002
,,,1.52800000e+008,-1.05369270e+002
,,,1.53200000e+008,-1.04271240e+002
,,,1.53600000e+008,-1.09809959e+002
,,,1.54000000e+008,-1.14337433e+002
,,,1.54400000e+008,-1.17661537e+002
,,,1.54800000e+008,-1.18485069e+002
,,,1.55200000e+008,-1.12548721e+002
,,,1.55600000e+008,-1.11107460e+002
,,,1.56000000e+008,-1.06450974e+002
,,,1.56400000e+008,-1.04823334e+002
,,,1.56800000e+008,-1.05937553e+002
,,,1.57200000e+008,-1.04792725e+002
,,,1.57600000e+008,-1.04982155e+002
,,,1.58000000e+008,-1.04023613e+002
,,,1.58400000e+008,-1.03833061e+002
,,,1.58800000e+008,-1.02461792e+002
,,,1.59200000e+008,-1.03717415e+002
,,,1.59600000e+008,-1.04672768e+002
,,,1.60000000e+008,-1.05236694e+002
,,,1.60400000e+008,-1.06947845e+002
,,,1.60800000e+008,-1.06587181e+002
,,,1.61200000e+008,-1.11500893e+002
,,,1.61600000e+008,-1.09290436e+002
,,,1.62000000e+008,-1.10830788e+002
,,,1.62400000e+008,-1.13263168e+002
,,,1.62800000e+008,-1.10857445e+002
,,,1.63200000e+008,-1.11732071e+002
,,,1.63600000e+008,-1.08098068e+002
,,,1.64000000e+008,-1.12902473e+002
,,,1.64400000e+008,-1.24646767e+002
,,,1.64800000e+008,-1.15392776e+002
,,,1.65200000e+008,-1.13863556e+002
,,,1.65600000e+008,-1.11338486e+002
,,,1.66000000e+008,-1.05193176e+002
,,,1.66400000e+008,-9.87420044e+001
,,,1.66800000e+008,-9.62150879e+001
,,,1.67200000e+008,-9.49302673e+001
,,,1.67600000e+008,-9.28007965e+001
,,,1.68000000e+008,-9.25597916e+001
,,,1.68400000e+008,-9.43810806e+001
,,,1.68800000e+008,-9.69598083e+001
,,,1.69200000e+008,-1.01296494e+002
,,,1.69600000e+008,-1.05235893e+002
,,,1.70000000e+008,-1.04412872e+002
,,,1.70400000e+008,-1.03508202e+002
,,,1.70800000e+008,-1.01850357e+002
,,,1.71200000e+008,-1.01275101e+002
,,,1.71600000e+008,-9.84445877e+001
,,,1.72000000e+008,-9.78531799e+001
,,,1.72400000e+008,-9.93428802e+001
,,,1.72800000e+008,-1.02327980e+002
,,,1.73200000e+008,-1.03464241e+002
,,,1.73600000e+008,-1.07341278e+002
,,,1.74000000e+008,-1.00238060e+002
,,,1.74400000e+008,-9.38739014e+001
,,,1.74800000e+008,-9.79463654e+001
,,,1.75200000e+008,-1.01026527e+002
,,,1.75600000e+008,-9.45495377e+001
,,,1.76000000e+008,-9.73418274e+001
,,,1.76400000e+008,-9.44608917e+001
,,,1.76800000e+008,-9.04357758e+001
,,,1.77200000e+008,-9.69723587e+001
,,,1.77600000e+008,-1.02903473e+002
,,,1.78000000e+008,-9.78847580e+001
,,,1.78400000e+008,-9.91268616e+001
,,,1.78800000e+008,-9.68041000e+001
,,,1.79200000e+008,-9.52118759e+001
,,,1.79600000e+008,-9.52788391e+001
,,,1.80000000e+008,-9.45348587e+001
,,,1.80400000e+008,-9.65063095e+001
,,,1.80800000e+008,-9.54198074e+001
,,,1.81200000e+008,-9.23159866e+001
,,,1.81600000e+008,-9.15508270e+001
,,,1.82000000e+008,-9.20727005e+001
,,,1.82400000e+008,-9.34332275e+001
,,,1.82800000e+008,-9.36058502e+001
,,,1.83200000e+008,-9.18756027e+001
,,,1.83600000e+008,-9.06033783e+001
,,,1.84000000e+008,-8.93119736e+001
,,,1.84400000e+008,-8.86817474e+001
,,,1.84800000e+008,-8.87083588e+001
,,,1.85200000e+008,-8.94874039e+001
,,,1.85600000e+008,-9.08562546e+001
,,,1.86000000e+008,-9.20088654e+001
,,,1.86400000e+008,-9.26424713e+001
,,,1.86800000e+008,-9.40042725e+001
,,,1.87200000e+008,-9.81449051e+001
,,,1.87600000e+008,-1.02037788e+002
,,,1.88000000e+008,-1.05885155e+002
,,,1.88400000e+008,-1.11567123e+002
,,,1.88800000e+008,-1.09256424e+002
,,,1.89200000e+008,-1.09098694e+002
,,,1.89600000e+008,-1.03578255e+002
,,,1.90000000e+008,-9.74538574e+001
,,,1.90400000e+008,-9.47914352e+001
,,,1.90800000e+008,-9.48830872e+001
,,,1.91200000e+008,-9.48948593e+001
,,,1.91600000e+008,-9.38426437e+001
,,,1.92000000e+008,-9.31424866e+001
,,,1.92400000e+008,-9.26685181e+001
,,,1.92800000e+008,-9.21227798e+001
,,,1.93200000e+008,-9.15118942e+001
,,,1.93600000e+008,-9.17692566e+001
,,,1.94000000e+008,-9.32927475e+001
,,,1.94400000e+008,-9.31486893e+001
,,,1.94800000e+008,-9.27460022e+001
,,,1.95200000e+008,-9.23471756e+001
,,,1.95600000e+008,-9.16150055e+001
,,,1.96000000e+008,-9.35497284e+001
,,,1.96400000e+008,-9.67457428e+001
,,,1.96800000e+008,-9.94780121e+001
,,,1.97200000e+008,-9.96341934e+001
,,,1.97600000e+008,-9.70241394e+001
,,,1.98000000e+008,-9.79596710e+001
,,,1.98400000e+008,-9.87021332e+001
,,,1.98800000e+008,-9.72234573e+001
,,,1.99200000e+008,-9.45149765e+001
,,,1.99600000e+008,-9.04867783e+001
,,,2.00000000e+008,-8.95167923e+001
,,,2.00400000e+008,-8.99582748e+001
,,,2.00800000e+008,-8.98903580e+001
,,,2.01200000e+008,-8.98158646e+001
,,,2.01600000e+008,-9.31029663e+001
,,,2.02000000e+008,-9.54223785e+001
,,,2.02400000e+008,-9.76627808e+001
,,,2.02800000e+008,-1.00204323e+002
,,,2.03200000e+008,-9.69907761e+001
,,,2.03600000e+008,-9.84905167e+001
,,,2.04000000e+008,-9.84223251e+001
,,,2.04400000e+008,-9.66603851e+001
,,,2.04800000e+008,-9.80708084e+001
,,,2.05200000e+008,-9.02105331e+001
,,,2.05600000e+008,-9.36654587e+001
,,,2.06000000e+008,-9.35821686e+001
,,,2.06400000e+008,-9.15651321e+001
,,,2.06800000e+008,-9.25665512e+001
,,,2.07200000e+008,-9.01248093e+001
,,,2.07600000e+008,-9.21254425e+001
,,,2.08000000e+008,-9.44831009e+001
,,,2.08400000e+008,-9.27035980e+001
,,,2.08800000e+008,-1.00930458e+002
,,,2.09200000e+008,-1.03813087e+002
,,,2.09600000e+008,-1.08904411e+002
,,,2.10000000e+008,-9.88164291e+001
,,,2.10400000e+008,-9.73944473e+001
,,,2.10800000e+008,-1.01314865e+002
,,,2.11200000e+008,-1.09613129e+002
,,,2.11600000e+008,-1.05395676e+002
,,,2.12000000e+008,-9.88473282e+001
,,,2.12400000e+008,-9.55331955e+001
,,,2.12800000e+008,-9.33570862e+001
,,,2.13200000e+008,-9.14122849e+001
,,,2.13600000e+008,-8.96232910e+001
,,,2.14000000e+008,-8.83727646e+001
,,,2.14400000e+008,-8.82250366e+001
,,,2.14800000e+008,-8.87569275e+001
,,,2.15200000e+008,-8.77627487e+001
,,,2.15600000e+008,-8.71811447e+001
,,,2.16000000e+008,-8.74576645e+001
,,,2.16400000e+008,-8.81562347e+001
,,,2.16800000e+008,-8.91505890e+001
,,,2.17200000e+008,-8.97944565e+001
,,,2.17600000e+008,-9.01693344e+001
,,,2.18000000e+008,-9.01124344e+001
,,,2.18400000e+008,-9.07677078e+001
,,,2.18800000e+008,-9.26116562e+001
,,,2.19200000e+008,-9.51633453e+001
,,,2.19600000e+008,-9.54730988e+001
,,,2.20000000e+008,-9.33263779e+001
