Data/20220822/UCLA_to_T1B_VPOL_60_001_Math1.csv

"Record Length",6250,"Points",0.00000000e+000,-1.64762077e+001
"Sample Interval",4.00000000e+005,Hz,4.00000000e+005,-2.30876827e+001
"Trigger Point",0,"Samples",8.00000000e+005,-2.49303226e+001
"Trigger Time",0.00000000e+000,Hz,1.20000000e+006,-2.84066410e+001
"",,,1.60000000e+006,-3.50026245e+001
"Horizontal Offset",0.00000000e+000,Hz,2.00000000e+006,-6.47308960e+001
,,,2.40000000e+006,-3.89116020e+001
,,,2.80000000e+006,-3.58685684e+001
,,,3.20000000e+006,-3.69350929e+001
,,,3.60000000e+006,-4.21241608e+001
,,,4.00000000e+006,-6.98595963e+001
,,,4.40000000e+006,-4.43309784e+001
,,,4.80000000e+006,-4.04191017e+001
,,,5.20000000e+006,-4.06157990e+001
,,,5.60000000e+006,-4.67355118e+001
,,,6.00000000e+006,-7.68783264e+001
,,,6.40000000e+006,-4.71071091e+001
,,,6.80000000e+006,-4.37540283e+001
,,,7.20000000e+006,-4.37545128e+001
,,,7.60000000e+006,-4.91003609e+001
,,,8.00000000e+006,-6.72420654e+001
,,,8.40000000e+006,-4.97504501e+001
,,,8.80000000e+006,-4.63314285e+001
,,,9.20000000e+006,-4.59462051e+001
,,,9.60000000e+006,-5.15783119e+001
,,,1.00000000e+007,-6.54976578e+001
,,,1.04000000e+007,-5.32874565e+001
,,,1.08000000e+007,-4.80687218e+001
,,,1.12000000e+007,-4.71470375e+001
,,,1.16000000e+007,-5.21647720e+001
,,,1.20000000e+007,-7.34663849e+001
,,,1.24000000e+007,-5.46755066e+001
,,,1.28000000e+007,-4.86823044e+001
,,,1.32000000e+007,-4.88420753e+001
,,,1.36000000e+007,-5.26172485e+001
,,,1.40000000e+007,-6.22029419e+001
,,,1.44000000e+007,-5.51872864e+001
,,,1.48000000e+007,-5.07314148e+001
,,,1.52000000e+007,-4.95320854e+001
,,,1.56000000e+007,-5.49362640e+001
,,,1.60000000e+007,-6.44358673e+001
,,,1.64000000e+007,-5.38304939e+001
,,,1.68000000e+007,-5.13408470e+001
,,,1.72000000e+007,-5.17601967e+001
,,,1.76000000e+007,-5.43884888e+001
,,,1.80000000e+007,-7.36220398e+001
,,,1.84000000e+007,-5.84135666e+001
,,,1.88000000e+007,-5.16022568e+001
,,,1.92000000e+007,-5.14505196e+001
,,,1.96000000e+007,-5.83373184e+001
,,,2.00000000e+007,-7.25940399e+001
,,,2.04000000e+007,-5.68874779e+001
,,,2.08000000e+007,-5.41229515e+001
,,,2.12000000e+007,-5.37579117e+001
,,,2.16000000e+007,-5.38176079e+001
,,,2.20000000e+007,-6.33240585e+001
,,,2.24000000e+007,-5.96336899e+001
,,,2.28000000e+007,-5.72720642e+001
,,,2.32000000e+007,-5.14778137e+001
,,,2.36000000e+007,-5.64146690e+001
,,,2.40000000e+007,-8.08358688e+001
,,,2.44000000e+007,-5.84529724e+001
,,,2.48000000e+007,-5.42749977e+001
,,,2.52000000e+007,-5.40591736e+001
,,,2.56000000e+007,-5.88752594e+001
,,,2.60000000e+007,-6.47659683e+001
,,,2.64000000e+007,-6.27648964e+001
,,,2.68000000e+007,-5.33757362e+001
,,,2.72000000e+007,-5.28236008e+001
,,,2.76000000e+007,-6.24950943e+001
,,,2.80000000e+007,-8.27378540e+001
,,,2.84000000e+007,-6.45086823e+001
,,,2.88000000e+007,-5.36921577e+001
,,,2.92000000e+007,-5.52508812e+001
,,,2.96000000e+007,-6.17220001e+001
,,,3.00000000e+007,-6.27664871e+001
,,,3.04000000e+007,-5.70388412e+001
,,,3.08000000e+007,-5.46774368e+001
,,,3.12000000e+007,-5.91150970e+001
,,,3.16000000e+007,-6.26662331e+001
,,,3.20000000e+007,-7.54212570e+001
,,,3.24000000e+007,-6.06064339e+001
,,,3.28000000e+007,-6.22031288e+001
,,,3.32000000e+007,-5.55903587e+001
,,,3.36000000e+007,-5.90385017e+001
,,,3.40000000e+007,-7.80266724e+001
,,,3.44000000e+007,-6.01548233e+001
,,,3.48000000e+007,-5.73131065e+001
,,,3.52000000e+007,-5.57253418e+001
,,,3.56000000e+007,-5.85389099e+001
,,,3.60000000e+007,-6.52809830e+001
,,,3.64000000e+007,-6.06787491e+001
,,,3.68000000e+007,-5.81925163e+001
,,,3.72000000e+007,-5.56912766e+001
,,,3.76000000e+007,-6.05181618e+001
,,,3.80000000e+007,-6.19763870e+001
,,,3.84000000e+007,-7.53227234e+001
,,,3.88000000e+007,-5.81985321e+001
,,,3.92000000e+007,-5.70391808e+001
,,,3.96000000e+007,-6.26339226e+001
,,,4.00000000e+007,-6.52427521e+001
,,,4.04000000e+007,-7.58558121e+001
,,,4.08000000e+007,-5.96723747e+001
,,,4.12000000e+007,-5.63265915e+001
,,,4.16000000e+007,-6.03641930e+001
,,,4.20000000e+007,-6.88265686e+001
,,,4.24000000e+007,-6.60472488e+001
,,,4.28000000e+007,-5.88239136e+001
,,,4.32000000e+007,-5.98027382e+001
,,,4.36000000e+007,-6.22893715e+001
,,,4.40000000e+007,-6.55346680e+001
,,,4.44000000e+007,-6.74533615e+001
,,,4.48000000e+007,-5.74870872e+001
,,,4.52000000e+007,-5.58300285e+001
,,,4.56000000e+007,-6.56511383e+001
,,,4.60000000e+007,-6.78399582e+001
,,,4.64000000e+007,-6.22936058e+001
,,,4.68000000e+007,-6.00097733e+001
,,,4.72000000e+007,-5.97291222e+001
,,,4.76000000e+007,-6.22929802e+001
,,,4.80000000e+007,-6.71646729e+001
,,,4.84000000e+007,-6.41246719e+001
,,,4.88000000e+007,-5.65849380e+001
,,,4.92000000e+007,-6.04788437e+001
,,,4.96000000e+007,-6.26977730e+001
,,,5.00000000e+007,-6.38431816e+001
,,,5.04000000e+007,-7.06822968e+001
,,,5.08000000e+007,-6.20556793e+001
,,,5.12000000e+007,-5.67951317e+001
,,,5.16000000e+007,-7.28874588e+001
,,,5.20000000e+007,-6.65829544e+001
,,,5.24000000e+007,-6.55132065e+001
,,,5.28000000e+007,-6.14483795e+001
,,,5.32000000e+007,-6.14407845e+001
,,,5.36000000e+007,-6.10005875e+001
,,,5.40000000e+007,-6.30625687e+001
,,,5.44000000e+007,-6.38002853e+001
,,,5.48000000e+007,-5.99958229e+001
,,,5.52000000e+007,-5.77681694e+001
,,,5.56000000e+007,-6.67776031e+001
,,,5.60000000e+007,-6.70142136e+001
,,,5.64000000e+007,-6.35866241e+001
,,,5.68000000e+007,-6.25534744e+001
,,,5.72000000e+007,-6.30503044e+001
,,,5.76000000e+007,-6.50212326e+001
,,,5.80000000e+007,-8.02866821e+001
,,,5.84000000e+007,-6.29973297e+001
,,,5.88000000e+007,-6.17693176e+001
,,,5.92000000e+007,-6.35568695e+001
,,,5.96000000e+007,-6.34993668e+001
,,,6.00000000e+007,-7.33089523e+001
,,,6.04000000e+007,-6.87378082e+001
,,,6.08000000e+007,-6.72048492e+001
,,,6.12000000e+007,-5.96203690e+001
,,,6.16000000e+007,-7.58001785e+001
,,,6.20000000e+007,-6.18354797e+001
,,,6.24000000e+007,-7.39150620e+001
,,,6.28000000e+007,-5.76619873e+001
,,,6.32000000e+007,-6.41423492e+001
,,,6.36000000e+007,-6.25906525e+001
,,,6.40000000e+007,-6.77015228e+001
,,,6.44000000e+007,-6.21590424e+001
,,,6.48000000e+007,-5.83200188e+001
,,,6.52000000e+007,-6.81325378e+001
,,,6.56000000e+007,-6.25944519e+001
,,,6.60000000e+007,-6.67815094e+001
,,,6.64000000e+007,-6.87566223e+001
,,,6.68000000e+007,-6.29701157e+001
,,,6.72000000e+007,-5.86498489e+001
,,,6.76000000e+007,-6.88076706e+001
,,,6.80000000e+007,-6.76468277e+001
,,,6.84000000e+007,-7.26087189e+001
,,,6.88000000e+007,-5.98915367e+001
,,,6.92000000e+007,-6.21140976e+001
,,,6.96000000e+007,-7.15613708e+001
,,,7.00000000e+007,-6.81409836e+001
,,,7.04000000e+007,-7.34598160e+001
,,,7.08000000e+007,-6.00421867e+001
,,,7.12000000e+007,-6.46760635e+001
,,,7.16000000e+007,-6.68468323e+001
,,,7.20000000e+007,-8.01619797e+001
,,,7.24000000e+007,-7.02823486e+001
,,,7.28000000e+007,-6.06802521e+001
,,,7.32000000e+007,-6.27202301e+001
,,,7.36000000e+007,-7.09314575e+001
,,,7.40000000e+007,-6.51653442e+001
,,,7.44000000e+007,-6.50474243e+001
,,,7.48000000e+007,-6.12728958e+001
,,,7.52000000e+007,-6.54243011e+001
,,,7.56000000e+007,-6.42766418e+001
,,,7.60000000e+007,-6.96350174e+001
,,,7.64000000e+007,-7.51085815e+001
,,,7.68000000e+007,-6.16758537e+001
,,,7.72000000e+007,-6.09945412e+001
,,,7.76000000e+007,-7.23655243e+001
,,,7.80000000e+007,-7.08829880e+001
,,,7.84000000e+007,-6.89938736e+001
,,,7.88000000e+007,-6.79992905e+001
,,,7.92000000e+007,-6.25631676e+001
,,,7.96000000e+007,-7.43132172e+001
,,,8.00000000e+007,-5.92372055e+001
,,,8.04000000e+007,-5.82552986e+001
,,,8.08000000e+007,-6.80194702e+001
,,,8.12000000e+007,-6.02908897e+001
,,,8.16000000e+007,-6.41804276e+001
,,,8.20000000e+007,-6.62746429e+001
,,,8.24000000e+007,-7.26435776e+001
,,,8.28000000e+007,-6.46512680e+001
,,,8.32000000e+007,-5.92851143e+001
,,,8.36000000e+007,-7.18453522e+001
,,,8.40000000e+007,-6.52940598e+001
,,,8.44000000e+007,-6.91795578e+001
,,,8.48000000e+007,-6.25857391e+001
,,,8.52000000e+007,-6.39385223e+001
,,,8.56000000e+007,-5.96781883e+001
,,,8.60000000e+007,-7.80844955e+001
,,,8.64000000e+007,-6.18793831e+001
,,,8.68000000e+007,-6.64630356e+001
,,,8.72000000e+007,-6.76174240e+001
,,,8.76000000e+007,-5.96746826e+001
,,,8.80000000e+007,-7.24400787e+001
,,,8.84000000e+007,-6.75380554e+001
,,,8.88000000e+007,-6.16027451e+001
,,,8.92000000e+007,-6.50189972e+001
,,,8.96000000e+007,-6.30702133e+001
,,,9.00000000e+007,-7.71373062e+001
,,,9.04000000e+007,-6.31000061e+001
,,,9.08000000e+007,-6.82207336e+001
,,,9.12000000e+007,-5.94201393e+001
,,,9.16000000e+007,-6.62351151e+001
,,,9.20000000e+007,-6.63148880e+001
,,,9.24000000e+007,-7.16663666e+001
,,,9.28000000e+007,-6.25477333e+001
,,,9.32000000e+007,-5.67672958e+001
,,,9.36000000e+007,-5.97298546e+001
,,,9.40000000e+007,-5.97237358e+001
,,,9.44000000e+007,-5.21268578e+001
,,,9.48000000e+007,-4.57899246e+001
,,,9.52000000e+007,-5.94243584e+001
,,,9.56000000e+007,-5.51641083e+001
,,,9.60000000e+007,-6.80522614e+001
,,,9.64000000e+007,-5.65842056e+001
,,,9.68000000e+007,-5.21175880e+001
,,,9.72000000e+007,-5.74730644e+001
,,,9.76000000e+007,-5.74080925e+001
,,,9.80000000e+007,-6.23013039e+001
,,,9.84000000e+007,-5.27926331e+001
,,,9.88000000e+007,-5.24130898e+001
,,,9.92000000e+007,-6.08065071e+001
,,,9.96000000e+007,-6.52002792e+001
,,,1.00000000e+008,-6.19859390e+001
,,,1.00400000e+008,-6.69389877e+001
,,,1.00800000e+008,-6.11210022e+001
,,,1.01200000e+008,-5.97451591e+001
,,,1.01600000e+008,-7.00502548e+001
,,,1.02000000e+008,-5.83464355e+001
,,,1.02400000e+008,-6.67612305e+001
,,,1.02800000e+008,-5.65548515e+001
,,,1.03200000e+008,-6.32571144e+001
,,,1.03600000e+008,-7.26598053e+001
,,,1.04000000e+008,-6.19118462e+001
,,,1.04400000e+008,-6.41419449e+001
,,,1.04800000e+008,-5.37707291e+001
,,,1.05200000e+008,-4.64213600e+001
,,,1.05600000e+008,-5.22820740e+001
,,,1.06000000e+008,-4.90125580e+001
,,,1.06400000e+008,-6.04844284e+001
,,,1.06800000e+008,-5.59236526e+001
,,,1.07200000e+008,-5.56122971e+001
,,,1.07600000e+008,-5.61401787e+001
,,,1.08000000e+008,-6.36441689e+001
,,,1.08400000e+008,-7.25312576e+001
,,,1.08800000e+008,-5.97001724e+001
,,,1.09200000e+008,-6.74338455e+001
,,,1.09600000e+008,-6.42000351e+001
,,,1.10000000e+008,-6.11995087e+001
,,,1.10400000e+008,-6.22416878e+001
,,,1.10800000e+008,-5.94691544e+001
,,,1.11200000e+008,-6.65065079e+001
,,,1.11600000e+008,-6.20614243e+001
,,,1.12000000e+008,-5.91960716e+001
,,,1.12400000e+008,-5.56249809e+001
,,,1.12800000e+008,-5.54428024e+001
,,,1.13200000e+008,-5.67980690e+001
,,,1.13600000e+008,-6.54256058e+001
,,,1.14000000e+008,-6.09817352e+001
,,,1.14400000e+008,-6.08596764e+001
,,,1.14800000e+008,-6.93335953e+001
,,,1.15200000e+008,-5.81479836e+001
,,,1.15600000e+008,-6.71112976e+001
,,,1.16000000e+008,-6.34894180e+001
,,,1.16400000e+008,-6.07142525e+001
,,,1.16800000e+008,-7.53911972e+001
,,,1.17200000e+008,-5.81774292e+001
,,,1.17600000e+008,-6.17145958e+001
,,,1.18000000e+008,-6.80795135e+001
,,,1.18400000e+008,-7.32502975e+001
,,,1.18800000e+008,-5.98104134e+001
,,,1.19200000e+008,-6.42021179e+001
,,,1.19600000e+008,-6.51868286e+001
,,,1.20000000e+008,-6.86740265e+001
,,,1.20400000e+008,-6.75465851e+001
,,,1.20800000e+008,-6.97757874e+001
,,,1.21200000e+008,-6.18357620e+001
,,,1.21600000e+008,-7.01296005e+001
,,,1.22000000e+008,-6.72248917e+001
,,,1.22400000e+008,-6.18100357e+001
,,,1.22800000e+008,-8.09468002e+001
,,,1.23200000e+008,-6.46565781e+001
,,,1.23600000e+008,-6.25892410e+001
,,,1.24000000e+008,-6.34071236e+001
,,,1.24400000e+008,-6.54125671e+001
,,,1.24800000e+008,-6.54756775e+001
,,,1.25200000e+008,-5.95459137e+001
,,,1.25600000e+008,-6.71649017e+001
,,,1.26000000e+008,-6.75682297e+001
,,,1.26400000e+008,-6.20890198e+001
,,,1.26800000e+008,-6.24765091e+001
,,,1.27200000e+008,-5.65507355e+001
,,,1.27600000e+008,-5.93366852e+001
,,,1.28000000e+008,-5.79035149e+001
,,,1.28400000e+008,-5.90471878e+001
,,,1.28800000e+008,-5.70440712e+001
,,,1.29200000e+008,-5.17953987e+001
,,,1.29600000e+008,-5.20018311e+001
,,,1.30000000e+008,-5.12267265e+001
,,,1.30400000e+008,-4.82067108e+001
,,,1.30800000e+008,-4.50564728e+001
,,,1.31200000e+008,-4.62262497e+001
,,,1.31600000e+008,-4.89368820e+001
,,,1.32000000e+008,-5.40351143e+001
,,,1.32400000e+008,-5.47185898e+001
,,,1.32800000e+008,-5.29348183e+001
,,,1.33200000e+008,-5.78451271e+001
,,,1.33600000e+008,-5.48356934e+001
,,,1.34000000e+008,-5.63560562e+001
,,,1.34400000e+008,-5.73504066e+001
,,,1.34800000e+008,-5.55758286e+001
,,,1.35200000e+008,-6.25189590e+001
,,,1.35600000e+008,-5.78915710e+001
,,,1.36000000e+008,-5.86478424e+001
,,,1.36400000e+008,-6.03870697e+001
,,,1.36800000e+008,-6.39906960e+001
,,,1.37200000e+008,-6.53828583e+001
,,,1.37600000e+008,-6.56042557e+001
,,,1.38000000e+008,-6.39748726e+001
,,,1.38400000e+008,-8.21736832e+001
,,,1.38800000e+008,-6.45443192e+001
,,,1.39200000e+008,-6.10841293e+001
,,,1.39600000e+008,-6.06823921e+001
,,,1.40000000e+008,-6.44767303e+001
,,,1.40400000e+008,-6.10593834e+001
,,,1.40800000e+008,-5.81782417e+001
,,,1.41200000e+008,-6.66956711e+001
,,,1.41600000e+008,-6.78874741e+001
,,,1.42000000e+008,-5.78646812e+001
,,,1.42400000e+008,-5.92275543e+001
,,,1.42800000e+008,-5.88378868e+001
,,,1.43200000e+008,-6.00876160e+001
,,,1.43600000e+008,-5.94943848e+001
,,,1.44000000e+008,-6.01624260e+001
,,,1.44400000e+008,-5.79745827e+001
,,,1.44800000e+008,-5.42660446e+001
,,,1.45200000e+008,-5.54776535e+001
,,,1.45600000e+008,-5.09865570e+001
,,,1.46000000e+008,-4.88654137e+001
,,,1.46400000e+008,-4.83622398e+001
,,,1.46800000e+008,-4.88809929e+001
,,,1.47200000e+008,-4.72733002e+001
,,,1.47600000e+008,-4.56647339e+001
,,,1.48000000e+008,-4.43937111e+001
,,,1.48400000e+008,-4.21905594e+001
,,,1.48800000e+008,-4.14155693e+001
,,,1.49200000e+008,-4.03907661e+001
,,,1.49600000e+008,-4.13407860e+001
,,,1.50000000e+008,-4.31034813e+001
,,,1.50400000e+008,-4.31107140e+001
,,,1.50800000e+008,-4.44004364e+001
,,,1.51200000e+008,-4.58514938e+001
,,,1.51600000e+008,-4.78553009e+001
,,,1.52000000e+008,-5.13410187e+001
,,,1.52400000e+008,-5.15432549e+001
,,,1.52800000e+008,-5.36878433e+001
,,,1.53200000e+008,-5.63885498e+001
,,,1.53600000e+008,-5.34759827e+001
,,,1.54000000e+008,-5.37235870e+001
,,,1.54400000e+008,-5.33842239e+001
,,,1.54800000e+008,-5.50210419e+001
,,,1.55200000e+008,-5.89412498e+001
,,,1.55600000e+008,-5.44287529e+001
,,,1.56000000e+008,-5.50832901e+001
,,,1.56400000e+008,-5.46814308e+001
,,,1.56800000e+008,-5.37598457e+001
,,,1.57200000e+008,-5.67532043e+001
,,,1.57600000e+008,-5.50585556e+001
,,,1.58000000e+008,-5.78118629e+001
,,,1.58400000e+008,-6.03047028e+001
,,,1.58800000e+008,-5.69664841e+001
,,,1.59200000e+008,-6.17763214e+001
,,,1.59600000e+008,-6.02619133e+001
,,,1.60000000e+008,-5.57718964e+001
,,,1.60400000e+008,-5.51688499e+001
,,,1.60800000e+008,-5.52873230e+001
,,,1.61200000e+008,-5.77859154e+001
,,,1.61600000e+008,-5.61291618e+001
,,,1.62000000e+008,-6.03364677e+001
,,,1.62400000e+008,-5.65182915e+001
,,,1.62800000e+008,-5.42091522e+001
,,,1.63200000e+008,-6.46065750e+001
,,,1.63600000e+008,-5.45917969e+001
,,,1.64000000e+008,-5.27829781e+001
,,,1.64400000e+008,-5.10900726e+001
,,,1.64800000e+008,-4.86470261e+001
,,,1.65200000e+008,-4.57791939e+001
,,,1.65600000e+008,-4.12037621e+001
,,,1.66000000e+008,-3.95347977e+001
,,,1.66400000e+008,-4.04768829e+001
,,,1.66800000e+008,-4.03497276e+001
,,,1.67200000e+008,-4.03071442e+001
,,,1.67600000e+008,-4.12398186e+001
,,,1.68000000e+008,-4.25377693e+001
,,,1.68400000e+008,-4.37862167e+001
,,,1.68800000e+008,-4.58564644e+001
,,,1.69200000e+008,-4.66965942e+001
,,,1.69600000e+008,-4.61308022e+001
,,,1.70000000e+008,-4.61771889e+001
,,,1.70400000e+008,-4.52553787e+001
,,,1.70800000e+008,-4.35736351e+001
,,,1.71200000e+008,-4.27680130e+001
,,,1.71600000e+008,-4.41807404e+001
,,,1.72000000e+008,-4.54030609e+001
,,,1.72400000e+008,-4.66298561e+001
,,,1.72800000e+008,-5.02009964e+001
,,,1.73200000e+008,-4.94162292e+001
,,,1.73600000e+008,-4.82653885e+001
,,,1.74000000e+008,-4.82294655e+001
,,,1.74400000e+008,-4.81499214e+001
,,,1.74800000e+008,-5.00337219e+001
,,,1.75200000e+008,-4.79729500e+001
,,,1.75600000e+008,-4.65342255e+001
,,,1.76000000e+008,-5.07711411e+001
,,,1.76400000e+008,-5.28048096e+001
,,,1.76800000e+008,-4.90292473e+001
,,,1.77200000e+008,-4.74829216e+001
,,,1.77600000e+008,-4.60145378e+001
,,,1.78000000e+008,-4.59806747e+001
,,,1.78400000e+008,-4.87366982e+001
,,,1.78800000e+008,-4.70592270e+001
,,,1.79200000e+008,-4.50173073e+001
,,,1.79600000e+008,-4.46561470e+001
,,,1.80000000e+008,-4.25638657e+001
,,,1.80400000e+008,-4.20927696e+001
,,,1.80800000e+008,-4.19718628e+001
,,,1.81200000e+008,-4.14882851e+001
,,,1.81600000e+008,-4.23731194e+001
,,,1.82000000e+008,-4.32211952e+001
,,,1.82400000e+008,-4.38292809e+001
,,,1.82800000e+008,-4.38466454e+001
,,,1.83200000e+008,-4.38901138e+001
,,,1.83600000e+008,-4.38561516e+001
,,,1.84000000e+008,-4.10762978e+001
,,,1.84400000e+008,-3.94105110e+001
,,,1.84800000e+008,-3.91450272e+001
,,,1.85200000e+008,-3.85813217e+001
,,,1.85600000e+008,-3.80692368e+001
,,,1.86000000e+008,-3.91674614e+001
,,,1.86400000e+008,-4.12125816e+001
,,,1.86800000e+008,-4.38872070e+001
,,,1.87200000e+008,-4.47285843e+001
,,,1.87600000e+008,-4.26802788e+001
,,,1.88000000e+008,-4.20579033e+001
,,,1.88400000e+008,-4.11195602e+001
,,,1.88800000e+008,-4.16390877e+001
,,,1.89200000e+008,-4.27539406e+001
,,,1.89600000e+008,-4.15382080e+001
,,,1.90000000e+008,-4.27963104e+001
,,,1.90400000e+008,-4.30197334e+001
,,,1.90800000e+008,-4.31219902e+001
,,,1.91200000e+008,-4.64106941e+001
,,,1.91600000e+008,-4.47499313e+001
,,,1.92000000e+008,-4.32903709e+001
,,,1.92400000e+008,-4.31848640e+001
,,,1.92800000e+008,-4.18956680e+001
,,,1.93200000e+008,-4.11836319e+001
,,,1.93600000e+008,-4.17056923e+001
,,,1.94000000e+008,-4.37866936e+001
,,,1.94400000e+008,-4.44886169e+001
,,,1.94800000e+008,-4.46324997e+001
,,,1.95200000e+008,-4.41303749e+001
,,,1.95600000e+008,-4.37036400e+001
,,,1.96000000e+008,-4.39015961e+001
,,,1.96400000e+008,-4.28042221e+001
,,,1.96800000e+008,-4.33855324e+001
,,,1.97200000e+008,-4.42346306e+001
,,,1.97600000e+008,-4.51007195e+001
,,,1.98000000e+008,-4.65566902e+001
,,,1.98400000e+008,-4.62346268e+001
,,,1.98800000e+008,-4.64899750e+001
,,,1.99200000e+008,-4.62779312e+001
,,,1.99600000e+008,-4.89613647e+001
,,,2.00000000e+008,-4.78589287e+001
,,,2.00400000e+008,-4.55048828e+001
,,,2.00800000e+008,-4.81982040e+001
,,,2.01200000e+008,-4.84195099e+001
,,,2.01600000e+008,-5.36382103e+001
,,,2.02000000e+008,-5.32268524e+001
,,,2.02400000e+008,-5.13023376e+001
,,,2.02800000e+008,-4.60506439e+001
,,,2.03200000e+008,-4.77942848e+001
,,,2.03600000e+008,-4.63876534e+001
,,,2.04000000e+008,-5.50344849e+001
,,,2.04400000e+008,-5.24202003e+001
,,,2.04800000e+008,-4.13615570e+001
,,,2.05200000e+008,-3.79065857e+001
,,,2.05600000e+008,-4.04356308e+001
,,,2.06000000e+008,-4.33547516e+001
,,,2.06400000e+008,-4.09935188e+001
,,,2.06800000e+008,-3.83394318e+001
,,,2.07200000e+008,-3.82612801e+001
,,,2.07600000e+008,-3.85560188e+001
,,,2.08000000e+008,-4.31078033e+001
,,,2.08400000e+008,-4.36910095e+001
,,,2.08800000e+008,-3.91526718e+001
,,,2.09200000e+008,-3.88363075e+001
,,,2.09600000e+008,-4.18508492e+001
,,,2.10000000e+008,-4.13953743e+001
,,,2.10400000e+008,-4.19686394e+001
,,,2.10800000e+008,-4.11401978e+001
,,,2.11200000e+008,-3.91366920e+001
,,,2.11600000e+008,-3.90728912e+001
,,,2.12000000e+008,-3.91267509e+001
,,,2.12400000e+008,-3.98959427e+001
,,,2.12800000e+008,-4.14165726e+001
,,,2.13200000e+008,-4.19721870e+001
,,,2.13600000e+008,-4.21559181e+001
,,,2.14000000e+008,-4.17124329e+001
,,,2.14400000e+008,-4.17403755e+001
,,,2.14800000e+008,-4.13716164e+001
,,,2.15200000e+008,-3.95367584e+001
,,,2.15600000e+008,-3.88424911e+001
,,,2.16000000e+008,-3.80583305e+001
,,,2.16400000e+008,-3.70779991e+001
,,,2.16800000e+008,-3.72023735e+001
,,,2.17200000e+008,-3.80322800e+001
,,,2.17600000e+008,-3.86503944e+001
,,,2.18000000e+008,-4.00028687e+001
,,,2.18400000e+008,-4.06628723e+001
,,,2.18800000e+008,-3.98159332e+001
,,,2.19200000e+008,-3.87071533e+001
,,,2.19600000e+008,-3.80367279e+001
,,,2.20000000e+008,-3.75005264e+001
