Data/20220822/UCLA_to_T1A_HPOL_NEG30_001_Math2.csv

"Record Length",6250,"Points",0.00000000e+000,-6.52101517e+001
"Sample Interval",4.00000000e+005,Hz,4.00000000e+005,-7.13235779e+001
"Trigger Point",0,"Samples",8.00000000e+005,-7.46876144e+001
"Trigger Time",0.00000000e+000,Hz,1.20000000e+006,-7.63002777e+001
"",,,1.60000000e+006,-8.60955429e+001
"Horizontal Offset",0.00000000e+000,Hz,2.00000000e+006,-9.50076828e+001
,,,2.40000000e+006,-8.46814270e+001
,,,2.80000000e+006,-8.62599411e+001
,,,3.20000000e+006,-8.39520874e+001
,,,3.60000000e+006,-9.46402817e+001
,,,4.00000000e+006,-9.59052200e+001
,,,4.40000000e+006,-8.89114532e+001
,,,4.80000000e+006,-9.05219955e+001
,,,5.20000000e+006,-8.68520889e+001
,,,5.60000000e+006,-9.72117310e+001
,,,6.00000000e+006,-9.63359375e+001
,,,6.40000000e+006,-9.22732391e+001
,,,6.80000000e+006,-9.18580093e+001
,,,7.20000000e+006,-9.14484558e+001
,,,7.60000000e+006,-9.47401505e+001
,,,8.00000000e+006,-9.85424576e+001
,,,8.40000000e+006,-9.56722336e+001
,,,8.80000000e+006,-9.26215897e+001
,,,9.20000000e+006,-9.43461304e+001
,,,9.60000000e+006,-9.41507874e+001
,,,1.00000000e+007,-9.72352142e+001
,,,1.04000000e+007,-9.83206711e+001
,,,1.08000000e+007,-9.25679245e+001
,,,1.12000000e+007,-9.66222305e+001
,,,1.16000000e+007,-9.30968246e+001
,,,1.20000000e+007,-9.59059219e+001
,,,1.24000000e+007,-9.95489273e+001
,,,1.28000000e+007,-9.22593307e+001
,,,1.32000000e+007,-1.03852112e+002
,,,1.36000000e+007,-9.46420212e+001
,,,1.40000000e+007,-9.65556412e+001
,,,1.44000000e+007,-1.01261353e+002
,,,1.48000000e+007,-9.29480286e+001
,,,1.52000000e+007,-1.09262886e+002
,,,1.56000000e+007,-9.45310364e+001
,,,1.60000000e+007,-9.74606018e+001
,,,1.64000000e+007,-1.02711769e+002
,,,1.68000000e+007,-9.36026154e+001
,,,1.72000000e+007,-1.04320061e+002
,,,1.76000000e+007,-9.40060196e+001
,,,1.80000000e+007,-9.65449905e+001
,,,1.84000000e+007,-1.03625359e+002
,,,1.88000000e+007,-9.47388458e+001
,,,1.92000000e+007,-9.88696365e+001
,,,1.96000000e+007,-9.45877914e+001
,,,2.00000000e+007,-9.71787033e+001
,,,2.04000000e+007,-9.90387039e+001
,,,2.08000000e+007,-9.42026062e+001
,,,2.12000000e+007,-9.77222748e+001
,,,2.16000000e+007,-9.37865982e+001
,,,2.20000000e+007,-9.58774567e+001
,,,2.24000000e+007,-9.79296722e+001
,,,2.28000000e+007,-9.58495483e+001
,,,2.32000000e+007,-9.81176376e+001
,,,2.36000000e+007,-9.73723602e+001
,,,2.40000000e+007,-9.74246674e+001
,,,2.44000000e+007,-9.63472748e+001
,,,2.48000000e+007,-9.79397964e+001
,,,2.52000000e+007,-9.69139404e+001
,,,2.56000000e+007,-9.81009979e+001
,,,2.60000000e+007,-9.81346054e+001
,,,2.64000000e+007,-9.66115570e+001
,,,2.68000000e+007,-9.94135971e+001
,,,2.72000000e+007,-9.63972473e+001
,,,2.76000000e+007,-9.92066116e+001
,,,2.80000000e+007,-9.87706451e+001
,,,2.84000000e+007,-9.67959747e+001
,,,2.88000000e+007,-1.01046913e+002
,,,2.92000000e+007,-9.52895813e+001
,,,2.96000000e+007,-1.00479584e+002
,,,3.00000000e+007,-9.86084366e+001
,,,3.04000000e+007,-9.60951157e+001
,,,3.08000000e+007,-1.01766174e+002
,,,3.12000000e+007,-9.49230423e+001
,,,3.16000000e+007,-1.00815361e+002
,,,3.20000000e+007,-9.89980240e+001
,,,3.24000000e+007,-9.57923508e+001
,,,3.28000000e+007,-1.00784721e+002
,,,3.32000000e+007,-9.52132416e+001
,,,3.36000000e+007,-1.00745949e+002
,,,3.40000000e+007,-9.91640091e+001
,,,3.44000000e+007,-9.70430222e+001
,,,3.48000000e+007,-1.01058472e+002
,,,3.52000000e+007,-9.56578217e+001
,,,3.56000000e+007,-1.01506439e+002
,,,3.60000000e+007,-9.89024582e+001
,,,3.64000000e+007,-9.66759491e+001
,,,3.68000000e+007,-1.00549812e+002
,,,3.72000000e+007,-9.60449219e+001
,,,3.76000000e+007,-9.99972916e+001
,,,3.80000000e+007,-9.90444260e+001
,,,3.84000000e+007,-9.69176025e+001
,,,3.88000000e+007,-9.84819489e+001
,,,3.92000000e+007,-9.73176422e+001
,,,3.96000000e+007,-1.00963684e+002
,,,4.00000000e+007,-1.00021225e+002
,,,4.04000000e+007,-9.78256454e+001
,,,4.08000000e+007,-9.72329483e+001
,,,4.12000000e+007,-9.76013412e+001
,,,4.16000000e+007,-9.89693527e+001
,,,4.20000000e+007,-9.93124390e+001
,,,4.24000000e+007,-9.87186432e+001
,,,4.28000000e+007,-9.71977615e+001
,,,4.32000000e+007,-9.91476974e+001
,,,4.36000000e+007,-9.81306610e+001
,,,4.40000000e+007,-9.86142426e+001
,,,4.44000000e+007,-9.96849823e+001
,,,4.48000000e+007,-9.74861374e+001
,,,4.52000000e+007,-9.96694489e+001
,,,4.56000000e+007,-9.62334976e+001
,,,4.60000000e+007,-9.92414246e+001
,,,4.64000000e+007,-1.01890999e+002
,,,4.68000000e+007,-9.69647369e+001
,,,4.72000000e+007,-1.00916306e+002
,,,4.76000000e+007,-9.64582748e+001
,,,4.80000000e+007,-9.78469696e+001
,,,4.84000000e+007,-1.01279648e+002
,,,4.88000000e+007,-9.70771561e+001
,,,4.92000000e+007,-1.02358047e+002
,,,4.96000000e+007,-9.81448288e+001
,,,5.00000000e+007,-9.90169449e+001
,,,5.04000000e+007,-1.00348534e+002
,,,5.08000000e+007,-9.71961365e+001
,,,5.12000000e+007,-1.03136078e+002
,,,5.16000000e+007,-9.75755386e+001
,,,5.20000000e+007,-9.81830215e+001
,,,5.24000000e+007,-1.04617455e+002
,,,5.28000000e+007,-9.94158020e+001
,,,5.32000000e+007,-1.01411781e+002
,,,5.36000000e+007,-9.84688568e+001
,,,5.40000000e+007,-9.91952972e+001
,,,5.44000000e+007,-1.00720390e+002
,,,5.48000000e+007,-9.79789429e+001
,,,5.52000000e+007,-9.85369720e+001
,,,5.56000000e+007,-9.82746201e+001
,,,5.60000000e+007,-9.90718613e+001
,,,5.64000000e+007,-9.99220123e+001
,,,5.68000000e+007,-9.92056122e+001
,,,5.72000000e+007,-9.88247070e+001
,,,5.76000000e+007,-9.89447937e+001
,,,5.80000000e+007,-9.92306442e+001
,,,5.84000000e+007,-1.00214783e+002
,,,5.88000000e+007,-9.99873734e+001
,,,5.92000000e+007,-9.83320541e+001
,,,5.96000000e+007,-1.00385422e+002
,,,6.00000000e+007,-9.96062164e+001
,,,6.04000000e+007,-9.83617783e+001
,,,6.08000000e+007,-9.91200485e+001
,,,6.12000000e+007,-9.71020660e+001
,,,6.16000000e+007,-9.96435318e+001
,,,6.20000000e+007,-9.88939896e+001
,,,6.24000000e+007,-9.82754364e+001
,,,6.28000000e+007,-1.00034081e+002
,,,6.32000000e+007,-9.82448502e+001
,,,6.36000000e+007,-1.02073166e+002
,,,6.40000000e+007,-9.89667358e+001
,,,6.44000000e+007,-9.89656525e+001
,,,6.48000000e+007,-1.01216881e+002
,,,6.52000000e+007,-9.68693619e+001
,,,6.56000000e+007,-1.01053391e+002
,,,6.60000000e+007,-9.80115280e+001
,,,6.64000000e+007,-9.68789520e+001
,,,6.68000000e+007,-1.03062721e+002
,,,6.72000000e+007,-9.92740479e+001
,,,6.76000000e+007,-1.00708504e+002
,,,6.80000000e+007,-9.90473633e+001
,,,6.84000000e+007,-9.85530930e+001
,,,6.88000000e+007,-1.02083313e+002
,,,6.92000000e+007,-9.82613602e+001
,,,6.96000000e+007,-9.97170486e+001
,,,7.00000000e+007,-9.95816956e+001
,,,7.04000000e+007,-9.88379517e+001
,,,7.08000000e+007,-9.92604904e+001
,,,7.12000000e+007,-9.87546387e+001
,,,7.16000000e+007,-1.00361206e+002
,,,7.20000000e+007,-9.81747742e+001
,,,7.24000000e+007,-9.91511230e+001
,,,7.28000000e+007,-1.00235466e+002
,,,7.32000000e+007,-9.69367142e+001
,,,7.36000000e+007,-9.78640518e+001
,,,7.40000000e+007,-1.02027412e+002
,,,7.44000000e+007,-1.00761360e+002
,,,7.48000000e+007,-9.69552078e+001
,,,7.52000000e+007,-9.92172241e+001
,,,7.56000000e+007,-1.00763138e+002
,,,7.60000000e+007,-9.90561218e+001
,,,7.64000000e+007,-9.79807587e+001
,,,7.68000000e+007,-9.71265411e+001
,,,7.72000000e+007,-1.01176521e+002
,,,7.76000000e+007,-9.86604462e+001
,,,7.80000000e+007,-9.90663834e+001
,,,7.84000000e+007,-1.00404343e+002
,,,7.88000000e+007,-9.73452911e+001
,,,7.92000000e+007,-1.00616562e+002
,,,7.96000000e+007,-9.87956543e+001
,,,8.00000000e+007,-9.92465363e+001
,,,8.04000000e+007,-1.00116516e+002
,,,8.08000000e+007,-9.80446930e+001
,,,8.12000000e+007,-1.02706818e+002
,,,8.16000000e+007,-9.82000580e+001
,,,8.20000000e+007,-9.93258896e+001
,,,8.24000000e+007,-1.00761040e+002
,,,8.28000000e+007,-9.72579803e+001
,,,8.32000000e+007,-1.01740128e+002
,,,8.36000000e+007,-9.86621933e+001
,,,8.40000000e+007,-9.93961029e+001
,,,8.44000000e+007,-1.00432640e+002
,,,8.48000000e+007,-9.79979553e+001
,,,8.52000000e+007,-1.02060112e+002
,,,8.56000000e+007,-9.76461945e+001
,,,8.60000000e+007,-9.92838821e+001
,,,8.64000000e+007,-1.00762413e+002
,,,8.68000000e+007,-9.72941818e+001
,,,8.72000000e+007,-1.02173828e+002
,,,8.76000000e+007,-9.71540909e+001
,,,8.80000000e+007,-9.80327072e+001
,,,8.84000000e+007,-1.03335487e+002
,,,8.88000000e+007,-1.04858597e+002
,,,8.92000000e+007,-9.76520615e+001
,,,8.96000000e+007,-1.00377975e+002
,,,9.00000000e+007,-1.00750351e+002
,,,9.04000000e+007,-9.89201813e+001
,,,9.08000000e+007,-9.88802872e+001
,,,9.12000000e+007,-9.94208984e+001
,,,9.16000000e+007,-9.78207474e+001
,,,9.20000000e+007,-9.86629715e+001
,,,9.24000000e+007,-1.03768372e+002
,,,9.28000000e+007,-9.57627182e+001
,,,9.32000000e+007,-9.08366623e+001
,,,9.36000000e+007,-9.87528076e+001
,,,9.40000000e+007,-9.94157791e+001
,,,9.44000000e+007,-9.51347656e+001
,,,9.48000000e+007,-9.60155411e+001
,,,9.52000000e+007,-9.64229736e+001
,,,9.56000000e+007,-9.61257401e+001
,,,9.60000000e+007,-1.02460983e+002
,,,9.64000000e+007,-1.03277122e+002
,,,9.68000000e+007,-9.83391342e+001
,,,9.72000000e+007,-9.62489700e+001
,,,9.76000000e+007,-9.78206253e+001
,,,9.80000000e+007,-9.78621674e+001
,,,9.84000000e+007,-9.64004364e+001
,,,9.88000000e+007,-9.41171494e+001
,,,9.92000000e+007,-1.01069893e+002
,,,9.96000000e+007,-1.13057320e+002
,,,1.00000000e+008,-9.73913879e+001
,,,1.00400000e+008,-9.73841629e+001
,,,1.00800000e+008,-9.87010574e+001
,,,1.01200000e+008,-9.60404968e+001
,,,1.01600000e+008,-9.74574356e+001
,,,1.02000000e+008,-9.44652710e+001
,,,1.02400000e+008,-9.97404251e+001
,,,1.02800000e+008,-1.02888161e+002
,,,1.03200000e+008,-9.57236557e+001
,,,1.03600000e+008,-9.70966034e+001
,,,1.04000000e+008,-9.85930099e+001
,,,1.04400000e+008,-9.70021820e+001
,,,1.04800000e+008,-9.57589340e+001
,,,1.05200000e+008,-9.25648804e+001
,,,1.05600000e+008,-9.71456528e+001
,,,1.06000000e+008,-9.63631668e+001
,,,1.06400000e+008,-9.83539581e+001
,,,1.06800000e+008,-1.01375710e+002
,,,1.07200000e+008,-1.00466553e+002
,,,1.07600000e+008,-1.04089165e+002
,,,1.08000000e+008,-9.93901596e+001
,,,1.08400000e+008,-1.00565681e+002
,,,1.08800000e+008,-1.01966202e+002
,,,1.09200000e+008,-9.73099213e+001
,,,1.09600000e+008,-9.89945526e+001
,,,1.10000000e+008,-1.02255569e+002
,,,1.10400000e+008,-1.00752548e+002
,,,1.10800000e+008,-1.00141502e+002
,,,1.11200000e+008,-1.04947655e+002
,,,1.11600000e+008,-1.08788902e+002
,,,1.12000000e+008,-1.07747086e+002
,,,1.12400000e+008,-1.01997810e+002
,,,1.12800000e+008,-9.89497757e+001
,,,1.13200000e+008,-9.77623520e+001
,,,1.13600000e+008,-9.80361023e+001
,,,1.14000000e+008,-1.00292709e+002
,,,1.14400000e+008,-1.01234818e+002
,,,1.14800000e+008,-9.99854736e+001
,,,1.15200000e+008,-1.00742859e+002
,,,1.15600000e+008,-9.73476868e+001
,,,1.16000000e+008,-9.96248169e+001
,,,1.16400000e+008,-1.00557541e+002
,,,1.16800000e+008,-9.78123703e+001
,,,1.17200000e+008,-1.01189934e+002
,,,1.17600000e+008,-9.99278717e+001
,,,1.18000000e+008,-1.02721680e+002
,,,1.18400000e+008,-1.03264244e+002
,,,1.18800000e+008,-9.92289047e+001
,,,1.19200000e+008,-1.02334068e+002
,,,1.19600000e+008,-1.01030533e+002
,,,1.20000000e+008,-1.02199699e+002
,,,1.20400000e+008,-1.02363297e+002
,,,1.20800000e+008,-1.00641678e+002
,,,1.21200000e+008,-1.04266823e+002
,,,1.21600000e+008,-1.01630455e+002
,,,1.22000000e+008,-1.01994423e+002
,,,1.22400000e+008,-1.02325272e+002
,,,1.22800000e+008,-1.00236488e+002
,,,1.23200000e+008,-1.03184410e+002
,,,1.23600000e+008,-1.04081451e+002
,,,1.24000000e+008,-1.04296623e+002
,,,1.24400000e+008,-1.03299843e+002
,,,1.24800000e+008,-1.02138870e+002
,,,1.25200000e+008,-1.04459244e+002
,,,1.25600000e+008,-1.03041550e+002
,,,1.26000000e+008,-1.03720032e+002
,,,1.26400000e+008,-1.03990791e+002
,,,1.26800000e+008,-1.03171425e+002
,,,1.27200000e+008,-1.03625320e+002
,,,1.27600000e+008,-1.04310493e+002
,,,1.28000000e+008,-1.04316086e+002
,,,1.28400000e+008,-1.05834351e+002
,,,1.28800000e+008,-1.20209770e+002
,,,1.29200000e+008,-1.13049011e+002
,,,1.29600000e+008,-1.00619240e+002
,,,1.30000000e+008,-9.68144989e+001
,,,1.30400000e+008,-9.36375275e+001
,,,1.30800000e+008,-9.21940155e+001
,,,1.31200000e+008,-9.23215485e+001
,,,1.31600000e+008,-9.50754318e+001
,,,1.32000000e+008,-9.73343964e+001
,,,1.32400000e+008,-9.66822510e+001
,,,1.32800000e+008,-9.73946991e+001
,,,1.33200000e+008,-9.64622498e+001
,,,1.33600000e+008,-9.67181702e+001
,,,1.34000000e+008,-9.68360519e+001
,,,1.34400000e+008,-9.77774887e+001
,,,1.34800000e+008,-9.86311722e+001
,,,1.35200000e+008,-9.69703827e+001
,,,1.35600000e+008,-9.92769165e+001
,,,1.36000000e+008,-1.00033287e+002
,,,1.36400000e+008,-9.97571106e+001
,,,1.36800000e+008,-1.00887604e+002
,,,1.37200000e+008,-1.00157097e+002
,,,1.37600000e+008,-1.01936325e+002
,,,1.38000000e+008,-1.01381073e+002
,,,1.38400000e+008,-1.01783676e+002
,,,1.38800000e+008,-1.03382446e+002
,,,1.39200000e+008,-1.01781853e+002
,,,1.39600000e+008,-1.01108360e+002
,,,1.40000000e+008,-1.00889244e+002
,,,1.40400000e+008,-1.03648277e+002
,,,1.40800000e+008,-1.01219864e+002
,,,1.41200000e+008,-1.01465508e+002
,,,1.41600000e+008,-1.08363922e+002
,,,1.42000000e+008,-1.07922218e+002
,,,1.42400000e+008,-1.07271355e+002
,,,1.42800000e+008,-1.07170654e+002
,,,1.43200000e+008,-1.02414070e+002
,,,1.43600000e+008,-1.01914520e+002
,,,1.44000000e+008,-1.00233994e+002
,,,1.44400000e+008,-1.00233536e+002
,,,1.44800000e+008,-1.00403770e+002
,,,1.45200000e+008,-9.78344955e+001
,,,1.45600000e+008,-9.68125763e+001
,,,1.46000000e+008,-9.63739777e+001
,,,1.46400000e+008,-9.66770630e+001
,,,1.46800000e+008,-9.63671722e+001
,,,1.47200000e+008,-9.65432739e+001
,,,1.47600000e+008,-9.62214050e+001
,,,1.48000000e+008,-9.88833008e+001
,,,1.48400000e+008,-1.10062027e+002
,,,1.48800000e+008,-1.11982605e+002
,,,1.49200000e+008,-1.03645653e+002
,,,1.49600000e+008,-1.00057678e+002
,,,1.50000000e+008,-9.96804123e+001
,,,1.50400000e+008,-9.91855927e+001
,,,1.50800000e+008,-9.87228241e+001
,,,1.51200000e+008,-1.01521492e+002
,,,1.51600000e+008,-1.00213783e+002
,,,1.52000000e+008,-1.00590988e+002
,,,1.52400000e+008,-1.01792297e+002
,,,1.52800000e+008,-1.00926933e+002
,,,1.53200000e+008,-1.01900467e+002
,,,1.53600000e+008,-9.95056381e+001
,,,1.54000000e+008,-9.91862488e+001
,,,1.54400000e+008,-9.83336258e+001
,,,1.54800000e+008,-9.84108887e+001
,,,1.55200000e+008,-1.01386719e+002
,,,1.55600000e+008,-1.01175148e+002
,,,1.56000000e+008,-1.03869431e+002
,,,1.56400000e+008,-1.05191200e+002
,,,1.56800000e+008,-1.01380287e+002
,,,1.57200000e+008,-1.00644913e+002
,,,1.57600000e+008,-9.79714584e+001
,,,1.58000000e+008,-9.78359680e+001
,,,1.58400000e+008,-9.64345627e+001
,,,1.58800000e+008,-9.45181580e+001
,,,1.59200000e+008,-9.51217041e+001
,,,1.59600000e+008,-9.48796387e+001
,,,1.60000000e+008,-9.53973465e+001
,,,1.60400000e+008,-9.68048935e+001
,,,1.60800000e+008,-9.82198486e+001
,,,1.61200000e+008,-9.80390167e+001
,,,1.61600000e+008,-9.92074280e+001
,,,1.62000000e+008,-1.00480652e+002
,,,1.62400000e+008,-1.01409340e+002
,,,1.62800000e+008,-1.00924339e+002
,,,1.63200000e+008,-9.91894684e+001
,,,1.63600000e+008,-9.66824036e+001
,,,1.64000000e+008,-9.57994232e+001
,,,1.64400000e+008,-9.43719406e+001
,,,1.64800000e+008,-9.39328766e+001
,,,1.65200000e+008,-9.29771423e+001
,,,1.65600000e+008,-9.23132706e+001
,,,1.66000000e+008,-9.48439102e+001
,,,1.66400000e+008,-1.03739929e+002
,,,1.66800000e+008,-1.04283981e+002
,,,1.67200000e+008,-9.68895645e+001
,,,1.67600000e+008,-9.32513351e+001
,,,1.68000000e+008,-9.10823746e+001
,,,1.68400000e+008,-9.01894073e+001
,,,1.68800000e+008,-8.98675690e+001
,,,1.69200000e+008,-8.95595779e+001
,,,1.69600000e+008,-9.02826767e+001
,,,1.70000000e+008,-9.08922348e+001
,,,1.70400000e+008,-9.14032135e+001
,,,1.70800000e+008,-9.26379852e+001
,,,1.71200000e+008,-9.49032669e+001
,,,1.71600000e+008,-9.74208527e+001
,,,1.72000000e+008,-1.00563179e+002
,,,1.72400000e+008,-1.06612717e+002
,,,1.72800000e+008,-1.18293350e+002
,,,1.73200000e+008,-1.22674942e+002
,,,1.73600000e+008,-1.08690086e+002
,,,1.74000000e+008,-1.10170288e+002
,,,1.74400000e+008,-1.03212891e+002
,,,1.74800000e+008,-1.00709663e+002
,,,1.75200000e+008,-9.48757935e+001
,,,1.75600000e+008,-9.32502060e+001
,,,1.76000000e+008,-8.92852936e+001
,,,1.76400000e+008,-9.27578964e+001
,,,1.76800000e+008,-9.64442749e+001
,,,1.77200000e+008,-9.56541901e+001
,,,1.77600000e+008,-9.95354767e+001
,,,1.78000000e+008,-9.72042389e+001
,,,1.78400000e+008,-1.01700211e+002
,,,1.78800000e+008,-9.75147324e+001
,,,1.79200000e+008,-9.25557251e+001
,,,1.79600000e+008,-9.65524597e+001
,,,1.80000000e+008,-9.64974594e+001
,,,1.80400000e+008,-9.45769348e+001
,,,1.80800000e+008,-9.58201447e+001
,,,1.81200000e+008,-9.41020737e+001
,,,1.81600000e+008,-9.34643707e+001
,,,1.82000000e+008,-9.41030579e+001
,,,1.82400000e+008,-9.39785614e+001
,,,1.82800000e+008,-9.22823944e+001
,,,1.83200000e+008,-8.85885086e+001
,,,1.83600000e+008,-8.64497299e+001
,,,1.84000000e+008,-8.59469070e+001
,,,1.84400000e+008,-8.59730072e+001
,,,1.84800000e+008,-8.52149277e+001
,,,1.85200000e+008,-8.53522797e+001
,,,1.85600000e+008,-8.59155731e+001
,,,1.86000000e+008,-8.73473892e+001
,,,1.86400000e+008,-8.92214661e+001
,,,1.86800000e+008,-9.13558350e+001
,,,1.87200000e+008,-9.31591110e+001
,,,1.87600000e+008,-9.21772919e+001
,,,1.88000000e+008,-9.25138168e+001
,,,1.88400000e+008,-9.23653793e+001
,,,1.88800000e+008,-9.07760391e+001
,,,1.89200000e+008,-9.01561203e+001
,,,1.89600000e+008,-8.90943756e+001
,,,1.90000000e+008,-8.97002869e+001
,,,1.90400000e+008,-9.00832291e+001
,,,1.90800000e+008,-8.95574112e+001
,,,1.91200000e+008,-8.97110901e+001
,,,1.91600000e+008,-8.92109070e+001
,,,1.92000000e+008,-8.99239578e+001
,,,1.92400000e+008,-9.04565201e+001
,,,1.92800000e+008,-9.02199554e+001
,,,1.93200000e+008,-9.02571716e+001
,,,1.93600000e+008,-8.85678864e+001
,,,1.94000000e+008,-8.68191299e+001
,,,1.94400000e+008,-8.64230042e+001
,,,1.94800000e+008,-8.72139587e+001
,,,1.95200000e+008,-8.82197189e+001
,,,1.95600000e+008,-8.81300583e+001
,,,1.96000000e+008,-8.70608902e+001
,,,1.96400000e+008,-8.64762726e+001
,,,1.96800000e+008,-8.60835800e+001
,,,1.97200000e+008,-8.66799011e+001
,,,1.97600000e+008,-8.91791840e+001
,,,1.98000000e+008,-9.04146652e+001
,,,1.98400000e+008,-9.06933136e+001
,,,1.98800000e+008,-8.90971909e+001
,,,1.99200000e+008,-8.72294464e+001
,,,1.99600000e+008,-8.66882706e+001
,,,2.00000000e+008,-8.46065598e+001
,,,2.00400000e+008,-8.42852707e+001
,,,2.00800000e+008,-8.51624756e+001
,,,2.01200000e+008,-8.57561340e+001
,,,2.01600000e+008,-8.63757401e+001
,,,2.02000000e+008,-8.51492157e+001
,,,2.02400000e+008,-8.55102234e+001
,,,2.02800000e+008,-8.61849365e+001
,,,2.03200000e+008,-8.70574493e+001
,,,2.03600000e+008,-8.85547028e+001
,,,2.04000000e+008,-8.93790436e+001
,,,2.04400000e+008,-8.98042221e+001
,,,2.04800000e+008,-9.20368118e+001
,,,2.05200000e+008,-8.97995834e+001
,,,2.05600000e+008,-8.88925018e+001
,,,2.06000000e+008,-8.81864014e+001
,,,2.06400000e+008,-8.90101089e+001
,,,2.06800000e+008,-8.95676575e+001
,,,2.07200000e+008,-8.77090607e+001
,,,2.07600000e+008,-8.68132095e+001
,,,2.08000000e+008,-8.79006042e+001
,,,2.08400000e+008,-8.89023895e+001
,,,2.08800000e+008,-8.69770203e+001
,,,2.09200000e+008,-8.58907394e+001
,,,2.09600000e+008,-8.57209778e+001
,,,2.10000000e+008,-8.40130005e+001
,,,2.10400000e+008,-8.39813538e+001
,,,2.10800000e+008,-8.40516281e+001
,,,2.11200000e+008,-8.42494125e+001
,,,2.11600000e+008,-8.48653107e+001
,,,2.12000000e+008,-8.53650818e+001
,,,2.12400000e+008,-8.60882645e+001
,,,2.12800000e+008,-8.64286194e+001
,,,2.13200000e+008,-8.72358017e+001
,,,2.13600000e+008,-8.68759003e+001
,,,2.14000000e+008,-8.61973724e+001
,,,2.14400000e+008,-8.59799500e+001
,,,2.14800000e+008,-8.56055527e+001
,,,2.15200000e+008,-8.59654541e+001
,,,2.15600000e+008,-8.59218292e+001
,,,2.16000000e+008,-8.61016235e+001
,,,2.16400000e+008,-8.61535339e+001
,,,2.16800000e+008,-8.60809250e+001
,,,2.17200000e+008,-8.65592880e+001
,,,2.17600000e+008,-8.63023682e+001
,,,2.18000000e+008,-8.66913681e+001
,,,2.18400000e+008,-8.72040176e+001
,,,2.18800000e+008,-8.73231583e+001
,,,2.19200000e+008,-8.73901901e+001
,,,2.19600000e+008,-8.70073624e+001
,,,2.20000000e+008,-8.70787201e+001
