Data/20220822/UCLA_to_R2B_HPOL_NEG70_001_Math1.csv

"Record Length",6250,"Points",0.00000000e+000,-1.28113804e+001
"Sample Interval",4.00000000e+005,Hz,4.00000000e+005,-1.93815517e+001
"Trigger Point",0,"Samples",8.00000000e+005,-2.13056984e+001
"Trigger Time",0.00000000e+000,Hz,1.20000000e+006,-2.47311440e+001
"",,,1.60000000e+006,-3.15268497e+001
"Horizontal Offset",0.00000000e+000,Hz,2.00000000e+006,-7.88749237e+001
,,,2.40000000e+006,-3.50605927e+001
,,,2.80000000e+006,-3.20855942e+001
,,,3.20000000e+006,-3.31538239e+001
,,,3.60000000e+006,-3.88224907e+001
,,,4.00000000e+006,-7.03082962e+001
,,,4.40000000e+006,-4.02205315e+001
,,,4.80000000e+006,-3.67256355e+001
,,,5.20000000e+006,-3.72722206e+001
,,,5.60000000e+006,-4.25889664e+001
,,,6.00000000e+006,-7.64200821e+001
,,,6.40000000e+006,-4.32103500e+001
,,,6.80000000e+006,-3.94442406e+001
,,,7.20000000e+006,-4.03752899e+001
,,,7.60000000e+006,-4.57280807e+001
,,,8.00000000e+006,-8.13460922e+001
,,,8.40000000e+006,-4.56519585e+001
,,,8.80000000e+006,-4.21024361e+001
,,,9.20000000e+006,-4.25943642e+001
,,,9.60000000e+006,-4.67977448e+001
,,,1.00000000e+007,-6.30819168e+001
,,,1.04000000e+007,-4.80562210e+001
,,,1.08000000e+007,-4.37628021e+001
,,,1.12000000e+007,-4.41641159e+001
,,,1.16000000e+007,-4.82722054e+001
,,,1.20000000e+007,-6.70842209e+001
,,,1.24000000e+007,-4.82511215e+001
,,,1.28000000e+007,-4.52662277e+001
,,,1.32000000e+007,-4.64782791e+001
,,,1.36000000e+007,-5.02912636e+001
,,,1.40000000e+007,-6.49197998e+001
,,,1.44000000e+007,-4.98757401e+001
,,,1.48000000e+007,-4.73040504e+001
,,,1.52000000e+007,-4.67234268e+001
,,,1.56000000e+007,-5.10376930e+001
,,,1.60000000e+007,-7.44398651e+001
,,,1.64000000e+007,-5.33867798e+001
,,,1.68000000e+007,-4.73922348e+001
,,,1.72000000e+007,-4.67825737e+001
,,,1.76000000e+007,-5.21537094e+001
,,,1.80000000e+007,-6.76900024e+001
,,,1.84000000e+007,-5.23096962e+001
,,,1.88000000e+007,-4.81257782e+001
,,,1.92000000e+007,-4.84918518e+001
,,,1.96000000e+007,-5.58814888e+001
,,,2.00000000e+007,-6.85883179e+001
,,,2.04000000e+007,-5.34343491e+001
,,,2.08000000e+007,-4.91569481e+001
,,,2.12000000e+007,-4.91886597e+001
,,,2.16000000e+007,-5.31822968e+001
,,,2.20000000e+007,-6.82097244e+001
,,,2.24000000e+007,-5.31607933e+001
,,,2.28000000e+007,-4.93802719e+001
,,,2.32000000e+007,-5.13273163e+001
,,,2.36000000e+007,-5.59983902e+001
,,,2.40000000e+007,-8.04073715e+001
,,,2.44000000e+007,-5.49650269e+001
,,,2.48000000e+007,-5.09590836e+001
,,,2.52000000e+007,-5.06822548e+001
,,,2.56000000e+007,-5.70640640e+001
,,,2.60000000e+007,-6.70715866e+001
,,,2.64000000e+007,-5.48825073e+001
,,,2.68000000e+007,-5.23431396e+001
,,,2.72000000e+007,-5.03820229e+001
,,,2.76000000e+007,-5.69335709e+001
,,,2.80000000e+007,-6.01221123e+001
,,,2.84000000e+007,-5.99563446e+001
,,,2.88000000e+007,-5.30723724e+001
,,,2.92000000e+007,-5.24082413e+001
,,,2.96000000e+007,-5.52430000e+001
,,,3.00000000e+007,-7.85594940e+001
,,,3.04000000e+007,-5.47873840e+001
,,,3.08000000e+007,-5.30119553e+001
,,,3.12000000e+007,-5.21909103e+001
,,,3.16000000e+007,-5.65314217e+001
,,,3.20000000e+007,-6.76022644e+001
,,,3.24000000e+007,-5.80735359e+001
,,,3.28000000e+007,-5.12259560e+001
,,,3.32000000e+007,-5.37293320e+001
,,,3.36000000e+007,-6.35334702e+001
,,,3.40000000e+007,-6.49028015e+001
,,,3.44000000e+007,-5.45469398e+001
,,,3.48000000e+007,-5.48363609e+001
,,,3.52000000e+007,-5.51225166e+001
,,,3.56000000e+007,-6.06669006e+001
,,,3.60000000e+007,-7.85082932e+001
,,,3.64000000e+007,-5.90968246e+001
,,,3.68000000e+007,-5.54003105e+001
,,,3.72000000e+007,-5.33992882e+001
,,,3.76000000e+007,-6.04137268e+001
,,,3.80000000e+007,-7.34052658e+001
,,,3.84000000e+007,-5.96083717e+001
,,,3.88000000e+007,-5.41140099e+001
,,,3.92000000e+007,-5.56414986e+001
,,,3.96000000e+007,-5.86972847e+001
,,,4.00000000e+007,-7.10712509e+001
,,,4.04000000e+007,-5.69309578e+001
,,,4.08000000e+007,-5.59149971e+001
,,,4.12000000e+007,-5.42701111e+001
,,,4.16000000e+007,-6.32732811e+001
,,,4.20000000e+007,-7.24267502e+001
,,,4.24000000e+007,-6.41607971e+001
,,,4.28000000e+007,-5.38730965e+001
,,,4.32000000e+007,-5.64908638e+001
,,,4.36000000e+007,-6.01899300e+001
,,,4.40000000e+007,-6.98235779e+001
,,,4.44000000e+007,-5.70708122e+001
,,,4.48000000e+007,-5.61017113e+001
,,,4.52000000e+007,-5.57800293e+001
,,,4.56000000e+007,-6.49928970e+001
,,,4.60000000e+007,-6.66816483e+001
,,,4.64000000e+007,-7.13017044e+001
,,,4.68000000e+007,-5.43221970e+001
,,,4.72000000e+007,-5.68497925e+001
,,,4.76000000e+007,-6.20373802e+001
,,,4.80000000e+007,-8.02820587e+001
,,,4.84000000e+007,-6.04402657e+001
,,,4.88000000e+007,-5.74856339e+001
,,,4.92000000e+007,-5.72563210e+001
,,,4.96000000e+007,-6.11077080e+001
,,,5.00000000e+007,-7.49952850e+001
,,,5.04000000e+007,-6.30455017e+001
,,,5.08000000e+007,-5.90160751e+001
,,,5.12000000e+007,-5.57807274e+001
,,,5.16000000e+007,-5.79946327e+001
,,,5.20000000e+007,-7.09560318e+001
,,,5.24000000e+007,-5.72445297e+001
,,,5.28000000e+007,-6.01368561e+001
,,,5.32000000e+007,-5.53384705e+001
,,,5.36000000e+007,-6.10886841e+001
,,,5.40000000e+007,-6.55343628e+001
,,,5.44000000e+007,-6.60232468e+001
,,,5.48000000e+007,-5.77634621e+001
,,,5.52000000e+007,-5.67446289e+001
,,,5.56000000e+007,-5.82081032e+001
,,,5.60000000e+007,-7.19561844e+001
,,,5.64000000e+007,-5.86277657e+001
,,,5.68000000e+007,-5.51323738e+001
,,,5.72000000e+007,-5.99753838e+001
,,,5.76000000e+007,-7.27904282e+001
,,,5.80000000e+007,-7.37715225e+001
,,,5.84000000e+007,-6.05449562e+001
,,,5.88000000e+007,-5.99722710e+001
,,,5.92000000e+007,-5.87544746e+001
,,,5.96000000e+007,-6.28274994e+001
,,,6.00000000e+007,-6.90564194e+001
,,,6.04000000e+007,-5.90466537e+001
,,,6.08000000e+007,-6.13542557e+001
,,,6.12000000e+007,-5.64286804e+001
,,,6.16000000e+007,-5.94758110e+001
,,,6.20000000e+007,-6.41396637e+001
,,,6.24000000e+007,-6.03284378e+001
,,,6.28000000e+007,-5.53303528e+001
,,,6.32000000e+007,-6.10351677e+001
,,,6.36000000e+007,-6.55595093e+001
,,,6.40000000e+007,-6.70764160e+001
,,,6.44000000e+007,-6.50222626e+001
,,,6.48000000e+007,-5.74024086e+001
,,,6.52000000e+007,-6.14002151e+001
,,,6.56000000e+007,-6.56161499e+001
,,,6.60000000e+007,-7.62443008e+001
,,,6.64000000e+007,-6.46315765e+001
,,,6.68000000e+007,-5.96040573e+001
,,,6.72000000e+007,-5.61919212e+001
,,,6.76000000e+007,-6.85716095e+001
,,,6.80000000e+007,-6.84445877e+001
,,,6.84000000e+007,-6.47071381e+001
,,,6.88000000e+007,-5.87909431e+001
,,,6.92000000e+007,-5.97342873e+001
,,,6.96000000e+007,-6.11590233e+001
,,,7.00000000e+007,-6.65683365e+001
,,,7.04000000e+007,-5.83441353e+001
,,,7.08000000e+007,-5.98171310e+001
,,,7.12000000e+007,-6.05707169e+001
,,,7.16000000e+007,-6.70538864e+001
,,,7.20000000e+007,-6.39703827e+001
,,,7.24000000e+007,-6.22772713e+001
,,,7.28000000e+007,-6.20848503e+001
,,,7.32000000e+007,-5.95259094e+001
,,,7.36000000e+007,-6.85099182e+001
,,,7.40000000e+007,-6.38470230e+001
,,,7.44000000e+007,-6.52667923e+001
,,,7.48000000e+007,-5.91615486e+001
,,,7.52000000e+007,-6.80384216e+001
,,,7.56000000e+007,-6.15828590e+001
,,,7.60000000e+007,-6.35321312e+001
,,,7.64000000e+007,-6.23581734e+001
,,,7.68000000e+007,-6.27905197e+001
,,,7.72000000e+007,-6.45869827e+001
,,,7.76000000e+007,-6.40036392e+001
,,,7.80000000e+007,-7.57748947e+001
,,,7.84000000e+007,-6.42374420e+001
,,,7.88000000e+007,-5.85809708e+001
,,,7.92000000e+007,-6.83996658e+001
,,,7.96000000e+007,-6.15017853e+001
,,,8.00000000e+007,-7.46658401e+001
,,,8.04000000e+007,-6.01366501e+001
,,,8.08000000e+007,-6.54060745e+001
,,,8.12000000e+007,-6.18610954e+001
,,,8.16000000e+007,-7.29645004e+001
,,,8.20000000e+007,-6.99467392e+001
,,,8.24000000e+007,-6.48090744e+001
,,,8.28000000e+007,-6.43848114e+001
,,,8.32000000e+007,-5.89986649e+001
,,,8.36000000e+007,-6.97493210e+001
,,,8.40000000e+007,-7.08794556e+001
,,,8.44000000e+007,-6.85747757e+001
,,,8.48000000e+007,-6.08075943e+001
,,,8.52000000e+007,-6.29385796e+001
,,,8.56000000e+007,-6.77408600e+001
,,,8.60000000e+007,-6.77927475e+001
,,,8.64000000e+007,-6.77114410e+001
,,,8.68000000e+007,-6.49164276e+001
,,,8.72000000e+007,-6.08494568e+001
,,,8.76000000e+007,-6.61407547e+001
,,,8.80000000e+007,-6.37252846e+001
,,,8.84000000e+007,-6.12891121e+001
,,,8.88000000e+007,-5.70753860e+001
,,,8.92000000e+007,-6.03773804e+001
,,,8.96000000e+007,-7.29722366e+001
,,,9.00000000e+007,-7.30962982e+001
,,,9.04000000e+007,-6.23144836e+001
,,,9.08000000e+007,-5.98379478e+001
,,,9.12000000e+007,-6.29664154e+001
,,,9.16000000e+007,-7.16173401e+001
,,,9.20000000e+007,-7.04895706e+001
,,,9.24000000e+007,-6.49795151e+001
,,,9.28000000e+007,-6.27501755e+001
,,,9.32000000e+007,-6.12627258e+001
,,,9.36000000e+007,-7.20008240e+001
,,,9.40000000e+007,-6.60733871e+001
,,,9.44000000e+007,-6.27888908e+001
,,,9.48000000e+007,-7.09791794e+001
,,,9.52000000e+007,-6.12015724e+001
,,,9.56000000e+007,-6.20563736e+001
,,,9.60000000e+007,-6.21857872e+001
,,,9.64000000e+007,-7.08536911e+001
,,,9.68000000e+007,-6.19648895e+001
,,,9.72000000e+007,-6.10418968e+001
,,,9.76000000e+007,-6.42089081e+001
,,,9.80000000e+007,-7.30674057e+001
,,,9.84000000e+007,-6.38457642e+001
,,,9.88000000e+007,-6.26577263e+001
,,,9.92000000e+007,-6.18090324e+001
,,,9.96000000e+007,-6.06614647e+001
,,,1.00000000e+008,-7.29570694e+001
,,,1.00400000e+008,-7.01257706e+001
,,,1.00800000e+008,-6.30861626e+001
,,,1.01200000e+008,-5.44732704e+001
,,,1.01600000e+008,-5.98599434e+001
,,,1.02000000e+008,-6.14979248e+001
,,,1.02400000e+008,-6.08827705e+001
,,,1.02800000e+008,-6.42955933e+001
,,,1.03200000e+008,-6.07111893e+001
,,,1.03600000e+008,-6.38637924e+001
,,,1.04000000e+008,-6.38378677e+001
,,,1.04400000e+008,-6.42971878e+001
,,,1.04800000e+008,-5.76048164e+001
,,,1.05200000e+008,-6.12513504e+001
,,,1.05600000e+008,-6.75518799e+001
,,,1.06000000e+008,-6.73506317e+001
,,,1.06400000e+008,-5.77066917e+001
,,,1.06800000e+008,-7.05025330e+001
,,,1.07200000e+008,-7.17571487e+001
,,,1.07600000e+008,-6.60462494e+001
,,,1.08000000e+008,-8.21128540e+001
,,,1.08400000e+008,-6.13260345e+001
,,,1.08800000e+008,-6.38711090e+001
,,,1.09200000e+008,-6.61990738e+001
,,,1.09600000e+008,-6.43024445e+001
,,,1.10000000e+008,-7.15354233e+001
,,,1.10400000e+008,-6.30053520e+001
,,,1.10800000e+008,-6.24081001e+001
,,,1.11200000e+008,-5.92860718e+001
,,,1.11600000e+008,-6.57853241e+001
,,,1.12000000e+008,-6.72683640e+001
,,,1.12400000e+008,-6.38235779e+001
,,,1.12800000e+008,-6.39832039e+001
,,,1.13200000e+008,-7.08619080e+001
,,,1.13600000e+008,-6.51909714e+001
,,,1.14000000e+008,-8.01366806e+001
,,,1.14400000e+008,-6.88259964e+001
,,,1.14800000e+008,-6.14991226e+001
,,,1.15200000e+008,-5.92983131e+001
,,,1.15600000e+008,-6.70753174e+001
,,,1.16000000e+008,-7.32690887e+001
,,,1.16400000e+008,-5.86143303e+001
,,,1.16800000e+008,-6.14435043e+001
,,,1.17200000e+008,-6.09303017e+001
,,,1.17600000e+008,-7.87104645e+001
,,,1.18000000e+008,-7.05068893e+001
,,,1.18400000e+008,-7.33973465e+001
,,,1.18800000e+008,-6.76562653e+001
,,,1.19200000e+008,-5.72737427e+001
,,,1.19600000e+008,-7.11414566e+001
,,,1.20000000e+008,-6.48625031e+001
,,,1.20400000e+008,-7.12946930e+001
,,,1.20800000e+008,-5.99843445e+001
,,,1.21200000e+008,-6.39538612e+001
,,,1.21600000e+008,-6.57874985e+001
,,,1.22000000e+008,-7.19390411e+001
,,,1.22400000e+008,-6.47936401e+001
,,,1.22800000e+008,-5.95577011e+001
,,,1.23200000e+008,-7.19281693e+001
,,,1.23600000e+008,-6.85055084e+001
,,,1.24000000e+008,-6.96965485e+001
,,,1.24400000e+008,-6.81434555e+001
,,,1.24800000e+008,-6.56150131e+001
,,,1.25200000e+008,-6.45619202e+001
,,,1.25600000e+008,-6.01553497e+001
,,,1.26000000e+008,-6.69925995e+001
,,,1.26400000e+008,-6.24455070e+001
,,,1.26800000e+008,-6.03049469e+001
,,,1.27200000e+008,-7.81037521e+001
,,,1.27600000e+008,-6.96129456e+001
,,,1.28000000e+008,-7.01860580e+001
,,,1.28400000e+008,-6.96324310e+001
,,,1.28800000e+008,-5.96320877e+001
,,,1.29200000e+008,-6.57089157e+001
,,,1.29600000e+008,-8.31019440e+001
,,,1.30000000e+008,-7.04100952e+001
,,,1.30400000e+008,-6.24244423e+001
,,,1.30800000e+008,-6.81708298e+001
,,,1.31200000e+008,-6.96820755e+001
,,,1.31600000e+008,-7.30351486e+001
,,,1.32000000e+008,-6.46007462e+001
,,,1.32400000e+008,-6.55018845e+001
,,,1.32800000e+008,-6.58042374e+001
,,,1.33200000e+008,-6.67279739e+001
,,,1.33600000e+008,-6.80420837e+001
,,,1.34000000e+008,-6.57489090e+001
,,,1.34400000e+008,-6.48394547e+001
,,,1.34800000e+008,-7.10628281e+001
,,,1.35200000e+008,-6.01919518e+001
,,,1.35600000e+008,-6.49685898e+001
,,,1.36000000e+008,-7.26085052e+001
,,,1.36400000e+008,-6.37143593e+001
,,,1.36800000e+008,-5.80918388e+001
,,,1.37200000e+008,-6.51426315e+001
,,,1.37600000e+008,-6.51112366e+001
,,,1.38000000e+008,-6.58140564e+001
,,,1.38400000e+008,-6.39526329e+001
,,,1.38800000e+008,-6.32101402e+001
,,,1.39200000e+008,-6.68323212e+001
,,,1.39600000e+008,-7.26099777e+001
,,,1.40000000e+008,-6.58586731e+001
,,,1.40400000e+008,-5.97264938e+001
,,,1.40800000e+008,-6.52833023e+001
,,,1.41200000e+008,-5.93917770e+001
,,,1.41600000e+008,-7.03804855e+001
,,,1.42000000e+008,-7.18788910e+001
,,,1.42400000e+008,-5.80947304e+001
,,,1.42800000e+008,-7.08348083e+001
,,,1.43200000e+008,-6.79821930e+001
,,,1.43600000e+008,-7.62755127e+001
,,,1.44000000e+008,-6.86302338e+001
,,,1.44400000e+008,-6.33829384e+001
,,,1.44800000e+008,-6.56105499e+001
,,,1.45200000e+008,-6.22272301e+001
,,,1.45600000e+008,-6.49054565e+001
,,,1.46000000e+008,-6.53000946e+001
,,,1.46400000e+008,-6.12768898e+001
,,,1.46800000e+008,-6.40986862e+001
,,,1.47200000e+008,-6.45177307e+001
,,,1.47600000e+008,-6.92072144e+001
,,,1.48000000e+008,-6.91232605e+001
,,,1.48400000e+008,-5.35122108e+001
,,,1.48800000e+008,-5.22104225e+001
,,,1.49200000e+008,-4.72272034e+001
,,,1.49600000e+008,-4.79951897e+001
,,,1.50000000e+008,-4.93080330e+001
,,,1.50400000e+008,-4.88922577e+001
,,,1.50800000e+008,-4.90752754e+001
,,,1.51200000e+008,-5.19514351e+001
,,,1.51600000e+008,-5.19827614e+001
,,,1.52000000e+008,-5.47200317e+001
,,,1.52400000e+008,-5.66784172e+001
,,,1.52800000e+008,-5.34982071e+001
,,,1.53200000e+008,-6.09034424e+001
,,,1.53600000e+008,-5.57306824e+001
,,,1.54000000e+008,-5.89906921e+001
,,,1.54400000e+008,-8.59591675e+001
,,,1.54800000e+008,-5.92678261e+001
,,,1.55200000e+008,-6.60492783e+001
,,,1.55600000e+008,-5.89704361e+001
,,,1.56000000e+008,-5.99591484e+001
,,,1.56400000e+008,-6.42748642e+001
,,,1.56800000e+008,-5.55997543e+001
,,,1.57200000e+008,-6.28858223e+001
,,,1.57600000e+008,-5.80997734e+001
,,,1.58000000e+008,-5.86734772e+001
,,,1.58400000e+008,-6.70142136e+001
,,,1.58800000e+008,-5.74744530e+001
,,,1.59200000e+008,-6.34552689e+001
,,,1.59600000e+008,-5.77066765e+001
,,,1.60000000e+008,-5.73063316e+001
,,,1.60400000e+008,-5.75975342e+001
,,,1.60800000e+008,-5.21210403e+001
,,,1.61200000e+008,-5.58406487e+001
,,,1.61600000e+008,-5.12140999e+001
,,,1.62000000e+008,-5.15072479e+001
,,,1.62400000e+008,-5.68647118e+001
,,,1.62800000e+008,-5.26486359e+001
,,,1.63200000e+008,-5.43839760e+001
,,,1.63600000e+008,-5.05167847e+001
,,,1.64000000e+008,-4.96614304e+001
,,,1.64400000e+008,-4.92557373e+001
,,,1.64800000e+008,-4.58697662e+001
,,,1.65200000e+008,-4.61515083e+001
,,,1.65600000e+008,-4.41102028e+001
,,,1.66000000e+008,-4.18964729e+001
,,,1.66400000e+008,-4.05533371e+001
,,,1.66800000e+008,-4.04430771e+001
,,,1.67200000e+008,-3.94889984e+001
,,,1.67600000e+008,-3.92556419e+001
,,,1.68000000e+008,-4.05041733e+001
,,,1.68400000e+008,-4.07080765e+001
,,,1.68800000e+008,-4.22922668e+001
,,,1.69200000e+008,-4.27365913e+001
,,,1.69600000e+008,-4.44431038e+001
,,,1.70000000e+008,-4.51461296e+001
,,,1.70400000e+008,-4.44749451e+001
,,,1.70800000e+008,-4.57744904e+001
,,,1.71200000e+008,-4.48427010e+001
,,,1.71600000e+008,-4.57987328e+001
,,,1.72000000e+008,-4.57791557e+001
,,,1.72400000e+008,-4.65021591e+001
,,,1.72800000e+008,-4.89627457e+001
,,,1.73200000e+008,-4.82785301e+001
,,,1.73600000e+008,-4.88383026e+001
,,,1.74000000e+008,-5.10467529e+001
,,,1.74400000e+008,-5.31405296e+001
,,,1.74800000e+008,-5.16347847e+001
,,,1.75200000e+008,-4.85855598e+001
,,,1.75600000e+008,-5.16381683e+001
,,,1.76000000e+008,-4.96720390e+001
,,,1.76400000e+008,-4.78952637e+001
,,,1.76800000e+008,-5.09341354e+001
,,,1.77200000e+008,-4.84162674e+001
,,,1.77600000e+008,-4.72994957e+001
,,,1.78000000e+008,-4.75812531e+001
,,,1.78400000e+008,-4.59015846e+001
,,,1.78800000e+008,-4.62781754e+001
,,,1.79200000e+008,-4.70820541e+001
,,,1.79600000e+008,-4.65043640e+001
,,,1.80000000e+008,-4.61517754e+001
,,,1.80400000e+008,-4.53577995e+001
,,,1.80800000e+008,-4.45590057e+001
,,,1.81200000e+008,-4.61680679e+001
,,,1.81600000e+008,-4.58994484e+001
,,,1.82000000e+008,-4.52713432e+001
,,,1.82400000e+008,-4.43809700e+001
,,,1.82800000e+008,-4.17990150e+001
,,,1.83200000e+008,-4.12143822e+001
,,,1.83600000e+008,-4.04719009e+001
,,,1.84000000e+008,-4.00508957e+001
,,,1.84400000e+008,-4.05721741e+001
,,,1.84800000e+008,-4.01048508e+001
,,,1.85200000e+008,-4.16044006e+001
,,,1.85600000e+008,-4.17993164e+001
,,,1.86000000e+008,-4.22291527e+001
,,,1.86400000e+008,-4.32331734e+001
,,,1.86800000e+008,-4.22558289e+001
,,,1.87200000e+008,-4.28744965e+001
,,,1.87600000e+008,-4.32643700e+001
,,,1.88000000e+008,-4.44942589e+001
,,,1.88400000e+008,-4.65400925e+001
,,,1.88800000e+008,-4.91490860e+001
,,,1.89200000e+008,-5.12002831e+001
,,,1.89600000e+008,-4.71886444e+001
,,,1.90000000e+008,-4.51355019e+001
,,,1.90400000e+008,-4.50781517e+001
,,,1.90800000e+008,-4.41883125e+001
,,,1.91200000e+008,-4.46922112e+001
,,,1.91600000e+008,-4.42362709e+001
,,,1.92000000e+008,-4.41508560e+001
,,,1.92400000e+008,-4.47934380e+001
,,,1.92800000e+008,-4.53005104e+001
,,,1.93200000e+008,-4.60374908e+001
,,,1.93600000e+008,-4.67296982e+001
,,,1.94000000e+008,-4.57449570e+001
,,,1.94400000e+008,-4.51848869e+001
,,,1.94800000e+008,-4.62708969e+001
,,,1.95200000e+008,-4.71672974e+001
,,,1.95600000e+008,-4.78883972e+001
,,,1.96000000e+008,-4.53978233e+001
,,,1.96400000e+008,-4.23368912e+001
,,,1.96800000e+008,-4.09768181e+001
,,,1.97200000e+008,-4.04039116e+001
,,,1.97600000e+008,-4.06455421e+001
,,,1.98000000e+008,-4.04378433e+001
,,,1.98400000e+008,-3.96790695e+001
,,,1.98800000e+008,-3.97936668e+001
,,,1.99200000e+008,-3.90140915e+001
,,,1.99600000e+008,-3.89677887e+001
,,,2.00000000e+008,-3.89732513e+001
,,,2.00400000e+008,-3.86387100e+001
,,,2.00800000e+008,-3.95254478e+001
,,,2.01200000e+008,-3.94096489e+001
,,,2.01600000e+008,-3.95318832e+001
,,,2.02000000e+008,-3.91451836e+001
,,,2.02400000e+008,-3.84822006e+001
,,,2.02800000e+008,-3.88250923e+001
,,,2.03200000e+008,-3.83348274e+001
,,,2.03600000e+008,-3.84289932e+001
,,,2.04000000e+008,-3.79843025e+001
,,,2.04400000e+008,-3.67924957e+001
,,,2.04800000e+008,-3.65037041e+001
,,,2.05200000e+008,-3.67494698e+001
,,,2.05600000e+008,-3.73761139e+001
,,,2.06000000e+008,-3.85504913e+001
,,,2.06400000e+008,-3.79869385e+001
,,,2.06800000e+008,-3.71218262e+001
,,,2.07200000e+008,-3.90935097e+001
,,,2.07600000e+008,-4.04995613e+001
,,,2.08000000e+008,-3.98052101e+001
,,,2.08400000e+008,-3.99693604e+001
,,,2.08800000e+008,-3.93105812e+001
,,,2.09200000e+008,-3.95947342e+001
,,,2.09600000e+008,-4.07180824e+001
,,,2.10000000e+008,-4.03760262e+001
,,,2.10400000e+008,-3.92091522e+001
,,,2.10800000e+008,-3.88641472e+001
,,,2.11200000e+008,-3.91281891e+001
,,,2.11600000e+008,-3.83410034e+001
,,,2.12000000e+008,-3.77794151e+001
,,,2.12400000e+008,-3.70769081e+001
,,,2.12800000e+008,-3.68162651e+001
,,,2.13200000e+008,-3.77189217e+001
,,,2.13600000e+008,-3.71487198e+001
,,,2.14000000e+008,-3.72140579e+001
,,,2.14400000e+008,-3.82367287e+001
,,,2.14800000e+008,-3.88563690e+001
,,,2.15200000e+008,-3.94216385e+001
,,,2.15600000e+008,-3.93986206e+001
,,,2.16000000e+008,-3.97719078e+001
,,,2.16400000e+008,-3.96817093e+001
,,,2.16800000e+008,-3.98793221e+001
,,,2.17200000e+008,-4.03503571e+001
,,,2.17600000e+008,-4.01485405e+001
,,,2.18000000e+008,-4.08201065e+001
,,,2.18400000e+008,-4.05451164e+001
,,,2.18800000e+008,-4.03184319e+001
,,,2.19200000e+008,-4.07717896e+001
,,,2.19600000e+008,-3.98643188e+001
,,,2.20000000e+008,-3.90185585e+001
