Data/20220822/UCLA_to_R2B_HPOL_NEG20_001_Math1.csv

"Record Length",6250,"Points",0.00000000e+000,-1.27171583e+001
"Sample Interval",4.00000000e+005,Hz,4.00000000e+005,-1.93266220e+001
"Trigger Point",0,"Samples",8.00000000e+005,-2.11426163e+001
"Trigger Time",0.00000000e+000,Hz,1.20000000e+006,-2.46771545e+001
"",,,1.60000000e+006,-3.14010391e+001
"Horizontal Offset",0.00000000e+000,Hz,2.00000000e+006,-6.80976028e+001
,,,2.40000000e+006,-3.47736320e+001
,,,2.80000000e+006,-3.20714951e+001
,,,3.20000000e+006,-3.30637054e+001
,,,3.60000000e+006,-3.84775162e+001
,,,4.00000000e+006,-6.34854965e+001
,,,4.40000000e+006,-4.01910362e+001
,,,4.80000000e+006,-3.71053123e+001
,,,5.20000000e+006,-3.69374809e+001
,,,5.60000000e+006,-4.28282204e+001
,,,6.00000000e+006,-7.27652283e+001
,,,6.40000000e+006,-4.38487663e+001
,,,6.80000000e+006,-3.96580887e+001
,,,7.20000000e+006,-4.00633659e+001
,,,7.60000000e+006,-4.56837540e+001
,,,8.00000000e+006,-7.35440216e+001
,,,8.40000000e+006,-4.67489853e+001
,,,8.80000000e+006,-4.22413750e+001
,,,9.20000000e+006,-4.21891022e+001
,,,9.60000000e+006,-4.66459389e+001
,,,1.00000000e+007,-7.12163849e+001
,,,1.04000000e+007,-4.84557800e+001
,,,1.08000000e+007,-4.30989914e+001
,,,1.12000000e+007,-4.43224983e+001
,,,1.16000000e+007,-4.84680710e+001
,,,1.20000000e+007,-7.59626312e+001
,,,1.24000000e+007,-5.00182037e+001
,,,1.28000000e+007,-4.54176826e+001
,,,1.32000000e+007,-4.50800247e+001
,,,1.36000000e+007,-4.97142181e+001
,,,1.40000000e+007,-7.02586441e+001
,,,1.44000000e+007,-5.07282372e+001
,,,1.48000000e+007,-4.58020401e+001
,,,1.52000000e+007,-4.67826118e+001
,,,1.56000000e+007,-5.13987999e+001
,,,1.60000000e+007,-6.57310715e+001
,,,1.64000000e+007,-5.21539612e+001
,,,1.68000000e+007,-4.76434669e+001
,,,1.72000000e+007,-4.77055626e+001
,,,1.76000000e+007,-5.13066673e+001
,,,1.80000000e+007,-7.26480942e+001
,,,1.84000000e+007,-5.30687904e+001
,,,1.88000000e+007,-4.80361061e+001
,,,1.92000000e+007,-4.89344025e+001
,,,1.96000000e+007,-5.24900093e+001
,,,2.00000000e+007,-6.57167206e+001
,,,2.04000000e+007,-5.43242760e+001
,,,2.08000000e+007,-4.99820938e+001
,,,2.12000000e+007,-4.94751587e+001
,,,2.16000000e+007,-5.27702980e+001
,,,2.20000000e+007,-7.15796967e+001
,,,2.24000000e+007,-5.49259033e+001
,,,2.28000000e+007,-4.97659149e+001
,,,2.32000000e+007,-5.07371254e+001
,,,2.36000000e+007,-5.34120979e+001
,,,2.40000000e+007,-6.46645279e+001
,,,2.44000000e+007,-5.35882416e+001
,,,2.48000000e+007,-5.19346085e+001
,,,2.52000000e+007,-5.15751419e+001
,,,2.56000000e+007,-5.45527420e+001
,,,2.60000000e+007,-7.30005417e+001
,,,2.64000000e+007,-5.65286255e+001
,,,2.68000000e+007,-5.13407669e+001
,,,2.72000000e+007,-5.20030441e+001
,,,2.76000000e+007,-5.60426559e+001
,,,2.80000000e+007,-6.09679070e+001
,,,2.84000000e+007,-5.44942780e+001
,,,2.88000000e+007,-5.31790619e+001
,,,2.92000000e+007,-5.15714798e+001
,,,2.96000000e+007,-5.70978241e+001
,,,3.00000000e+007,-6.71179733e+001
,,,3.04000000e+007,-5.43997726e+001
,,,3.08000000e+007,-5.42572632e+001
,,,3.12000000e+007,-5.27174873e+001
,,,3.16000000e+007,-5.75283737e+001
,,,3.20000000e+007,-7.03940048e+001
,,,3.24000000e+007,-5.66254501e+001
,,,3.28000000e+007,-5.59147530e+001
,,,3.32000000e+007,-5.38052750e+001
,,,3.36000000e+007,-5.53456535e+001
,,,3.40000000e+007,-6.29339561e+001
,,,3.44000000e+007,-5.55164528e+001
,,,3.48000000e+007,-5.38425751e+001
,,,3.52000000e+007,-5.38055801e+001
,,,3.56000000e+007,-5.63442955e+001
,,,3.60000000e+007,-6.47970810e+001
,,,3.64000000e+007,-5.67405090e+001
,,,3.68000000e+007,-5.61376610e+001
,,,3.72000000e+007,-5.20700378e+001
,,,3.76000000e+007,-5.75913773e+001
,,,3.80000000e+007,-7.08086472e+001
,,,3.84000000e+007,-5.61947289e+001
,,,3.88000000e+007,-5.52205429e+001
,,,3.92000000e+007,-5.46728325e+001
,,,3.96000000e+007,-5.92852592e+001
,,,4.00000000e+007,-7.96384048e+001
,,,4.04000000e+007,-5.71552544e+001
,,,4.08000000e+007,-5.78168373e+001
,,,4.12000000e+007,-5.33022270e+001
,,,4.16000000e+007,-6.31363831e+001
,,,4.20000000e+007,-7.37940521e+001
,,,4.24000000e+007,-6.06176834e+001
,,,4.28000000e+007,-5.53199615e+001
,,,4.32000000e+007,-5.49959221e+001
,,,4.36000000e+007,-5.85709877e+001
,,,4.40000000e+007,-7.46825027e+001
,,,4.44000000e+007,-5.82899551e+001
,,,4.48000000e+007,-5.52217903e+001
,,,4.52000000e+007,-5.89954414e+001
,,,4.56000000e+007,-5.61868515e+001
,,,4.60000000e+007,-6.91871262e+001
,,,4.64000000e+007,-6.36971245e+001
,,,4.68000000e+007,-5.30524750e+001
,,,4.72000000e+007,-5.98384705e+001
,,,4.76000000e+007,-5.80898819e+001
,,,4.80000000e+007,-6.61607819e+001
,,,4.84000000e+007,-6.53896790e+001
,,,4.88000000e+007,-5.38518333e+001
,,,4.92000000e+007,-6.01349411e+001
,,,4.96000000e+007,-5.93554192e+001
,,,5.00000000e+007,-7.77154694e+001
,,,5.04000000e+007,-6.46944122e+001
,,,5.08000000e+007,-5.50346642e+001
,,,5.12000000e+007,-5.74737244e+001
,,,5.16000000e+007,-6.12499123e+001
,,,5.20000000e+007,-7.04683228e+001
,,,5.24000000e+007,-6.02052307e+001
,,,5.28000000e+007,-5.74638748e+001
,,,5.32000000e+007,-6.14295158e+001
,,,5.36000000e+007,-5.65364914e+001
,,,5.40000000e+007,-6.35730934e+001
,,,5.44000000e+007,-5.86989098e+001
,,,5.48000000e+007,-5.59557648e+001
,,,5.52000000e+007,-5.88773766e+001
,,,5.56000000e+007,-6.33880157e+001
,,,5.60000000e+007,-7.67552338e+001
,,,5.64000000e+007,-5.91584129e+001
,,,5.68000000e+007,-6.06465874e+001
,,,5.72000000e+007,-5.70794640e+001
,,,5.76000000e+007,-6.19878464e+001
,,,5.80000000e+007,-6.62634430e+001
,,,5.84000000e+007,-6.27099762e+001
,,,5.88000000e+007,-5.98690071e+001
,,,5.92000000e+007,-5.76035042e+001
,,,5.96000000e+007,-6.25790482e+001
,,,6.00000000e+007,-7.16357422e+001
,,,6.04000000e+007,-6.02288704e+001
,,,6.08000000e+007,-5.94615517e+001
,,,6.12000000e+007,-5.69621811e+001
,,,6.16000000e+007,-6.40283127e+001
,,,6.20000000e+007,-7.53208694e+001
,,,6.24000000e+007,-6.33365173e+001
,,,6.28000000e+007,-5.89756432e+001
,,,6.32000000e+007,-5.53090515e+001
,,,6.36000000e+007,-6.78718872e+001
,,,6.40000000e+007,-6.69832687e+001
,,,6.44000000e+007,-5.78826675e+001
,,,6.48000000e+007,-6.41330185e+001
,,,6.52000000e+007,-5.92957726e+001
,,,6.56000000e+007,-6.23003464e+001
,,,6.60000000e+007,-6.86180420e+001
,,,6.64000000e+007,-6.27329941e+001
,,,6.68000000e+007,-5.72699394e+001
,,,6.72000000e+007,-5.88037453e+001
,,,6.76000000e+007,-6.21764832e+001
,,,6.80000000e+007,-7.05210037e+001
,,,6.84000000e+007,-5.76693344e+001
,,,6.88000000e+007,-5.99749985e+001
,,,6.92000000e+007,-6.02132797e+001
,,,6.96000000e+007,-7.18906708e+001
,,,7.00000000e+007,-8.60136795e+001
,,,7.04000000e+007,-6.53041687e+001
,,,7.08000000e+007,-5.91086349e+001
,,,7.12000000e+007,-5.97300415e+001
,,,7.16000000e+007,-6.29481430e+001
,,,7.20000000e+007,-6.75093079e+001
,,,7.24000000e+007,-5.99617958e+001
,,,7.28000000e+007,-6.27410393e+001
,,,7.32000000e+007,-6.03532448e+001
,,,7.36000000e+007,-6.79644470e+001
,,,7.40000000e+007,-6.85783844e+001
,,,7.44000000e+007,-6.68131332e+001
,,,7.48000000e+007,-6.19188690e+001
,,,7.52000000e+007,-6.03310127e+001
,,,7.56000000e+007,-6.72082901e+001
,,,7.60000000e+007,-6.67968521e+001
,,,7.64000000e+007,-6.75614014e+001
,,,7.68000000e+007,-6.22256660e+001
,,,7.72000000e+007,-6.09865303e+001
,,,7.76000000e+007,-6.19582748e+001
,,,7.80000000e+007,-6.83168335e+001
,,,7.84000000e+007,-6.75704422e+001
,,,7.88000000e+007,-5.94698143e+001
,,,7.92000000e+007,-6.67224655e+001
,,,7.96000000e+007,-6.45041885e+001
,,,8.00000000e+007,-6.73535461e+001
,,,8.04000000e+007,-7.24284058e+001
,,,8.08000000e+007,-5.95081863e+001
,,,8.12000000e+007,-6.64840317e+001
,,,8.16000000e+007,-6.43695679e+001
,,,8.20000000e+007,-7.26329575e+001
,,,8.24000000e+007,-6.54860077e+001
,,,8.28000000e+007,-5.76259689e+001
,,,8.32000000e+007,-6.43807220e+001
,,,8.36000000e+007,-7.48538132e+001
,,,8.40000000e+007,-7.44347382e+001
,,,8.44000000e+007,-7.08032379e+001
,,,8.48000000e+007,-6.76978607e+001
,,,8.52000000e+007,-6.05138016e+001
,,,8.56000000e+007,-5.80471840e+001
,,,8.60000000e+007,-6.54003677e+001
,,,8.64000000e+007,-7.16485138e+001
,,,8.68000000e+007,-5.87928085e+001
,,,8.72000000e+007,-6.19532280e+001
,,,8.76000000e+007,-5.99646873e+001
,,,8.80000000e+007,-6.44087448e+001
,,,8.84000000e+007,-6.33197479e+001
,,,8.88000000e+007,-6.35265503e+001
,,,8.92000000e+007,-6.81138229e+001
,,,8.96000000e+007,-6.53014145e+001
,,,9.00000000e+007,-7.38125687e+001
,,,9.04000000e+007,-6.70975571e+001
,,,9.08000000e+007,-6.49224243e+001
,,,9.12000000e+007,-6.24248085e+001
,,,9.16000000e+007,-6.46400909e+001
,,,9.20000000e+007,-7.48100128e+001
,,,9.24000000e+007,-7.06927795e+001
,,,9.28000000e+007,-5.71050415e+001
,,,9.32000000e+007,-6.15898132e+001
,,,9.36000000e+007,-6.38685493e+001
,,,9.40000000e+007,-7.68789978e+001
,,,9.44000000e+007,-6.27949486e+001
,,,9.48000000e+007,-5.77468224e+001
,,,9.52000000e+007,-6.79017868e+001
,,,9.56000000e+007,-6.58162613e+001
,,,9.60000000e+007,-6.31701012e+001
,,,9.64000000e+007,-6.18630257e+001
,,,9.68000000e+007,-6.03411293e+001
,,,9.72000000e+007,-6.53033676e+001
,,,9.76000000e+007,-6.86619568e+001
,,,9.80000000e+007,-5.79162407e+001
,,,9.84000000e+007,-6.35832710e+001
,,,9.88000000e+007,-5.88650932e+001
,,,9.92000000e+007,-5.91970901e+001
,,,9.96000000e+007,-6.44760513e+001
,,,1.00000000e+008,-6.92163620e+001
,,,1.00400000e+008,-5.80176086e+001
,,,1.00800000e+008,-6.14231758e+001
,,,1.01200000e+008,-6.05795212e+001
,,,1.01600000e+008,-6.15253143e+001
,,,1.02000000e+008,-7.49627609e+001
,,,1.02400000e+008,-6.95414047e+001
,,,1.02800000e+008,-6.00758858e+001
,,,1.03200000e+008,-5.78738632e+001
,,,1.03600000e+008,-6.87137375e+001
,,,1.04000000e+008,-6.82662888e+001
,,,1.04400000e+008,-6.01643944e+001
,,,1.04800000e+008,-5.93004913e+001
,,,1.05200000e+008,-6.54721451e+001
,,,1.05600000e+008,-6.79070740e+001
,,,1.06000000e+008,-5.98696747e+001
,,,1.06400000e+008,-6.55128250e+001
,,,1.06800000e+008,-6.25390396e+001
,,,1.07200000e+008,-6.52866287e+001
,,,1.07600000e+008,-6.41350861e+001
,,,1.08000000e+008,-6.78964233e+001
,,,1.08400000e+008,-8.06620712e+001
,,,1.08800000e+008,-6.40129318e+001
,,,1.09200000e+008,-6.44337692e+001
,,,1.09600000e+008,-6.27195091e+001
,,,1.10000000e+008,-6.88881989e+001
,,,1.10400000e+008,-7.11056290e+001
,,,1.10800000e+008,-7.34952011e+001
,,,1.11200000e+008,-5.73011169e+001
,,,1.11600000e+008,-6.61860046e+001
,,,1.12000000e+008,-6.95806351e+001
,,,1.12400000e+008,-6.44467697e+001
,,,1.12800000e+008,-6.17537956e+001
,,,1.13200000e+008,-6.34025612e+001
,,,1.13600000e+008,-6.48519287e+001
,,,1.14000000e+008,-7.32778168e+001
,,,1.14400000e+008,-7.23411636e+001
,,,1.14800000e+008,-7.02442856e+001
,,,1.15200000e+008,-6.25165520e+001
,,,1.15600000e+008,-6.85311203e+001
,,,1.16000000e+008,-7.62411423e+001
,,,1.16400000e+008,-6.76708221e+001
,,,1.16800000e+008,-6.47369003e+001
,,,1.17200000e+008,-6.29170876e+001
,,,1.17600000e+008,-7.34202728e+001
,,,1.18000000e+008,-6.03144379e+001
,,,1.18400000e+008,-6.21508331e+001
,,,1.18800000e+008,-6.39489441e+001
,,,1.19200000e+008,-7.18908463e+001
,,,1.19600000e+008,-6.08294563e+001
,,,1.20000000e+008,-8.14124451e+001
,,,1.20400000e+008,-6.55368500e+001
,,,1.20800000e+008,-6.55065536e+001
,,,1.21200000e+008,-6.25904579e+001
,,,1.21600000e+008,-6.46880112e+001
,,,1.22000000e+008,-6.75423279e+001
,,,1.22400000e+008,-6.48938904e+001
,,,1.22800000e+008,-7.18362961e+001
,,,1.23200000e+008,-6.17333450e+001
,,,1.23600000e+008,-6.81214218e+001
,,,1.24000000e+008,-6.37834587e+001
,,,1.24400000e+008,-6.92297440e+001
,,,1.24800000e+008,-6.52736282e+001
,,,1.25200000e+008,-6.28324966e+001
,,,1.25600000e+008,-6.30023270e+001
,,,1.26000000e+008,-7.43986816e+001
,,,1.26400000e+008,-6.77750320e+001
,,,1.26800000e+008,-6.66136551e+001
,,,1.27200000e+008,-6.19258804e+001
,,,1.27600000e+008,-6.14935684e+001
,,,1.28000000e+008,-6.64090576e+001
,,,1.28400000e+008,-6.14241142e+001
,,,1.28800000e+008,-5.98448639e+001
,,,1.29200000e+008,-5.99376488e+001
,,,1.29600000e+008,-5.66981087e+001
,,,1.30000000e+008,-5.93002472e+001
,,,1.30400000e+008,-5.79945030e+001
,,,1.30800000e+008,-5.09293251e+001
,,,1.31200000e+008,-5.60161896e+001
,,,1.31600000e+008,-5.38973236e+001
,,,1.32000000e+008,-5.76699333e+001
,,,1.32400000e+008,-6.40823746e+001
,,,1.32800000e+008,-5.90659752e+001
,,,1.33200000e+008,-6.06385040e+001
,,,1.33600000e+008,-5.71871948e+001
,,,1.34000000e+008,-5.72554665e+001
,,,1.34400000e+008,-6.17469788e+001
,,,1.34800000e+008,-6.19481697e+001
,,,1.35200000e+008,-6.65734940e+001
,,,1.35600000e+008,-6.04218483e+001
,,,1.36000000e+008,-6.06493225e+001
,,,1.36400000e+008,-6.09229927e+001
,,,1.36800000e+008,-6.08054085e+001
,,,1.37200000e+008,-5.87879333e+001
,,,1.37600000e+008,-6.48446045e+001
,,,1.38000000e+008,-6.38284607e+001
,,,1.38400000e+008,-5.75824127e+001
,,,1.38800000e+008,-5.75599174e+001
,,,1.39200000e+008,-5.91224213e+001
,,,1.39600000e+008,-6.78031769e+001
,,,1.40000000e+008,-5.71685600e+001
,,,1.40400000e+008,-5.81399803e+001
,,,1.40800000e+008,-6.20761108e+001
,,,1.41200000e+008,-5.49723053e+001
,,,1.41600000e+008,-6.49516983e+001
,,,1.42000000e+008,-6.27477722e+001
,,,1.42400000e+008,-5.82764130e+001
,,,1.42800000e+008,-6.77830811e+001
,,,1.43200000e+008,-5.95215149e+001
,,,1.43600000e+008,-6.39550743e+001
,,,1.44000000e+008,-6.07952423e+001
,,,1.44400000e+008,-5.75043945e+001
,,,1.44800000e+008,-6.19595375e+001
,,,1.45200000e+008,-5.48993645e+001
,,,1.45600000e+008,-5.82623558e+001
,,,1.46000000e+008,-5.85377617e+001
,,,1.46400000e+008,-5.57081490e+001
,,,1.46800000e+008,-6.17196045e+001
,,,1.47200000e+008,-5.51158905e+001
,,,1.47600000e+008,-5.55344391e+001
,,,1.48000000e+008,-5.46483345e+001
,,,1.48400000e+008,-5.16328163e+001
,,,1.48800000e+008,-4.80725365e+001
,,,1.49200000e+008,-4.48377953e+001
,,,1.49600000e+008,-4.56619759e+001
,,,1.50000000e+008,-4.64244576e+001
,,,1.50400000e+008,-4.73810387e+001
,,,1.50800000e+008,-4.76493340e+001
,,,1.51200000e+008,-4.98793945e+001
,,,1.51600000e+008,-4.96523438e+001
,,,1.52000000e+008,-5.11914940e+001
,,,1.52400000e+008,-5.49741478e+001
,,,1.52800000e+008,-5.42433052e+001
,,,1.53200000e+008,-5.71920242e+001
,,,1.53600000e+008,-5.50435638e+001
,,,1.54000000e+008,-5.55072899e+001
,,,1.54400000e+008,-5.45912552e+001
,,,1.54800000e+008,-5.22510109e+001
,,,1.55200000e+008,-5.78880653e+001
,,,1.55600000e+008,-5.59739990e+001
,,,1.56000000e+008,-5.37014198e+001
,,,1.56400000e+008,-5.47881584e+001
,,,1.56800000e+008,-5.30504837e+001
,,,1.57200000e+008,-5.72288094e+001
,,,1.57600000e+008,-5.30379753e+001
,,,1.58000000e+008,-5.11354408e+001
,,,1.58400000e+008,-5.14538345e+001
,,,1.58800000e+008,-5.09539032e+001
,,,1.59200000e+008,-5.43209496e+001
,,,1.59600000e+008,-4.99394531e+001
,,,1.60000000e+008,-5.00016632e+001
,,,1.60400000e+008,-5.24724159e+001
,,,1.60800000e+008,-4.97220192e+001
,,,1.61200000e+008,-5.12684288e+001
,,,1.61600000e+008,-4.93825607e+001
,,,1.62000000e+008,-4.94503021e+001
,,,1.62400000e+008,-5.00882111e+001
,,,1.62800000e+008,-4.82217102e+001
,,,1.63200000e+008,-5.01386719e+001
,,,1.63600000e+008,-4.85786362e+001
,,,1.64000000e+008,-4.69215202e+001
,,,1.64400000e+008,-4.58070183e+001
,,,1.64800000e+008,-4.48539810e+001
,,,1.65200000e+008,-4.46212234e+001
,,,1.65600000e+008,-4.23001633e+001
,,,1.66000000e+008,-4.07659912e+001
,,,1.66400000e+008,-3.96003113e+001
,,,1.66800000e+008,-3.96687584e+001
,,,1.67200000e+008,-3.98968315e+001
,,,1.67600000e+008,-4.03729286e+001
,,,1.68000000e+008,-4.09214439e+001
,,,1.68400000e+008,-4.13616943e+001
,,,1.68800000e+008,-4.22098007e+001
,,,1.69200000e+008,-4.21684189e+001
,,,1.69600000e+008,-4.41444855e+001
,,,1.70000000e+008,-4.50775337e+001
,,,1.70400000e+008,-4.66339111e+001
,,,1.70800000e+008,-4.89966507e+001
,,,1.71200000e+008,-4.80065689e+001
,,,1.71600000e+008,-5.10224991e+001
,,,1.72000000e+008,-4.98508644e+001
,,,1.72400000e+008,-5.10400276e+001
,,,1.72800000e+008,-5.42532539e+001
,,,1.73200000e+008,-4.97475891e+001
,,,1.73600000e+008,-5.32076225e+001
,,,1.74000000e+008,-5.41084633e+001
,,,1.74400000e+008,-5.30563965e+001
,,,1.74800000e+008,-5.60210152e+001
,,,1.75200000e+008,-5.16331825e+001
,,,1.75600000e+008,-5.43500137e+001
,,,1.76000000e+008,-5.49442406e+001
,,,1.76400000e+008,-5.26543846e+001
,,,1.76800000e+008,-5.11133728e+001
,,,1.77200000e+008,-4.91600266e+001
,,,1.77600000e+008,-5.19250641e+001
,,,1.78000000e+008,-5.15841179e+001
,,,1.78400000e+008,-5.37545395e+001
,,,1.78800000e+008,-5.90100708e+001
,,,1.79200000e+008,-5.33533134e+001
,,,1.79600000e+008,-5.71608315e+001
,,,1.80000000e+008,-5.80929298e+001
,,,1.80400000e+008,-5.09594803e+001
,,,1.80800000e+008,-5.28454628e+001
,,,1.81200000e+008,-4.89349709e+001
,,,1.81600000e+008,-4.68928909e+001
,,,1.82000000e+008,-4.37986641e+001
,,,1.82400000e+008,-4.18914070e+001
,,,1.82800000e+008,-4.21206779e+001
,,,1.83200000e+008,-4.05990524e+001
,,,1.83600000e+008,-4.01244469e+001
,,,1.84000000e+008,-4.01470337e+001
,,,1.84400000e+008,-4.07697830e+001
,,,1.84800000e+008,-4.01209183e+001
,,,1.85200000e+008,-3.98843536e+001
,,,1.85600000e+008,-4.03386269e+001
,,,1.86000000e+008,-3.94811325e+001
,,,1.86400000e+008,-3.97233238e+001
,,,1.86800000e+008,-3.99645004e+001
,,,1.87200000e+008,-4.02500076e+001
,,,1.87600000e+008,-4.07046547e+001
,,,1.88000000e+008,-4.16338120e+001
,,,1.88400000e+008,-4.15353622e+001
,,,1.88800000e+008,-4.08549652e+001
,,,1.89200000e+008,-4.15690842e+001
,,,1.89600000e+008,-4.06472626e+001
,,,1.90000000e+008,-4.05303421e+001
,,,1.90400000e+008,-4.07548599e+001
,,,1.90800000e+008,-3.97831573e+001
,,,1.91200000e+008,-4.07251968e+001
,,,1.91600000e+008,-4.04738960e+001
,,,1.92000000e+008,-4.02094231e+001
,,,1.92400000e+008,-4.03608665e+001
,,,1.92800000e+008,-3.97398491e+001
,,,1.93200000e+008,-3.98904381e+001
,,,1.93600000e+008,-3.87595520e+001
,,,1.94000000e+008,-3.86088448e+001
,,,1.94400000e+008,-3.87526245e+001
,,,1.94800000e+008,-3.81739998e+001
,,,1.95200000e+008,-3.87163963e+001
,,,1.95600000e+008,-3.76268806e+001
,,,1.96000000e+008,-3.65332642e+001
,,,1.96400000e+008,-3.59688148e+001
,,,1.96800000e+008,-3.52724495e+001
,,,1.97200000e+008,-3.53728485e+001
,,,1.97600000e+008,-3.51161880e+001
,,,1.98000000e+008,-3.50919228e+001
,,,1.98400000e+008,-3.53362770e+001
,,,1.98800000e+008,-3.49784088e+001
,,,1.99200000e+008,-3.41802902e+001
,,,1.99600000e+008,-3.35074081e+001
,,,2.00000000e+008,-3.34146538e+001
,,,2.00400000e+008,-3.36293335e+001
,,,2.00800000e+008,-3.38693047e+001
,,,2.01200000e+008,-3.38791771e+001
,,,2.01600000e+008,-3.46916313e+001
,,,2.02000000e+008,-3.54593239e+001
,,,2.02400000e+008,-3.53845139e+001
,,,2.02800000e+008,-3.60793457e+001
,,,2.03200000e+008,-3.63737679e+001
,,,2.03600000e+008,-3.65215797e+001
,,,2.04000000e+008,-3.71813698e+001
,,,2.04400000e+008,-3.75709190e+001
,,,2.04800000e+008,-3.78722878e+001
,,,2.05200000e+008,-3.76057968e+001
,,,2.05600000e+008,-3.73889999e+001
,,,2.06000000e+008,-3.78561821e+001
,,,2.06400000e+008,-3.68957253e+001
,,,2.06800000e+008,-3.48342628e+001
,,,2.07200000e+008,-3.53014221e+001
,,,2.07600000e+008,-3.60026360e+001
,,,2.08000000e+008,-3.49286728e+001
,,,2.08400000e+008,-3.56583099e+001
,,,2.08800000e+008,-3.50360794e+001
,,,2.09200000e+008,-3.36324768e+001
,,,2.09600000e+008,-3.45554619e+001
,,,2.10000000e+008,-3.42967148e+001
,,,2.10400000e+008,-3.32235336e+001
,,,2.10800000e+008,-3.30910759e+001
,,,2.11200000e+008,-3.28350372e+001
,,,2.11600000e+008,-3.26839676e+001
,,,2.12000000e+008,-3.27964020e+001
,,,2.12400000e+008,-3.28481865e+001
,,,2.12800000e+008,-3.31541710e+001
,,,2.13200000e+008,-3.39321136e+001
,,,2.13600000e+008,-3.38632011e+001
,,,2.14000000e+008,-3.38101425e+001
,,,2.14400000e+008,-3.40728722e+001
,,,2.14800000e+008,-3.41221199e+001
,,,2.15200000e+008,-3.45198135e+001
,,,2.15600000e+008,-3.46448174e+001
,,,2.16000000e+008,-3.53315353e+001
,,,2.16400000e+008,-3.58485451e+001
,,,2.16800000e+008,-3.57784195e+001
,,,2.17200000e+008,-3.63798637e+001
,,,2.17600000e+008,-3.59365997e+001
,,,2.18000000e+008,-3.54394226e+001
,,,2.18400000e+008,-3.51083183e+001
,,,2.18800000e+008,-3.46929665e+001
,,,2.19200000e+008,-3.49641762e+001
,,,2.19600000e+008,-3.51576157e+001
,,,2.20000000e+008,-3.59875603e+001
