Data/20220822/UCLA_to_T1B_VPOL_NEG10_001_Ch2.csv

"Record Length",10000,"Points",-5.00800000e-007,1.14844363e-004
"Sample Interval",2.00000000e-010,s,-5.00600000e-007,1.25000614e-004
"Trigger Point",2504,"Samples",-5.00400000e-007,1.20313114e-004
"Trigger Time",0.00000000e+000,s,-5.00200000e-007,1.24219364e-004
"",,,-5.00000000e-007,6.56256100e-005
"Horizontal Offset",-5.00800000e-007,s,-4.99800000e-007,6.79693602e-005
,,,-4.99600000e-007,8.28131112e-005
,,,-4.99400000e-007,1.37500615e-004
,,,-4.99200000e-007,1.34375615e-004
,,,-4.99000000e-007,7.34381106e-005
,,,-4.98800000e-007,9.21881119e-005
,,,-4.98600000e-007,8.28131112e-005
,,,-4.98400000e-007,1.17969364e-004
,,,-4.98200000e-007,1.58594367e-004
,,,-4.98000000e-007,1.46875616e-004
,,,-4.97800000e-007,1.21875614e-004
,,,-4.97600000e-007,6.32818598e-005
,,,-4.97400000e-007,3.12506076e-005
,,,-4.97200000e-007,3.51568578e-005
,,,-4.97000000e-007,6.48443599e-005
,,,-4.96800000e-007,9.76568623e-005
,,,-4.96600000e-007,1.47656866e-004
,,,-4.96400000e-007,1.66406867e-004
,,,-4.96200000e-007,1.70313117e-004
,,,-4.96000000e-007,1.18750614e-004
,,,-4.95800000e-007,1.00781862e-004
,,,-4.95600000e-007,3.75006080e-005
,,,-4.95400000e-007,6.01568596e-005
,,,-4.95200000e-007,6.40631099e-005
,,,-4.95000000e-007,8.28131112e-005
,,,-4.94800000e-007,1.06250613e-004
,,,-4.94600000e-007,1.15625614e-004
,,,-4.94400000e-007,1.22656864e-004
,,,-4.94200000e-007,1.82813118e-004
,,,-4.94000000e-007,1.25000614e-004
,,,-4.93800000e-007,1.00000612e-004
,,,-4.93600000e-007,7.50006107e-005
,,,-4.93400000e-007,-4.29681477e-005
,,,-4.93200000e-007,-2.65618965e-005
,,,-4.93000000e-007,2.50006071e-005
,,,-4.92800000e-007,8.75006116e-005
,,,-4.92600000e-007,1.64063117e-004
,,,-4.92400000e-007,1.37500615e-004
,,,-4.92200000e-007,1.26563114e-004
,,,-4.92000000e-007,3.82818581e-005
,,,-4.91800000e-007,2.42193571e-005
,,,-4.91600000e-007,3.12506076e-005
,,,-4.91400000e-007,4.21881083e-005
,,,-4.91200000e-007,1.20313114e-004
,,,-4.91000000e-007,1.19531864e-004
,,,-4.90800000e-007,1.25781864e-004
,,,-4.90600000e-007,1.07031863e-004
,,,-4.90400000e-007,7.10943604e-005
,,,-4.90200000e-007,8.67193615e-005
,,,-4.90000000e-007,1.49219366e-004
,,,-4.89800000e-007,1.75000618e-004
,,,-4.89600000e-007,2.03906870e-004
,,,-4.89400000e-007,1.37500615e-004
,,,-4.89200000e-007,4.14068583e-005
,,,-4.89000000e-007,7.81310591e-006
,,,-4.88800000e-007,-1.40618956e-005
,,,-4.88600000e-007,8.04693611e-005
,,,-4.88400000e-007,1.37500615e-004
,,,-4.88200000e-007,1.94531869e-004
,,,-4.88000000e-007,2.39063122e-004
,,,-4.87800000e-007,1.32813115e-004
,,,-4.87600000e-007,7.03131103e-005
,,,-4.87400000e-007,-3.90564492e-006
,,,-4.87200000e-007,-5.39056485e-005
,,,-4.87000000e-007,-3.28118970e-005
,,,-4.86800000e-007,9.37560602e-006
,,,-4.86600000e-007,1.72656868e-004
,,,-4.86400000e-007,2.92188126e-004
,,,-4.86200000e-007,2.48438123e-004
,,,-4.86000000e-007,1.99219369e-004
,,,-4.85800000e-007,6.17193597e-005
,,,-4.85600000e-007,-5.15618983e-005
,,,-4.85400000e-007,-8.51556507e-005
,,,-4.85200000e-007,-7.65619001e-005
,,,-4.85000000e-007,5.93756096e-005
,,,-4.84800000e-007,2.07813120e-004
,,,-4.84600000e-007,2.85938126e-004
,,,-4.84400000e-007,3.22656878e-004
,,,-4.84200000e-007,1.89844369e-004
,,,-4.84000000e-007,4.68756087e-005
,,,-4.83800000e-007,-1.09374402e-004
,,,-4.83600000e-007,-1.78905657e-004
,,,-4.83400000e-007,-4.76556480e-005
,,,-4.83200000e-007,1.00781862e-004
,,,-4.83000000e-007,2.39063122e-004
,,,-4.82800000e-007,2.47656873e-004
,,,-4.82600000e-007,1.86719369e-004
,,,-4.82400000e-007,5.70318594e-005
,,,-4.82200000e-007,-4.29681477e-005
,,,-4.82000000e-007,-1.95306460e-005
,,,-4.81800000e-007,1.17193562e-005
,,,-4.81600000e-007,8.82818616e-005
,,,-4.81400000e-007,1.27344364e-004
,,,-4.81200000e-007,1.18750614e-004
,,,-4.81000000e-007,1.10156863e-004
,,,-4.80800000e-007,5.70318594e-005
,,,-4.80600000e-007,6.17193597e-005
,,,-4.80400000e-007,1.00781862e-004
,,,-4.80200000e-007,1.85156868e-004
,,,-4.80000000e-007,2.10938120e-004
,,,-4.79800000e-007,1.84375618e-004
,,,-4.79600000e-007,9.21881119e-005
,,,-4.79400000e-007,5.78131095e-005
,,,-4.79200000e-007,-3.28118970e-005
,,,-4.79000000e-007,1.95318567e-005
,,,-4.78800000e-007,9.29693619e-005
,,,-4.78600000e-007,1.72656868e-004
,,,-4.78400000e-007,2.32031872e-004
,,,-4.78200000e-007,2.06250620e-004
,,,-4.78000000e-007,1.91406869e-004
,,,-4.77800000e-007,1.14063113e-004
,,,-4.77600000e-007,-7.03064514e-006
,,,-4.77400000e-007,-5.85931488e-005
,,,-4.77200000e-007,-5.15618983e-005
,,,-4.77000000e-007,1.25006062e-005
,,,-4.76800000e-007,1.90625619e-004
,,,-4.76600000e-007,2.07813120e-004
,,,-4.76400000e-007,2.81250625e-004
,,,-4.76200000e-007,2.02344370e-004
,,,-4.76000000e-007,9.45318621e-005
,,,-4.75800000e-007,3.90631081e-005
,,,-4.75600000e-007,-6.71868994e-005
,,,-4.75400000e-007,-3.51556471e-005
,,,-4.75200000e-007,1.40631064e-005
,,,-4.75000000e-007,1.08594363e-004
,,,-4.74800000e-007,2.18750621e-004
,,,-4.74600000e-007,2.14063121e-004
,,,-4.74400000e-007,1.64063117e-004
,,,-4.74200000e-007,7.73443608e-005
,,,-4.74000000e-007,-1.64056458e-005
,,,-4.73800000e-007,1.48443564e-005
,,,-4.73600000e-007,5.31256091e-005
,,,-4.73400000e-007,1.95318567e-005
,,,-4.73200000e-007,9.76568623e-005
,,,-4.73000000e-007,9.14068618e-005
,,,-4.72800000e-007,6.71881101e-005
,,,-4.72600000e-007,1.42188115e-004
,,,-4.72400000e-007,1.39844365e-004
,,,-4.72200000e-007,1.92188119e-004
,,,-4.72000000e-007,1.05469363e-004
,,,-4.71800000e-007,1.17193562e-005
,,,-4.71600000e-007,6.05359672e-010
,,,-4.71400000e-007,-2.73431466e-005
,,,-4.71200000e-007,5.54693593e-005
,,,-4.71000000e-007,1.07813113e-004
,,,-4.70800000e-007,1.77344368e-004
,,,-4.70600000e-007,2.33594372e-004
,,,-4.70400000e-007,1.78906868e-004
,,,-4.70200000e-007,8.98443617e-005
,,,-4.70000000e-007,-1.56189475e-006
,,,-4.69800000e-007,1.56310547e-006
,,,-4.69600000e-007,2.81256074e-005
,,,-4.69400000e-007,1.00781862e-004
,,,-4.69200000e-007,1.66406867e-004
,,,-4.69000000e-007,1.64844367e-004
,,,-4.68800000e-007,1.28906864e-004
,,,-4.68600000e-007,6.48443599e-005
,,,-4.68400000e-007,5.07818590e-005
,,,-4.68200000e-007,9.06256118e-005
,,,-4.68000000e-007,1.35156865e-004
,,,-4.67800000e-007,1.53906866e-004
,,,-4.67600000e-007,1.26563114e-004
,,,-4.67400000e-007,8.35943613e-005
,,,-4.67200000e-007,3.90631081e-005
,,,-4.67000000e-007,3.20318576e-005
,,,-4.66800000e-007,5.31256091e-005
,,,-4.66600000e-007,1.45313116e-004
,,,-4.66400000e-007,1.74219368e-004
,,,-4.66200000e-007,2.38281872e-004
,,,-4.66000000e-007,2.35156872e-004
,,,-4.65800000e-007,1.51563116e-004
,,,-4.65600000e-007,2.42193571e-005
,,,-4.65400000e-007,-6.48431492e-005
,,,-4.65200000e-007,-1.14061903e-004
,,,-4.65000000e-007,-2.89056467e-005
,,,-4.64800000e-007,4.76568587e-005
,,,-4.64600000e-007,2.10156870e-004
,,,-4.64400000e-007,2.84375625e-004
,,,-4.64200000e-007,3.05469377e-004
,,,-4.64000000e-007,1.37500615e-004
,,,-4.63800000e-007,-2.10931461e-005
,,,-4.63600000e-007,-1.70311907e-004
,,,-4.63400000e-007,-2.19530660e-004
,,,-4.63200000e-007,-9.14056511e-005
,,,-4.63000000e-007,8.98443617e-005
,,,-4.62800000e-007,3.10156877e-004
,,,-4.62600000e-007,3.96094383e-004
,,,-4.62400000e-007,3.04688127e-004
,,,-4.62200000e-007,1.24219364e-004
,,,-4.62000000e-007,-6.17181490e-005
,,,-4.61800000e-007,-1.37499404e-004
,,,-4.61600000e-007,-1.19530653e-004
,,,-4.61400000e-007,4.06256082e-005
,,,-4.61200000e-007,1.66406867e-004
,,,-4.61000000e-007,2.93750626e-004
,,,-4.60800000e-007,2.89844376e-004
,,,-4.60600000e-007,2.02344370e-004
,,,-4.60400000e-007,1.21875614e-004
,,,-4.60200000e-007,-3.12493969e-005
,,,-4.60000000e-007,-4.37493977e-005
,,,-4.59800000e-007,8.59435597e-006
,,,-4.59600000e-007,1.07031863e-004
,,,-4.59400000e-007,1.37500615e-004
,,,-4.59200000e-007,1.28125614e-004
,,,-4.59000000e-007,1.25000614e-004
,,,-4.58800000e-007,6.48443599e-005
,,,-4.58600000e-007,8.59381114e-005
,,,-4.58400000e-007,1.16406864e-004
,,,-4.58200000e-007,1.13281863e-004
,,,-4.58000000e-007,1.07813113e-004
,,,-4.57800000e-007,8.59381114e-005
,,,-4.57600000e-007,4.06256082e-005
,,,-4.57400000e-007,4.21881083e-005
,,,-4.57200000e-007,9.21881119e-005
,,,-4.57000000e-007,7.10943604e-005
,,,-4.56800000e-007,1.30469365e-004
,,,-4.56600000e-007,1.49219366e-004
,,,-4.56400000e-007,2.03906870e-004
,,,-4.56200000e-007,1.80469368e-004
,,,-4.56000000e-007,1.32031865e-004
,,,-4.55800000e-007,5.70318594e-005
,,,-4.55600000e-007,-1.24993955e-005
,,,-4.55400000e-007,-1.24993955e-005
,,,-4.55200000e-007,1.09381061e-005
,,,-4.55000000e-007,9.06256118e-005
,,,-4.54800000e-007,2.05469370e-004
,,,-4.54600000e-007,2.35156872e-004
,,,-4.54400000e-007,2.07031870e-004
,,,-4.54200000e-007,1.33594365e-004
,,,-4.54000000e-007,7.03185586e-006
,,,-4.53800000e-007,-8.59369007e-005
,,,-4.53600000e-007,-8.20306504e-005
,,,-4.53400000e-007,-7.65619001e-005
,,,-4.53200000e-007,9.53131121e-005
,,,-4.53000000e-007,1.98438119e-004
,,,-4.52800000e-007,2.36719372e-004
,,,-4.52600000e-007,2.12500620e-004
,,,-4.52400000e-007,1.39844365e-004
,,,-4.52200000e-007,4.45318585e-005
,,,-4.52000000e-007,-2.34314481e-006
,,,-4.51800000e-007,-3.04681468e-005
,,,-4.51600000e-007,2.50006071e-005
,,,-4.51400000e-007,5.31256091e-005
,,,-4.51200000e-007,1.54688116e-004
,,,-4.51000000e-007,2.25000621e-004
,,,-4.50800000e-007,2.40625622e-004
,,,-4.50600000e-007,1.99219369e-004
,,,-4.50400000e-007,9.76568623e-005
,,,-4.50200000e-007,4.84381088e-005
,,,-4.50000000e-007,-1.79681459e-005
,,,-4.49800000e-007,-5.46814503e-006
,,,-4.49600000e-007,4.68756087e-005
,,,-4.49400000e-007,1.05469363e-004
,,,-4.49200000e-007,1.75000618e-004
,,,-4.49000000e-007,2.40625622e-004
,,,-4.48800000e-007,2.09375620e-004
,,,-4.48600000e-007,1.36719365e-004
,,,-4.48400000e-007,3.59381079e-005
,,,-4.48200000e-007,-5.62493986e-005
,,,-4.48000000e-007,5.46935575e-006
,,,-4.47800000e-007,6.87506102e-005
,,,-4.47600000e-007,1.90625619e-004
,,,-4.47400000e-007,1.96875619e-004
,,,-4.47200000e-007,1.60156867e-004
,,,-4.47000000e-007,9.06256118e-005
,,,-4.46800000e-007,3.04693575e-005
,,,-4.46600000e-007,4.21881083e-005
,,,-4.46400000e-007,4.37506085e-005
,,,-4.46200000e-007,1.10938113e-004
,,,-4.46000000e-007,1.67188117e-004
,,,-4.45800000e-007,1.87500619e-004
,,,-4.45600000e-007,1.57031866e-004
,,,-4.45400000e-007,8.12506111e-005
,,,-4.45200000e-007,-8.59314525e-006
,,,-4.45000000e-007,3.12560558e-006
,,,-4.44800000e-007,1.32818563e-005
,,,-4.44600000e-007,1.45313116e-004
,,,-4.44400000e-007,2.07031870e-004
,,,-4.44200000e-007,2.35938122e-004
,,,-4.44000000e-007,2.15625621e-004
,,,-4.43800000e-007,4.92193588e-005
,,,-4.43600000e-007,8.59435597e-006
,,,-4.43400000e-007,-4.76556480e-005
,,,-4.43200000e-007,-2.57806465e-005
,,,-4.43000000e-007,8.20318612e-005
,,,-4.42800000e-007,1.04688113e-004
,,,-4.42600000e-007,1.97656869e-004
,,,-4.42400000e-007,2.26563121e-004
,,,-4.42200000e-007,1.49219366e-004
,,,-4.42000000e-007,1.00781862e-004
,,,-4.41800000e-007,-7.03064514e-006
,,,-4.41600000e-007,-4.76556480e-005
,,,-4.41400000e-007,1.25006062e-005
,,,-4.41200000e-007,8.12506111e-005
,,,-4.41000000e-007,1.78125618e-004
,,,-4.40800000e-007,1.62500617e-004
,,,-4.40600000e-007,1.54688116e-004
,,,-4.40400000e-007,1.14844363e-004
,,,-4.40200000e-007,6.01568596e-005
,,,-4.40000000e-007,4.92193588e-005
,,,-4.39800000e-007,3.35943577e-005
,,,-4.39600000e-007,1.00781862e-004
,,,-4.39400000e-007,1.48438116e-004
,,,-4.39200000e-007,1.50000616e-004
,,,-4.39000000e-007,1.17969364e-004
,,,-4.38800000e-007,8.75006116e-005
,,,-4.38600000e-007,3.28131077e-005
,,,-4.38400000e-007,8.75006116e-005
,,,-4.38200000e-007,1.23438114e-004
,,,-4.38000000e-007,1.77344368e-004
,,,-4.37800000e-007,2.05469370e-004
,,,-4.37600000e-007,1.00000612e-004
,,,-4.37400000e-007,3.67193580e-005
,,,-4.37200000e-007,-1.40618956e-005
,,,-4.37000000e-007,1.25006062e-005
,,,-4.36800000e-007,7.81256109e-005
,,,-4.36600000e-007,1.17188114e-004
,,,-4.36400000e-007,1.99219369e-004
,,,-4.36200000e-007,1.92188119e-004
,,,-4.36000000e-007,1.52344366e-004
,,,-4.35800000e-007,8.04693611e-005
,,,-4.35600000e-007,-2.89056467e-005
,,,-4.35400000e-007,-3.90618974e-005
,,,-4.35200000e-007,-1.17181455e-005
,,,-4.35000000e-007,4.14068583e-005
,,,-4.34800000e-007,1.95313119e-004
,,,-4.34600000e-007,1.95313119e-004
,,,-4.34400000e-007,1.92188119e-004
,,,-4.34200000e-007,1.49219366e-004
,,,-4.34000000e-007,9.92193624e-005
,,,-4.33800000e-007,6.32818598e-005
,,,-4.33600000e-007,2.26568570e-005
,,,-4.33400000e-007,1.17193562e-005
,,,-4.33200000e-007,3.67193580e-005
,,,-4.33000000e-007,2.18756069e-005
,,,-4.32800000e-007,1.39844365e-004
,,,-4.32600000e-007,1.84375618e-004
,,,-4.32400000e-007,2.44531873e-004
,,,-4.32200000e-007,2.01563120e-004
,,,-4.32000000e-007,9.21881119e-005
,,,-4.31800000e-007,1.87506067e-005
,,,-4.31600000e-007,-3.82806473e-005
,,,-4.31400000e-007,-6.56243993e-005
,,,-4.31200000e-007,-2.34368963e-005
,,,-4.31000000e-007,3.59381079e-005
,,,-4.30800000e-007,1.48438116e-004
,,,-4.30600000e-007,2.36719372e-004
,,,-4.30400000e-007,2.69531874e-004
,,,-4.30200000e-007,2.16406871e-004
,,,-4.30000000e-007,6.09381097e-005
,,,-4.29800000e-007,-5.23431483e-005
,,,-4.29600000e-007,-1.11718153e-004
,,,-4.29400000e-007,-1.00780652e-004
,,,-4.29200000e-007,3.82818581e-005
,,,-4.29000000e-007,1.54688116e-004
,,,-4.28800000e-007,2.84375625e-004
,,,-4.28600000e-007,3.25000628e-004
,,,-4.28400000e-007,2.89844376e-004
,,,-4.28200000e-007,1.77344368e-004
,,,-4.28000000e-007,6.05359672e-010
,,,-4.27800000e-007,-7.96869003e-005
,,,-4.27600000e-007,-5.85931488e-005
,,,-4.27400000e-007,8.59435597e-006
,,,-4.27200000e-007,1.85938119e-004
,,,-4.27000000e-007,2.39063122e-004
,,,-4.26800000e-007,2.67969374e-004
,,,-4.26600000e-007,2.06250620e-004
,,,-4.26400000e-007,8.67193615e-005
,,,-4.26200000e-007,2.42193571e-005
,,,-4.26000000e-007,-7.81189519e-006
,,,-4.25800000e-007,-4.92181481e-005
,,,-4.25600000e-007,7.89068609e-005
,,,-4.25400000e-007,9.06256118e-005
,,,-4.25200000e-007,9.29693619e-005
,,,-4.25000000e-007,9.45318621e-005
,,,-4.24800000e-007,6.17193597e-005
,,,-4.24600000e-007,9.68756122e-005
,,,-4.24400000e-007,1.14844363e-004
,,,-4.24200000e-007,1.40625615e-004
,,,-4.24000000e-007,1.48438116e-004
,,,-4.23800000e-007,7.03131103e-005
,,,-4.23600000e-007,3.59381079e-005
,,,-4.23400000e-007,-7.18743997e-005
,,,-4.23200000e-007,-9.37439530e-006
,,,-4.23000000e-007,1.05469363e-004
,,,-4.22800000e-007,1.90625619e-004
,,,-4.22600000e-007,2.67188124e-004
,,,-4.22400000e-007,2.30469372e-004
,,,-4.22200000e-007,1.44531866e-004
,,,-4.22000000e-007,6.40631099e-005
,,,-4.21800000e-007,-9.06244011e-005
,,,-4.21600000e-007,-7.57806500e-005
,,,-4.21400000e-007,-2.10931461e-005
,,,-4.21200000e-007,8.28131112e-005
,,,-4.21000000e-007,2.18750621e-004
,,,-4.20800000e-007,2.84375625e-004
,,,-4.20600000e-007,2.82813125e-004
,,,-4.20400000e-007,1.82813118e-004
,,,-4.20200000e-007,-3.28118970e-005
,,,-4.20000000e-007,-8.82806509e-005
,,,-4.19800000e-007,-8.51556507e-005
,,,-4.19600000e-007,-2.96868967e-005
,,,-4.19400000e-007,8.28131112e-005
,,,-4.19200000e-007,1.89063119e-004
,,,-4.19000000e-007,2.74219375e-004
,,,-4.18800000e-007,2.64063124e-004
,,,-4.18600000e-007,1.57813117e-004
,,,-4.18400000e-007,5.78131095e-005
,,,-4.18200000e-007,-2.73431466e-005
,,,-4.18000000e-007,-4.84368981e-005
,,,-4.17800000e-007,4.84381088e-005
,,,-4.17600000e-007,1.04688113e-004
,,,-4.17400000e-007,1.79688118e-004
,,,-4.17200000e-007,1.81250618e-004
,,,-4.17000000e-007,1.64063117e-004
,,,-4.16800000e-007,1.23438114e-004
,,,-4.16600000e-007,8.43756113e-005
,,,-4.16400000e-007,1.45313116e-004
,,,-4.16200000e-007,1.26563114e-004
,,,-4.16000000e-007,8.28131112e-005
,,,-4.15800000e-007,6.87506102e-005
,,,-4.15600000e-007,-1.71868959e-005
,,,-4.15400000e-007,2.81256074e-005
,,,-4.15200000e-007,5.62506093e-005
,,,-4.15000000e-007,1.55469366e-004
,,,-4.14800000e-007,2.17969371e-004
,,,-4.14600000e-007,2.11719370e-004
,,,-4.14400000e-007,2.22656871e-004
,,,-4.14200000e-007,7.50006107e-005
,,,-4.14000000e-007,-4.84368981e-005
,,,-4.13800000e-007,-7.96869003e-005
,,,-4.13600000e-007,-5.07806482e-005
,,,-4.13400000e-007,7.18756104e-005
,,,-4.13200000e-007,1.87500619e-004
,,,-4.13000000e-007,2.09375620e-004
,,,-4.12800000e-007,2.68750624e-004
,,,-4.12600000e-007,1.46875616e-004
,,,-4.12400000e-007,3.90631081e-005
,,,-4.12200000e-007,1.95318567e-005
,,,-4.12000000e-007,-6.01556489e-005
,,,-4.11800000e-007,-1.64056458e-005
,,,-4.11600000e-007,3.75006080e-005
,,,-4.11400000e-007,1.21875614e-004
,,,-4.11200000e-007,2.30469372e-004
,,,-4.11000000e-007,1.82031868e-004
,,,-4.10800000e-007,1.62500617e-004
,,,-4.10600000e-007,5.07818590e-005
,,,-4.10400000e-007,3.28131077e-005
,,,-4.10200000e-007,3.20318576e-005
,,,-4.10000000e-007,2.73443573e-005
,,,-4.09800000e-007,7.96881110e-005
,,,-4.09600000e-007,7.89068609e-005
,,,-4.09400000e-007,1.18750614e-004
,,,-4.09200000e-007,1.82813118e-004
,,,-4.09000000e-007,1.10938113e-004
,,,-4.08800000e-007,1.51563116e-004
,,,-4.08600000e-007,1.05469363e-004
,,,-4.08400000e-007,1.17193562e-005
,,,-4.08200000e-007,7.03131103e-005
,,,-4.08000000e-007,6.87506102e-005
,,,-4.07800000e-007,8.04693611e-005
,,,-4.07600000e-007,1.01563113e-004
,,,-4.07400000e-007,3.28131077e-005
,,,-4.07200000e-007,1.25000614e-004
,,,-4.07000000e-007,1.42969365e-004
,,,-4.06800000e-007,1.56250616e-004
,,,-4.06600000e-007,1.52344366e-004
,,,-4.06400000e-007,5.15631090e-005
,,,-4.06200000e-007,4.76568587e-005
,,,-4.06000000e-007,2.57818572e-005
,,,-4.05800000e-007,2.18756069e-005
,,,-4.05600000e-007,1.74219368e-004
,,,-4.05400000e-007,1.43750616e-004
,,,-4.05200000e-007,1.80469368e-004
,,,-4.05000000e-007,1.82813118e-004
,,,-4.04800000e-007,1.18750614e-004
,,,-4.04600000e-007,1.09375613e-004
,,,-4.04400000e-007,1.79693566e-005
,,,-4.04200000e-007,5.70318594e-005
,,,-4.04000000e-007,5.85943595e-005
,,,-4.03800000e-007,6.79693602e-005
,,,-4.03600000e-007,1.46875616e-004
,,,-4.03400000e-007,1.58594367e-004
,,,-4.03200000e-007,1.61719367e-004
,,,-4.03000000e-007,1.07031863e-004
,,,-4.02800000e-007,2.50006071e-005
,,,-4.02600000e-007,5.70318594e-005
,,,-4.02400000e-007,5.54693593e-005
,,,-4.02200000e-007,1.09381061e-005
,,,-4.02000000e-007,5.07818590e-005
,,,-4.01800000e-007,3.12506076e-005
,,,-4.01600000e-007,1.16406864e-004
,,,-4.01400000e-007,1.07813113e-004
,,,-4.01200000e-007,1.17969364e-004
,,,-4.01000000e-007,1.26563114e-004
,,,-4.00800000e-007,5.70318594e-005
,,,-4.00600000e-007,5.78131095e-005
,,,-4.00400000e-007,6.87506102e-005
,,,-4.00200000e-007,4.68810569e-006
,,,-4.00000000e-007,9.92193624e-005
,,,-3.99800000e-007,1.04688113e-004
,,,-3.99600000e-007,1.75000618e-004
,,,-3.99400000e-007,1.78125618e-004
,,,-3.99200000e-007,1.53125616e-004
,,,-3.99000000e-007,9.76568623e-005
,,,-3.98800000e-007,4.06256082e-005
,,,-3.98600000e-007,3.59381079e-005
,,,-3.98400000e-007,6.32818598e-005
,,,-3.98200000e-007,9.84381123e-005
,,,-3.98000000e-007,1.38281865e-004
,,,-3.97800000e-007,1.47656866e-004
,,,-3.97600000e-007,1.59375617e-004
,,,-3.97400000e-007,1.16406864e-004
,,,-3.97200000e-007,7.50006107e-005
,,,-3.97000000e-007,5.00006089e-005
,,,-3.96800000e-007,-6.24939508e-006
,,,-3.96600000e-007,1.25006062e-005
,,,-3.96400000e-007,9.29693619e-005
,,,-3.96200000e-007,1.50000616e-004
,,,-3.96000000e-007,1.84375618e-004
,,,-3.95800000e-007,1.33594365e-004
,,,-3.95600000e-007,1.32813115e-004
,,,-3.95400000e-007,7.57818607e-005
,,,-3.95200000e-007,2.10943569e-005
,,,-3.95000000e-007,1.01563113e-004
,,,-3.94800000e-007,7.73443608e-005
,,,-3.94600000e-007,1.21094364e-004
,,,-3.94400000e-007,1.52344366e-004
,,,-3.94200000e-007,1.45313116e-004
,,,-3.94000000e-007,2.14844371e-004
,,,-3.93800000e-007,1.38281865e-004
,,,-3.93600000e-007,8.75006116e-005
,,,-3.93400000e-007,6.17193597e-005
,,,-3.93200000e-007,5.70318594e-005
,,,-3.93000000e-007,5.93756096e-005
,,,-3.92800000e-007,8.75006116e-005
,,,-3.92600000e-007,4.68756087e-005
,,,-3.92400000e-007,7.42193606e-005
,,,-3.92200000e-007,5.15631090e-005
,,,-3.92000000e-007,7.26568605e-005
,,,-3.91800000e-007,1.39063115e-004
,,,-3.91600000e-007,1.29688115e-004
,,,-3.91400000e-007,7.50006107e-005
