Data/20220822/UCLA_to_T1B_HPOL_NEG50_001_Math2.csv

"Record Length",6250,"Points",0.00000000e+000,-6.62128372e+001
"Sample Interval",4.00000000e+005,Hz,4.00000000e+005,-7.21938782e+001
"Trigger Point",0,"Samples",8.00000000e+005,-7.59056549e+001
"Trigger Time",0.00000000e+000,Hz,1.20000000e+006,-7.70963974e+001
"",,,1.60000000e+006,-8.82567062e+001
"Horizontal Offset",0.00000000e+000,Hz,2.00000000e+006,-9.37663803e+001
,,,2.40000000e+006,-8.51047211e+001
,,,2.80000000e+006,-8.86006775e+001
,,,3.20000000e+006,-8.40031738e+001
,,,3.60000000e+006,-9.58476334e+001
,,,4.00000000e+006,-9.52207947e+001
,,,4.40000000e+006,-8.90274734e+001
,,,4.80000000e+006,-9.25342484e+001
,,,5.20000000e+006,-8.71842041e+001
,,,5.60000000e+006,-9.65055771e+001
,,,6.00000000e+006,-9.43368378e+001
,,,6.40000000e+006,-9.04770584e+001
,,,6.80000000e+006,-9.31289902e+001
,,,7.20000000e+006,-9.04847794e+001
,,,7.60000000e+006,-9.40518875e+001
,,,8.00000000e+006,-9.55737991e+001
,,,8.40000000e+006,-9.46370392e+001
,,,8.80000000e+006,-9.20403671e+001
,,,9.20000000e+006,-9.30491867e+001
,,,9.60000000e+006,-9.26385117e+001
,,,1.00000000e+007,-9.48079910e+001
,,,1.04000000e+007,-9.50192871e+001
,,,1.08000000e+007,-9.17698059e+001
,,,1.12000000e+007,-9.64542007e+001
,,,1.16000000e+007,-9.09353561e+001
,,,1.20000000e+007,-9.44210434e+001
,,,1.24000000e+007,-9.59195023e+001
,,,1.28000000e+007,-9.04794922e+001
,,,1.32000000e+007,-9.92886734e+001
,,,1.36000000e+007,-9.13290710e+001
,,,1.40000000e+007,-9.41428680e+001
,,,1.44000000e+007,-9.80233994e+001
,,,1.48000000e+007,-9.06247559e+001
,,,1.52000000e+007,-9.84184647e+001
,,,1.56000000e+007,-9.13579025e+001
,,,1.60000000e+007,-9.50983353e+001
,,,1.64000000e+007,-9.85080109e+001
,,,1.68000000e+007,-9.12566833e+001
,,,1.72000000e+007,-1.00823387e+002
,,,1.76000000e+007,-9.18977203e+001
,,,1.80000000e+007,-9.32139130e+001
,,,1.84000000e+007,-9.77617950e+001
,,,1.88000000e+007,-9.19653244e+001
,,,1.92000000e+007,-9.73764420e+001
,,,1.96000000e+007,-9.33423920e+001
,,,2.00000000e+007,-9.39657593e+001
,,,2.04000000e+007,-9.63827744e+001
,,,2.08000000e+007,-9.37842484e+001
,,,2.12000000e+007,-9.63805695e+001
,,,2.16000000e+007,-9.25153503e+001
,,,2.20000000e+007,-9.37654648e+001
,,,2.24000000e+007,-9.41828613e+001
,,,2.28000000e+007,-9.36366653e+001
,,,2.32000000e+007,-9.61022949e+001
,,,2.36000000e+007,-9.47491531e+001
,,,2.40000000e+007,-9.50917740e+001
,,,2.44000000e+007,-9.44778519e+001
,,,2.48000000e+007,-9.42703323e+001
,,,2.52000000e+007,-9.50873108e+001
,,,2.56000000e+007,-9.46890488e+001
,,,2.60000000e+007,-9.45448456e+001
,,,2.64000000e+007,-9.41830444e+001
,,,2.68000000e+007,-9.47415466e+001
,,,2.72000000e+007,-9.35002060e+001
,,,2.76000000e+007,-9.61027756e+001
,,,2.80000000e+007,-9.45948639e+001
,,,2.84000000e+007,-9.36040878e+001
,,,2.88000000e+007,-9.64365463e+001
,,,2.92000000e+007,-9.28568344e+001
,,,2.96000000e+007,-9.60229111e+001
,,,3.00000000e+007,-9.49558029e+001
,,,3.04000000e+007,-9.34129639e+001
,,,3.08000000e+007,-9.69810944e+001
,,,3.12000000e+007,-9.28186646e+001
,,,3.16000000e+007,-9.67174377e+001
,,,3.20000000e+007,-9.56605072e+001
,,,3.24000000e+007,-9.34247589e+001
,,,3.28000000e+007,-9.67109222e+001
,,,3.32000000e+007,-9.29929199e+001
,,,3.36000000e+007,-9.61694565e+001
,,,3.40000000e+007,-9.50851746e+001
,,,3.44000000e+007,-9.35430908e+001
,,,3.48000000e+007,-9.55938950e+001
,,,3.52000000e+007,-9.27581024e+001
,,,3.56000000e+007,-9.67290878e+001
,,,3.60000000e+007,-9.54697876e+001
,,,3.64000000e+007,-9.36380081e+001
,,,3.68000000e+007,-9.58090973e+001
,,,3.72000000e+007,-9.40491943e+001
,,,3.76000000e+007,-9.63944778e+001
,,,3.80000000e+007,-9.46802216e+001
,,,3.84000000e+007,-9.34162064e+001
,,,3.88000000e+007,-9.48384933e+001
,,,3.92000000e+007,-9.42908020e+001
,,,3.96000000e+007,-9.60785370e+001
,,,4.00000000e+007,-9.53464050e+001
,,,4.04000000e+007,-9.44609375e+001
,,,4.08000000e+007,-9.44958496e+001
,,,4.12000000e+007,-9.44565887e+001
,,,4.16000000e+007,-9.50035629e+001
,,,4.20000000e+007,-9.57440186e+001
,,,4.24000000e+007,-9.54375839e+001
,,,4.28000000e+007,-9.38441467e+001
,,,4.32000000e+007,-9.49548264e+001
,,,4.36000000e+007,-9.45627975e+001
,,,4.40000000e+007,-9.54409103e+001
,,,4.44000000e+007,-9.58947601e+001
,,,4.48000000e+007,-9.38432007e+001
,,,4.52000000e+007,-9.61755066e+001
,,,4.56000000e+007,-9.45927811e+001
,,,4.60000000e+007,-9.54598007e+001
,,,4.64000000e+007,-9.66546555e+001
,,,4.68000000e+007,-9.39130173e+001
,,,4.72000000e+007,-9.56195679e+001
,,,4.76000000e+007,-9.39958954e+001
,,,4.80000000e+007,-9.54953461e+001
,,,4.84000000e+007,-9.63046265e+001
,,,4.88000000e+007,-9.39928818e+001
,,,4.92000000e+007,-9.69913940e+001
,,,4.96000000e+007,-9.40778122e+001
,,,5.00000000e+007,-9.51311340e+001
,,,5.04000000e+007,-9.67340775e+001
,,,5.08000000e+007,-9.47532959e+001
,,,5.12000000e+007,-9.75766830e+001
,,,5.16000000e+007,-9.47853012e+001
,,,5.20000000e+007,-9.58021774e+001
,,,5.24000000e+007,-9.67432785e+001
,,,5.28000000e+007,-9.43700867e+001
,,,5.32000000e+007,-9.68318710e+001
,,,5.36000000e+007,-9.52764435e+001
,,,5.40000000e+007,-9.55126801e+001
,,,5.44000000e+007,-9.63511658e+001
,,,5.48000000e+007,-9.50509186e+001
,,,5.52000000e+007,-9.54893112e+001
,,,5.56000000e+007,-9.49134979e+001
,,,5.60000000e+007,-9.56560669e+001
,,,5.64000000e+007,-9.57469330e+001
,,,5.68000000e+007,-9.51909866e+001
,,,5.72000000e+007,-9.53736649e+001
,,,5.76000000e+007,-9.53265762e+001
,,,5.80000000e+007,-9.52645874e+001
,,,5.84000000e+007,-9.53918457e+001
,,,5.88000000e+007,-9.51989288e+001
,,,5.92000000e+007,-9.45472183e+001
,,,5.96000000e+007,-9.61401520e+001
,,,6.00000000e+007,-9.52310333e+001
,,,6.04000000e+007,-9.51147079e+001
,,,6.08000000e+007,-9.66311035e+001
,,,6.12000000e+007,-9.40962372e+001
,,,6.16000000e+007,-9.60843735e+001
,,,6.20000000e+007,-9.56362534e+001
,,,6.24000000e+007,-9.44153748e+001
,,,6.28000000e+007,-9.64375229e+001
,,,6.32000000e+007,-9.46308746e+001
,,,6.36000000e+007,-9.71625290e+001
,,,6.40000000e+007,-9.58856049e+001
,,,6.44000000e+007,-9.48146133e+001
,,,6.48000000e+007,-9.69901428e+001
,,,6.52000000e+007,-9.38979111e+001
,,,6.56000000e+007,-9.67799835e+001
,,,6.60000000e+007,-9.65303726e+001
,,,6.64000000e+007,-9.47274399e+001
,,,6.68000000e+007,-9.67617569e+001
,,,6.72000000e+007,-9.41895752e+001
,,,6.76000000e+007,-9.60215607e+001
,,,6.80000000e+007,-9.61407700e+001
,,,6.84000000e+007,-9.59806824e+001
,,,6.88000000e+007,-9.78900070e+001
,,,6.92000000e+007,-9.48720322e+001
,,,6.96000000e+007,-9.60760956e+001
,,,7.00000000e+007,-9.53533707e+001
,,,7.04000000e+007,-9.45654144e+001
,,,7.08000000e+007,-9.60171051e+001
,,,7.12000000e+007,-9.48073959e+001
,,,7.16000000e+007,-9.63144608e+001
,,,7.20000000e+007,-9.60992584e+001
,,,7.24000000e+007,-9.51627274e+001
,,,7.28000000e+007,-9.60335236e+001
,,,7.32000000e+007,-9.61689606e+001
,,,7.36000000e+007,-9.50749893e+001
,,,7.40000000e+007,-9.43696899e+001
,,,7.44000000e+007,-9.57871399e+001
,,,7.48000000e+007,-9.56891098e+001
,,,7.52000000e+007,-9.55902328e+001
,,,7.56000000e+007,-9.62164841e+001
,,,7.60000000e+007,-9.62347107e+001
,,,7.64000000e+007,-9.60996780e+001
,,,7.68000000e+007,-9.46872253e+001
,,,7.72000000e+007,-9.53278046e+001
,,,7.76000000e+007,-9.54105377e+001
,,,7.80000000e+007,-9.59411697e+001
,,,7.84000000e+007,-9.67127686e+001
,,,7.88000000e+007,-9.51942368e+001
,,,7.92000000e+007,-9.63892670e+001
,,,7.96000000e+007,-9.54058456e+001
,,,8.00000000e+007,-9.57118149e+001
,,,8.04000000e+007,-9.67545929e+001
,,,8.08000000e+007,-9.51386719e+001
,,,8.12000000e+007,-9.62608566e+001
,,,8.16000000e+007,-9.48066406e+001
,,,8.20000000e+007,-9.60513306e+001
,,,8.24000000e+007,-9.68019409e+001
,,,8.28000000e+007,-9.48162079e+001
,,,8.32000000e+007,-9.68653641e+001
,,,8.36000000e+007,-9.52332153e+001
,,,8.40000000e+007,-9.60811996e+001
,,,8.44000000e+007,-9.72380142e+001
,,,8.48000000e+007,-9.51124725e+001
,,,8.52000000e+007,-9.71300507e+001
,,,8.56000000e+007,-9.59796906e+001
,,,8.60000000e+007,-9.62401428e+001
,,,8.64000000e+007,-9.61905136e+001
,,,8.68000000e+007,-9.44262924e+001
,,,8.72000000e+007,-9.64559174e+001
,,,8.76000000e+007,-9.49424210e+001
,,,8.80000000e+007,-9.49432373e+001
,,,8.84000000e+007,-9.83874512e+001
,,,8.88000000e+007,-9.75193481e+001
,,,8.92000000e+007,-9.62833481e+001
,,,8.96000000e+007,-9.55766602e+001
,,,9.00000000e+007,-9.52695465e+001
,,,9.04000000e+007,-9.67638321e+001
,,,9.08000000e+007,-9.64776077e+001
,,,9.12000000e+007,-9.45905380e+001
,,,9.16000000e+007,-9.49439392e+001
,,,9.20000000e+007,-9.65871811e+001
,,,9.24000000e+007,-9.81021881e+001
,,,9.28000000e+007,-9.52508698e+001
,,,9.32000000e+007,-9.16175461e+001
,,,9.36000000e+007,-9.58045197e+001
,,,9.40000000e+007,-9.84617767e+001
,,,9.44000000e+007,-9.90625153e+001
,,,9.48000000e+007,-1.01166801e+002
,,,9.52000000e+007,-9.40967484e+001
,,,9.56000000e+007,-9.30197983e+001
,,,9.60000000e+007,-9.71725006e+001
,,,9.64000000e+007,-9.70805817e+001
,,,9.68000000e+007,-9.39579468e+001
,,,9.72000000e+007,-9.13062515e+001
,,,9.76000000e+007,-9.57256317e+001
,,,9.80000000e+007,-1.02745216e+002
,,,9.84000000e+007,-1.00115662e+002
,,,9.88000000e+007,-1.01323235e+002
,,,9.92000000e+007,-9.70214081e+001
,,,9.96000000e+007,-9.90973129e+001
,,,1.00000000e+008,-9.86225052e+001
,,,1.00400000e+008,-9.51302872e+001
,,,1.00800000e+008,-9.85027466e+001
,,,1.01200000e+008,-9.79785614e+001
,,,1.01600000e+008,-9.61809845e+001
,,,1.02000000e+008,-9.40270767e+001
,,,1.02400000e+008,-9.51064606e+001
,,,1.02800000e+008,-9.79189148e+001
,,,1.03200000e+008,-9.27128601e+001
,,,1.03600000e+008,-9.17474899e+001
,,,1.04000000e+008,-9.92017136e+001
,,,1.04400000e+008,-1.01981911e+002
,,,1.04800000e+008,-9.86014099e+001
,,,1.05200000e+008,-9.56858597e+001
,,,1.05600000e+008,-1.04265930e+002
,,,1.06000000e+008,-9.85194626e+001
,,,1.06400000e+008,-9.73252716e+001
,,,1.06800000e+008,-9.47446289e+001
,,,1.07200000e+008,-9.59809494e+001
,,,1.07600000e+008,-9.56624527e+001
,,,1.08000000e+008,-9.78338470e+001
,,,1.08400000e+008,-9.91208649e+001
,,,1.08800000e+008,-9.59635620e+001
,,,1.09200000e+008,-9.66568222e+001
,,,1.09600000e+008,-9.63878250e+001
,,,1.10000000e+008,-9.63148956e+001
,,,1.10400000e+008,-9.75483017e+001
,,,1.10800000e+008,-9.75447159e+001
,,,1.11200000e+008,-9.94852142e+001
,,,1.11600000e+008,-9.90933380e+001
,,,1.12000000e+008,-1.00259094e+002
,,,1.12400000e+008,-9.96463165e+001
,,,1.12800000e+008,-9.58579483e+001
,,,1.13200000e+008,-9.57282410e+001
,,,1.13600000e+008,-9.58709183e+001
,,,1.14000000e+008,-9.71430283e+001
,,,1.14400000e+008,-9.77460403e+001
,,,1.14800000e+008,-9.61078415e+001
,,,1.15200000e+008,-9.70540695e+001
,,,1.15600000e+008,-9.69598007e+001
,,,1.16000000e+008,-9.77823181e+001
,,,1.16400000e+008,-9.74790649e+001
,,,1.16800000e+008,-9.64335251e+001
,,,1.17200000e+008,-9.87631607e+001
,,,1.17600000e+008,-9.69287491e+001
,,,1.18000000e+008,-9.69072113e+001
,,,1.18400000e+008,-9.77773895e+001
,,,1.18800000e+008,-9.62485657e+001
,,,1.19200000e+008,-9.69915771e+001
,,,1.19600000e+008,-9.71074524e+001
,,,1.20000000e+008,-9.83160019e+001
,,,1.20400000e+008,-9.87109375e+001
,,,1.20800000e+008,-9.74738922e+001
,,,1.21200000e+008,-9.77048111e+001
,,,1.21600000e+008,-9.66729050e+001
,,,1.22000000e+008,-9.80292511e+001
,,,1.22400000e+008,-9.86386490e+001
,,,1.22800000e+008,-9.63664932e+001
,,,1.23200000e+008,-9.73049240e+001
,,,1.23600000e+008,-9.88592758e+001
,,,1.24000000e+008,-9.88911819e+001
,,,1.24400000e+008,-9.93927917e+001
,,,1.24800000e+008,-9.86066818e+001
,,,1.25200000e+008,-9.75736923e+001
,,,1.25600000e+008,-9.82579269e+001
,,,1.26000000e+008,-9.82918015e+001
,,,1.26400000e+008,-9.88034897e+001
,,,1.26800000e+008,-9.89663696e+001
,,,1.27200000e+008,-9.85268402e+001
,,,1.27600000e+008,-1.00531044e+002
,,,1.28000000e+008,-9.99828186e+001
,,,1.28400000e+008,-1.00015549e+002
,,,1.28800000e+008,-1.04139572e+002
,,,1.29200000e+008,-1.04126419e+002
,,,1.29600000e+008,-1.02728416e+002
,,,1.30000000e+008,-9.72644348e+001
,,,1.30400000e+008,-9.30091400e+001
,,,1.30800000e+008,-9.15556107e+001
,,,1.31200000e+008,-9.07405777e+001
,,,1.31600000e+008,-9.32619171e+001
,,,1.32000000e+008,-9.48644409e+001
,,,1.32400000e+008,-9.40296249e+001
,,,1.32800000e+008,-9.44971390e+001
,,,1.33200000e+008,-9.33801804e+001
,,,1.33600000e+008,-9.44970245e+001
,,,1.34000000e+008,-9.44680176e+001
,,,1.34400000e+008,-9.43067245e+001
,,,1.34800000e+008,-9.50702820e+001
,,,1.35200000e+008,-9.38419724e+001
,,,1.35600000e+008,-9.55928955e+001
,,,1.36000000e+008,-9.59263535e+001
,,,1.36400000e+008,-9.54190292e+001
,,,1.36800000e+008,-9.65356369e+001
,,,1.37200000e+008,-9.58158798e+001
,,,1.37600000e+008,-9.70730591e+001
,,,1.38000000e+008,-9.75893936e+001
,,,1.38400000e+008,-9.66046219e+001
,,,1.38800000e+008,-9.64984894e+001
,,,1.39200000e+008,-9.66906967e+001
,,,1.39600000e+008,-9.74763565e+001
,,,1.40000000e+008,-9.73193054e+001
,,,1.40400000e+008,-9.84312592e+001
,,,1.40800000e+008,-9.82495193e+001
,,,1.41200000e+008,-9.67871552e+001
,,,1.41600000e+008,-9.76511841e+001
,,,1.42000000e+008,-9.87718887e+001
,,,1.42400000e+008,-9.87289352e+001
,,,1.42800000e+008,-9.78074799e+001
,,,1.43200000e+008,-9.72025452e+001
,,,1.43600000e+008,-9.73404465e+001
,,,1.44000000e+008,-9.71382294e+001
,,,1.44400000e+008,-9.67973251e+001
,,,1.44800000e+008,-9.58908310e+001
,,,1.45200000e+008,-9.44286041e+001
,,,1.45600000e+008,-9.33811188e+001
,,,1.46000000e+008,-9.39065018e+001
,,,1.46400000e+008,-9.44094238e+001
,,,1.46800000e+008,-9.26337967e+001
,,,1.47200000e+008,-9.26751251e+001
,,,1.47600000e+008,-9.31382751e+001
,,,1.48000000e+008,-9.52763367e+001
,,,1.48400000e+008,-9.76952744e+001
,,,1.48800000e+008,-9.48577423e+001
,,,1.49200000e+008,-9.43120270e+001
,,,1.49600000e+008,-9.38682404e+001
,,,1.50000000e+008,-9.39007950e+001
,,,1.50400000e+008,-9.49761505e+001
,,,1.50800000e+008,-9.45944061e+001
,,,1.51200000e+008,-9.53025665e+001
,,,1.51600000e+008,-9.45698853e+001
,,,1.52000000e+008,-9.52443848e+001
,,,1.52400000e+008,-9.67159805e+001
,,,1.52800000e+008,-9.57123718e+001
,,,1.53200000e+008,-9.63285446e+001
,,,1.53600000e+008,-9.49063492e+001
,,,1.54000000e+008,-9.42470627e+001
,,,1.54400000e+008,-9.51893234e+001
,,,1.54800000e+008,-9.51917038e+001
,,,1.55200000e+008,-9.64651184e+001
,,,1.55600000e+008,-9.67904663e+001
,,,1.56000000e+008,-9.69211349e+001
,,,1.56400000e+008,-9.80629120e+001
,,,1.56800000e+008,-9.76152039e+001
,,,1.57200000e+008,-9.78767166e+001
,,,1.57600000e+008,-9.67174072e+001
,,,1.58000000e+008,-9.52599106e+001
,,,1.58400000e+008,-9.49775467e+001
,,,1.58800000e+008,-9.40430145e+001
,,,1.59200000e+008,-9.34014282e+001
,,,1.59600000e+008,-9.34782791e+001
,,,1.60000000e+008,-9.35499420e+001
,,,1.60400000e+008,-9.31639328e+001
,,,1.60800000e+008,-9.41558533e+001
,,,1.61200000e+008,-9.42608871e+001
,,,1.61600000e+008,-9.55884094e+001
,,,1.62000000e+008,-9.69448166e+001
,,,1.62400000e+008,-9.51507111e+001
,,,1.62800000e+008,-9.75623016e+001
,,,1.63200000e+008,-9.90077362e+001
,,,1.63600000e+008,-9.74669113e+001
,,,1.64000000e+008,-9.65978928e+001
,,,1.64400000e+008,-9.44030685e+001
,,,1.64800000e+008,-9.46176224e+001
,,,1.65200000e+008,-9.29602661e+001
,,,1.65600000e+008,-8.99562073e+001
,,,1.66000000e+008,-9.16467133e+001
,,,1.66400000e+008,-9.76653519e+001
,,,1.66800000e+008,-9.18592148e+001
,,,1.67200000e+008,-8.89335556e+001
,,,1.67600000e+008,-8.94188614e+001
,,,1.68000000e+008,-8.86841660e+001
,,,1.68400000e+008,-8.73965073e+001
,,,1.68800000e+008,-8.75229492e+001
,,,1.69200000e+008,-8.69759064e+001
,,,1.69600000e+008,-8.76040192e+001
,,,1.70000000e+008,-8.84200287e+001
,,,1.70400000e+008,-8.83682861e+001
,,,1.70800000e+008,-8.94108124e+001
,,,1.71200000e+008,-9.06320114e+001
,,,1.71600000e+008,-9.37255173e+001
,,,1.72000000e+008,-9.61408691e+001
,,,1.72400000e+008,-9.56001587e+001
,,,1.72800000e+008,-9.71673965e+001
,,,1.73200000e+008,-9.66233292e+001
,,,1.73600000e+008,-9.81437836e+001
,,,1.74000000e+008,-1.01382950e+002
,,,1.74400000e+008,-9.71307983e+001
,,,1.74800000e+008,-9.68913574e+001
,,,1.75200000e+008,-9.34034653e+001
,,,1.75600000e+008,-9.08244858e+001
,,,1.76000000e+008,-9.18452911e+001
,,,1.76400000e+008,-9.39864349e+001
,,,1.76800000e+008,-9.36043396e+001
,,,1.77200000e+008,-9.40452271e+001
,,,1.77600000e+008,-9.46796265e+001
,,,1.78000000e+008,-9.31063309e+001
,,,1.78400000e+008,-9.00745392e+001
,,,1.78800000e+008,-9.01822968e+001
,,,1.79200000e+008,-9.06529770e+001
,,,1.79600000e+008,-9.05501480e+001
,,,1.80000000e+008,-9.08951187e+001
,,,1.80400000e+008,-9.02041550e+001
,,,1.80800000e+008,-8.94439926e+001
,,,1.81200000e+008,-8.98082199e+001
,,,1.81600000e+008,-8.95655441e+001
,,,1.82000000e+008,-9.03972473e+001
,,,1.82400000e+008,-9.06111755e+001
,,,1.82800000e+008,-9.02070160e+001
,,,1.83200000e+008,-9.02681427e+001
,,,1.83600000e+008,-8.90172958e+001
,,,1.84000000e+008,-8.87813339e+001
,,,1.84400000e+008,-8.87621918e+001
,,,1.84800000e+008,-8.76469193e+001
,,,1.85200000e+008,-8.67558670e+001
,,,1.85600000e+008,-8.62988739e+001
,,,1.86000000e+008,-8.69180450e+001
,,,1.86400000e+008,-8.83102646e+001
,,,1.86800000e+008,-9.08284912e+001
,,,1.87200000e+008,-9.40859146e+001
,,,1.87600000e+008,-9.48063889e+001
,,,1.88000000e+008,-9.41097565e+001
,,,1.88400000e+008,-9.47037811e+001
,,,1.88800000e+008,-9.32705307e+001
,,,1.89200000e+008,-9.18717041e+001
,,,1.89600000e+008,-9.10734100e+001
,,,1.90000000e+008,-9.13754501e+001
,,,1.90400000e+008,-9.14209290e+001
,,,1.90800000e+008,-9.03376160e+001
,,,1.91200000e+008,-9.04578018e+001
,,,1.91600000e+008,-8.99635696e+001
,,,1.92000000e+008,-8.92160797e+001
,,,1.92400000e+008,-9.03497391e+001
,,,1.92800000e+008,-9.15164261e+001
,,,1.93200000e+008,-9.11441727e+001
,,,1.93600000e+008,-8.94636536e+001
,,,1.94000000e+008,-8.73875351e+001
,,,1.94400000e+008,-8.68331833e+001
,,,1.94800000e+008,-8.79224625e+001
,,,1.95200000e+008,-9.02664261e+001
,,,1.95600000e+008,-9.16511993e+001
,,,1.96000000e+008,-9.01934052e+001
,,,1.96400000e+008,-8.83453140e+001
,,,1.96800000e+008,-8.65281906e+001
,,,1.97200000e+008,-8.62831879e+001
,,,1.97600000e+008,-8.69378204e+001
,,,1.98000000e+008,-8.63583374e+001
,,,1.98400000e+008,-8.54935532e+001
,,,1.98800000e+008,-8.51408539e+001
,,,1.99200000e+008,-8.54167633e+001
,,,1.99600000e+008,-8.50308228e+001
,,,2.00000000e+008,-8.37750320e+001
,,,2.00400000e+008,-8.34959641e+001
,,,2.00800000e+008,-8.41913147e+001
,,,2.01200000e+008,-8.41897125e+001
,,,2.01600000e+008,-8.38590698e+001
,,,2.02000000e+008,-8.36890411e+001
,,,2.02400000e+008,-8.32560577e+001
,,,2.02800000e+008,-8.45531235e+001
,,,2.03200000e+008,-8.51865158e+001
,,,2.03600000e+008,-8.49345245e+001
,,,2.04000000e+008,-8.93309326e+001
,,,2.04400000e+008,-8.85700684e+001
,,,2.04800000e+008,-8.82600632e+001
,,,2.05200000e+008,-9.10969009e+001
,,,2.05600000e+008,-8.57625580e+001
,,,2.06000000e+008,-8.40396347e+001
,,,2.06400000e+008,-8.50912170e+001
,,,2.06800000e+008,-8.36957245e+001
,,,2.07200000e+008,-8.53463974e+001
,,,2.07600000e+008,-8.70640335e+001
,,,2.08000000e+008,-8.76280823e+001
,,,2.08400000e+008,-8.78462677e+001
,,,2.08800000e+008,-8.58967056e+001
,,,2.09200000e+008,-8.61694794e+001
,,,2.09600000e+008,-8.51364441e+001
,,,2.10000000e+008,-8.42041855e+001
,,,2.10400000e+008,-8.41011353e+001
,,,2.10800000e+008,-8.26112976e+001
,,,2.11200000e+008,-8.22574005e+001
,,,2.11600000e+008,-8.25207596e+001
,,,2.12000000e+008,-8.31490326e+001
,,,2.12400000e+008,-8.36387711e+001
,,,2.12800000e+008,-8.47158279e+001
,,,2.13200000e+008,-8.62676697e+001
,,,2.13600000e+008,-8.62526016e+001
,,,2.14000000e+008,-8.59714355e+001
,,,2.14400000e+008,-8.57484665e+001
,,,2.14800000e+008,-8.56578522e+001
,,,2.15200000e+008,-8.55837631e+001
,,,2.15600000e+008,-8.49788284e+001
,,,2.16000000e+008,-8.45853882e+001
,,,2.16400000e+008,-8.39611969e+001
,,,2.16800000e+008,-8.45758896e+001
,,,2.17200000e+008,-8.54473190e+001
,,,2.17600000e+008,-8.51284866e+001
,,,2.18000000e+008,-8.52527695e+001
,,,2.18400000e+008,-8.49205551e+001
,,,2.18800000e+008,-8.51219711e+001
,,,2.19200000e+008,-8.53557510e+001
,,,2.19600000e+008,-8.49616165e+001
,,,2.20000000e+008,-8.52723618e+001
