Data/20220822/UCLA_to_T1B_VPOL_NEG10_001_Math2.csv

"Record Length",6250,"Points",0.00000000e+000,-7.05820847e+001
"Sample Interval",4.00000000e+005,Hz,4.00000000e+005,-7.74155045e+001
"Trigger Point",0,"Samples",8.00000000e+005,-7.86748276e+001
"Trigger Time",0.00000000e+000,Hz,1.20000000e+006,-8.23518448e+001
"",,,1.60000000e+006,-8.93929291e+001
"Horizontal Offset",0.00000000e+000,Hz,2.00000000e+006,-1.03924507e+002
,,,2.40000000e+006,-9.15532227e+001
,,,2.80000000e+006,-9.10612106e+001
,,,3.20000000e+006,-9.11381454e+001
,,,3.60000000e+006,-9.64277496e+001
,,,4.00000000e+006,-1.08035080e+002
,,,4.40000000e+006,-9.58621674e+001
,,,4.80000000e+006,-9.54978104e+001
,,,5.20000000e+006,-9.42598953e+001
,,,5.60000000e+006,-9.98909302e+001
,,,6.00000000e+006,-1.07972801e+002
,,,6.40000000e+006,-1.01934181e+002
,,,6.80000000e+006,-9.86878204e+001
,,,7.20000000e+006,-9.77787933e+001
,,,7.60000000e+006,-1.02094864e+002
,,,8.00000000e+006,-1.08940796e+002
,,,8.40000000e+006,-1.02400261e+002
,,,8.80000000e+006,-9.76883087e+001
,,,9.20000000e+006,-1.03509300e+002
,,,9.60000000e+006,-1.01977478e+002
,,,1.00000000e+007,-1.11259514e+002
,,,1.04000000e+007,-1.06517349e+002
,,,1.08000000e+007,-9.88372650e+001
,,,1.12000000e+007,-1.11026413e+002
,,,1.16000000e+007,-1.00837662e+002
,,,1.20000000e+007,-1.08828514e+002
,,,1.24000000e+007,-1.07023987e+002
,,,1.28000000e+007,-1.04657043e+002
,,,1.32000000e+007,-1.06508728e+002
,,,1.36000000e+007,-1.03728569e+002
,,,1.40000000e+007,-1.07174667e+002
,,,1.44000000e+007,-1.15703850e+002
,,,1.48000000e+007,-1.03899986e+002
,,,1.52000000e+007,-1.11024330e+002
,,,1.56000000e+007,-1.03116379e+002
,,,1.60000000e+007,-1.15405128e+002
,,,1.64000000e+007,-1.16727173e+002
,,,1.68000000e+007,-1.03684616e+002
,,,1.72000000e+007,-1.07572639e+002
,,,1.76000000e+007,-1.06066521e+002
,,,1.80000000e+007,-1.15024170e+002
,,,1.84000000e+007,-1.14501152e+002
,,,1.88000000e+007,-1.05599037e+002
,,,1.92000000e+007,-1.08566872e+002
,,,1.96000000e+007,-1.03852020e+002
,,,2.00000000e+007,-1.11792465e+002
,,,2.04000000e+007,-1.19199661e+002
,,,2.08000000e+007,-1.09932251e+002
,,,2.12000000e+007,-1.04845772e+002
,,,2.16000000e+007,-1.05990837e+002
,,,2.20000000e+007,-1.11815224e+002
,,,2.24000000e+007,-1.12157082e+002
,,,2.28000000e+007,-1.10660133e+002
,,,2.32000000e+007,-1.04191139e+002
,,,2.36000000e+007,-1.09051674e+002
,,,2.40000000e+007,-1.15297951e+002
,,,2.44000000e+007,-1.16657188e+002
,,,2.48000000e+007,-1.11838417e+002
,,,2.52000000e+007,-1.03354683e+002
,,,2.56000000e+007,-1.10914101e+002
,,,2.60000000e+007,-1.16511589e+002
,,,2.64000000e+007,-1.11526299e+002
,,,2.68000000e+007,-1.12939720e+002
,,,2.72000000e+007,-1.07748970e+002
,,,2.76000000e+007,-1.20834526e+002
,,,2.80000000e+007,-1.19094673e+002
,,,2.84000000e+007,-1.11406105e+002
,,,2.88000000e+007,-1.14927231e+002
,,,2.92000000e+007,-1.05690041e+002
,,,2.96000000e+007,-1.16949486e+002
,,,3.00000000e+007,-1.18464630e+002
,,,3.04000000e+007,-1.09207153e+002
,,,3.08000000e+007,-1.23382889e+002
,,,3.12000000e+007,-1.06374969e+002
,,,3.16000000e+007,-1.15864281e+002
,,,3.20000000e+007,-1.18420212e+002
,,,3.24000000e+007,-1.11166138e+002
,,,3.28000000e+007,-1.15836891e+002
,,,3.32000000e+007,-1.05515373e+002
,,,3.36000000e+007,-1.22424179e+002
,,,3.40000000e+007,-1.34736893e+002
,,,3.44000000e+007,-1.10376961e+002
,,,3.48000000e+007,-1.13375633e+002
,,,3.52000000e+007,-1.05798111e+002
,,,3.56000000e+007,-1.26121681e+002
,,,3.60000000e+007,-1.25949165e+002
,,,3.64000000e+007,-1.12975723e+002
,,,3.68000000e+007,-1.10623444e+002
,,,3.72000000e+007,-1.24410721e+002
,,,3.76000000e+007,-1.11952530e+002
,,,3.80000000e+007,-1.08186890e+002
,,,3.84000000e+007,-1.09575943e+002
,,,3.88000000e+007,-1.13716133e+002
,,,3.92000000e+007,-1.07275261e+002
,,,3.96000000e+007,-1.15792610e+002
,,,4.00000000e+007,-1.12384865e+002
,,,4.04000000e+007,-1.15291122e+002
,,,4.08000000e+007,-1.08183258e+002
,,,4.12000000e+007,-1.09598557e+002
,,,4.16000000e+007,-1.13849442e+002
,,,4.20000000e+007,-1.17604301e+002
,,,4.24000000e+007,-1.17109734e+002
,,,4.28000000e+007,-1.09189766e+002
,,,4.32000000e+007,-1.12085777e+002
,,,4.36000000e+007,-1.16294922e+002
,,,4.40000000e+007,-1.16699394e+002
,,,4.44000000e+007,-1.42251572e+002
,,,4.48000000e+007,-1.09454849e+002
,,,4.52000000e+007,-1.24579933e+002
,,,4.56000000e+007,-1.12523422e+002
,,,4.60000000e+007,-1.14334778e+002
,,,4.64000000e+007,-1.26279228e+002
,,,4.68000000e+007,-1.10809151e+002
,,,4.72000000e+007,-1.22822136e+002
,,,4.76000000e+007,-1.07691200e+002
,,,4.80000000e+007,-1.13404182e+002
,,,4.84000000e+007,-1.24159843e+002
,,,4.88000000e+007,-1.14557182e+002
,,,4.92000000e+007,-1.11070541e+002
,,,4.96000000e+007,-1.08405739e+002
,,,5.00000000e+007,-1.09207664e+002
,,,5.04000000e+007,-1.29457870e+002
,,,5.08000000e+007,-1.13579521e+002
,,,5.12000000e+007,-1.20527596e+002
,,,5.16000000e+007,-1.14641724e+002
,,,5.20000000e+007,-1.20675285e+002
,,,5.24000000e+007,-1.13455223e+002
,,,5.28000000e+007,-1.10125267e+002
,,,5.32000000e+007,-1.15548210e+002
,,,5.36000000e+007,-1.16401596e+002
,,,5.40000000e+007,-1.20477684e+002
,,,5.44000000e+007,-1.16882248e+002
,,,5.48000000e+007,-1.14005020e+002
,,,5.52000000e+007,-1.17375046e+002
,,,5.56000000e+007,-1.12560013e+002
,,,5.60000000e+007,-1.15471733e+002
,,,5.64000000e+007,-1.13444336e+002
,,,5.68000000e+007,-1.14430717e+002
,,,5.72000000e+007,-1.10164139e+002
,,,5.76000000e+007,-1.12035439e+002
,,,5.80000000e+007,-1.17787575e+002
,,,5.84000000e+007,-1.12141541e+002
,,,5.88000000e+007,-1.18067215e+002
,,,5.92000000e+007,-1.11479515e+002
,,,5.96000000e+007,-1.16343384e+002
,,,6.00000000e+007,-1.22527229e+002
,,,6.04000000e+007,-1.12644249e+002
,,,6.08000000e+007,-1.18796623e+002
,,,6.12000000e+007,-1.10664604e+002
,,,6.16000000e+007,-1.17408684e+002
,,,6.20000000e+007,-1.16492851e+002
,,,6.24000000e+007,-1.12473465e+002
,,,6.28000000e+007,-1.24532799e+002
,,,6.32000000e+007,-1.10941177e+002
,,,6.36000000e+007,-1.14978912e+002
,,,6.40000000e+007,-1.21214111e+002
,,,6.44000000e+007,-1.12000397e+002
,,,6.48000000e+007,-1.21290520e+002
,,,6.52000000e+007,-1.09109146e+002
,,,6.56000000e+007,-1.15597038e+002
,,,6.60000000e+007,-1.14570724e+002
,,,6.64000000e+007,-1.10632050e+002
,,,6.68000000e+007,-1.16628433e+002
,,,6.72000000e+007,-1.10800125e+002
,,,6.76000000e+007,-1.29475327e+002
,,,6.80000000e+007,-1.15662270e+002
,,,6.84000000e+007,-1.11102715e+002
,,,6.88000000e+007,-1.17617546e+002
,,,6.92000000e+007,-1.11237221e+002
,,,6.96000000e+007,-1.18391357e+002
,,,7.00000000e+007,-1.16325928e+002
,,,7.04000000e+007,-1.14281181e+002
,,,7.08000000e+007,-1.16321945e+002
,,,7.12000000e+007,-1.12392517e+002
,,,7.16000000e+007,-1.10839020e+002
,,,7.20000000e+007,-1.14168861e+002
,,,7.24000000e+007,-1.12337456e+002
,,,7.28000000e+007,-1.16558922e+002
,,,7.32000000e+007,-1.14668159e+002
,,,7.36000000e+007,-1.11363335e+002
,,,7.40000000e+007,-1.10614098e+002
,,,7.44000000e+007,-1.15789032e+002
,,,7.48000000e+007,-1.16936943e+002
,,,7.52000000e+007,-1.14396759e+002
,,,7.56000000e+007,-1.19050858e+002
,,,7.60000000e+007,-1.15640869e+002
,,,7.64000000e+007,-1.13968918e+002
,,,7.68000000e+007,-1.12207550e+002
,,,7.72000000e+007,-1.27600403e+002
,,,7.76000000e+007,-1.10707710e+002
,,,7.80000000e+007,-1.10763870e+002
,,,7.84000000e+007,-1.16046432e+002
,,,7.88000000e+007,-1.12246475e+002
,,,7.92000000e+007,-1.36172943e+002
,,,7.96000000e+007,-1.08226448e+002
,,,8.00000000e+007,-1.07298798e+002
,,,8.04000000e+007,-1.20777496e+002
,,,8.08000000e+007,-1.14901222e+002
,,,8.12000000e+007,-1.21915871e+002
,,,8.16000000e+007,-1.13184059e+002
,,,8.20000000e+007,-1.12465050e+002
,,,8.24000000e+007,-1.25962219e+002
,,,8.28000000e+007,-1.12259689e+002
,,,8.32000000e+007,-1.18620789e+002
,,,8.36000000e+007,-1.15302162e+002
,,,8.40000000e+007,-1.14306023e+002
,,,8.44000000e+007,-1.11329620e+002
,,,8.48000000e+007,-1.12308792e+002
,,,8.52000000e+007,-1.18011597e+002
,,,8.56000000e+007,-1.12602257e+002
,,,8.60000000e+007,-1.13707634e+002
,,,8.64000000e+007,-1.10261337e+002
,,,8.68000000e+007,-1.16977783e+002
,,,8.72000000e+007,-1.16228142e+002
,,,8.76000000e+007,-1.06490524e+002
,,,8.80000000e+007,-1.08163849e+002
,,,8.84000000e+007,-1.30270828e+002
,,,8.88000000e+007,-1.14457306e+002
,,,8.92000000e+007,-1.20717094e+002
,,,8.96000000e+007,-1.21988800e+002
,,,9.00000000e+007,-1.17165627e+002
,,,9.04000000e+007,-1.12505325e+002
,,,9.08000000e+007,-1.15094849e+002
,,,9.12000000e+007,-1.26948807e+002
,,,9.16000000e+007,-1.13426598e+002
,,,9.20000000e+007,-1.15366615e+002
,,,9.24000000e+007,-1.09392647e+002
,,,9.28000000e+007,-1.10225906e+002
,,,9.32000000e+007,-1.04094345e+002
,,,9.36000000e+007,-1.06291061e+002
,,,9.40000000e+007,-1.04498497e+002
,,,9.44000000e+007,-1.06443062e+002
,,,9.48000000e+007,-1.06875687e+002
,,,9.52000000e+007,-1.15967598e+002
,,,9.56000000e+007,-1.15929283e+002
,,,9.60000000e+007,-1.08761734e+002
,,,9.64000000e+007,-1.03469482e+002
,,,9.68000000e+007,-1.06879425e+002
,,,9.72000000e+007,-1.11245941e+002
,,,9.76000000e+007,-1.05383232e+002
,,,9.80000000e+007,-9.63452911e+001
,,,9.84000000e+007,-1.02853569e+002
,,,9.88000000e+007,-9.99092941e+001
,,,9.92000000e+007,-1.03568329e+002
,,,9.96000000e+007,-1.08450752e+002
,,,1.00000000e+008,-1.09101471e+002
,,,1.00400000e+008,-1.02239853e+002
,,,1.00800000e+008,-1.01411491e+002
,,,1.01200000e+008,-1.01488754e+002
,,,1.01600000e+008,-1.12505432e+002
,,,1.02000000e+008,-1.06838394e+002
,,,1.02400000e+008,-1.22433113e+002
,,,1.02800000e+008,-1.18552475e+002
,,,1.03200000e+008,-1.13173500e+002
,,,1.03600000e+008,-1.14682678e+002
,,,1.04000000e+008,-1.17140266e+002
,,,1.04400000e+008,-1.12478943e+002
,,,1.04800000e+008,-1.06164719e+002
,,,1.05200000e+008,-1.03991188e+002
,,,1.05600000e+008,-1.03518318e+002
,,,1.06000000e+008,-1.00575684e+002
,,,1.06400000e+008,-1.15020592e+002
,,,1.06800000e+008,-1.31947372e+002
,,,1.07200000e+008,-1.06341026e+002
,,,1.07600000e+008,-1.12195114e+002
,,,1.08000000e+008,-1.25908447e+002
,,,1.08400000e+008,-1.15554482e+002
,,,1.08800000e+008,-1.16250717e+002
,,,1.09200000e+008,-1.16957527e+002
,,,1.09600000e+008,-1.19404137e+002
,,,1.10000000e+008,-1.12391426e+002
,,,1.10400000e+008,-1.13795944e+002
,,,1.10800000e+008,-1.09253082e+002
,,,1.11200000e+008,-1.23324020e+002
,,,1.11600000e+008,-1.13367874e+002
,,,1.12000000e+008,-1.11464241e+002
,,,1.12400000e+008,-1.09766663e+002
,,,1.12800000e+008,-1.11063202e+002
,,,1.13200000e+008,-1.07063438e+002
,,,1.13600000e+008,-1.10455795e+002
,,,1.14000000e+008,-1.18918282e+002
,,,1.14400000e+008,-1.24546463e+002
,,,1.14800000e+008,-1.07986763e+002
,,,1.15200000e+008,-1.09206512e+002
,,,1.15600000e+008,-1.14408737e+002
,,,1.16000000e+008,-1.18128677e+002
,,,1.16400000e+008,-1.24231483e+002
,,,1.16800000e+008,-1.12203377e+002
,,,1.17200000e+008,-1.13329239e+002
,,,1.17600000e+008,-1.19869247e+002
,,,1.18000000e+008,-1.14150757e+002
,,,1.18400000e+008,-1.10266823e+002
,,,1.18800000e+008,-1.15552780e+002
,,,1.19200000e+008,-1.14561302e+002
,,,1.19600000e+008,-1.05013016e+002
,,,1.20000000e+008,-1.10029037e+002
,,,1.20400000e+008,-1.14864014e+002
,,,1.20800000e+008,-1.11220596e+002
,,,1.21200000e+008,-1.25620422e+002
,,,1.21600000e+008,-1.14126740e+002
,,,1.22000000e+008,-1.11970291e+002
,,,1.22400000e+008,-1.14711952e+002
,,,1.22800000e+008,-1.11990738e+002
,,,1.23200000e+008,-1.13136215e+002
,,,1.23600000e+008,-1.19028755e+002
,,,1.24000000e+008,-1.17502518e+002
,,,1.24400000e+008,-1.18133255e+002
,,,1.24800000e+008,-1.17549217e+002
,,,1.25200000e+008,-1.13452576e+002
,,,1.25600000e+008,-1.10439430e+002
,,,1.26000000e+008,-1.19910988e+002
,,,1.26400000e+008,-1.19355072e+002
,,,1.26800000e+008,-1.14366249e+002
,,,1.27200000e+008,-1.08824402e+002
,,,1.27600000e+008,-1.25184570e+002
,,,1.28000000e+008,-1.10437668e+002
,,,1.28400000e+008,-1.06027878e+002
,,,1.28800000e+008,-1.10279495e+002
,,,1.29200000e+008,-1.02827599e+002
,,,1.29600000e+008,-1.03114532e+002
,,,1.30000000e+008,-1.03571121e+002
,,,1.30400000e+008,-1.00492119e+002
,,,1.30800000e+008,-1.04129898e+002
,,,1.31200000e+008,-1.06255135e+002
,,,1.31600000e+008,-1.10190224e+002
,,,1.32000000e+008,-1.19756821e+002
,,,1.32400000e+008,-1.17681168e+002
,,,1.32800000e+008,-1.10208511e+002
,,,1.33200000e+008,-1.18555450e+002
,,,1.33600000e+008,-1.22883461e+002
,,,1.34000000e+008,-1.18446877e+002
,,,1.34400000e+008,-1.19160355e+002
,,,1.34800000e+008,-1.40256622e+002
,,,1.35200000e+008,-1.21277603e+002
,,,1.35600000e+008,-1.20054703e+002
,,,1.36000000e+008,-1.14322517e+002
,,,1.36400000e+008,-1.17145012e+002
,,,1.36800000e+008,-1.19471703e+002
,,,1.37200000e+008,-1.23631676e+002
,,,1.37600000e+008,-1.14544899e+002
,,,1.38000000e+008,-1.16711647e+002
,,,1.38400000e+008,-1.17739311e+002
,,,1.38800000e+008,-1.21240036e+002
,,,1.39200000e+008,-1.13073776e+002
,,,1.39600000e+008,-1.11003143e+002
,,,1.40000000e+008,-1.12399574e+002
,,,1.40400000e+008,-1.18031067e+002
,,,1.40800000e+008,-1.22202057e+002
,,,1.41200000e+008,-1.09295074e+002
,,,1.41600000e+008,-1.12530235e+002
,,,1.42000000e+008,-1.15373047e+002
,,,1.42400000e+008,-1.15686546e+002
,,,1.42800000e+008,-1.12933304e+002
,,,1.43200000e+008,-1.10490456e+002
,,,1.43600000e+008,-1.12669067e+002
,,,1.44000000e+008,-1.14193779e+002
,,,1.44400000e+008,-1.12244858e+002
,,,1.44800000e+008,-1.14084084e+002
,,,1.45200000e+008,-1.08265213e+002
,,,1.45600000e+008,-1.06040207e+002
,,,1.46000000e+008,-1.06610062e+002
,,,1.46400000e+008,-1.08964912e+002
,,,1.46800000e+008,-1.07421471e+002
,,,1.47200000e+008,-1.03895744e+002
,,,1.47600000e+008,-1.03483459e+002
,,,1.48000000e+008,-1.02322449e+002
,,,1.48400000e+008,-1.00963554e+002
,,,1.48800000e+008,-1.01029732e+002
,,,1.49200000e+008,-9.93791351e+001
,,,1.49600000e+008,-9.67208176e+001
,,,1.50000000e+008,-9.60573959e+001
,,,1.50400000e+008,-9.55045013e+001
,,,1.50800000e+008,-9.61166534e+001
,,,1.51200000e+008,-9.82311325e+001
,,,1.51600000e+008,-9.92185135e+001
,,,1.52000000e+008,-1.01268288e+002
,,,1.52400000e+008,-1.04986656e+002
,,,1.52800000e+008,-1.08961014e+002
,,,1.53200000e+008,-1.09935158e+002
,,,1.53600000e+008,-1.09715523e+002
,,,1.54000000e+008,-1.10383568e+002
,,,1.54400000e+008,-1.07820496e+002
,,,1.54800000e+008,-1.05150146e+002
,,,1.55200000e+008,-1.05831573e+002
,,,1.55600000e+008,-1.04289200e+002
,,,1.56000000e+008,-1.04800667e+002
,,,1.56400000e+008,-1.08530884e+002
,,,1.56800000e+008,-1.10237427e+002
,,,1.57200000e+008,-1.06921654e+002
,,,1.57600000e+008,-1.07539803e+002
,,,1.58000000e+008,-1.07911194e+002
,,,1.58400000e+008,-1.06890160e+002
,,,1.58800000e+008,-1.09070274e+002
,,,1.59200000e+008,-1.08500488e+002
,,,1.59600000e+008,-1.17250511e+002
,,,1.60000000e+008,-1.23725922e+002
,,,1.60400000e+008,-1.17518524e+002
,,,1.60800000e+008,-1.18337311e+002
,,,1.61200000e+008,-1.30780838e+002
,,,1.61600000e+008,-1.15008934e+002
,,,1.62000000e+008,-1.14971024e+002
,,,1.62400000e+008,-1.25356850e+002
,,,1.62800000e+008,-1.17747406e+002
,,,1.63200000e+008,-1.09137932e+002
,,,1.63600000e+008,-1.06133430e+002
,,,1.64000000e+008,-1.06030823e+002
,,,1.64400000e+008,-1.02764168e+002
,,,1.64800000e+008,-9.98009567e+001
,,,1.65200000e+008,-9.87096100e+001
,,,1.65600000e+008,-9.64471130e+001
,,,1.66000000e+008,-9.21681366e+001
,,,1.66400000e+008,-8.97216721e+001
,,,1.66800000e+008,-9.00742493e+001
,,,1.67200000e+008,-9.06290817e+001
,,,1.67600000e+008,-9.11550217e+001
,,,1.68000000e+008,-9.34547653e+001
,,,1.68400000e+008,-9.83482819e+001
,,,1.68800000e+008,-9.90745926e+001
,,,1.69200000e+008,-9.96440430e+001
,,,1.69600000e+008,-1.04096352e+002
,,,1.70000000e+008,-1.10064812e+002
,,,1.70400000e+008,-1.07396080e+002
,,,1.70800000e+008,-1.10476532e+002
,,,1.71200000e+008,-1.14399124e+002
,,,1.71600000e+008,-1.07183968e+002
,,,1.72000000e+008,-1.04010696e+002
,,,1.72400000e+008,-1.04594780e+002
,,,1.72800000e+008,-1.02915901e+002
,,,1.73200000e+008,-1.01599319e+002
,,,1.73600000e+008,-1.00984734e+002
,,,1.74000000e+008,-1.08674202e+002
,,,1.74400000e+008,-1.04952644e+002
,,,1.74800000e+008,-9.88307419e+001
,,,1.75200000e+008,-9.91982193e+001
,,,1.75600000e+008,-1.02361244e+002
,,,1.76000000e+008,-1.07370514e+002
,,,1.76400000e+008,-1.10848045e+002
,,,1.76800000e+008,-1.02980232e+002
,,,1.77200000e+008,-1.08898392e+002
,,,1.77600000e+008,-1.00900398e+002
,,,1.78000000e+008,-1.16897469e+002
,,,1.78400000e+008,-9.36947556e+001
,,,1.78800000e+008,-1.03248779e+002
,,,1.79200000e+008,-9.99032669e+001
,,,1.79600000e+008,-1.01139130e+002
,,,1.80000000e+008,-9.68618164e+001
,,,1.80400000e+008,-9.77432404e+001
,,,1.80800000e+008,-9.64583282e+001
,,,1.81200000e+008,-1.03544983e+002
,,,1.81600000e+008,-1.00487335e+002
,,,1.82000000e+008,-9.76368408e+001
,,,1.82400000e+008,-9.83752670e+001
,,,1.82800000e+008,-9.61010056e+001
,,,1.83200000e+008,-9.36725845e+001
,,,1.83600000e+008,-9.08349991e+001
,,,1.84000000e+008,-8.99594803e+001
,,,1.84400000e+008,-9.02020111e+001
,,,1.84800000e+008,-9.02572098e+001
,,,1.85200000e+008,-9.11263962e+001
,,,1.85600000e+008,-9.19701767e+001
,,,1.86000000e+008,-9.15251312e+001
,,,1.86400000e+008,-9.04094162e+001
,,,1.86800000e+008,-9.09100342e+001
,,,1.87200000e+008,-9.23424911e+001
,,,1.87600000e+008,-9.38846664e+001
,,,1.88000000e+008,-9.42383652e+001
,,,1.88400000e+008,-9.47161331e+001
,,,1.88800000e+008,-9.51288986e+001
,,,1.89200000e+008,-9.43362579e+001
,,,1.89600000e+008,-9.46957169e+001
,,,1.90000000e+008,-9.41657181e+001
,,,1.90400000e+008,-9.42801971e+001
,,,1.90800000e+008,-9.42774506e+001
,,,1.91200000e+008,-9.30433350e+001
,,,1.91600000e+008,-9.33153534e+001
,,,1.92000000e+008,-9.35542679e+001
,,,1.92400000e+008,-9.36537323e+001
,,,1.92800000e+008,-9.36298752e+001
,,,1.93200000e+008,-9.40571365e+001
,,,1.93600000e+008,-9.50962906e+001
,,,1.94000000e+008,-9.83921509e+001
,,,1.94400000e+008,-9.92922668e+001
,,,1.94800000e+008,-9.78622665e+001
,,,1.95200000e+008,-9.77191315e+001
,,,1.95600000e+008,-9.76377411e+001
,,,1.96000000e+008,-1.00075500e+002
,,,1.96400000e+008,-9.94760437e+001
,,,1.96800000e+008,-9.67122345e+001
,,,1.97200000e+008,-9.51626205e+001
,,,1.97600000e+008,-9.55558395e+001
,,,1.98000000e+008,-9.64171524e+001
,,,1.98400000e+008,-1.00125450e+002
,,,1.98800000e+008,-1.02654442e+002
,,,1.99200000e+008,-9.68406982e+001
,,,1.99600000e+008,-9.38182373e+001
,,,2.00000000e+008,-9.18305511e+001
,,,2.00400000e+008,-9.07098541e+001
,,,2.00800000e+008,-9.10596008e+001
,,,2.01200000e+008,-9.01862640e+001
,,,2.01600000e+008,-9.03157425e+001
,,,2.02000000e+008,-8.99443741e+001
,,,2.02400000e+008,-9.08225174e+001
,,,2.02800000e+008,-9.39166641e+001
,,,2.03200000e+008,-9.55287247e+001
,,,2.03600000e+008,-9.59801254e+001
,,,2.04000000e+008,-9.30336380e+001
,,,2.04400000e+008,-9.00800552e+001
,,,2.04800000e+008,-9.21282959e+001
,,,2.05200000e+008,-9.34243927e+001
,,,2.05600000e+008,-9.13890076e+001
,,,2.06000000e+008,-8.83786469e+001
,,,2.06400000e+008,-8.70484238e+001
,,,2.06800000e+008,-8.74675980e+001
,,,2.07200000e+008,-9.05651169e+001
,,,2.07600000e+008,-8.92659912e+001
,,,2.08000000e+008,-9.05830231e+001
,,,2.08400000e+008,-9.47448196e+001
,,,2.08800000e+008,-9.04782867e+001
,,,2.09200000e+008,-8.98455582e+001
,,,2.09600000e+008,-9.38690720e+001
,,,2.10000000e+008,-9.30422363e+001
,,,2.10400000e+008,-9.28852768e+001
,,,2.10800000e+008,-9.18450470e+001
,,,2.11200000e+008,-9.22359314e+001
,,,2.11600000e+008,-9.25410461e+001
,,,2.12000000e+008,-9.14510269e+001
,,,2.12400000e+008,-9.10257721e+001
,,,2.12800000e+008,-9.09180145e+001
,,,2.13200000e+008,-9.25694656e+001
,,,2.13600000e+008,-9.43029022e+001
,,,2.14000000e+008,-9.65415955e+001
,,,2.14400000e+008,-9.67138824e+001
,,,2.14800000e+008,-9.61216812e+001
,,,2.15200000e+008,-9.92126617e+001
,,,2.15600000e+008,-9.93117905e+001
,,,2.16000000e+008,-9.37236481e+001
,,,2.16400000e+008,-9.03992310e+001
,,,2.16800000e+008,-8.88731232e+001
,,,2.17200000e+008,-8.91156693e+001
,,,2.17600000e+008,-8.92807159e+001
,,,2.18000000e+008,-9.01330032e+001
,,,2.18400000e+008,-9.17709274e+001
,,,2.18800000e+008,-9.36860504e+001
,,,2.19200000e+008,-9.34210892e+001
,,,2.19600000e+008,-9.35709229e+001
,,,2.20000000e+008,-9.57564926e+001
