Data/20220822/UCLA_to_R2B_HPOL_NEG80_001_Ch2.csv

"Record Length",10000,"Points",-5.00800000e-007,6.78906466e-004
"Sample Interval",2.00000000e-010,s,-5.00600000e-007,5.59375207e-004
"Trigger Point",2504,"Samples",-5.00400000e-007,4.23437698e-004
"Trigger Time",0.00000000e+000,s,-5.00200000e-007,4.32812698e-004
"",,,-5.00000000e-007,5.59375207e-004
"Horizontal Offset",-5.00800000e-007,s,-4.99800000e-007,8.23437726e-004
,,,-4.99600000e-007,8.64062729e-004
,,,-4.99400000e-007,7.82031473e-004
,,,-4.99200000e-007,7.96093974e-004
,,,-4.99000000e-007,6.45312713e-004
,,,-4.98800000e-007,5.23437705e-004
,,,-4.98600000e-007,4.71875201e-004
,,,-4.98400000e-007,5.14062704e-004
,,,-4.98200000e-007,7.50781471e-004
,,,-4.98000000e-007,7.44531470e-004
,,,-4.97800000e-007,7.42187720e-004
,,,-4.97600000e-007,7.60156471e-004
,,,-4.97400000e-007,7.81250223e-004
,,,-4.97200000e-007,7.10156468e-004
,,,-4.97000000e-007,6.18750211e-004
,,,-4.96800000e-007,5.97656460e-004
,,,-4.96600000e-007,6.78125216e-004
,,,-4.96400000e-007,5.51562707e-004
,,,-4.96200000e-007,6.57812714e-004
,,,-4.96000000e-007,7.29687719e-004
,,,-4.95800000e-007,7.82812723e-004
,,,-4.95600000e-007,7.58593971e-004
,,,-4.95400000e-007,7.30468969e-004
,,,-4.95200000e-007,7.42187720e-004
,,,-4.95000000e-007,7.14062718e-004
,,,-4.94800000e-007,5.84375209e-004
,,,-4.94600000e-007,5.44531456e-004
,,,-4.94400000e-007,5.77343959e-004
,,,-4.94200000e-007,6.65625215e-004
,,,-4.94000000e-007,6.67187715e-004
,,,-4.93800000e-007,6.20312712e-004
,,,-4.93600000e-007,8.32812727e-004
,,,-4.93400000e-007,8.50781478e-004
,,,-4.93200000e-007,7.53125221e-004
,,,-4.93000000e-007,6.10156461e-004
,,,-4.92800000e-007,5.97656460e-004
,,,-4.92600000e-007,5.64062708e-004
,,,-4.92400000e-007,5.27343955e-004
,,,-4.92200000e-007,5.42968956e-004
,,,-4.92000000e-007,7.83593973e-004
,,,-4.91800000e-007,8.71875229e-004
,,,-4.91600000e-007,8.85937730e-004
,,,-4.91400000e-007,7.60156471e-004
,,,-4.91200000e-007,6.78906466e-004
,,,-4.91000000e-007,5.82031459e-004
,,,-4.90800000e-007,4.93750203e-004
,,,-4.90600000e-007,5.33593955e-004
,,,-4.90400000e-007,6.74218965e-004
,,,-4.90200000e-007,7.87500223e-004
,,,-4.90000000e-007,7.92187724e-004
,,,-4.89800000e-007,7.14843968e-004
,,,-4.89600000e-007,6.99218967e-004
,,,-4.89400000e-007,6.31250212e-004
,,,-4.89200000e-007,5.86718959e-004
,,,-4.89000000e-007,6.63281465e-004
,,,-4.88800000e-007,7.33593970e-004
,,,-4.88600000e-007,7.83593973e-004
,,,-4.88400000e-007,6.57812714e-004
,,,-4.88200000e-007,6.09375211e-004
,,,-4.88000000e-007,6.35937713e-004
,,,-4.87800000e-007,6.67968965e-004
,,,-4.87600000e-007,6.84375216e-004
,,,-4.87400000e-007,8.16406475e-004
,,,-4.87200000e-007,7.52343971e-004
,,,-4.87000000e-007,7.31250219e-004
,,,-4.86800000e-007,5.98437710e-004
,,,-4.86600000e-007,5.57812707e-004
,,,-4.86400000e-007,6.40625213e-004
,,,-4.86200000e-007,6.49218964e-004
,,,-4.86000000e-007,6.47656463e-004
,,,-4.85800000e-007,8.05468975e-004
,,,-4.85600000e-007,8.14062725e-004
,,,-4.85400000e-007,7.67968972e-004
,,,-4.85200000e-007,6.24218962e-004
,,,-4.85000000e-007,5.96875210e-004
,,,-4.84800000e-007,6.17968961e-004
,,,-4.84600000e-007,6.28906462e-004
,,,-4.84400000e-007,6.90625217e-004
,,,-4.84200000e-007,7.58593971e-004
,,,-4.84000000e-007,8.21875226e-004
,,,-4.83800000e-007,7.53125221e-004
,,,-4.83600000e-007,6.67968965e-004
,,,-4.83400000e-007,6.21875212e-004
,,,-4.83200000e-007,6.06250211e-004
,,,-4.83000000e-007,5.85156459e-004
,,,-4.82800000e-007,6.32031462e-004
,,,-4.82600000e-007,7.20312719e-004
,,,-4.82400000e-007,8.92187731e-004
,,,-4.82200000e-007,8.44531477e-004
,,,-4.82000000e-007,7.14843968e-004
,,,-4.81800000e-007,6.83593966e-004
,,,-4.81600000e-007,5.77343959e-004
,,,-4.81400000e-007,5.39062706e-004
,,,-4.81200000e-007,6.09375211e-004
,,,-4.81000000e-007,7.58593971e-004
,,,-4.80800000e-007,9.02343982e-004
,,,-4.80600000e-007,7.96093974e-004
,,,-4.80400000e-007,6.93750217e-004
,,,-4.80200000e-007,6.59375214e-004
,,,-4.80000000e-007,5.45312706e-004
,,,-4.79800000e-007,6.00781460e-004
,,,-4.79600000e-007,6.59375214e-004
,,,-4.79400000e-007,7.17187718e-004
,,,-4.79200000e-007,7.85156473e-004
,,,-4.79000000e-007,6.51562714e-004
,,,-4.78800000e-007,6.32031462e-004
,,,-4.78600000e-007,6.00781460e-004
,,,-4.78400000e-007,5.43750206e-004
,,,-4.78200000e-007,6.29687712e-004
,,,-4.78000000e-007,7.25781469e-004
,,,-4.77800000e-007,8.03906475e-004
,,,-4.77600000e-007,7.34375220e-004
,,,-4.77400000e-007,6.13281461e-004
,,,-4.77200000e-007,5.32812705e-004
,,,-4.77000000e-007,5.79687709e-004
,,,-4.76800000e-007,6.26562712e-004
,,,-4.76600000e-007,6.79687716e-004
,,,-4.76400000e-007,7.60937721e-004
,,,-4.76200000e-007,8.12500225e-004
,,,-4.76000000e-007,7.53125221e-004
,,,-4.75800000e-007,5.85937709e-004
,,,-4.75600000e-007,5.46875206e-004
,,,-4.75400000e-007,5.12500204e-004
,,,-4.75200000e-007,6.11718961e-004
,,,-4.75000000e-007,6.79687716e-004
,,,-4.74800000e-007,7.32812720e-004
,,,-4.74600000e-007,8.32812727e-004
,,,-4.74400000e-007,7.51562721e-004
,,,-4.74200000e-007,7.02343967e-004
,,,-4.74000000e-007,5.76562708e-004
,,,-4.73800000e-007,5.30468955e-004
,,,-4.73600000e-007,5.92968960e-004
,,,-4.73400000e-007,6.85937716e-004
,,,-4.73200000e-007,7.63281472e-004
,,,-4.73000000e-007,7.75000222e-004
,,,-4.72800000e-007,7.84375223e-004
,,,-4.72600000e-007,7.66406472e-004
,,,-4.72400000e-007,6.06250211e-004
,,,-4.72200000e-007,5.45312706e-004
,,,-4.72000000e-007,6.28125212e-004
,,,-4.71800000e-007,6.48437714e-004
,,,-4.71600000e-007,7.28125219e-004
,,,-4.71400000e-007,7.07812718e-004
,,,-4.71200000e-007,7.00000217e-004
,,,-4.71000000e-007,6.97656467e-004
,,,-4.70800000e-007,6.21875212e-004
,,,-4.70600000e-007,5.74218958e-004
,,,-4.70400000e-007,6.48437714e-004
,,,-4.70200000e-007,7.35937720e-004
,,,-4.70000000e-007,7.40625220e-004
,,,-4.69800000e-007,6.36718963e-004
,,,-4.69600000e-007,6.13281461e-004
,,,-4.69400000e-007,5.67968958e-004
,,,-4.69200000e-007,5.55468957e-004
,,,-4.69000000e-007,6.35937713e-004
,,,-4.68800000e-007,7.37500220e-004
,,,-4.68600000e-007,8.57031478e-004
,,,-4.68400000e-007,7.92187724e-004
,,,-4.68200000e-007,6.45312713e-004
,,,-4.68000000e-007,5.56250207e-004
,,,-4.67800000e-007,4.31250198e-004
,,,-4.67600000e-007,4.29687698e-004
,,,-4.67400000e-007,6.14843961e-004
,,,-4.67200000e-007,8.35156477e-004
,,,-4.67000000e-007,1.01484399e-003
,,,-4.66800000e-007,9.12500232e-004
,,,-4.66600000e-007,7.21875219e-004
,,,-4.66400000e-007,5.75000208e-004
,,,-4.66200000e-007,3.42968942e-004
,,,-4.66000000e-007,2.96093939e-004
,,,-4.65800000e-007,4.82812702e-004
,,,-4.65600000e-007,7.82812723e-004
,,,-4.65400000e-007,1.01562524e-003
,,,-4.65200000e-007,9.17187733e-004
,,,-4.65000000e-007,7.92968974e-004
,,,-4.64800000e-007,6.90625217e-004
,,,-4.64600000e-007,4.45312699e-004
,,,-4.64400000e-007,3.44531442e-004
,,,-4.64200000e-007,4.17968947e-004
,,,-4.64000000e-007,7.03125217e-004
,,,-4.63800000e-007,9.01562731e-004
,,,-4.63600000e-007,8.36718977e-004
,,,-4.63400000e-007,7.82031473e-004
,,,-4.63200000e-007,7.16406468e-004
,,,-4.63000000e-007,6.14843961e-004
,,,-4.62800000e-007,4.68750201e-004
,,,-4.62600000e-007,5.37500206e-004
,,,-4.62400000e-007,7.60937721e-004
,,,-4.62200000e-007,8.06250225e-004
,,,-4.62000000e-007,7.02343967e-004
,,,-4.61800000e-007,5.88281459e-004
,,,-4.61600000e-007,5.35937706e-004
,,,-4.61400000e-007,5.67968958e-004
,,,-4.61200000e-007,5.14843954e-004
,,,-4.61000000e-007,6.42968963e-004
,,,-4.60800000e-007,8.97656481e-004
,,,-4.60600000e-007,8.75000230e-004
,,,-4.60400000e-007,7.15625218e-004
,,,-4.60200000e-007,5.16406454e-004
,,,-4.60000000e-007,4.12500197e-004
,,,-4.59800000e-007,4.54687700e-004
,,,-4.59600000e-007,4.85937702e-004
,,,-4.59400000e-007,6.96093967e-004
,,,-4.59200000e-007,9.99218988e-004
,,,-4.59000000e-007,9.75000237e-004
,,,-4.58800000e-007,8.25781476e-004
,,,-4.58600000e-007,5.64843958e-004
,,,-4.58400000e-007,3.81250195e-004
,,,-4.58200000e-007,2.89843938e-004
,,,-4.58000000e-007,3.20312690e-004
,,,-4.57800000e-007,6.75000215e-004
,,,-4.57600000e-007,9.48437735e-004
,,,-4.57400000e-007,1.02812524e-003
,,,-4.57200000e-007,8.68750229e-004
,,,-4.57000000e-007,6.78125216e-004
,,,-4.56800000e-007,4.70312701e-004
,,,-4.56600000e-007,2.98437689e-004
,,,-4.56400000e-007,3.14062690e-004
,,,-4.56200000e-007,6.12500211e-004
,,,-4.56000000e-007,8.54687728e-004
,,,-4.55800000e-007,9.55468985e-004
,,,-4.55600000e-007,7.89843974e-004
,,,-4.55400000e-007,6.73437715e-004
,,,-4.55200000e-007,5.82812709e-004
,,,-4.55000000e-007,4.04687696e-004
,,,-4.54800000e-007,4.50000199e-004
,,,-4.54600000e-007,6.24218962e-004
,,,-4.54400000e-007,7.37500220e-004
,,,-4.54200000e-007,7.94531474e-004
,,,-4.54000000e-007,6.54687714e-004
,,,-4.53800000e-007,5.27343955e-004
,,,-4.53600000e-007,5.83593959e-004
,,,-4.53400000e-007,5.25781455e-004
,,,-4.53200000e-007,6.36718963e-004
,,,-4.53000000e-007,8.38281477e-004
,,,-4.52800000e-007,8.72656479e-004
,,,-4.52600000e-007,7.82812723e-004
,,,-4.52400000e-007,5.41406456e-004
,,,-4.52200000e-007,3.55468943e-004
,,,-4.52000000e-007,4.21093947e-004
,,,-4.51800000e-007,5.09375204e-004
,,,-4.51600000e-007,7.43750220e-004
,,,-4.51400000e-007,9.25000233e-004
,,,-4.51200000e-007,9.64843986e-004
,,,-4.51000000e-007,8.67968979e-004
,,,-4.50800000e-007,4.80468952e-004
,,,-4.50600000e-007,2.82031438e-004
,,,-4.50400000e-007,2.50781435e-004
,,,-4.50200000e-007,3.64843943e-004
,,,-4.50000000e-007,6.59375214e-004
,,,-4.49800000e-007,8.89843981e-004
,,,-4.49600000e-007,1.02421899e-003
,,,-4.49400000e-007,8.76562730e-004
,,,-4.49200000e-007,6.17187711e-004
,,,-4.49000000e-007,4.68750201e-004
,,,-4.48800000e-007,2.85156438e-004
,,,-4.48600000e-007,3.32031441e-004
,,,-4.48400000e-007,5.41406456e-004
,,,-4.48200000e-007,8.09375225e-004
,,,-4.48000000e-007,9.42968984e-004
,,,-4.47800000e-007,7.71875222e-004
,,,-4.47600000e-007,6.00000210e-004
,,,-4.47400000e-007,5.29687705e-004
,,,-4.47200000e-007,4.51562700e-004
,,,-4.47000000e-007,5.09375204e-004
,,,-4.46800000e-007,5.96875210e-004
,,,-4.46600000e-007,7.67968972e-004
,,,-4.46400000e-007,8.68750229e-004
,,,-4.46200000e-007,6.17187711e-004
,,,-4.46000000e-007,4.86718952e-004
,,,-4.45800000e-007,4.04687696e-004
,,,-4.45600000e-007,5.14062704e-004
,,,-4.45400000e-007,6.46093963e-004
,,,-4.45200000e-007,7.35937720e-004
,,,-4.45000000e-007,9.70312736e-004
,,,-4.44800000e-007,9.25781483e-004
,,,-4.44600000e-007,6.32031462e-004
,,,-4.44400000e-007,4.21093947e-004
,,,-4.44200000e-007,2.74218937e-004
,,,-4.44000000e-007,3.99218946e-004
,,,-4.43800000e-007,5.74218958e-004
,,,-4.43600000e-007,8.10156475e-004
,,,-4.43400000e-007,1.09218774e-003
,,,-4.43200000e-007,9.92187738e-004
,,,-4.43000000e-007,6.70312715e-004
,,,-4.42800000e-007,3.85156445e-004
,,,-4.42600000e-007,2.60937686e-004
,,,-4.42400000e-007,3.67968944e-004
,,,-4.42200000e-007,5.11718954e-004
,,,-4.42000000e-007,8.11718975e-004
,,,-4.41800000e-007,1.03437524e-003
,,,-4.41600000e-007,9.31250234e-004
,,,-4.41400000e-007,7.17187718e-004
,,,-4.41200000e-007,3.93750196e-004
,,,-4.41000000e-007,2.47656435e-004
,,,-4.40800000e-007,3.84375195e-004
,,,-4.40600000e-007,4.83593952e-004
,,,-4.40400000e-007,7.82812723e-004
,,,-4.40200000e-007,9.35156484e-004
,,,-4.40000000e-007,8.52343978e-004
,,,-4.39800000e-007,6.20312712e-004
,,,-4.39600000e-007,3.78906444e-004
,,,-4.39400000e-007,4.12500197e-004
,,,-4.39200000e-007,4.57812700e-004
,,,-4.39000000e-007,5.46093956e-004
,,,-4.38800000e-007,8.21875226e-004
,,,-4.38600000e-007,8.66406479e-004
,,,-4.38400000e-007,7.96875224e-004
,,,-4.38200000e-007,5.67187708e-004
,,,-4.38000000e-007,4.10156447e-004
,,,-4.37800000e-007,4.92968953e-004
,,,-4.37600000e-007,4.98437703e-004
,,,-4.37400000e-007,6.36718963e-004
,,,-4.37200000e-007,8.56250228e-004
,,,-4.37000000e-007,8.83593980e-004
,,,-4.36800000e-007,7.70312722e-004
,,,-4.36600000e-007,4.63281450e-004
,,,-4.36400000e-007,3.39062692e-004
,,,-4.36200000e-007,4.35937698e-004
,,,-4.36000000e-007,5.21875205e-004
,,,-4.35800000e-007,7.47656471e-004
,,,-4.35600000e-007,9.51562735e-004
,,,-4.35400000e-007,9.78125237e-004
,,,-4.35200000e-007,8.50000228e-004
,,,-4.35000000e-007,4.94531453e-004
,,,-4.34800000e-007,3.16406440e-004
,,,-4.34600000e-007,3.74218944e-004
,,,-4.34400000e-007,4.69531451e-004
,,,-4.34200000e-007,6.79687716e-004
,,,-4.34000000e-007,9.42187734e-004
,,,-4.33800000e-007,1.05234399e-003
,,,-4.33600000e-007,8.87500230e-004
,,,-4.33400000e-007,5.09375204e-004
,,,-4.33200000e-007,3.52343943e-004
,,,-4.33000000e-007,3.38281442e-004
,,,-4.32800000e-007,4.23437698e-004
,,,-4.32600000e-007,6.47656463e-004
,,,-4.32400000e-007,7.92968974e-004
,,,-4.32200000e-007,9.30468983e-004
,,,-4.32000000e-007,7.66406472e-004
,,,-4.31800000e-007,5.25781455e-004
,,,-4.31600000e-007,4.87500202e-004
,,,-4.31400000e-007,4.98437703e-004
,,,-4.31200000e-007,5.30468955e-004
,,,-4.31000000e-007,6.42187713e-004
,,,-4.30800000e-007,7.12500218e-004
,,,-4.30600000e-007,7.34375220e-004
,,,-4.30400000e-007,6.03906460e-004
,,,-4.30200000e-007,4.91406452e-004
,,,-4.30000000e-007,5.41406456e-004
,,,-4.29800000e-007,5.83593959e-004
,,,-4.29600000e-007,6.93750217e-004
,,,-4.29400000e-007,8.09375225e-004
,,,-4.29200000e-007,7.85937723e-004
,,,-4.29000000e-007,6.89843966e-004
,,,-4.28800000e-007,5.14062704e-004
,,,-4.28600000e-007,4.46093949e-004
,,,-4.28400000e-007,5.03125203e-004
,,,-4.28200000e-007,5.71875208e-004
,,,-4.28000000e-007,7.31250219e-004
,,,-4.27800000e-007,8.80468980e-004
,,,-4.27600000e-007,8.98437731e-004
,,,-4.27400000e-007,7.71875222e-004
,,,-4.27200000e-007,5.66406458e-004
,,,-4.27000000e-007,4.60937700e-004
,,,-4.26800000e-007,4.68750201e-004
,,,-4.26600000e-007,5.48437706e-004
,,,-4.26400000e-007,6.71875215e-004
,,,-4.26200000e-007,7.71093972e-004
,,,-4.26000000e-007,9.07031482e-004
,,,-4.25800000e-007,7.99218974e-004
,,,-4.25600000e-007,5.88281459e-004
,,,-4.25400000e-007,5.16406454e-004
,,,-4.25200000e-007,4.79687702e-004
,,,-4.25000000e-007,5.80468959e-004
,,,-4.24800000e-007,6.25781462e-004
,,,-4.24600000e-007,6.92968967e-004
,,,-4.24400000e-007,8.23437726e-004
,,,-4.24200000e-007,7.38281470e-004
,,,-4.24000000e-007,5.88281459e-004
,,,-4.23800000e-007,5.56250207e-004
,,,-4.23600000e-007,6.07812711e-004
,,,-4.23400000e-007,6.57812714e-004
,,,-4.23200000e-007,6.57812714e-004
,,,-4.23000000e-007,7.28125219e-004
,,,-4.22800000e-007,6.77343966e-004
,,,-4.22600000e-007,6.25000212e-004
,,,-4.22400000e-007,4.89062702e-004
,,,-4.22200000e-007,4.98437703e-004
,,,-4.22000000e-007,5.82031459e-004
,,,-4.21800000e-007,7.14843968e-004
,,,-4.21600000e-007,7.51562721e-004
,,,-4.21400000e-007,7.53125221e-004
,,,-4.21200000e-007,6.46093963e-004
,,,-4.21000000e-007,5.12500204e-004
,,,-4.20800000e-007,5.08593954e-004
,,,-4.20600000e-007,4.59375200e-004
,,,-4.20400000e-007,5.95312710e-004
,,,-4.20200000e-007,7.87500223e-004
,,,-4.20000000e-007,8.46093978e-004
,,,-4.19800000e-007,9.36718984e-004
,,,-4.19600000e-007,7.22656469e-004
,,,-4.19400000e-007,5.31250205e-004
,,,-4.19200000e-007,4.82031452e-004
,,,-4.19000000e-007,4.69531451e-004
,,,-4.18800000e-007,6.46875213e-004
,,,-4.18600000e-007,7.35937720e-004
,,,-4.18400000e-007,8.62500229e-004
,,,-4.18200000e-007,9.00000231e-004
,,,-4.18000000e-007,7.56250221e-004
,,,-4.17800000e-007,6.09375211e-004
,,,-4.17600000e-007,5.17187704e-004
,,,-4.17400000e-007,5.74218958e-004
,,,-4.17200000e-007,6.64062715e-004
,,,-4.17000000e-007,6.85156466e-004
,,,-4.16800000e-007,7.85937723e-004
,,,-4.16600000e-007,7.90625224e-004
,,,-4.16400000e-007,7.21093969e-004
,,,-4.16200000e-007,6.47656463e-004
,,,-4.16000000e-007,5.40625206e-004
,,,-4.15800000e-007,6.07812711e-004
,,,-4.15600000e-007,6.46093963e-004
,,,-4.15400000e-007,6.81250216e-004
,,,-4.15200000e-007,7.50781471e-004
,,,-4.15000000e-007,7.06250218e-004
,,,-4.14800000e-007,6.39062713e-004
,,,-4.14600000e-007,6.27343962e-004
,,,-4.14400000e-007,5.13281454e-004
,,,-4.14200000e-007,6.32031462e-004
,,,-4.14000000e-007,7.05468968e-004
,,,-4.13800000e-007,7.75781473e-004
,,,-4.13600000e-007,7.75781473e-004
,,,-4.13400000e-007,7.49218971e-004
,,,-4.13200000e-007,6.81250216e-004
,,,-4.13000000e-007,6.04687710e-004
,,,-4.12800000e-007,5.60156457e-004
,,,-4.12600000e-007,5.96093960e-004
,,,-4.12400000e-007,6.42187713e-004
,,,-4.12200000e-007,7.14843968e-004
,,,-4.12000000e-007,7.82031473e-004
,,,-4.11800000e-007,8.03906475e-004
,,,-4.11600000e-007,6.43750213e-004
,,,-4.11400000e-007,5.88281459e-004
,,,-4.11200000e-007,5.50000207e-004
,,,-4.11000000e-007,6.21093962e-004
,,,-4.10800000e-007,6.89843966e-004
,,,-4.10600000e-007,7.45312720e-004
,,,-4.10400000e-007,7.75000222e-004
,,,-4.10200000e-007,7.42187720e-004
,,,-4.10000000e-007,6.33593962e-004
,,,-4.09800000e-007,6.45312713e-004
,,,-4.09600000e-007,6.28906462e-004
,,,-4.09400000e-007,6.78125216e-004
,,,-4.09200000e-007,7.30468969e-004
,,,-4.09000000e-007,7.26562719e-004
,,,-4.08800000e-007,6.93750217e-004
,,,-4.08600000e-007,6.49218964e-004
,,,-4.08400000e-007,5.39843956e-004
,,,-4.08200000e-007,5.78125209e-004
,,,-4.08000000e-007,6.31250212e-004
,,,-4.07800000e-007,6.53906464e-004
,,,-4.07600000e-007,7.10156468e-004
,,,-4.07400000e-007,6.98437717e-004
,,,-4.07200000e-007,7.67187722e-004
,,,-4.07000000e-007,6.44531463e-004
,,,-4.06800000e-007,5.77343959e-004
,,,-4.06600000e-007,5.79687709e-004
,,,-4.06400000e-007,6.60156464e-004
,,,-4.06200000e-007,6.80468966e-004
,,,-4.06000000e-007,6.89843966e-004
,,,-4.05800000e-007,6.57031464e-004
,,,-4.05600000e-007,6.85937716e-004
,,,-4.05400000e-007,6.79687716e-004
,,,-4.05200000e-007,6.46093963e-004
,,,-4.05000000e-007,7.02343967e-004
,,,-4.04800000e-007,7.10156468e-004
,,,-4.04600000e-007,7.58593971e-004
,,,-4.04400000e-007,6.31250212e-004
,,,-4.04200000e-007,5.85156459e-004
,,,-4.04000000e-007,6.36718963e-004
,,,-4.03800000e-007,6.30468962e-004
,,,-4.03600000e-007,6.57812714e-004
,,,-4.03400000e-007,7.04687718e-004
,,,-4.03200000e-007,7.57031471e-004
,,,-4.03000000e-007,8.35937727e-004
,,,-4.02800000e-007,6.60937714e-004
,,,-4.02600000e-007,6.15625211e-004
,,,-4.02400000e-007,5.91406459e-004
,,,-4.02200000e-007,5.30468955e-004
,,,-4.02000000e-007,5.54687707e-004
,,,-4.01800000e-007,6.27343962e-004
,,,-4.01600000e-007,7.49218971e-004
,,,-4.01400000e-007,8.18750226e-004
,,,-4.01200000e-007,7.07812718e-004
,,,-4.01000000e-007,6.06250211e-004
,,,-4.00800000e-007,6.14062711e-004
,,,-4.00600000e-007,4.96875203e-004
,,,-4.00400000e-007,5.29687705e-004
,,,-4.00200000e-007,6.03906460e-004
,,,-4.00000000e-007,7.20312719e-004
,,,-3.99800000e-007,7.70312722e-004
,,,-3.99600000e-007,6.72656465e-004
,,,-3.99400000e-007,6.57812714e-004
,,,-3.99200000e-007,6.82031466e-004
,,,-3.99000000e-007,5.25781455e-004
,,,-3.98800000e-007,5.36718956e-004
,,,-3.98600000e-007,6.24218962e-004
,,,-3.98400000e-007,6.78906466e-004
,,,-3.98200000e-007,7.10937718e-004
,,,-3.98000000e-007,7.16406468e-004
,,,-3.97800000e-007,7.38281470e-004
,,,-3.97600000e-007,6.65625215e-004
,,,-3.97400000e-007,5.48437706e-004
,,,-3.97200000e-007,5.63281458e-004
,,,-3.97000000e-007,6.68750215e-004
,,,-3.96800000e-007,7.05468968e-004
,,,-3.96600000e-007,7.12500218e-004
,,,-3.96400000e-007,6.78125216e-004
,,,-3.96200000e-007,6.87500216e-004
,,,-3.96000000e-007,6.89062716e-004
,,,-3.95800000e-007,5.65625208e-004
,,,-3.95600000e-007,6.53125214e-004
,,,-3.95400000e-007,7.85156473e-004
,,,-3.95200000e-007,8.03906475e-004
,,,-3.95000000e-007,7.04687718e-004
,,,-3.94800000e-007,5.86718959e-004
,,,-3.94600000e-007,6.25000212e-004
,,,-3.94400000e-007,5.69531458e-004
,,,-3.94200000e-007,5.71093958e-004
,,,-3.94000000e-007,5.98437710e-004
,,,-3.93800000e-007,7.57031471e-004
,,,-3.93600000e-007,8.73437729e-004
,,,-3.93400000e-007,7.63281472e-004
,,,-3.93200000e-007,6.07812711e-004
,,,-3.93000000e-007,5.79687709e-004
,,,-3.92800000e-007,5.43750206e-004
,,,-3.92600000e-007,4.80468952e-004
,,,-3.92400000e-007,5.23437705e-004
,,,-3.92200000e-007,6.47656463e-004
,,,-3.92000000e-007,7.50781471e-004
,,,-3.91800000e-007,7.64843972e-004
,,,-3.91600000e-007,7.39843970e-004
,,,-3.91400000e-007,6.97656467e-004
,,,-3.91200000e-007,6.09375211e-004
,,,-3.91000000e-007,5.24218955e-004
,,,-3.90800000e-007,5.33593955e-004
