Data/20220822/UCLA_to_R2B_HPOL_NEG20_001_Math2.csv

"Record Length",6250,"Points",0.00000000e+000,-6.62331543e+001
"Sample Interval",4.00000000e+005,Hz,4.00000000e+005,-7.25443802e+001
"Trigger Point",0,"Samples",8.00000000e+005,-7.53698044e+001
"Trigger Time",0.00000000e+000,Hz,1.20000000e+006,-7.74120026e+001
"",,,1.60000000e+006,-8.68274460e+001
"Horizontal Offset",0.00000000e+000,Hz,2.00000000e+006,-9.84365692e+001
,,,2.40000000e+006,-8.64917984e+001
,,,2.80000000e+006,-8.68838196e+001
,,,3.20000000e+006,-8.57664719e+001
,,,3.60000000e+006,-9.34780426e+001
,,,4.00000000e+006,-1.00676422e+002
,,,4.40000000e+006,-9.09352036e+001
,,,4.80000000e+006,-9.18354111e+001
,,,5.20000000e+006,-8.82454376e+001
,,,5.60000000e+006,-9.78190155e+001
,,,6.00000000e+006,-1.00964928e+002
,,,6.40000000e+006,-9.36398544e+001
,,,6.80000000e+006,-9.38133240e+001
,,,7.20000000e+006,-9.20828934e+001
,,,7.60000000e+006,-9.60273514e+001
,,,8.00000000e+006,-1.04348389e+002
,,,8.40000000e+006,-9.87711639e+001
,,,8.80000000e+006,-9.27950363e+001
,,,9.20000000e+006,-9.63914566e+001
,,,9.60000000e+006,-9.58792496e+001
,,,1.00000000e+007,-9.84920425e+001
,,,1.04000000e+007,-1.00588623e+002
,,,1.08000000e+007,-9.32824860e+001
,,,1.12000000e+007,-9.94797745e+001
,,,1.16000000e+007,-9.50898361e+001
,,,1.20000000e+007,-9.96063919e+001
,,,1.24000000e+007,-1.02696411e+002
,,,1.28000000e+007,-9.51320877e+001
,,,1.32000000e+007,-1.05346024e+002
,,,1.36000000e+007,-9.52788620e+001
,,,1.40000000e+007,-1.00369003e+002
,,,1.44000000e+007,-1.08538109e+002
,,,1.48000000e+007,-9.44694061e+001
,,,1.52000000e+007,-1.18922409e+002
,,,1.56000000e+007,-9.49316788e+001
,,,1.60000000e+007,-9.94105606e+001
,,,1.64000000e+007,-1.06692375e+002
,,,1.68000000e+007,-9.48316956e+001
,,,1.72000000e+007,-1.11309189e+002
,,,1.76000000e+007,-9.40790024e+001
,,,1.80000000e+007,-9.92020950e+001
,,,1.84000000e+007,-1.10611725e+002
,,,1.88000000e+007,-9.54869080e+001
,,,1.92000000e+007,-1.02302429e+002
,,,1.96000000e+007,-9.69463806e+001
,,,2.00000000e+007,-9.89921951e+001
,,,2.04000000e+007,-1.02028442e+002
,,,2.08000000e+007,-9.67964325e+001
,,,2.12000000e+007,-1.03999428e+002
,,,2.16000000e+007,-9.75224228e+001
,,,2.20000000e+007,-9.96083527e+001
,,,2.24000000e+007,-1.02765953e+002
,,,2.28000000e+007,-9.80712738e+001
,,,2.32000000e+007,-9.90438766e+001
,,,2.36000000e+007,-9.81267242e+001
,,,2.40000000e+007,-1.00664131e+002
,,,2.44000000e+007,-9.99132843e+001
,,,2.48000000e+007,-9.84971008e+001
,,,2.52000000e+007,-9.80505219e+001
,,,2.56000000e+007,-1.00160667e+002
,,,2.60000000e+007,-9.98979874e+001
,,,2.64000000e+007,-9.90227814e+001
,,,2.68000000e+007,-1.01465538e+002
,,,2.72000000e+007,-9.69685974e+001
,,,2.76000000e+007,-9.95223618e+001
,,,2.80000000e+007,-1.00638969e+002
,,,2.84000000e+007,-9.94656754e+001
,,,2.88000000e+007,-1.03088249e+002
,,,2.92000000e+007,-9.76935425e+001
,,,2.96000000e+007,-1.02722412e+002
,,,3.00000000e+007,-1.00390366e+002
,,,3.04000000e+007,-9.76017075e+001
,,,3.08000000e+007,-1.05154549e+002
,,,3.12000000e+007,-9.74023438e+001
,,,3.16000000e+007,-1.02425484e+002
,,,3.20000000e+007,-9.96897049e+001
,,,3.24000000e+007,-9.79878998e+001
,,,3.28000000e+007,-1.05958160e+002
,,,3.32000000e+007,-9.72668686e+001
,,,3.36000000e+007,-1.03014877e+002
,,,3.40000000e+007,-1.00527115e+002
,,,3.44000000e+007,-9.87679977e+001
,,,3.48000000e+007,-1.03922249e+002
,,,3.52000000e+007,-9.68710327e+001
,,,3.56000000e+007,-1.03879745e+002
,,,3.60000000e+007,-1.00073532e+002
,,,3.64000000e+007,-9.80030365e+001
,,,3.68000000e+007,-1.03317055e+002
,,,3.72000000e+007,-9.84931335e+001
,,,3.76000000e+007,-1.03679482e+002
,,,3.80000000e+007,-9.97375870e+001
,,,3.84000000e+007,-9.88433990e+001
,,,3.88000000e+007,-1.02971115e+002
,,,3.92000000e+007,-9.89754562e+001
,,,3.96000000e+007,-1.01915970e+002
,,,4.00000000e+007,-1.00348404e+002
,,,4.04000000e+007,-9.90927734e+001
,,,4.08000000e+007,-1.00939796e+002
,,,4.12000000e+007,-1.00359451e+002
,,,4.16000000e+007,-1.01500618e+002
,,,4.20000000e+007,-1.02050903e+002
,,,4.24000000e+007,-1.00779076e+002
,,,4.28000000e+007,-9.94001160e+001
,,,4.32000000e+007,-1.00846306e+002
,,,4.36000000e+007,-9.99634933e+001
,,,4.40000000e+007,-1.01596962e+002
,,,4.44000000e+007,-1.01842209e+002
,,,4.48000000e+007,-9.88614731e+001
,,,4.52000000e+007,-1.03150208e+002
,,,4.56000000e+007,-9.95890198e+001
,,,4.60000000e+007,-1.01366096e+002
,,,4.64000000e+007,-1.04103500e+002
,,,4.68000000e+007,-9.87192001e+001
,,,4.72000000e+007,-1.05036781e+002
,,,4.76000000e+007,-9.97187805e+001
,,,4.80000000e+007,-1.00293678e+002
,,,4.84000000e+007,-1.03175812e+002
,,,4.88000000e+007,-9.76440582e+001
,,,4.92000000e+007,-1.02467224e+002
,,,4.96000000e+007,-9.93638992e+001
,,,5.00000000e+007,-9.99518967e+001
,,,5.04000000e+007,-1.02798645e+002
,,,5.08000000e+007,-9.89272308e+001
,,,5.12000000e+007,-1.02489792e+002
,,,5.16000000e+007,-9.85115280e+001
,,,5.20000000e+007,-1.00891434e+002
,,,5.24000000e+007,-1.04562149e+002
,,,5.28000000e+007,-9.97079163e+001
,,,5.32000000e+007,-1.02277855e+002
,,,5.36000000e+007,-9.86772614e+001
,,,5.40000000e+007,-1.00717422e+002
,,,5.44000000e+007,-1.02195747e+002
,,,5.48000000e+007,-9.93816299e+001
,,,5.52000000e+007,-1.01395302e+002
,,,5.56000000e+007,-9.91077271e+001
,,,5.60000000e+007,-1.00916023e+002
,,,5.64000000e+007,-1.01869408e+002
,,,5.68000000e+007,-9.96844864e+001
,,,5.72000000e+007,-1.00366302e+002
,,,5.76000000e+007,-1.00605545e+002
,,,5.80000000e+007,-1.02636803e+002
,,,5.84000000e+007,-1.01955276e+002
,,,5.88000000e+007,-1.00617638e+002
,,,5.92000000e+007,-1.00540794e+002
,,,5.96000000e+007,-1.01370567e+002
,,,6.00000000e+007,-1.00819656e+002
,,,6.04000000e+007,-1.00457924e+002
,,,6.08000000e+007,-1.02081879e+002
,,,6.12000000e+007,-9.98017578e+001
,,,6.16000000e+007,-1.01951355e+002
,,,6.20000000e+007,-1.03272156e+002
,,,6.24000000e+007,-1.01118431e+002
,,,6.28000000e+007,-1.02669861e+002
,,,6.32000000e+007,-9.96159515e+001
,,,6.36000000e+007,-1.00744659e+002
,,,6.40000000e+007,-9.97606583e+001
,,,6.44000000e+007,-1.00562172e+002
,,,6.48000000e+007,-1.03020683e+002
,,,6.52000000e+007,-9.89703369e+001
,,,6.56000000e+007,-1.04360680e+002
,,,6.60000000e+007,-1.01810974e+002
,,,6.64000000e+007,-9.94785538e+001
,,,6.68000000e+007,-1.02730247e+002
,,,6.72000000e+007,-9.86920166e+001
,,,6.76000000e+007,-1.02631279e+002
,,,6.80000000e+007,-1.02068108e+002
,,,6.84000000e+007,-1.01168709e+002
,,,6.88000000e+007,-1.03762360e+002
,,,6.92000000e+007,-9.86251068e+001
,,,6.96000000e+007,-1.03337578e+002
,,,7.00000000e+007,-1.01596283e+002
,,,7.04000000e+007,-1.00062958e+002
,,,7.08000000e+007,-1.04769142e+002
,,,7.12000000e+007,-1.00712524e+002
,,,7.16000000e+007,-1.01753441e+002
,,,7.20000000e+007,-1.01049286e+002
,,,7.24000000e+007,-1.00418007e+002
,,,7.28000000e+007,-1.02950829e+002
,,,7.32000000e+007,-1.01667633e+002
,,,7.36000000e+007,-1.02650787e+002
,,,7.40000000e+007,-9.97955170e+001
,,,7.44000000e+007,-1.00535484e+002
,,,7.48000000e+007,-1.03279503e+002
,,,7.52000000e+007,-1.03165604e+002
,,,7.56000000e+007,-1.01546852e+002
,,,7.60000000e+007,-9.90002213e+001
,,,7.64000000e+007,-1.00360878e+002
,,,7.68000000e+007,-1.01612381e+002
,,,7.72000000e+007,-1.00584709e+002
,,,7.76000000e+007,-1.01462471e+002
,,,7.80000000e+007,-1.01230057e+002
,,,7.84000000e+007,-1.00400398e+002
,,,7.88000000e+007,-1.01857643e+002
,,,7.92000000e+007,-1.03212051e+002
,,,7.96000000e+007,-1.00917503e+002
,,,8.00000000e+007,-1.03141426e+002
,,,8.04000000e+007,-1.02068146e+002
,,,8.08000000e+007,-9.98758240e+001
,,,8.12000000e+007,-1.02738419e+002
,,,8.16000000e+007,-1.00029694e+002
,,,8.20000000e+007,-1.01961983e+002
,,,8.24000000e+007,-1.02084686e+002
,,,8.28000000e+007,-1.00263557e+002
,,,8.32000000e+007,-1.04536690e+002
,,,8.36000000e+007,-1.00528061e+002
,,,8.40000000e+007,-1.02182861e+002
,,,8.44000000e+007,-1.01605949e+002
,,,8.48000000e+007,-9.92727280e+001
,,,8.52000000e+007,-1.03034676e+002
,,,8.56000000e+007,-9.97697144e+001
,,,8.60000000e+007,-1.02016312e+002
,,,8.64000000e+007,-1.02473557e+002
,,,8.68000000e+007,-9.90451660e+001
,,,8.72000000e+007,-1.00819351e+002
,,,8.76000000e+007,-1.00110680e+002
,,,8.80000000e+007,-1.03798859e+002
,,,8.84000000e+007,-1.03056679e+002
,,,8.88000000e+007,-1.02290878e+002
,,,8.92000000e+007,-1.07979332e+002
,,,8.96000000e+007,-1.01294144e+002
,,,9.00000000e+007,-1.01973808e+002
,,,9.04000000e+007,-1.01677795e+002
,,,9.08000000e+007,-1.00580856e+002
,,,9.12000000e+007,-1.04303558e+002
,,,9.16000000e+007,-1.02225372e+002
,,,9.20000000e+007,-1.01595512e+002
,,,9.24000000e+007,-1.02197563e+002
,,,9.28000000e+007,-1.00350861e+002
,,,9.32000000e+007,-9.93114243e+001
,,,9.36000000e+007,-1.03190086e+002
,,,9.40000000e+007,-1.05120110e+002
,,,9.44000000e+007,-1.01974747e+002
,,,9.48000000e+007,-1.02825287e+002
,,,9.52000000e+007,-1.00114716e+002
,,,9.56000000e+007,-1.02332253e+002
,,,9.60000000e+007,-1.02358498e+002
,,,9.64000000e+007,-1.00261299e+002
,,,9.68000000e+007,-1.02191223e+002
,,,9.72000000e+007,-1.00456802e+002
,,,9.76000000e+007,-1.03785110e+002
,,,9.80000000e+007,-1.00970749e+002
,,,9.84000000e+007,-1.00155579e+002
,,,9.88000000e+007,-1.04691055e+002
,,,9.92000000e+007,-9.93801804e+001
,,,9.96000000e+007,-1.04996460e+002
,,,1.00000000e+008,-1.05438919e+002
,,,1.00400000e+008,-9.94707565e+001
,,,1.00800000e+008,-1.05522766e+002
,,,1.01200000e+008,-1.02108978e+002
,,,1.01600000e+008,-1.04320450e+002
,,,1.02000000e+008,-1.01565414e+002
,,,1.02400000e+008,-1.00229782e+002
,,,1.02800000e+008,-1.03638092e+002
,,,1.03200000e+008,-9.99010315e+001
,,,1.03600000e+008,-1.02258163e+002
,,,1.04000000e+008,-1.00507324e+002
,,,1.04400000e+008,-9.95088196e+001
,,,1.04800000e+008,-1.01212997e+002
,,,1.05200000e+008,-9.81707535e+001
,,,1.05600000e+008,-1.04140518e+002
,,,1.06000000e+008,-1.04156639e+002
,,,1.06400000e+008,-1.00520233e+002
,,,1.06800000e+008,-1.03998108e+002
,,,1.07200000e+008,-9.82997284e+001
,,,1.07600000e+008,-9.92499542e+001
,,,1.08000000e+008,-1.03862106e+002
,,,1.08400000e+008,-1.01763229e+002
,,,1.08800000e+008,-1.04288414e+002
,,,1.09200000e+008,-1.03970207e+002
,,,1.09600000e+008,-1.00043381e+002
,,,1.10000000e+008,-1.00235374e+002
,,,1.10400000e+008,-1.02350563e+002
,,,1.10800000e+008,-1.02754509e+002
,,,1.11200000e+008,-1.03342545e+002
,,,1.11600000e+008,-1.03015778e+002
,,,1.12000000e+008,-1.03657112e+002
,,,1.12400000e+008,-1.04675491e+002
,,,1.12800000e+008,-1.02572319e+002
,,,1.13200000e+008,-1.02684593e+002
,,,1.13600000e+008,-1.00657097e+002
,,,1.14000000e+008,-1.00535141e+002
,,,1.14400000e+008,-1.02745140e+002
,,,1.14800000e+008,-9.97704086e+001
,,,1.15200000e+008,-1.03422195e+002
,,,1.15600000e+008,-1.02840370e+002
,,,1.16000000e+008,-1.01093277e+002
,,,1.16400000e+008,-1.03261681e+002
,,,1.16800000e+008,-1.01855057e+002
,,,1.17200000e+008,-1.01662247e+002
,,,1.17600000e+008,-1.00407417e+002
,,,1.18000000e+008,-1.01276840e+002
,,,1.18400000e+008,-1.02115868e+002
,,,1.18800000e+008,-1.01192062e+002
,,,1.19200000e+008,-1.04061188e+002
,,,1.19600000e+008,-1.00273247e+002
,,,1.20000000e+008,-1.00824974e+002
,,,1.20400000e+008,-1.05423027e+002
,,,1.20800000e+008,-1.02083290e+002
,,,1.21200000e+008,-1.01722351e+002
,,,1.21600000e+008,-1.00988892e+002
,,,1.22000000e+008,-1.02770218e+002
,,,1.22400000e+008,-1.02942413e+002
,,,1.22800000e+008,-9.85110245e+001
,,,1.23200000e+008,-1.00410149e+002
,,,1.23600000e+008,-1.06069054e+002
,,,1.24000000e+008,-1.06634644e+002
,,,1.24400000e+008,-1.02631348e+002
,,,1.24800000e+008,-1.02050591e+002
,,,1.25200000e+008,-1.02611977e+002
,,,1.25600000e+008,-1.01505363e+002
,,,1.26000000e+008,-1.03740837e+002
,,,1.26400000e+008,-1.04422379e+002
,,,1.26800000e+008,-1.03202553e+002
,,,1.27200000e+008,-1.03461777e+002
,,,1.27600000e+008,-1.03020073e+002
,,,1.28000000e+008,-1.02740509e+002
,,,1.28400000e+008,-1.04827271e+002
,,,1.28800000e+008,-1.04942215e+002
,,,1.29200000e+008,-1.04103798e+002
,,,1.29600000e+008,-1.06750618e+002
,,,1.30000000e+008,-1.05144585e+002
,,,1.30400000e+008,-1.04432137e+002
,,,1.30800000e+008,-1.01544662e+002
,,,1.31200000e+008,-9.98159180e+001
,,,1.31600000e+008,-1.01848488e+002
,,,1.32000000e+008,-1.01788925e+002
,,,1.32400000e+008,-1.01898827e+002
,,,1.32800000e+008,-1.04013512e+002
,,,1.33200000e+008,-1.01208954e+002
,,,1.33600000e+008,-1.03954941e+002
,,,1.34000000e+008,-1.03139412e+002
,,,1.34400000e+008,-1.01158150e+002
,,,1.34800000e+008,-1.03450386e+002
,,,1.35200000e+008,-1.01321594e+002
,,,1.35600000e+008,-1.02915283e+002
,,,1.36000000e+008,-1.01478661e+002
,,,1.36400000e+008,-1.01797615e+002
,,,1.36800000e+008,-1.03961258e+002
,,,1.37200000e+008,-1.01084694e+002
,,,1.37600000e+008,-1.04943443e+002
,,,1.38000000e+008,-1.04500931e+002
,,,1.38400000e+008,-1.02464081e+002
,,,1.38800000e+008,-1.03033325e+002
,,,1.39200000e+008,-1.00772202e+002
,,,1.39600000e+008,-1.06053772e+002
,,,1.40000000e+008,-1.05108330e+002
,,,1.40400000e+008,-1.02356071e+002
,,,1.40800000e+008,-1.04552681e+002
,,,1.41200000e+008,-1.02403770e+002
,,,1.41600000e+008,-1.02435814e+002
,,,1.42000000e+008,-1.05256134e+002
,,,1.42400000e+008,-1.07572868e+002
,,,1.42800000e+008,-1.06923958e+002
,,,1.43200000e+008,-1.04725006e+002
,,,1.43600000e+008,-1.04567032e+002
,,,1.44000000e+008,-1.06438248e+002
,,,1.44400000e+008,-1.05952492e+002
,,,1.44800000e+008,-1.05083908e+002
,,,1.45200000e+008,-1.04581184e+002
,,,1.45600000e+008,-1.02853859e+002
,,,1.46000000e+008,-1.02953621e+002
,,,1.46400000e+008,-1.04098663e+002
,,,1.46800000e+008,-1.02209053e+002
,,,1.47200000e+008,-1.03266113e+002
,,,1.47600000e+008,-1.02408546e+002
,,,1.48000000e+008,-1.02928902e+002
,,,1.48400000e+008,-1.06162666e+002
,,,1.48800000e+008,-1.04119041e+002
,,,1.49200000e+008,-1.15434082e+002
,,,1.49600000e+008,-1.18319794e+002
,,,1.50000000e+008,-1.08136665e+002
,,,1.50400000e+008,-1.05235992e+002
,,,1.50800000e+008,-1.03793022e+002
,,,1.51200000e+008,-1.04735596e+002
,,,1.51600000e+008,-1.03381851e+002
,,,1.52000000e+008,-1.03492516e+002
,,,1.52400000e+008,-1.04307571e+002
,,,1.52800000e+008,-1.03734436e+002
,,,1.53200000e+008,-1.07283318e+002
,,,1.53600000e+008,-1.03100349e+002
,,,1.54000000e+008,-1.02730850e+002
,,,1.54400000e+008,-1.04988388e+002
,,,1.54800000e+008,-1.01941628e+002
,,,1.55200000e+008,-1.02183289e+002
,,,1.55600000e+008,-1.01731613e+002
,,,1.56000000e+008,-1.03889557e+002
,,,1.56400000e+008,-1.04644135e+002
,,,1.56800000e+008,-1.03454033e+002
,,,1.57200000e+008,-1.09345207e+002
,,,1.57600000e+008,-1.06804733e+002
,,,1.58000000e+008,-1.04376793e+002
,,,1.58400000e+008,-1.07208168e+002
,,,1.58800000e+008,-1.04799561e+002
,,,1.59200000e+008,-1.04950645e+002
,,,1.59600000e+008,-1.04767807e+002
,,,1.60000000e+008,-1.04725273e+002
,,,1.60400000e+008,-1.04390152e+002
,,,1.60800000e+008,-1.04580597e+002
,,,1.61200000e+008,-1.05584229e+002
,,,1.61600000e+008,-1.05010208e+002
,,,1.62000000e+008,-1.05007729e+002
,,,1.62400000e+008,-1.05952171e+002
,,,1.62800000e+008,-1.08836998e+002
,,,1.63200000e+008,-1.09320930e+002
,,,1.63600000e+008,-1.06104927e+002
,,,1.64000000e+008,-1.08212692e+002
,,,1.64400000e+008,-1.08200577e+002
,,,1.64800000e+008,-1.06743332e+002
,,,1.65200000e+008,-1.08885483e+002
,,,1.65600000e+008,-1.01096001e+002
,,,1.66000000e+008,-9.69011841e+001
,,,1.66400000e+008,-9.44618835e+001
,,,1.66800000e+008,-9.30898819e+001
,,,1.67200000e+008,-9.28540421e+001
,,,1.67600000e+008,-9.34264603e+001
,,,1.68000000e+008,-9.33292999e+001
,,,1.68400000e+008,-9.34778137e+001
,,,1.68800000e+008,-9.38159866e+001
,,,1.69200000e+008,-9.28657761e+001
,,,1.69600000e+008,-9.37867737e+001
,,,1.70000000e+008,-9.44602890e+001
,,,1.70400000e+008,-9.58733521e+001
,,,1.70800000e+008,-9.62228851e+001
,,,1.71200000e+008,-9.57341995e+001
,,,1.71600000e+008,-9.87079544e+001
,,,1.72000000e+008,-9.85008011e+001
,,,1.72400000e+008,-1.00004700e+002
,,,1.72800000e+008,-1.01116516e+002
,,,1.73200000e+008,-9.87854767e+001
,,,1.73600000e+008,-1.01406853e+002
,,,1.74000000e+008,-9.97850266e+001
,,,1.74400000e+008,-1.00524651e+002
,,,1.74800000e+008,-1.07618721e+002
,,,1.75200000e+008,-1.05234528e+002
,,,1.75600000e+008,-1.00596390e+002
,,,1.76000000e+008,-9.99666901e+001
,,,1.76400000e+008,-1.03467369e+002
,,,1.76800000e+008,-1.06738426e+002
,,,1.77200000e+008,-9.94361115e+001
,,,1.77600000e+008,-1.00375633e+002
,,,1.78000000e+008,-1.02797287e+002
,,,1.78400000e+008,-1.01594986e+002
,,,1.78800000e+008,-1.01152336e+002
,,,1.79200000e+008,-9.60301666e+001
,,,1.79600000e+008,-9.83112717e+001
,,,1.80000000e+008,-1.01381546e+002
,,,1.80400000e+008,-9.87291718e+001
,,,1.80800000e+008,-9.97500153e+001
,,,1.81200000e+008,-9.93641281e+001
,,,1.81600000e+008,-1.00254845e+002
,,,1.82000000e+008,-1.04082466e+002
,,,1.82400000e+008,-1.02004539e+002
,,,1.82800000e+008,-1.00124214e+002
,,,1.83200000e+008,-9.74255524e+001
,,,1.83600000e+008,-9.59134293e+001
,,,1.84000000e+008,-9.55234985e+001
,,,1.84400000e+008,-9.47454147e+001
,,,1.84800000e+008,-9.34947891e+001
,,,1.85200000e+008,-9.32964401e+001
,,,1.85600000e+008,-9.34093857e+001
,,,1.86000000e+008,-9.38950577e+001
,,,1.86400000e+008,-9.55769882e+001
,,,1.86800000e+008,-9.74583893e+001
,,,1.87200000e+008,-9.96404648e+001
,,,1.87600000e+008,-9.75204544e+001
,,,1.88000000e+008,-9.61368942e+001
,,,1.88400000e+008,-9.58694534e+001
,,,1.88800000e+008,-9.62228394e+001
,,,1.89200000e+008,-9.80946655e+001
,,,1.89600000e+008,-9.79584732e+001
,,,1.90000000e+008,-9.84521561e+001
,,,1.90400000e+008,-9.78629608e+001
,,,1.90800000e+008,-9.66994476e+001
,,,1.91200000e+008,-9.79938507e+001
,,,1.91600000e+008,-9.66027145e+001
,,,1.92000000e+008,-9.67930984e+001
,,,1.92400000e+008,-9.79462051e+001
,,,1.92800000e+008,-9.67363968e+001
,,,1.93200000e+008,-9.65445709e+001
,,,1.93600000e+008,-9.46877670e+001
,,,1.94000000e+008,-9.35257339e+001
,,,1.94400000e+008,-9.36779327e+001
,,,1.94800000e+008,-9.45112534e+001
,,,1.95200000e+008,-9.57770233e+001
,,,1.95600000e+008,-9.41240463e+001
,,,1.96000000e+008,-9.25349731e+001
,,,1.96400000e+008,-9.17937927e+001
,,,1.96800000e+008,-9.13596191e+001
,,,1.97200000e+008,-9.19380112e+001
,,,1.97600000e+008,-9.40371246e+001
,,,1.98000000e+008,-9.56138077e+001
,,,1.98400000e+008,-9.60216522e+001
,,,1.98800000e+008,-9.65949402e+001
,,,1.99200000e+008,-9.49358902e+001
,,,1.99600000e+008,-9.20330658e+001
,,,2.00000000e+008,-9.05196915e+001
,,,2.00400000e+008,-9.08603058e+001
,,,2.00800000e+008,-9.05432129e+001
,,,2.01200000e+008,-9.03632965e+001
,,,2.01600000e+008,-9.11222687e+001
,,,2.02000000e+008,-9.03835831e+001
,,,2.02400000e+008,-9.06903610e+001
,,,2.02800000e+008,-9.17614288e+001
,,,2.03200000e+008,-9.14444885e+001
,,,2.03600000e+008,-9.22723312e+001
,,,2.04000000e+008,-9.26426468e+001
,,,2.04400000e+008,-9.31996765e+001
,,,2.04800000e+008,-9.50983582e+001
,,,2.05200000e+008,-9.43603516e+001
,,,2.05600000e+008,-9.35926819e+001
,,,2.06000000e+008,-9.38009262e+001
,,,2.06400000e+008,-9.34125137e+001
,,,2.06800000e+008,-9.14439392e+001
,,,2.07200000e+008,-9.04988174e+001
,,,2.07600000e+008,-9.16720428e+001
,,,2.08000000e+008,-9.17216263e+001
,,,2.08400000e+008,-9.19341888e+001
,,,2.08800000e+008,-9.22759094e+001
,,,2.09200000e+008,-9.21886139e+001
,,,2.09600000e+008,-9.19386749e+001
,,,2.10000000e+008,-9.11531601e+001
,,,2.10400000e+008,-9.11862640e+001
,,,2.10800000e+008,-8.99993210e+001
,,,2.11200000e+008,-8.92079391e+001
,,,2.11600000e+008,-8.99066544e+001
,,,2.12000000e+008,-9.11528397e+001
,,,2.12400000e+008,-9.40771103e+001
,,,2.12800000e+008,-9.46429749e+001
,,,2.13200000e+008,-9.31344223e+001
,,,2.13600000e+008,-9.22281418e+001
,,,2.14000000e+008,-9.16003189e+001
,,,2.14400000e+008,-9.13655319e+001
,,,2.14800000e+008,-9.10894699e+001
,,,2.15200000e+008,-9.24055099e+001
,,,2.15600000e+008,-9.36457291e+001
,,,2.16000000e+008,-9.43447037e+001
,,,2.16400000e+008,-9.40837860e+001
,,,2.16800000e+008,-9.32289505e+001
,,,2.17200000e+008,-9.32771225e+001
,,,2.17600000e+008,-9.26763229e+001
,,,2.18000000e+008,-9.33182068e+001
,,,2.18400000e+008,-9.50253906e+001
,,,2.18800000e+008,-9.68686752e+001
,,,2.19200000e+008,-1.01211975e+002
,,,2.19600000e+008,-1.02560783e+002
,,,2.20000000e+008,-1.02289986e+002
