Data/20220822/UCLA_to_T1B_VPOL_70_001_Ch2.csv

"Record Length",10000,"Points",-5.00800000e-007,4.57030304e-004
"Sample Interval",2.00000000e-010,s,-5.00600000e-007,5.89842814e-004
"Trigger Point",2504,"Samples",-5.00400000e-007,6.47655318e-004
"Trigger Time",0.00000000e+000,s,-5.00200000e-007,7.20311573e-004
"",,,-5.00000000e-007,6.50780318e-004
"Horizontal Offset",-5.00800000e-007,s,-4.99800000e-007,6.31249067e-004
,,,-4.99600000e-007,6.57030319e-004
,,,-4.99400000e-007,6.40624067e-004
,,,-4.99200000e-007,5.86717814e-004
,,,-4.99000000e-007,5.71092813e-004
,,,-4.98800000e-007,5.31249060e-004
,,,-4.98600000e-007,6.31249067e-004
,,,-4.98400000e-007,6.80467820e-004
,,,-4.98200000e-007,7.35936574e-004
,,,-4.98000000e-007,7.67186576e-004
,,,-4.97800000e-007,6.99999072e-004
,,,-4.97600000e-007,6.49999068e-004
,,,-4.97400000e-007,6.57030319e-004
,,,-4.97200000e-007,6.92186571e-004
,,,-4.97000000e-007,6.18749066e-004
,,,-4.96800000e-007,4.81249056e-004
,,,-4.96600000e-007,5.53124061e-004
,,,-4.96400000e-007,6.44530318e-004
,,,-4.96200000e-007,7.74217827e-004
,,,-4.96000000e-007,8.75780334e-004
,,,-4.95800000e-007,7.73436577e-004
,,,-4.95600000e-007,5.96092814e-004
,,,-4.95400000e-007,4.92967807e-004
,,,-4.95200000e-007,4.64842805e-004
,,,-4.95000000e-007,5.85936564e-004
,,,-4.94800000e-007,5.50780311e-004
,,,-4.94600000e-007,6.63280319e-004
,,,-4.94400000e-007,7.10936572e-004
,,,-4.94200000e-007,7.70311577e-004
,,,-4.94000000e-007,7.74217827e-004
,,,-4.93800000e-007,6.28905317e-004
,,,-4.93600000e-007,4.55467804e-004
,,,-4.93400000e-007,4.60155305e-004
,,,-4.93200000e-007,5.57811562e-004
,,,-4.93000000e-007,6.79686570e-004
,,,-4.92800000e-007,6.77342820e-004
,,,-4.92600000e-007,6.74217820e-004
,,,-4.92400000e-007,6.71092820e-004
,,,-4.92200000e-007,5.96092814e-004
,,,-4.92000000e-007,6.13280316e-004
,,,-4.91800000e-007,6.24217816e-004
,,,-4.91600000e-007,5.99999065e-004
,,,-4.91400000e-007,6.02342815e-004
,,,-4.91200000e-007,5.78124063e-004
,,,-4.91000000e-007,7.03124072e-004
,,,-4.90800000e-007,7.17967823e-004
,,,-4.90600000e-007,6.87499071e-004
,,,-4.90400000e-007,6.68749069e-004
,,,-4.90200000e-007,6.18749066e-004
,,,-4.90000000e-007,6.07811565e-004
,,,-4.89800000e-007,6.89842821e-004
,,,-4.89600000e-007,7.01561572e-004
,,,-4.89400000e-007,6.94530321e-004
,,,-4.89200000e-007,5.95311564e-004
,,,-4.89000000e-007,5.92967814e-004
,,,-4.88800000e-007,6.22655316e-004
,,,-4.88600000e-007,7.05467822e-004
,,,-4.88400000e-007,6.93749071e-004
,,,-4.88200000e-007,6.30467817e-004
,,,-4.88000000e-007,6.15624066e-004
,,,-4.87800000e-007,5.81249063e-004
,,,-4.87600000e-007,5.49999061e-004
,,,-4.87400000e-007,5.64061562e-004
,,,-4.87200000e-007,4.89061557e-004
,,,-4.87000000e-007,5.12499058e-004
,,,-4.86800000e-007,6.16405316e-004
,,,-4.86600000e-007,6.88280321e-004
,,,-4.86400000e-007,7.65624076e-004
,,,-4.86200000e-007,6.77342820e-004
,,,-4.86000000e-007,4.62499055e-004
,,,-4.85800000e-007,4.39061553e-004
,,,-4.85600000e-007,4.54686554e-004
,,,-4.85400000e-007,6.27342817e-004
,,,-4.85200000e-007,6.92186571e-004
,,,-4.85000000e-007,6.89061571e-004
,,,-4.84800000e-007,7.38280324e-004
,,,-4.84600000e-007,7.21092823e-004
,,,-4.84400000e-007,6.60936569e-004
,,,-4.84200000e-007,5.76561563e-004
,,,-4.84000000e-007,4.61717805e-004
,,,-4.83800000e-007,4.68749055e-004
,,,-4.83600000e-007,5.85936564e-004
,,,-4.83400000e-007,6.98436572e-004
,,,-4.83200000e-007,7.87499078e-004
,,,-4.83000000e-007,7.23436573e-004
,,,-4.82800000e-007,6.43749068e-004
,,,-4.82600000e-007,5.74217813e-004
,,,-4.82400000e-007,4.78905306e-004
,,,-4.82200000e-007,5.17967809e-004
,,,-4.82000000e-007,5.57030312e-004
,,,-4.81800000e-007,6.36717817e-004
,,,-4.81600000e-007,7.27342824e-004
,,,-4.81400000e-007,7.32030324e-004
,,,-4.81200000e-007,7.91405328e-004
,,,-4.81000000e-007,8.07811579e-004
,,,-4.80800000e-007,6.78124070e-004
,,,-4.80600000e-007,4.96874057e-004
,,,-4.80400000e-007,4.55467804e-004
,,,-4.80200000e-007,5.92186564e-004
,,,-4.80000000e-007,6.90624071e-004
,,,-4.79800000e-007,7.04686572e-004
,,,-4.79600000e-007,7.05467822e-004
,,,-4.79400000e-007,6.99217822e-004
,,,-4.79200000e-007,7.13280323e-004
,,,-4.79000000e-007,6.76561570e-004
,,,-4.78800000e-007,5.53124061e-004
,,,-4.78600000e-007,4.94530307e-004
,,,-4.78400000e-007,4.64842805e-004
,,,-4.78200000e-007,5.24999059e-004
,,,-4.78000000e-007,6.60936569e-004
,,,-4.77800000e-007,7.32030324e-004
,,,-4.77600000e-007,7.71874077e-004
,,,-4.77400000e-007,6.84374071e-004
,,,-4.77200000e-007,6.07030315e-004
,,,-4.77000000e-007,6.00780315e-004
,,,-4.76800000e-007,6.20311566e-004
,,,-4.76600000e-007,5.36717810e-004
,,,-4.76400000e-007,5.15624059e-004
,,,-4.76200000e-007,5.69530312e-004
,,,-4.76000000e-007,6.75780320e-004
,,,-4.75800000e-007,8.03124079e-004
,,,-4.75600000e-007,8.44530332e-004
,,,-4.75400000e-007,7.14842823e-004
,,,-4.75200000e-007,6.06249065e-004
,,,-4.75000000e-007,5.60155312e-004
,,,-4.74800000e-007,5.56249061e-004
,,,-4.74600000e-007,6.21092816e-004
,,,-4.74400000e-007,6.11717815e-004
,,,-4.74200000e-007,6.35155317e-004
,,,-4.74000000e-007,6.71874070e-004
,,,-4.73800000e-007,7.01561572e-004
,,,-4.73600000e-007,7.96092828e-004
,,,-4.73400000e-007,7.11717822e-004
,,,-4.73200000e-007,6.64842819e-004
,,,-4.73000000e-007,5.64061562e-004
,,,-4.72800000e-007,4.97655307e-004
,,,-4.72600000e-007,5.56249061e-004
,,,-4.72400000e-007,5.67967812e-004
,,,-4.72200000e-007,5.46874061e-004
,,,-4.72000000e-007,6.39061567e-004
,,,-4.71800000e-007,7.04686572e-004
,,,-4.71600000e-007,7.78124077e-004
,,,-4.71400000e-007,8.26561581e-004
,,,-4.71200000e-007,6.76561570e-004
,,,-4.71000000e-007,5.22655309e-004
,,,-4.70800000e-007,3.52342797e-004
,,,-4.70600000e-007,3.53124047e-004
,,,-4.70400000e-007,5.03905308e-004
,,,-4.70200000e-007,6.33592817e-004
,,,-4.70000000e-007,8.03905329e-004
,,,-4.69800000e-007,8.26561581e-004
,,,-4.69600000e-007,8.27342831e-004
,,,-4.69400000e-007,7.41405325e-004
,,,-4.69200000e-007,5.44530311e-004
,,,-4.69000000e-007,4.44530304e-004
,,,-4.68800000e-007,3.26561545e-004
,,,-4.68600000e-007,4.24217802e-004
,,,-4.68400000e-007,6.63280319e-004
,,,-4.68200000e-007,8.59374083e-004
,,,-4.68000000e-007,1.03437410e-003
,,,-4.67800000e-007,9.03124086e-004
,,,-4.67600000e-007,7.07811572e-004
,,,-4.67400000e-007,5.78905313e-004
,,,-4.67200000e-007,4.46092804e-004
,,,-4.67000000e-007,4.20311552e-004
,,,-4.66800000e-007,4.39842803e-004
,,,-4.66600000e-007,5.14061558e-004
,,,-4.66400000e-007,7.60936576e-004
,,,-4.66200000e-007,9.82811592e-004
,,,-4.66000000e-007,9.79686591e-004
,,,-4.65800000e-007,8.03124079e-004
,,,-4.65600000e-007,5.97655314e-004
,,,-4.65400000e-007,4.15624052e-004
,,,-4.65200000e-007,3.38280296e-004
,,,-4.65000000e-007,4.38280303e-004
,,,-4.64800000e-007,6.38280317e-004
,,,-4.64600000e-007,7.40624075e-004
,,,-4.64400000e-007,8.10936580e-004
,,,-4.64200000e-007,8.39061582e-004
,,,-4.64000000e-007,7.63280326e-004
,,,-4.63800000e-007,7.20311573e-004
,,,-4.63600000e-007,5.08592808e-004
,,,-4.63400000e-007,3.73436549e-004
,,,-4.63200000e-007,3.97655300e-004
,,,-4.63000000e-007,5.14061558e-004
,,,-4.62800000e-007,6.68749069e-004
,,,-4.62600000e-007,6.78905320e-004
,,,-4.62400000e-007,7.42186575e-004
,,,-4.62200000e-007,7.35155324e-004
,,,-4.62000000e-007,7.27342824e-004
,,,-4.61800000e-007,6.57030319e-004
,,,-4.61600000e-007,5.35155310e-004
,,,-4.61400000e-007,4.80467806e-004
,,,-4.61200000e-007,4.19530302e-004
,,,-4.61000000e-007,4.32030303e-004
,,,-4.60800000e-007,6.60155319e-004
,,,-4.60600000e-007,8.09374079e-004
,,,-4.60400000e-007,7.91405328e-004
,,,-4.60200000e-007,7.00780322e-004
,,,-4.60000000e-007,6.23436566e-004
,,,-4.59800000e-007,5.17186559e-004
,,,-4.59600000e-007,5.18749059e-004
,,,-4.59400000e-007,5.53905311e-004
,,,-4.59200000e-007,5.74999063e-004
,,,-4.59000000e-007,5.15624059e-004
,,,-4.58800000e-007,6.39842817e-004
,,,-4.58600000e-007,7.11717822e-004
,,,-4.58400000e-007,7.34374074e-004
,,,-4.58200000e-007,6.92186571e-004
,,,-4.58000000e-007,5.73436563e-004
,,,-4.57800000e-007,6.46092818e-004
,,,-4.57600000e-007,6.59374069e-004
,,,-4.57400000e-007,6.16405316e-004
,,,-4.57200000e-007,5.67186562e-004
,,,-4.57000000e-007,5.08592808e-004
,,,-4.56800000e-007,6.36717817e-004
,,,-4.56600000e-007,7.08592822e-004
,,,-4.56400000e-007,8.05467829e-004
,,,-4.56200000e-007,8.35155331e-004
,,,-4.56000000e-007,7.86717828e-004
,,,-4.55800000e-007,6.35936567e-004
,,,-4.55600000e-007,4.41405303e-004
,,,-4.55400000e-007,4.64061555e-004
,,,-4.55200000e-007,5.88280314e-004
,,,-4.55000000e-007,5.78124063e-004
,,,-4.54800000e-007,6.26561566e-004
,,,-4.54600000e-007,6.95311571e-004
,,,-4.54400000e-007,7.75780327e-004
,,,-4.54200000e-007,7.71874077e-004
,,,-4.54000000e-007,6.20311566e-004
,,,-4.53800000e-007,4.14842801e-004
,,,-4.53600000e-007,3.74217799e-004
,,,-4.53400000e-007,3.93749050e-004
,,,-4.53200000e-007,5.45311561e-004
,,,-4.53000000e-007,6.68749069e-004
,,,-4.52800000e-007,7.60936576e-004
,,,-4.52600000e-007,7.94530328e-004
,,,-4.52400000e-007,6.93749071e-004
,,,-4.52200000e-007,6.23436566e-004
,,,-4.52000000e-007,5.21092809e-004
,,,-4.51800000e-007,4.24217802e-004
,,,-4.51600000e-007,4.56249054e-004
,,,-4.51400000e-007,5.37499060e-004
,,,-4.51200000e-007,7.70311577e-004
,,,-4.51000000e-007,9.60155340e-004
,,,-4.50800000e-007,8.45311582e-004
,,,-4.50600000e-007,6.28905317e-004
,,,-4.50400000e-007,4.13280301e-004
,,,-4.50200000e-007,4.07811551e-004
,,,-4.50000000e-007,5.33592810e-004
,,,-4.49800000e-007,5.94530314e-004
,,,-4.49600000e-007,7.42967825e-004
,,,-4.49400000e-007,6.87499071e-004
,,,-4.49200000e-007,7.20311573e-004
,,,-4.49000000e-007,6.79686570e-004
,,,-4.48800000e-007,5.65624062e-004
,,,-4.48600000e-007,5.08592808e-004
,,,-4.48400000e-007,5.10936558e-004
,,,-4.48200000e-007,5.47655311e-004
,,,-4.48000000e-007,6.86717821e-004
,,,-4.47800000e-007,7.57030326e-004
,,,-4.47600000e-007,7.49999075e-004
,,,-4.47400000e-007,6.74999070e-004
,,,-4.47200000e-007,6.23436566e-004
,,,-4.47000000e-007,6.08592815e-004
,,,-4.46800000e-007,6.21874066e-004
,,,-4.46600000e-007,6.73436570e-004
,,,-4.46400000e-007,6.64061569e-004
,,,-4.46200000e-007,6.42967818e-004
,,,-4.46000000e-007,6.49217818e-004
,,,-4.45800000e-007,6.25780316e-004
,,,-4.45600000e-007,7.38280324e-004
,,,-4.45400000e-007,6.68749069e-004
,,,-4.45200000e-007,5.42186560e-004
,,,-4.45000000e-007,5.03124058e-004
,,,-4.44800000e-007,5.32030310e-004
,,,-4.44600000e-007,6.46092818e-004
,,,-4.44400000e-007,6.70311570e-004
,,,-4.44200000e-007,6.57811569e-004
,,,-4.44000000e-007,5.96874064e-004
,,,-4.43800000e-007,6.14061566e-004
,,,-4.43600000e-007,5.96092814e-004
,,,-4.43400000e-007,6.53124068e-004
,,,-4.43200000e-007,6.57811569e-004
,,,-4.43000000e-007,5.76561563e-004
,,,-4.42800000e-007,5.30467810e-004
,,,-4.42600000e-007,5.00780308e-004
,,,-4.42400000e-007,6.32811567e-004
,,,-4.42200000e-007,6.66405319e-004
,,,-4.42000000e-007,6.74999070e-004
,,,-4.41800000e-007,6.37499067e-004
,,,-4.41600000e-007,6.72655320e-004
,,,-4.41400000e-007,7.54686576e-004
,,,-4.41200000e-007,6.18749066e-004
,,,-4.41000000e-007,4.77342806e-004
,,,-4.40800000e-007,4.32811553e-004
,,,-4.40600000e-007,5.07811558e-004
,,,-4.40400000e-007,7.10155322e-004
,,,-4.40200000e-007,8.14842830e-004
,,,-4.40000000e-007,7.71092827e-004
,,,-4.39800000e-007,6.89061571e-004
,,,-4.39600000e-007,5.87499064e-004
,,,-4.39400000e-007,5.57030312e-004
,,,-4.39200000e-007,6.03124065e-004
,,,-4.39000000e-007,5.96092814e-004
,,,-4.38800000e-007,6.03905315e-004
,,,-4.38600000e-007,6.21092816e-004
,,,-4.38400000e-007,6.85155321e-004
,,,-4.38200000e-007,7.18749073e-004
,,,-4.38000000e-007,6.67186569e-004
,,,-4.37800000e-007,6.74217820e-004
,,,-4.37600000e-007,6.52342818e-004
,,,-4.37400000e-007,6.88280321e-004
,,,-4.37200000e-007,6.39061567e-004
,,,-4.37000000e-007,5.60155312e-004
,,,-4.36800000e-007,5.70311562e-004
,,,-4.36600000e-007,4.96092807e-004
,,,-4.36400000e-007,5.04686558e-004
,,,-4.36200000e-007,6.74999070e-004
,,,-4.36000000e-007,8.15624080e-004
,,,-4.35800000e-007,9.22655337e-004
,,,-4.35600000e-007,7.44530325e-004
,,,-4.35400000e-007,5.39061560e-004
,,,-4.35200000e-007,4.21874052e-004
,,,-4.35000000e-007,4.10155301e-004
,,,-4.34800000e-007,5.55467811e-004
,,,-4.34600000e-007,6.14061566e-004
,,,-4.34400000e-007,7.41405325e-004
,,,-4.34200000e-007,8.39842832e-004
,,,-4.34000000e-007,8.99217836e-004
,,,-4.33800000e-007,8.11717830e-004
,,,-4.33600000e-007,5.78905313e-004
,,,-4.33400000e-007,3.65624048e-004
,,,-4.33200000e-007,3.54686547e-004
,,,-4.33000000e-007,4.61717805e-004
,,,-4.32800000e-007,6.29686567e-004
,,,-4.32600000e-007,8.00780329e-004
,,,-4.32400000e-007,8.82030335e-004
,,,-4.32200000e-007,8.65624083e-004
,,,-4.32000000e-007,6.63280319e-004
,,,-4.31800000e-007,5.48436561e-004
,,,-4.31600000e-007,4.73436556e-004
,,,-4.31400000e-007,4.29686553e-004
,,,-4.31200000e-007,5.21874059e-004
,,,-4.31000000e-007,5.82030313e-004
,,,-4.30800000e-007,7.24999073e-004
,,,-4.30600000e-007,9.20311587e-004
,,,-4.30400000e-007,7.79686577e-004
,,,-4.30200000e-007,5.82811563e-004
,,,-4.30000000e-007,3.99999050e-004
,,,-4.29800000e-007,4.75780306e-004
,,,-4.29600000e-007,6.21874066e-004
,,,-4.29400000e-007,6.82811570e-004
,,,-4.29200000e-007,7.42967825e-004
,,,-4.29000000e-007,6.60936569e-004
,,,-4.28800000e-007,5.43749061e-004
,,,-4.28600000e-007,5.71874063e-004
,,,-4.28400000e-007,5.83592813e-004
,,,-4.28200000e-007,6.91405321e-004
,,,-4.28000000e-007,7.60936576e-004
,,,-4.27800000e-007,7.53124075e-004
,,,-4.27600000e-007,7.76561577e-004
,,,-4.27400000e-007,6.39842817e-004
,,,-4.27200000e-007,5.48436561e-004
,,,-4.27000000e-007,4.28124052e-004
,,,-4.26800000e-007,4.62499055e-004
,,,-4.26600000e-007,6.89061571e-004
,,,-4.26400000e-007,7.96092828e-004
,,,-4.26200000e-007,9.32030338e-004
,,,-4.26000000e-007,8.81249084e-004
,,,-4.25800000e-007,6.00780315e-004
,,,-4.25600000e-007,4.68749055e-004
,,,-4.25400000e-007,3.87499050e-004
,,,-4.25200000e-007,4.70311555e-004
,,,-4.25000000e-007,6.19530316e-004
,,,-4.24800000e-007,6.64061569e-004
,,,-4.24600000e-007,7.80467827e-004
,,,-4.24400000e-007,8.17186580e-004
,,,-4.24200000e-007,7.80467827e-004
,,,-4.24000000e-007,7.04686572e-004
,,,-4.23800000e-007,4.85936557e-004
,,,-4.23600000e-007,4.88280307e-004
,,,-4.23400000e-007,4.74217806e-004
,,,-4.23200000e-007,5.46874061e-004
,,,-4.23000000e-007,7.49999075e-004
,,,-4.22800000e-007,7.95311578e-004
,,,-4.22600000e-007,7.47655325e-004
,,,-4.22400000e-007,6.77342820e-004
,,,-4.22200000e-007,5.99999065e-004
,,,-4.22000000e-007,6.84374071e-004
,,,-4.21800000e-007,6.48436568e-004
,,,-4.21600000e-007,5.82811563e-004
,,,-4.21400000e-007,5.28124059e-004
,,,-4.21200000e-007,5.08592808e-004
,,,-4.21000000e-007,6.57030319e-004
,,,-4.20800000e-007,5.87499064e-004
,,,-4.20600000e-007,5.64061562e-004
,,,-4.20400000e-007,5.12499058e-004
,,,-4.20200000e-007,5.51561561e-004
,,,-4.20000000e-007,7.20311573e-004
,,,-4.19800000e-007,7.06249072e-004
,,,-4.19600000e-007,6.39061567e-004
,,,-4.19400000e-007,5.20311559e-004
,,,-4.19200000e-007,3.56249047e-004
,,,-4.19000000e-007,4.51561554e-004
,,,-4.18800000e-007,6.08592815e-004
,,,-4.18600000e-007,7.51561575e-004
,,,-4.18400000e-007,8.11717830e-004
,,,-4.18200000e-007,7.18749073e-004
,,,-4.18000000e-007,6.85155321e-004
,,,-4.17800000e-007,5.82030313e-004
,,,-4.17600000e-007,4.99999058e-004
,,,-4.17400000e-007,4.94530307e-004
,,,-4.17200000e-007,5.38280310e-004
,,,-4.17000000e-007,6.35155317e-004
,,,-4.16800000e-007,7.42186575e-004
,,,-4.16600000e-007,7.57811576e-004
,,,-4.16400000e-007,7.35936574e-004
,,,-4.16200000e-007,5.39842810e-004
,,,-4.16000000e-007,5.19530309e-004
,,,-4.15800000e-007,5.41405310e-004
,,,-4.15600000e-007,5.99217815e-004
,,,-4.15400000e-007,7.06249072e-004
,,,-4.15200000e-007,6.32811567e-004
,,,-4.15000000e-007,5.84374063e-004
,,,-4.14800000e-007,5.40624060e-004
,,,-4.14600000e-007,5.07811558e-004
,,,-4.14400000e-007,6.71092820e-004
,,,-4.14200000e-007,7.63280326e-004
,,,-4.14000000e-007,7.60155326e-004
,,,-4.13800000e-007,6.57030319e-004
,,,-4.13600000e-007,5.82811563e-004
,,,-4.13400000e-007,5.78124063e-004
,,,-4.13200000e-007,5.37499060e-004
,,,-4.13000000e-007,4.93749057e-004
,,,-4.12800000e-007,5.60155312e-004
,,,-4.12600000e-007,7.03124072e-004
,,,-4.12400000e-007,8.64061583e-004
,,,-4.12200000e-007,9.43749089e-004
,,,-4.12000000e-007,7.89842828e-004
,,,-4.11800000e-007,5.91405314e-004
,,,-4.11600000e-007,4.08592801e-004
,,,-4.11400000e-007,4.94530307e-004
,,,-4.11200000e-007,5.15624059e-004
,,,-4.11000000e-007,6.30467817e-004
,,,-4.10800000e-007,6.81249070e-004
,,,-4.10600000e-007,8.20311580e-004
,,,-4.10400000e-007,8.77342834e-004
,,,-4.10200000e-007,7.67967826e-004
,,,-4.10000000e-007,6.24217816e-004
,,,-4.09800000e-007,4.28124052e-004
,,,-4.09600000e-007,3.32030296e-004
,,,-4.09400000e-007,4.27342802e-004
,,,-4.09200000e-007,6.64061569e-004
,,,-4.09000000e-007,7.96092828e-004
,,,-4.08800000e-007,8.39061582e-004
,,,-4.08600000e-007,7.27342824e-004
,,,-4.08400000e-007,6.19530316e-004
,,,-4.08200000e-007,5.48436561e-004
,,,-4.08000000e-007,5.14061558e-004
,,,-4.07800000e-007,5.64842812e-004
,,,-4.07600000e-007,6.13280316e-004
,,,-4.07400000e-007,6.89061571e-004
,,,-4.07200000e-007,7.18749073e-004
,,,-4.07000000e-007,6.88280321e-004
,,,-4.06800000e-007,6.13280316e-004
,,,-4.06600000e-007,5.94530314e-004
,,,-4.06400000e-007,5.89842814e-004
,,,-4.06200000e-007,6.72655320e-004
,,,-4.06000000e-007,7.41405325e-004
,,,-4.05800000e-007,7.90624078e-004
,,,-4.05600000e-007,7.37499074e-004
,,,-4.05400000e-007,4.96874057e-004
,,,-4.05200000e-007,4.05467801e-004
,,,-4.05000000e-007,4.20311552e-004
,,,-4.04800000e-007,6.50780318e-004
,,,-4.04600000e-007,8.85155335e-004
,,,-4.04400000e-007,9.09374086e-004
,,,-4.04200000e-007,7.55467826e-004
,,,-4.04000000e-007,5.96874064e-004
,,,-4.03800000e-007,4.97655307e-004
,,,-4.03600000e-007,4.89842807e-004
,,,-4.03400000e-007,4.75780306e-004
,,,-4.03200000e-007,5.01561558e-004
,,,-4.03000000e-007,6.05467815e-004
,,,-4.02800000e-007,8.24999081e-004
,,,-4.02600000e-007,9.02342836e-004
,,,-4.02400000e-007,7.59374076e-004
,,,-4.02200000e-007,5.69530312e-004
,,,-4.02000000e-007,4.60155305e-004
,,,-4.01800000e-007,4.40624053e-004
,,,-4.01600000e-007,5.22655309e-004
,,,-4.01400000e-007,5.50780311e-004
,,,-4.01200000e-007,6.39842817e-004
,,,-4.01000000e-007,7.32811574e-004
,,,-4.00800000e-007,6.95311571e-004
,,,-4.00600000e-007,6.78124070e-004
,,,-4.00400000e-007,6.77342820e-004
,,,-4.00200000e-007,5.42186560e-004
,,,-4.00000000e-007,5.17186559e-004
,,,-3.99800000e-007,4.67186555e-004
,,,-3.99600000e-007,6.11717815e-004
,,,-3.99400000e-007,7.54686576e-004
,,,-3.99200000e-007,7.18749073e-004
,,,-3.99000000e-007,6.25780316e-004
,,,-3.98800000e-007,6.06249065e-004
,,,-3.98600000e-007,5.48436561e-004
,,,-3.98400000e-007,6.30467817e-004
,,,-3.98200000e-007,6.66405319e-004
,,,-3.98000000e-007,7.19530323e-004
,,,-3.97800000e-007,6.87499071e-004
,,,-3.97600000e-007,6.71874070e-004
,,,-3.97400000e-007,6.47655318e-004
,,,-3.97200000e-007,6.07811565e-004
,,,-3.97000000e-007,5.82811563e-004
,,,-3.96800000e-007,5.92967814e-004
,,,-3.96600000e-007,5.95311564e-004
,,,-3.96400000e-007,7.30467824e-004
,,,-3.96200000e-007,7.11717822e-004
,,,-3.96000000e-007,6.73436570e-004
,,,-3.95800000e-007,5.67967812e-004
,,,-3.95600000e-007,5.42967811e-004
,,,-3.95400000e-007,5.74999063e-004
,,,-3.95200000e-007,6.58592819e-004
,,,-3.95000000e-007,7.82811578e-004
,,,-3.94800000e-007,8.14061580e-004
,,,-3.94600000e-007,6.55467819e-004
,,,-3.94400000e-007,6.33592817e-004
,,,-3.94200000e-007,5.87499064e-004
,,,-3.94000000e-007,6.97655321e-004
,,,-3.93800000e-007,7.66405326e-004
,,,-3.93600000e-007,6.92186571e-004
,,,-3.93400000e-007,6.16405316e-004
,,,-3.93200000e-007,6.35155317e-004
,,,-3.93000000e-007,6.86717821e-004
,,,-3.92800000e-007,7.40624075e-004
,,,-3.92600000e-007,5.99217815e-004
,,,-3.92400000e-007,6.17186566e-004
,,,-3.92200000e-007,6.98436572e-004
,,,-3.92000000e-007,6.41405318e-004
,,,-3.91800000e-007,6.64061569e-004
,,,-3.91600000e-007,5.94530314e-004
,,,-3.91400000e-007,5.56249061e-004
,,,-3.91200000e-007,5.36717810e-004
,,,-3.91000000e-007,5.75780313e-004
,,,-3.90800000e-007,6.82811570e-004
