Data/20220822/UCLA_to_T1A_VPOL_NEG40_001_Math1.csv

"Record Length",6250,"Points",0.00000000e+000,-1.13407345e+001
"Sample Interval",4.00000000e+005,Hz,4.00000000e+005,-1.79702797e+001
"Trigger Point",0,"Samples",8.00000000e+005,-1.97398052e+001
"Trigger Time",0.00000000e+000,Hz,1.20000000e+006,-2.33168926e+001
"",,,1.60000000e+006,-2.96710014e+001
"Horizontal Offset",0.00000000e+000,Hz,2.00000000e+006,-5.62135658e+001
,,,2.40000000e+006,-3.34137344e+001
,,,2.80000000e+006,-3.07461319e+001
,,,3.20000000e+006,-3.19592323e+001
,,,3.60000000e+006,-3.73693848e+001
,,,4.00000000e+006,-6.81322632e+001
,,,4.40000000e+006,-3.98293419e+001
,,,4.80000000e+006,-3.52481194e+001
,,,5.20000000e+006,-3.61142006e+001
,,,5.60000000e+006,-4.06929817e+001
,,,6.00000000e+006,-6.88368759e+001
,,,6.40000000e+006,-4.25219727e+001
,,,6.80000000e+006,-3.86212616e+001
,,,7.20000000e+006,-3.88009338e+001
,,,7.60000000e+006,-4.36756592e+001
,,,8.00000000e+006,-6.23550682e+001
,,,8.40000000e+006,-4.57053719e+001
,,,8.80000000e+006,-3.98365364e+001
,,,9.20000000e+006,-4.08947678e+001
,,,9.60000000e+006,-4.55709343e+001
,,,1.00000000e+007,-6.20939865e+001
,,,1.04000000e+007,-4.54547844e+001
,,,1.08000000e+007,-4.22959518e+001
,,,1.12000000e+007,-4.22757874e+001
,,,1.16000000e+007,-4.80522156e+001
,,,1.20000000e+007,-6.18477707e+001
,,,1.24000000e+007,-4.66127586e+001
,,,1.28000000e+007,-4.42024612e+001
,,,1.32000000e+007,-4.32973480e+001
,,,1.36000000e+007,-4.81993065e+001
,,,1.40000000e+007,-6.84206543e+001
,,,1.44000000e+007,-4.65256195e+001
,,,1.48000000e+007,-4.53624344e+001
,,,1.52000000e+007,-4.60006676e+001
,,,1.56000000e+007,-5.01285591e+001
,,,1.60000000e+007,-7.41948090e+001
,,,1.64000000e+007,-5.13407364e+001
,,,1.68000000e+007,-4.61256828e+001
,,,1.72000000e+007,-4.56953239e+001
,,,1.76000000e+007,-5.15898285e+001
,,,1.80000000e+007,-6.38393021e+001
,,,1.84000000e+007,-5.05100479e+001
,,,1.88000000e+007,-4.60072365e+001
,,,1.92000000e+007,-4.79531784e+001
,,,1.96000000e+007,-5.24257050e+001
,,,2.00000000e+007,-6.62671432e+001
,,,2.04000000e+007,-5.01514587e+001
,,,2.08000000e+007,-4.87276802e+001
,,,2.12000000e+007,-4.72212334e+001
,,,2.16000000e+007,-5.36940804e+001
,,,2.20000000e+007,-6.15650444e+001
,,,2.24000000e+007,-5.39738274e+001
,,,2.28000000e+007,-4.66587715e+001
,,,2.32000000e+007,-5.04396782e+001
,,,2.36000000e+007,-5.48460350e+001
,,,2.40000000e+007,-6.22243500e+001
,,,2.44000000e+007,-5.49198456e+001
,,,2.48000000e+007,-4.89114532e+001
,,,2.52000000e+007,-5.15485916e+001
,,,2.56000000e+007,-5.10196457e+001
,,,2.60000000e+007,-6.24819260e+001
,,,2.64000000e+007,-5.37975922e+001
,,,2.68000000e+007,-4.93313332e+001
,,,2.72000000e+007,-5.22306099e+001
,,,2.76000000e+007,-5.66154900e+001
,,,2.80000000e+007,-6.40984039e+001
,,,2.84000000e+007,-5.31091003e+001
,,,2.88000000e+007,-5.16299896e+001
,,,2.92000000e+007,-5.35991364e+001
,,,2.96000000e+007,-5.26252632e+001
,,,3.00000000e+007,-6.54995041e+001
,,,3.04000000e+007,-6.40327301e+001
,,,3.08000000e+007,-5.16208496e+001
,,,3.12000000e+007,-5.13026543e+001
,,,3.16000000e+007,-5.26821861e+001
,,,3.20000000e+007,-6.77181854e+001
,,,3.24000000e+007,-5.55133972e+001
,,,3.28000000e+007,-5.15005074e+001
,,,3.32000000e+007,-5.09606400e+001
,,,3.36000000e+007,-5.40330620e+001
,,,3.40000000e+007,-6.07389374e+001
,,,3.44000000e+007,-5.62766266e+001
,,,3.48000000e+007,-5.05769234e+001
,,,3.52000000e+007,-5.24932632e+001
,,,3.56000000e+007,-5.78445168e+001
,,,3.60000000e+007,-6.06581116e+001
,,,3.64000000e+007,-6.64230881e+001
,,,3.68000000e+007,-5.26585083e+001
,,,3.72000000e+007,-5.21862869e+001
,,,3.76000000e+007,-5.75926247e+001
,,,3.80000000e+007,-6.40582199e+001
,,,3.84000000e+007,-5.64912148e+001
,,,3.88000000e+007,-5.21500931e+001
,,,3.92000000e+007,-5.03320160e+001
,,,3.96000000e+007,-6.02696419e+001
,,,4.00000000e+007,-6.38809433e+001
,,,4.04000000e+007,-5.52241707e+001
,,,4.08000000e+007,-5.61577072e+001
,,,4.12000000e+007,-5.41919670e+001
,,,4.16000000e+007,-6.40755920e+001
,,,4.20000000e+007,-6.20578728e+001
,,,4.24000000e+007,-7.66597977e+001
,,,4.28000000e+007,-5.48442802e+001
,,,4.32000000e+007,-5.08037834e+001
,,,4.36000000e+007,-6.13305130e+001
,,,4.40000000e+007,-7.00337982e+001
,,,4.44000000e+007,-5.67530670e+001
,,,4.48000000e+007,-5.62870216e+001
,,,4.52000000e+007,-5.49110222e+001
,,,4.56000000e+007,-5.66103477e+001
,,,4.60000000e+007,-7.71115875e+001
,,,4.64000000e+007,-5.45283890e+001
,,,4.68000000e+007,-5.98330345e+001
,,,4.72000000e+007,-5.22327042e+001
,,,4.76000000e+007,-7.81075287e+001
,,,4.80000000e+007,-6.10807152e+001
,,,4.84000000e+007,-6.48765869e+001
,,,4.88000000e+007,-5.61137810e+001
,,,4.92000000e+007,-5.25456314e+001
,,,4.96000000e+007,-5.93654709e+001
,,,5.00000000e+007,-6.40104446e+001
,,,5.04000000e+007,-5.53278236e+001
,,,5.08000000e+007,-5.48687210e+001
,,,5.12000000e+007,-5.59994392e+001
,,,5.16000000e+007,-6.10366516e+001
,,,5.20000000e+007,-6.79881210e+001
,,,5.24000000e+007,-6.21359024e+001
,,,5.28000000e+007,-5.85404129e+001
,,,5.32000000e+007,-5.27330704e+001
,,,5.36000000e+007,-6.07845612e+001
,,,5.40000000e+007,-7.01465149e+001
,,,5.44000000e+007,-5.95971565e+001
,,,5.48000000e+007,-5.71650352e+001
,,,5.52000000e+007,-5.89115257e+001
,,,5.56000000e+007,-5.74296227e+001
,,,5.60000000e+007,-6.58735352e+001
,,,5.64000000e+007,-6.82463913e+001
,,,5.68000000e+007,-5.48443718e+001
,,,5.72000000e+007,-5.60539932e+001
,,,5.76000000e+007,-6.06878700e+001
,,,5.80000000e+007,-7.89128799e+001
,,,5.84000000e+007,-6.70907288e+001
,,,5.88000000e+007,-5.42927704e+001
,,,5.92000000e+007,-5.69947968e+001
,,,5.96000000e+007,-6.38643723e+001
,,,6.00000000e+007,-8.03854370e+001
,,,6.04000000e+007,-6.59952087e+001
,,,6.08000000e+007,-5.69578590e+001
,,,6.12000000e+007,-5.44356651e+001
,,,6.16000000e+007,-6.64453583e+001
,,,6.20000000e+007,-6.38438148e+001
,,,6.24000000e+007,-6.70192032e+001
,,,6.28000000e+007,-5.80540047e+001
,,,6.32000000e+007,-5.87150154e+001
,,,6.36000000e+007,-5.66632462e+001
,,,6.40000000e+007,-6.47235870e+001
,,,6.44000000e+007,-6.36057968e+001
,,,6.48000000e+007,-5.69508553e+001
,,,6.52000000e+007,-5.49128418e+001
,,,6.56000000e+007,-6.29163628e+001
,,,6.60000000e+007,-6.79728851e+001
,,,6.64000000e+007,-6.02614937e+001
,,,6.68000000e+007,-6.17268219e+001
,,,6.72000000e+007,-5.76235085e+001
,,,6.76000000e+007,-5.90792580e+001
,,,6.80000000e+007,-7.53395844e+001
,,,6.84000000e+007,-6.26862488e+001
,,,6.88000000e+007,-5.77120934e+001
,,,6.92000000e+007,-5.77161674e+001
,,,6.96000000e+007,-6.80519714e+001
,,,7.00000000e+007,-6.48178406e+001
,,,7.04000000e+007,-5.84970779e+001
,,,7.08000000e+007,-6.50820465e+001
,,,7.12000000e+007,-5.58943367e+001
,,,7.16000000e+007,-5.75256271e+001
,,,7.20000000e+007,-6.64432144e+001
,,,7.24000000e+007,-6.22504196e+001
,,,7.28000000e+007,-5.65502739e+001
,,,7.32000000e+007,-6.01096649e+001
,,,7.36000000e+007,-6.45681763e+001
,,,7.40000000e+007,-7.75400391e+001
,,,7.44000000e+007,-6.12854195e+001
,,,7.48000000e+007,-6.33005066e+001
,,,7.52000000e+007,-6.06602364e+001
,,,7.56000000e+007,-6.67894058e+001
,,,7.60000000e+007,-6.06947708e+001
,,,7.64000000e+007,-6.70483093e+001
,,,7.68000000e+007,-5.94093552e+001
,,,7.72000000e+007,-5.65278473e+001
,,,7.76000000e+007,-6.14167366e+001
,,,7.80000000e+007,-6.29762535e+001
,,,7.84000000e+007,-5.89599266e+001
,,,7.88000000e+007,-6.05952225e+001
,,,7.92000000e+007,-5.73247910e+001
,,,7.96000000e+007,-6.10831184e+001
,,,8.00000000e+007,-6.35327911e+001
,,,8.04000000e+007,-5.92336884e+001
,,,8.08000000e+007,-6.61569290e+001
,,,8.12000000e+007,-5.72180672e+001
,,,8.16000000e+007,-5.71054802e+001
,,,8.20000000e+007,-6.74647980e+001
,,,8.24000000e+007,-6.14799080e+001
,,,8.28000000e+007,-6.52657318e+001
,,,8.32000000e+007,-6.29837685e+001
,,,8.36000000e+007,-5.65250893e+001
,,,8.40000000e+007,-6.97949295e+001
,,,8.44000000e+007,-6.28646927e+001
,,,8.48000000e+007,-5.77197037e+001
,,,8.52000000e+007,-5.54311409e+001
,,,8.56000000e+007,-5.76153679e+001
,,,8.60000000e+007,-6.78095703e+001
,,,8.64000000e+007,-5.85845375e+001
,,,8.68000000e+007,-5.69749336e+001
,,,8.72000000e+007,-6.16536293e+001
,,,8.76000000e+007,-5.90637550e+001
,,,8.80000000e+007,-6.66656723e+001
,,,8.84000000e+007,-6.72452545e+001
,,,8.88000000e+007,-5.73637505e+001
,,,8.92000000e+007,-5.86843948e+001
,,,8.96000000e+007,-5.98009262e+001
,,,9.00000000e+007,-5.90078125e+001
,,,9.04000000e+007,-6.21928329e+001
,,,9.08000000e+007,-5.42384338e+001
,,,9.12000000e+007,-6.25805435e+001
,,,9.16000000e+007,-6.89147415e+001
,,,9.20000000e+007,-6.07116432e+001
,,,9.24000000e+007,-5.50420303e+001
,,,9.28000000e+007,-5.47172966e+001
,,,9.32000000e+007,-4.54010391e+001
,,,9.36000000e+007,-5.59417000e+001
,,,9.40000000e+007,-6.30573196e+001
,,,9.44000000e+007,-5.74438515e+001
,,,9.48000000e+007,-5.41722488e+001
,,,9.52000000e+007,-5.69803505e+001
,,,9.56000000e+007,-5.57185478e+001
,,,9.60000000e+007,-6.42000656e+001
,,,9.64000000e+007,-5.73590736e+001
,,,9.68000000e+007,-5.76824455e+001
,,,9.72000000e+007,-6.01648788e+001
,,,9.76000000e+007,-5.29000587e+001
,,,9.80000000e+007,-5.28137360e+001
,,,9.84000000e+007,-4.41488495e+001
,,,9.88000000e+007,-3.77753487e+001
,,,9.92000000e+007,-4.94436493e+001
,,,9.96000000e+007,-4.68560905e+001
,,,1.00000000e+008,-5.76726761e+001
,,,1.00400000e+008,-5.82620201e+001
,,,1.00800000e+008,-5.42092552e+001
,,,1.01200000e+008,-5.57087097e+001
,,,1.01600000e+008,-7.02547073e+001
,,,1.02000000e+008,-5.83035965e+001
,,,1.02400000e+008,-5.53018227e+001
,,,1.02800000e+008,-5.84170113e+001
,,,1.03200000e+008,-5.91943970e+001
,,,1.03600000e+008,-5.04572830e+001
,,,1.04000000e+008,-7.25483475e+001
,,,1.04400000e+008,-6.42543640e+001
,,,1.04800000e+008,-5.79714203e+001
,,,1.05200000e+008,-5.00543785e+001
,,,1.05600000e+008,-6.21893272e+001
,,,1.06000000e+008,-6.06711884e+001
,,,1.06400000e+008,-5.84231071e+001
,,,1.06800000e+008,-6.68599548e+001
,,,1.07200000e+008,-6.21586685e+001
,,,1.07600000e+008,-5.39621124e+001
,,,1.08000000e+008,-6.51668243e+001
,,,1.08400000e+008,-5.49102631e+001
,,,1.08800000e+008,-6.44412231e+001
,,,1.09200000e+008,-5.40535622e+001
,,,1.09600000e+008,-6.07452774e+001
,,,1.10000000e+008,-7.08108673e+001
,,,1.10400000e+008,-5.66756020e+001
,,,1.10800000e+008,-6.07361679e+001
,,,1.11200000e+008,-5.67535286e+001
,,,1.11600000e+008,-5.66123390e+001
,,,1.12000000e+008,-5.04617844e+001
,,,1.12400000e+008,-5.11218567e+001
,,,1.12800000e+008,-4.88336067e+001
,,,1.13200000e+008,-6.39118118e+001
,,,1.13600000e+008,-6.09950638e+001
,,,1.14000000e+008,-5.71455154e+001
,,,1.14400000e+008,-6.36531601e+001
,,,1.14800000e+008,-5.83521538e+001
,,,1.15200000e+008,-6.00686569e+001
,,,1.15600000e+008,-5.54360123e+001
,,,1.16000000e+008,-5.32940445e+001
,,,1.16400000e+008,-6.39532394e+001
,,,1.16800000e+008,-6.04194489e+001
,,,1.17200000e+008,-6.13101501e+001
,,,1.17600000e+008,-6.68783264e+001
,,,1.18000000e+008,-6.76173325e+001
,,,1.18400000e+008,-6.36386375e+001
,,,1.18800000e+008,-5.44121246e+001
,,,1.19200000e+008,-6.58701401e+001
,,,1.19600000e+008,-6.14333725e+001
,,,1.20000000e+008,-6.07023277e+001
,,,1.20400000e+008,-6.58783340e+001
,,,1.20800000e+008,-5.85146217e+001
,,,1.21200000e+008,-7.08119049e+001
,,,1.21600000e+008,-6.55441589e+001
,,,1.22000000e+008,-6.27705460e+001
,,,1.22400000e+008,-7.51550827e+001
,,,1.22800000e+008,-5.89409981e+001
,,,1.23200000e+008,-6.28210068e+001
,,,1.23600000e+008,-5.73818321e+001
,,,1.24000000e+008,-6.16441154e+001
,,,1.24400000e+008,-6.87826996e+001
,,,1.24800000e+008,-5.43353119e+001
,,,1.25200000e+008,-5.80314178e+001
,,,1.25600000e+008,-6.22181282e+001
,,,1.26000000e+008,-5.95878830e+001
,,,1.26400000e+008,-5.95803909e+001
,,,1.26800000e+008,-5.91605644e+001
,,,1.27200000e+008,-5.88738899e+001
,,,1.27600000e+008,-5.85987396e+001
,,,1.28000000e+008,-6.04992180e+001
,,,1.28400000e+008,-5.69659271e+001
,,,1.28800000e+008,-5.28254662e+001
,,,1.29200000e+008,-5.19216385e+001
,,,1.29600000e+008,-4.90258446e+001
,,,1.30000000e+008,-4.66660423e+001
,,,1.30400000e+008,-4.52041588e+001
,,,1.30800000e+008,-4.48883858e+001
,,,1.31200000e+008,-4.29089508e+001
,,,1.31600000e+008,-4.81841698e+001
,,,1.32000000e+008,-4.92126312e+001
,,,1.32400000e+008,-4.88181229e+001
,,,1.32800000e+008,-5.43109169e+001
,,,1.33200000e+008,-5.21243744e+001
,,,1.33600000e+008,-5.25113831e+001
,,,1.34000000e+008,-5.47090607e+001
,,,1.34400000e+008,-5.55894051e+001
,,,1.34800000e+008,-5.77317123e+001
,,,1.35200000e+008,-5.76240578e+001
,,,1.35600000e+008,-5.82241020e+001
,,,1.36000000e+008,-6.18410034e+001
,,,1.36400000e+008,-5.90946922e+001
,,,1.36800000e+008,-6.07913361e+001
,,,1.37200000e+008,-5.44236565e+001
,,,1.37600000e+008,-6.76381302e+001
,,,1.38000000e+008,-6.77055359e+001
,,,1.38400000e+008,-6.29127846e+001
,,,1.38800000e+008,-6.01182518e+001
,,,1.39200000e+008,-5.71944618e+001
,,,1.39600000e+008,-5.83787766e+001
,,,1.40000000e+008,-6.21984940e+001
,,,1.40400000e+008,-6.16204453e+001
,,,1.40800000e+008,-6.44011841e+001
,,,1.41200000e+008,-5.68602676e+001
,,,1.41600000e+008,-5.93931885e+001
,,,1.42000000e+008,-6.02761040e+001
,,,1.42400000e+008,-6.17967453e+001
,,,1.42800000e+008,-5.84518967e+001
,,,1.43200000e+008,-5.83691902e+001
,,,1.43600000e+008,-5.80503502e+001
,,,1.44000000e+008,-6.11930122e+001
,,,1.44400000e+008,-5.54109612e+001
,,,1.44800000e+008,-5.65250092e+001
,,,1.45200000e+008,-5.72015114e+001
,,,1.45600000e+008,-5.21123161e+001
,,,1.46000000e+008,-5.49062386e+001
,,,1.46400000e+008,-5.18966522e+001
,,,1.46800000e+008,-4.98325882e+001
,,,1.47200000e+008,-5.04909782e+001
,,,1.47600000e+008,-4.63745499e+001
,,,1.48000000e+008,-4.49377670e+001
,,,1.48400000e+008,-4.39252205e+001
,,,1.48800000e+008,-3.94759178e+001
,,,1.49200000e+008,-3.86114922e+001
,,,1.49600000e+008,-3.86376152e+001
,,,1.50000000e+008,-4.03632774e+001
,,,1.50400000e+008,-4.23033142e+001
,,,1.50800000e+008,-4.41799583e+001
,,,1.51200000e+008,-4.59257355e+001
,,,1.51600000e+008,-4.68105545e+001
,,,1.52000000e+008,-4.90891953e+001
,,,1.52400000e+008,-5.10711021e+001
,,,1.52800000e+008,-5.23947906e+001
,,,1.53200000e+008,-5.01982956e+001
,,,1.53600000e+008,-5.26114693e+001
,,,1.54000000e+008,-5.38199310e+001
,,,1.54400000e+008,-5.21378174e+001
,,,1.54800000e+008,-5.36362038e+001
,,,1.55200000e+008,-5.14639664e+001
,,,1.55600000e+008,-5.05460052e+001
,,,1.56000000e+008,-5.15383072e+001
,,,1.56400000e+008,-5.04967461e+001
,,,1.56800000e+008,-5.22427826e+001
,,,1.57200000e+008,-5.20125618e+001
,,,1.57600000e+008,-5.30963707e+001
,,,1.58000000e+008,-5.44341850e+001
,,,1.58400000e+008,-5.51333389e+001
,,,1.58800000e+008,-5.43368416e+001
,,,1.59200000e+008,-5.32904129e+001
,,,1.59600000e+008,-5.28431778e+001
,,,1.60000000e+008,-5.17603073e+001
,,,1.60400000e+008,-4.93816490e+001
,,,1.60800000e+008,-4.93954697e+001
,,,1.61200000e+008,-4.86112251e+001
,,,1.61600000e+008,-4.94250145e+001
,,,1.62000000e+008,-4.82999649e+001
,,,1.62400000e+008,-4.67665863e+001
,,,1.62800000e+008,-4.71126060e+001
,,,1.63200000e+008,-4.55314903e+001
,,,1.63600000e+008,-4.69567261e+001
,,,1.64000000e+008,-4.63756981e+001
,,,1.64400000e+008,-4.48797607e+001
,,,1.64800000e+008,-4.20392151e+001
,,,1.65200000e+008,-3.81364861e+001
,,,1.65600000e+008,-3.91224098e+001
,,,1.66000000e+008,-3.95230827e+001
,,,1.66400000e+008,-3.80787735e+001
,,,1.66800000e+008,-3.81971245e+001
,,,1.67200000e+008,-3.73830223e+001
,,,1.67600000e+008,-3.78437500e+001
,,,1.68000000e+008,-3.77574081e+001
,,,1.68400000e+008,-3.85971832e+001
,,,1.68800000e+008,-4.07304001e+001
,,,1.69200000e+008,-4.17647362e+001
,,,1.69600000e+008,-4.19486542e+001
,,,1.70000000e+008,-4.28697510e+001
,,,1.70400000e+008,-4.31930122e+001
,,,1.70800000e+008,-4.38045082e+001
,,,1.71200000e+008,-4.52045937e+001
,,,1.71600000e+008,-4.44751129e+001
,,,1.72000000e+008,-4.47434196e+001
,,,1.72400000e+008,-4.48117447e+001
,,,1.72800000e+008,-4.46368675e+001
,,,1.73200000e+008,-4.62156792e+001
,,,1.73600000e+008,-4.48318100e+001
,,,1.74000000e+008,-4.40567093e+001
,,,1.74400000e+008,-4.32805138e+001
,,,1.74800000e+008,-4.32053375e+001
,,,1.75200000e+008,-4.74309692e+001
,,,1.75600000e+008,-4.74478912e+001
,,,1.76000000e+008,-4.91882896e+001
,,,1.76400000e+008,-4.78372612e+001
,,,1.76800000e+008,-5.19161072e+001
,,,1.77200000e+008,-6.17821503e+001
,,,1.77600000e+008,-4.91727295e+001
,,,1.78000000e+008,-5.20567932e+001
,,,1.78400000e+008,-5.20917816e+001
,,,1.78800000e+008,-4.62970810e+001
,,,1.79200000e+008,-4.95033607e+001
,,,1.79600000e+008,-4.58341370e+001
,,,1.80000000e+008,-4.37207756e+001
,,,1.80400000e+008,-4.41443672e+001
,,,1.80800000e+008,-4.20130119e+001
,,,1.81200000e+008,-4.25838661e+001
,,,1.81600000e+008,-4.15124283e+001
,,,1.82000000e+008,-4.24120941e+001
,,,1.82400000e+008,-4.40806122e+001
,,,1.82800000e+008,-4.23021355e+001
,,,1.83200000e+008,-4.26672173e+001
,,,1.83600000e+008,-4.15624847e+001
,,,1.84000000e+008,-4.08385658e+001
,,,1.84400000e+008,-4.20279922e+001
,,,1.84800000e+008,-4.48335228e+001
,,,1.85200000e+008,-4.60585442e+001
,,,1.85600000e+008,-4.60212517e+001
,,,1.86000000e+008,-4.70557823e+001
,,,1.86400000e+008,-4.95614777e+001
,,,1.86800000e+008,-4.87079964e+001
,,,1.87200000e+008,-4.73228416e+001
,,,1.87600000e+008,-4.70759468e+001
,,,1.88000000e+008,-4.49814415e+001
,,,1.88400000e+008,-4.48299179e+001
,,,1.88800000e+008,-4.50635986e+001
,,,1.89200000e+008,-4.29602585e+001
,,,1.89600000e+008,-4.38928299e+001
,,,1.90000000e+008,-4.43695946e+001
,,,1.90400000e+008,-4.26936607e+001
,,,1.90800000e+008,-4.39558640e+001
,,,1.91200000e+008,-4.50498428e+001
,,,1.91600000e+008,-4.46697044e+001
,,,1.92000000e+008,-4.19148598e+001
,,,1.92400000e+008,-4.03979721e+001
,,,1.92800000e+008,-4.12465096e+001
,,,1.93200000e+008,-3.98536758e+001
,,,1.93600000e+008,-3.99392090e+001
,,,1.94000000e+008,-3.96531448e+001
,,,1.94400000e+008,-3.88929253e+001
,,,1.94800000e+008,-4.11941223e+001
,,,1.95200000e+008,-4.22513390e+001
,,,1.95600000e+008,-4.29735069e+001
,,,1.96000000e+008,-4.18187294e+001
,,,1.96400000e+008,-3.97376785e+001
,,,1.96800000e+008,-3.96587257e+001
,,,1.97200000e+008,-3.83539162e+001
,,,1.97600000e+008,-3.77632027e+001
,,,1.98000000e+008,-3.81021461e+001
,,,1.98400000e+008,-3.94121056e+001
,,,1.98800000e+008,-3.99079361e+001
,,,1.99200000e+008,-3.91551666e+001
,,,1.99600000e+008,-4.01535683e+001
,,,2.00000000e+008,-4.00249405e+001
,,,2.00400000e+008,-4.03366737e+001
,,,2.00800000e+008,-4.17061005e+001
,,,2.01200000e+008,-4.04827003e+001
,,,2.01600000e+008,-4.18896523e+001
,,,2.02000000e+008,-4.34556313e+001
,,,2.02400000e+008,-4.34619446e+001
,,,2.02800000e+008,-4.47924004e+001
,,,2.03200000e+008,-4.41704102e+001
,,,2.03600000e+008,-4.39398994e+001
,,,2.04000000e+008,-4.09086304e+001
,,,2.04400000e+008,-3.90545158e+001
,,,2.04800000e+008,-4.25986252e+001
,,,2.05200000e+008,-3.83465538e+001
,,,2.05600000e+008,-3.79513817e+001
,,,2.06000000e+008,-4.17934570e+001
,,,2.06400000e+008,-3.85788574e+001
,,,2.06800000e+008,-3.72558632e+001
,,,2.07200000e+008,-3.98872795e+001
,,,2.07600000e+008,-3.85639267e+001
,,,2.08000000e+008,-4.18704376e+001
,,,2.08400000e+008,-4.37292519e+001
,,,2.08800000e+008,-4.30216408e+001
,,,2.09200000e+008,-4.46925011e+001
,,,2.09600000e+008,-4.43985367e+001
,,,2.10000000e+008,-4.37874489e+001
,,,2.10400000e+008,-4.14647980e+001
,,,2.10800000e+008,-3.99034615e+001
,,,2.11200000e+008,-3.95049782e+001
,,,2.11600000e+008,-3.77444038e+001
,,,2.12000000e+008,-3.81077461e+001
,,,2.12400000e+008,-3.82418098e+001
,,,2.12800000e+008,-3.91112175e+001
,,,2.13200000e+008,-4.06875038e+001
,,,2.13600000e+008,-4.04149399e+001
,,,2.14000000e+008,-4.02193222e+001
,,,2.14400000e+008,-4.02506905e+001
,,,2.14800000e+008,-4.06734161e+001
,,,2.15200000e+008,-4.10353546e+001
,,,2.15600000e+008,-4.01706467e+001
,,,2.16000000e+008,-3.86920090e+001
,,,2.16400000e+008,-3.74712830e+001
,,,2.16800000e+008,-3.74814873e+001
,,,2.17200000e+008,-3.66895370e+001
,,,2.17600000e+008,-3.58647423e+001
,,,2.18000000e+008,-3.59981804e+001
,,,2.18400000e+008,-3.58577576e+001
,,,2.18800000e+008,-3.60081596e+001
,,,2.19200000e+008,-3.58628197e+001
,,,2.19600000e+008,-3.73147507e+001
,,,2.20000000e+008,-3.80152016e+001
