Data/20220822/UCLA_to_T1B_HPOL_10_001_Math2.csv

"Record Length",6250,"Points",0.00000000e+000,-7.04999695e+001
"Sample Interval",4.00000000e+005,Hz,4.00000000e+005,-7.70185699e+001
"Trigger Point",0,"Samples",8.00000000e+005,-7.89917831e+001
"Trigger Time",0.00000000e+000,Hz,1.20000000e+006,-8.24378357e+001
"",,,1.60000000e+006,-8.96610870e+001
"Horizontal Offset",0.00000000e+000,Hz,2.00000000e+006,-1.12201225e+002
,,,2.40000000e+006,-9.21055679e+001
,,,2.80000000e+006,-9.03851166e+001
,,,3.20000000e+006,-9.06502914e+001
,,,3.60000000e+006,-9.64110031e+001
,,,4.00000000e+006,-1.11340172e+002
,,,4.40000000e+006,-9.88509369e+001
,,,4.80000000e+006,-9.48102036e+001
,,,5.20000000e+006,-9.57216110e+001
,,,5.60000000e+006,-1.00682846e+002
,,,6.00000000e+006,-1.14822006e+002
,,,6.40000000e+006,-1.03957611e+002
,,,6.80000000e+006,-9.65817871e+001
,,,7.20000000e+006,-9.84908218e+001
,,,7.60000000e+006,-1.01382599e+002
,,,8.00000000e+006,-1.16896996e+002
,,,8.40000000e+006,-1.03258842e+002
,,,8.80000000e+006,-9.87883072e+001
,,,9.20000000e+006,-9.97937927e+001
,,,9.60000000e+006,-1.03888916e+002
,,,1.00000000e+007,-1.12939812e+002
,,,1.04000000e+007,-1.04247398e+002
,,,1.08000000e+007,-1.00811798e+002
,,,1.12000000e+007,-1.04004906e+002
,,,1.16000000e+007,-1.03406326e+002
,,,1.20000000e+007,-1.09941216e+002
,,,1.24000000e+007,-1.09257538e+002
,,,1.28000000e+007,-1.03267838e+002
,,,1.32000000e+007,-1.04145996e+002
,,,1.36000000e+007,-1.02704041e+002
,,,1.40000000e+007,-1.16149590e+002
,,,1.44000000e+007,-1.07854240e+002
,,,1.48000000e+007,-1.03966431e+002
,,,1.52000000e+007,-1.04194160e+002
,,,1.56000000e+007,-1.04871910e+002
,,,1.60000000e+007,-1.16525055e+002
,,,1.64000000e+007,-1.08279083e+002
,,,1.68000000e+007,-1.05076653e+002
,,,1.72000000e+007,-1.04510971e+002
,,,1.76000000e+007,-1.06129173e+002
,,,1.80000000e+007,-1.12595428e+002
,,,1.84000000e+007,-1.05679482e+002
,,,1.88000000e+007,-1.09863663e+002
,,,1.92000000e+007,-1.03355881e+002
,,,1.96000000e+007,-1.11220139e+002
,,,2.00000000e+007,-1.12522438e+002
,,,2.04000000e+007,-1.22597832e+002
,,,2.08000000e+007,-1.05646706e+002
,,,2.12000000e+007,-1.05707016e+002
,,,2.16000000e+007,-1.09833862e+002
,,,2.20000000e+007,-1.16356262e+002
,,,2.24000000e+007,-1.19189423e+002
,,,2.28000000e+007,-1.07558067e+002
,,,2.32000000e+007,-1.05417931e+002
,,,2.36000000e+007,-1.15655159e+002
,,,2.40000000e+007,-1.21878113e+002
,,,2.44000000e+007,-1.05947906e+002
,,,2.48000000e+007,-1.07458504e+002
,,,2.52000000e+007,-1.08147614e+002
,,,2.56000000e+007,-1.20884277e+002
,,,2.60000000e+007,-1.27991249e+002
,,,2.64000000e+007,-1.09071075e+002
,,,2.68000000e+007,-1.12084419e+002
,,,2.72000000e+007,-1.09071198e+002
,,,2.76000000e+007,-1.15762184e+002
,,,2.80000000e+007,-1.31009949e+002
,,,2.84000000e+007,-1.11348450e+002
,,,2.88000000e+007,-1.11851555e+002
,,,2.92000000e+007,-1.11421837e+002
,,,2.96000000e+007,-1.10151138e+002
,,,3.00000000e+007,-1.15230598e+002
,,,3.04000000e+007,-1.13024712e+002
,,,3.08000000e+007,-1.11396706e+002
,,,3.12000000e+007,-1.10302185e+002
,,,3.16000000e+007,-1.12961487e+002
,,,3.20000000e+007,-1.27717926e+002
,,,3.24000000e+007,-1.09860245e+002
,,,3.28000000e+007,-1.11968643e+002
,,,3.32000000e+007,-1.13019440e+002
,,,3.36000000e+007,-1.14389000e+002
,,,3.40000000e+007,-1.19911934e+002
,,,3.44000000e+007,-1.12759575e+002
,,,3.48000000e+007,-1.13992256e+002
,,,3.52000000e+007,-1.09607262e+002
,,,3.56000000e+007,-1.11891090e+002
,,,3.60000000e+007,-1.15044113e+002
,,,3.64000000e+007,-1.11971016e+002
,,,3.68000000e+007,-1.08898926e+002
,,,3.72000000e+007,-1.12267860e+002
,,,3.76000000e+007,-1.12307388e+002
,,,3.80000000e+007,-1.26574974e+002
,,,3.84000000e+007,-1.15667282e+002
,,,3.88000000e+007,-1.13407768e+002
,,,3.92000000e+007,-1.10629211e+002
,,,3.96000000e+007,-1.15784454e+002
,,,4.00000000e+007,-1.18522308e+002
,,,4.04000000e+007,-1.16176598e+002
,,,4.08000000e+007,-1.14454689e+002
,,,4.12000000e+007,-1.14759552e+002
,,,4.16000000e+007,-1.16572456e+002
,,,4.20000000e+007,-1.26182678e+002
,,,4.24000000e+007,-1.18076973e+002
,,,4.28000000e+007,-1.13348450e+002
,,,4.32000000e+007,-1.11821793e+002
,,,4.36000000e+007,-1.22335442e+002
,,,4.40000000e+007,-1.34411514e+002
,,,4.44000000e+007,-1.20318909e+002
,,,4.48000000e+007,-1.10820305e+002
,,,4.52000000e+007,-1.15716736e+002
,,,4.56000000e+007,-1.17012939e+002
,,,4.60000000e+007,-1.30063614e+002
,,,4.64000000e+007,-1.14374855e+002
,,,4.68000000e+007,-1.14881104e+002
,,,4.72000000e+007,-1.17576363e+002
,,,4.76000000e+007,-1.14718407e+002
,,,4.80000000e+007,-1.20288788e+002
,,,4.84000000e+007,-1.18056213e+002
,,,4.88000000e+007,-1.20859558e+002
,,,4.92000000e+007,-1.12888191e+002
,,,4.96000000e+007,-1.14131889e+002
,,,5.00000000e+007,-1.22684738e+002
,,,5.04000000e+007,-1.16383789e+002
,,,5.08000000e+007,-1.16337822e+002
,,,5.12000000e+007,-1.15847305e+002
,,,5.16000000e+007,-1.16875465e+002
,,,5.20000000e+007,-1.22317833e+002
,,,5.24000000e+007,-1.22981323e+002
,,,5.28000000e+007,-1.16122131e+002
,,,5.32000000e+007,-1.12343056e+002
,,,5.36000000e+007,-1.16589638e+002
,,,5.40000000e+007,-1.22634018e+002
,,,5.44000000e+007,-1.15394539e+002
,,,5.48000000e+007,-1.17148293e+002
,,,5.52000000e+007,-1.11589691e+002
,,,5.56000000e+007,-1.21647285e+002
,,,5.60000000e+007,-1.21625458e+002
,,,5.64000000e+007,-1.24622833e+002
,,,5.68000000e+007,-1.26776733e+002
,,,5.72000000e+007,-1.10389648e+002
,,,5.76000000e+007,-1.17466621e+002
,,,5.80000000e+007,-1.19312149e+002
,,,5.84000000e+007,-1.19811424e+002
,,,5.88000000e+007,-1.18987358e+002
,,,5.92000000e+007,-1.17280426e+002
,,,5.96000000e+007,-1.23817734e+002
,,,6.00000000e+007,-1.26027596e+002
,,,6.04000000e+007,-1.37397385e+002
,,,6.08000000e+007,-1.16306061e+002
,,,6.12000000e+007,-1.14653496e+002
,,,6.16000000e+007,-1.16707306e+002
,,,6.20000000e+007,-1.28807312e+002
,,,6.24000000e+007,-1.15012474e+002
,,,6.28000000e+007,-1.17732430e+002
,,,6.32000000e+007,-1.15812469e+002
,,,6.36000000e+007,-1.17728600e+002
,,,6.40000000e+007,-1.22238922e+002
,,,6.44000000e+007,-1.14898438e+002
,,,6.48000000e+007,-1.18259460e+002
,,,6.52000000e+007,-1.08534805e+002
,,,6.56000000e+007,-1.34589401e+002
,,,6.60000000e+007,-1.15014862e+002
,,,6.64000000e+007,-1.15433334e+002
,,,6.68000000e+007,-1.17441383e+002
,,,6.72000000e+007,-1.13794044e+002
,,,6.76000000e+007,-1.28315765e+002
,,,6.80000000e+007,-1.16926056e+002
,,,6.84000000e+007,-1.14596497e+002
,,,6.88000000e+007,-1.16829529e+002
,,,6.92000000e+007,-1.25871078e+002
,,,6.96000000e+007,-1.18762779e+002
,,,7.00000000e+007,-1.21979919e+002
,,,7.04000000e+007,-1.13228180e+002
,,,7.08000000e+007,-1.18390396e+002
,,,7.12000000e+007,-1.13789413e+002
,,,7.16000000e+007,-1.22628410e+002
,,,7.20000000e+007,-1.14504143e+002
,,,7.24000000e+007,-1.23789536e+002
,,,7.28000000e+007,-1.16335686e+002
,,,7.32000000e+007,-1.12878868e+002
,,,7.36000000e+007,-1.21900688e+002
,,,7.40000000e+007,-1.22985664e+002
,,,7.44000000e+007,-1.14372345e+002
,,,7.48000000e+007,-1.23655930e+002
,,,7.52000000e+007,-1.20758804e+002
,,,7.56000000e+007,-1.20333900e+002
,,,7.60000000e+007,-1.31712524e+002
,,,7.64000000e+007,-1.27503494e+002
,,,7.68000000e+007,-1.14696030e+002
,,,7.72000000e+007,-1.19942596e+002
,,,7.76000000e+007,-1.17230637e+002
,,,7.80000000e+007,-1.21605179e+002
,,,7.84000000e+007,-1.20221848e+002
,,,7.88000000e+007,-1.16657135e+002
,,,7.92000000e+007,-1.20468727e+002
,,,7.96000000e+007,-1.19778618e+002
,,,8.00000000e+007,-1.31561081e+002
,,,8.04000000e+007,-1.18849823e+002
,,,8.08000000e+007,-1.20859322e+002
,,,8.12000000e+007,-1.20347694e+002
,,,8.16000000e+007,-1.18940941e+002
,,,8.20000000e+007,-1.29505722e+002
,,,8.24000000e+007,-1.26349396e+002
,,,8.28000000e+007,-1.20517502e+002
,,,8.32000000e+007,-1.18053551e+002
,,,8.36000000e+007,-1.16472473e+002
,,,8.40000000e+007,-1.21169167e+002
,,,8.44000000e+007,-1.21950623e+002
,,,8.48000000e+007,-1.20968872e+002
,,,8.52000000e+007,-1.10531990e+002
,,,8.56000000e+007,-1.22901268e+002
,,,8.60000000e+007,-1.15121605e+002
,,,8.64000000e+007,-1.29722443e+002
,,,8.68000000e+007,-1.15088989e+002
,,,8.72000000e+007,-1.22974022e+002
,,,8.76000000e+007,-1.22401840e+002
,,,8.80000000e+007,-1.19998665e+002
,,,8.84000000e+007,-1.28570969e+002
,,,8.88000000e+007,-1.13410728e+002
,,,8.92000000e+007,-1.15850151e+002
,,,8.96000000e+007,-1.22200600e+002
,,,9.00000000e+007,-1.27160698e+002
,,,9.04000000e+007,-1.33459564e+002
,,,9.08000000e+007,-1.20013077e+002
,,,9.12000000e+007,-1.14467987e+002
,,,9.16000000e+007,-1.06884743e+002
,,,9.20000000e+007,-1.14658600e+002
,,,9.24000000e+007,-1.09987305e+002
,,,9.28000000e+007,-1.08662186e+002
,,,9.32000000e+007,-1.02826767e+002
,,,9.36000000e+007,-1.03827843e+002
,,,9.40000000e+007,-9.86153259e+001
,,,9.44000000e+007,-1.03206459e+002
,,,9.48000000e+007,-1.11110985e+002
,,,9.52000000e+007,-1.14589027e+002
,,,9.56000000e+007,-1.06921524e+002
,,,9.60000000e+007,-1.20081642e+002
,,,9.64000000e+007,-1.06321449e+002
,,,9.68000000e+007,-1.02199455e+002
,,,9.72000000e+007,-9.81259308e+001
,,,9.76000000e+007,-1.04735016e+002
,,,9.80000000e+007,-9.82254333e+001
,,,9.84000000e+007,-1.10336494e+002
,,,9.88000000e+007,-9.73457718e+001
,,,9.92000000e+007,-1.01759819e+002
,,,9.96000000e+007,-9.58555603e+001
,,,1.00000000e+008,-1.14226967e+002
,,,1.00400000e+008,-1.14321548e+002
,,,1.00800000e+008,-1.07975533e+002
,,,1.01200000e+008,-1.05507904e+002
,,,1.01600000e+008,-1.15315674e+002
,,,1.02000000e+008,-1.12023140e+002
,,,1.02400000e+008,-1.15358505e+002
,,,1.02800000e+008,-1.14181961e+002
,,,1.03200000e+008,-1.27318352e+002
,,,1.03600000e+008,-1.04878632e+002
,,,1.04000000e+008,-1.04253326e+002
,,,1.04400000e+008,-1.02068375e+002
,,,1.04800000e+008,-1.02527321e+002
,,,1.05200000e+008,-9.94653091e+001
,,,1.05600000e+008,-1.08399612e+002
,,,1.06000000e+008,-9.72308578e+001
,,,1.06400000e+008,-1.15221031e+002
,,,1.06800000e+008,-1.13551445e+002
,,,1.07200000e+008,-1.10532349e+002
,,,1.07600000e+008,-1.02353058e+002
,,,1.08000000e+008,-1.12985893e+002
,,,1.08400000e+008,-1.13959213e+002
,,,1.08800000e+008,-1.19170982e+002
,,,1.09200000e+008,-1.17543091e+002
,,,1.09600000e+008,-1.12144478e+002
,,,1.10000000e+008,-1.10252373e+002
,,,1.10400000e+008,-1.13956009e+002
,,,1.10800000e+008,-1.07727402e+002
,,,1.11200000e+008,-1.10293190e+002
,,,1.11600000e+008,-1.06031563e+002
,,,1.12000000e+008,-1.05895653e+002
,,,1.12400000e+008,-1.03723763e+002
,,,1.12800000e+008,-1.07563858e+002
,,,1.13200000e+008,-1.06029510e+002
,,,1.13600000e+008,-1.13280258e+002
,,,1.14000000e+008,-1.17484863e+002
,,,1.14400000e+008,-1.33650787e+002
,,,1.14800000e+008,-1.21938522e+002
,,,1.15200000e+008,-1.16827309e+002
,,,1.15600000e+008,-1.15244461e+002
,,,1.16000000e+008,-1.19584435e+002
,,,1.16400000e+008,-1.14726257e+002
,,,1.16800000e+008,-1.24285797e+002
,,,1.17200000e+008,-1.09907715e+002
,,,1.17600000e+008,-1.16678970e+002
,,,1.18000000e+008,-1.21208282e+002
,,,1.18400000e+008,-1.20877060e+002
,,,1.18800000e+008,-1.21563522e+002
,,,1.19200000e+008,-1.17090614e+002
,,,1.19600000e+008,-1.24693130e+002
,,,1.20000000e+008,-1.19608620e+002
,,,1.20400000e+008,-1.20498978e+002
,,,1.20800000e+008,-1.19073639e+002
,,,1.21200000e+008,-1.12040306e+002
,,,1.21600000e+008,-1.16045609e+002
,,,1.22000000e+008,-1.14336731e+002
,,,1.22400000e+008,-1.10493896e+002
,,,1.22800000e+008,-1.16129524e+002
,,,1.23200000e+008,-1.14781990e+002
,,,1.23600000e+008,-1.17376022e+002
,,,1.24000000e+008,-1.14352585e+002
,,,1.24400000e+008,-1.12735886e+002
,,,1.24800000e+008,-1.11163467e+002
,,,1.25200000e+008,-1.10402641e+002
,,,1.25600000e+008,-1.10309952e+002
,,,1.26000000e+008,-1.14059532e+002
,,,1.26400000e+008,-1.16424141e+002
,,,1.26800000e+008,-1.11489098e+002
,,,1.27200000e+008,-1.14227600e+002
,,,1.27600000e+008,-1.08333855e+002
,,,1.28000000e+008,-1.11189209e+002
,,,1.28400000e+008,-1.14824738e+002
,,,1.28800000e+008,-1.05179863e+002
,,,1.29200000e+008,-1.02883308e+002
,,,1.29600000e+008,-9.94844666e+001
,,,1.30000000e+008,-9.71516418e+001
,,,1.30400000e+008,-9.59167557e+001
,,,1.30800000e+008,-9.61527710e+001
,,,1.31200000e+008,-9.80195084e+001
,,,1.31600000e+008,-1.01179169e+002
,,,1.32000000e+008,-1.05970337e+002
,,,1.32400000e+008,-1.06739914e+002
,,,1.32800000e+008,-1.07058205e+002
,,,1.33200000e+008,-1.06367851e+002
,,,1.33600000e+008,-1.11131348e+002
,,,1.34000000e+008,-1.10822220e+002
,,,1.34400000e+008,-1.07810600e+002
,,,1.34800000e+008,-1.10352219e+002
,,,1.35200000e+008,-1.14807236e+002
,,,1.35600000e+008,-1.21557533e+002
,,,1.36000000e+008,-1.20066132e+002
,,,1.36400000e+008,-1.19943413e+002
,,,1.36800000e+008,-1.14607361e+002
,,,1.37200000e+008,-1.17009720e+002
,,,1.37600000e+008,-1.19104584e+002
,,,1.38000000e+008,-1.24100014e+002
,,,1.38400000e+008,-1.29076279e+002
,,,1.38800000e+008,-1.19866638e+002
,,,1.39200000e+008,-1.18918152e+002
,,,1.39600000e+008,-1.16304543e+002
,,,1.40000000e+008,-1.18078300e+002
,,,1.40400000e+008,-1.14704758e+002
,,,1.40800000e+008,-1.09270523e+002
,,,1.41200000e+008,-1.18004395e+002
,,,1.41600000e+008,-1.15667282e+002
,,,1.42000000e+008,-1.12260628e+002
,,,1.42400000e+008,-1.08681152e+002
,,,1.42800000e+008,-1.10681618e+002
,,,1.43200000e+008,-1.06580841e+002
,,,1.43600000e+008,-1.08418777e+002
,,,1.44000000e+008,-1.07564804e+002
,,,1.44400000e+008,-1.08943588e+002
,,,1.44800000e+008,-1.11255424e+002
,,,1.45200000e+008,-1.07410767e+002
,,,1.45600000e+008,-1.07637314e+002
,,,1.46000000e+008,-1.06343056e+002
,,,1.46400000e+008,-1.05715691e+002
,,,1.46800000e+008,-1.03617126e+002
,,,1.47200000e+008,-1.01555481e+002
,,,1.47600000e+008,-9.78988495e+001
,,,1.48000000e+008,-9.78858795e+001
,,,1.48400000e+008,-9.74342346e+001
,,,1.48800000e+008,-9.75224075e+001
,,,1.49200000e+008,-9.85078430e+001
,,,1.49600000e+008,-1.01324211e+002
,,,1.50000000e+008,-1.03545982e+002
,,,1.50400000e+008,-1.05569153e+002
,,,1.50800000e+008,-1.16874542e+002
,,,1.51200000e+008,-1.13722359e+002
,,,1.51600000e+008,-1.12440254e+002
,,,1.52000000e+008,-1.16306602e+002
,,,1.52400000e+008,-1.08914345e+002
,,,1.52800000e+008,-1.07901024e+002
,,,1.53200000e+008,-1.04133186e+002
,,,1.53600000e+008,-1.06422340e+002
,,,1.54000000e+008,-1.06915581e+002
,,,1.54400000e+008,-1.06806374e+002
,,,1.54800000e+008,-1.09889313e+002
,,,1.55200000e+008,-1.21201416e+002
,,,1.55600000e+008,-1.28943878e+002
,,,1.56000000e+008,-1.11235260e+002
,,,1.56400000e+008,-1.07076729e+002
,,,1.56800000e+008,-1.06105888e+002
,,,1.57200000e+008,-1.04989372e+002
,,,1.57600000e+008,-1.02476761e+002
,,,1.58000000e+008,-9.89606018e+001
,,,1.58400000e+008,-9.91465530e+001
,,,1.58800000e+008,-9.93350754e+001
,,,1.59200000e+008,-9.85031967e+001
,,,1.59600000e+008,-9.79205399e+001
,,,1.60000000e+008,-1.00411285e+002
,,,1.60400000e+008,-1.02893623e+002
,,,1.60800000e+008,-1.02016968e+002
,,,1.61200000e+008,-1.02357697e+002
,,,1.61600000e+008,-1.02547974e+002
,,,1.62000000e+008,-1.05871078e+002
,,,1.62400000e+008,-1.18326584e+002
,,,1.62800000e+008,-1.08534157e+002
,,,1.63200000e+008,-1.03088898e+002
,,,1.63600000e+008,-1.02051781e+002
,,,1.64000000e+008,-1.00671570e+002
,,,1.64400000e+008,-9.96025314e+001
,,,1.64800000e+008,-1.00992355e+002
,,,1.65200000e+008,-9.83876266e+001
,,,1.65600000e+008,-9.75926743e+001
,,,1.66000000e+008,-9.95729675e+001
,,,1.66400000e+008,-1.02927589e+002
,,,1.66800000e+008,-1.01650490e+002
,,,1.67200000e+008,-9.93319244e+001
,,,1.67600000e+008,-9.59577789e+001
,,,1.68000000e+008,-9.50528259e+001
,,,1.68400000e+008,-9.52628098e+001
,,,1.68800000e+008,-9.49052200e+001
,,,1.69200000e+008,-9.37417450e+001
,,,1.69600000e+008,-9.37842712e+001
,,,1.70000000e+008,-9.42160950e+001
,,,1.70400000e+008,-9.54108887e+001
,,,1.70800000e+008,-9.64800262e+001
,,,1.71200000e+008,-9.61449814e+001
,,,1.71600000e+008,-9.69443893e+001
,,,1.72000000e+008,-9.99241409e+001
,,,1.72400000e+008,-1.04228447e+002
,,,1.72800000e+008,-1.02211319e+002
,,,1.73200000e+008,-9.93788376e+001
,,,1.73600000e+008,-1.00816635e+002
,,,1.74000000e+008,-9.51054611e+001
,,,1.74400000e+008,-9.36638107e+001
,,,1.74800000e+008,-1.01391106e+002
,,,1.75200000e+008,-1.05293854e+002
,,,1.75600000e+008,-1.05040039e+002
,,,1.76000000e+008,-1.00733917e+002
,,,1.76400000e+008,-1.02373245e+002
,,,1.76800000e+008,-1.03389900e+002
,,,1.77200000e+008,-1.03833298e+002
,,,1.77600000e+008,-1.01981270e+002
,,,1.78000000e+008,-1.11069176e+002
,,,1.78400000e+008,-1.13513458e+002
,,,1.78800000e+008,-1.00479469e+002
,,,1.79200000e+008,-9.85269012e+001
,,,1.79600000e+008,-9.74630737e+001
,,,1.80000000e+008,-9.95278091e+001
,,,1.80400000e+008,-9.83794022e+001
,,,1.80800000e+008,-9.82560883e+001
,,,1.81200000e+008,-1.01166748e+002
,,,1.81600000e+008,-9.95062637e+001
,,,1.82000000e+008,-1.00473801e+002
,,,1.82400000e+008,-9.87424850e+001
,,,1.82800000e+008,-9.88168869e+001
,,,1.83200000e+008,-1.00251709e+002
,,,1.83600000e+008,-9.73544846e+001
,,,1.84000000e+008,-9.69292603e+001
,,,1.84400000e+008,-9.88148956e+001
,,,1.84800000e+008,-1.01708488e+002
,,,1.85200000e+008,-9.57024841e+001
,,,1.85600000e+008,-9.33211746e+001
,,,1.86000000e+008,-9.31101761e+001
,,,1.86400000e+008,-9.32309875e+001
,,,1.86800000e+008,-9.55858231e+001
,,,1.87200000e+008,-9.78886414e+001
,,,1.87600000e+008,-1.05841209e+002
,,,1.88000000e+008,-1.13114815e+002
,,,1.88400000e+008,-1.10056679e+002
,,,1.88800000e+008,-1.10436790e+002
,,,1.89200000e+008,-1.10495285e+002
,,,1.89600000e+008,-1.01600342e+002
,,,1.90000000e+008,-9.90833359e+001
,,,1.90400000e+008,-9.64991989e+001
,,,1.90800000e+008,-9.71032944e+001
,,,1.91200000e+008,-9.69369659e+001
,,,1.91600000e+008,-9.67398529e+001
,,,1.92000000e+008,-9.57790833e+001
,,,1.92400000e+008,-9.47626877e+001
,,,1.92800000e+008,-9.52214127e+001
,,,1.93200000e+008,-9.60059052e+001
,,,1.93600000e+008,-9.84727173e+001
,,,1.94000000e+008,-9.76087646e+001
,,,1.94400000e+008,-9.76164017e+001
,,,1.94800000e+008,-9.87201843e+001
,,,1.95200000e+008,-9.85883713e+001
,,,1.95600000e+008,-9.67922287e+001
,,,1.96000000e+008,-9.19994888e+001
,,,1.96400000e+008,-8.93315964e+001
,,,1.96800000e+008,-8.73921051e+001
,,,1.97200000e+008,-8.61205292e+001
,,,1.97600000e+008,-8.62282867e+001
,,,1.98000000e+008,-8.59216156e+001
,,,1.98400000e+008,-8.62816162e+001
,,,1.98800000e+008,-8.77578812e+001
,,,1.99200000e+008,-9.08152924e+001
,,,1.99600000e+008,-9.39490433e+001
,,,2.00000000e+008,-9.96581116e+001
,,,2.00400000e+008,-9.40519714e+001
,,,2.00800000e+008,-9.05417557e+001
,,,2.01200000e+008,-9.38534927e+001
,,,2.01600000e+008,-9.56708755e+001
,,,2.02000000e+008,-9.80277405e+001
,,,2.02400000e+008,-9.77634888e+001
,,,2.02800000e+008,-9.37999954e+001
,,,2.03200000e+008,-9.32242126e+001
,,,2.03600000e+008,-9.28829727e+001
,,,2.04000000e+008,-9.51435165e+001
,,,2.04400000e+008,-9.89399338e+001
,,,2.04800000e+008,-9.66441574e+001
,,,2.05200000e+008,-9.37370911e+001
,,,2.05600000e+008,-9.41040878e+001
,,,2.06000000e+008,-1.16452812e+002
,,,2.06400000e+008,-1.02598984e+002
,,,2.06800000e+008,-9.44537277e+001
,,,2.07200000e+008,-9.91331711e+001
,,,2.07600000e+008,-1.13071243e+002
,,,2.08000000e+008,-1.02625351e+002
,,,2.08400000e+008,-1.02875717e+002
,,,2.08800000e+008,-9.73795929e+001
,,,2.09200000e+008,-9.78966522e+001
,,,2.09600000e+008,-9.35517426e+001
,,,2.10000000e+008,-9.20159988e+001
,,,2.10400000e+008,-9.39195404e+001
,,,2.10800000e+008,-9.43324738e+001
,,,2.11200000e+008,-9.28602142e+001
,,,2.11600000e+008,-9.32960281e+001
,,,2.12000000e+008,-9.59205246e+001
,,,2.12400000e+008,-9.72592316e+001
,,,2.12800000e+008,-9.77566757e+001
,,,2.13200000e+008,-9.79195175e+001
,,,2.13600000e+008,-9.70031509e+001
,,,2.14000000e+008,-9.54715195e+001
,,,2.14400000e+008,-9.37493439e+001
,,,2.14800000e+008,-9.24904099e+001
,,,2.15200000e+008,-9.10394135e+001
,,,2.15600000e+008,-8.95295639e+001
,,,2.16000000e+008,-8.93676758e+001
,,,2.16400000e+008,-8.99585190e+001
,,,2.16800000e+008,-9.10049591e+001
,,,2.17200000e+008,-9.05883560e+001
,,,2.17600000e+008,-8.99680328e+001
,,,2.18000000e+008,-8.93401718e+001
,,,2.18400000e+008,-8.84956360e+001
,,,2.18800000e+008,-8.92704926e+001
,,,2.19200000e+008,-9.08829575e+001
,,,2.19600000e+008,-9.22729492e+001
,,,2.20000000e+008,-9.16047668e+001
