Data/20220822/UCLA_to_T1B_VPOL_NEG30_001_Ch2.csv

"Record Length",10000,"Points",-5.00800000e-007,1.00781425e-004
"Sample Interval",2.00000000e-010,s,-5.00600000e-007,1.14843926e-004
"Trigger Point",2504,"Samples",-5.00400000e-007,1.32812677e-004
"Trigger Time",0.00000000e+000,s,-5.00200000e-007,1.00000175e-004
"",,,-5.00000000e-007,9.29689242e-005
"Horizontal Offset",-5.00800000e-007,s,-4.99800000e-007,1.01562675e-004
,,,-4.99600000e-007,8.75001738e-005
,,,-4.99400000e-007,1.03906425e-004
,,,-4.99200000e-007,1.57031429e-004
,,,-4.99000000e-007,1.54687679e-004
,,,-4.98800000e-007,1.21875176e-004
,,,-4.98600000e-007,1.53906429e-004
,,,-4.98400000e-007,1.32031427e-004
,,,-4.98200000e-007,1.41406428e-004
,,,-4.98000000e-007,1.18750176e-004
,,,-4.97800000e-007,7.73439231e-005
,,,-4.97600000e-007,8.98439240e-005
,,,-4.97400000e-007,9.60939244e-005
,,,-4.97200000e-007,1.71875180e-004
,,,-4.97000000e-007,2.12500183e-004
,,,-4.96800000e-007,2.00000182e-004
,,,-4.96600000e-007,1.78906430e-004
,,,-4.96400000e-007,1.00781425e-004
,,,-4.96200000e-007,-4.68733269e-006
,,,-4.96000000e-007,2.42189194e-005
,,,-4.95800000e-007,4.68751710e-005
,,,-4.95600000e-007,6.32814221e-005
,,,-4.95400000e-007,1.53906429e-004
,,,-4.95200000e-007,2.00000182e-004
,,,-4.95000000e-007,2.32812684e-004
,,,-4.94800000e-007,1.44531428e-004
,,,-4.94600000e-007,6.95314226e-005
,,,-4.94400000e-007,1.56251687e-005
,,,-4.94200000e-007,-2.65623342e-005
,,,-4.94000000e-007,4.53126708e-005
,,,-4.93800000e-007,1.50000178e-004
,,,-4.93600000e-007,1.64062679e-004
,,,-4.93400000e-007,1.42187678e-004
,,,-4.93200000e-007,1.50000178e-004
,,,-4.93000000e-007,1.39062677e-004
,,,-4.92800000e-007,1.35937677e-004
,,,-4.92600000e-007,1.29687677e-004
,,,-4.92400000e-007,1.09375175e-004
,,,-4.92200000e-007,4.21876706e-005
,,,-4.92000000e-007,1.71876689e-005
,,,-4.91800000e-007,3.20314199e-005
,,,-4.91600000e-007,8.28126735e-005
,,,-4.91400000e-007,1.60156429e-004
,,,-4.91200000e-007,1.82031431e-004
,,,-4.91000000e-007,1.80468930e-004
,,,-4.90800000e-007,1.81250180e-004
,,,-4.90600000e-007,9.29689242e-005
,,,-4.90400000e-007,2.65626695e-005
,,,-4.90200000e-007,-1.71873336e-005
,,,-4.90000000e-007,2.03126691e-005
,,,-4.89800000e-007,9.68751745e-005
,,,-4.89600000e-007,1.82812681e-004
,,,-4.89400000e-007,2.50781435e-004
,,,-4.89200000e-007,2.51562685e-004
,,,-4.89000000e-007,1.61718929e-004
,,,-4.88800000e-007,1.25781427e-004
,,,-4.88600000e-007,7.10939227e-005
,,,-4.88400000e-007,2.81251696e-005
,,,-4.88200000e-007,7.89064232e-005
,,,-4.88000000e-007,1.07031425e-004
,,,-4.87800000e-007,1.39843928e-004
,,,-4.87600000e-007,1.86718931e-004
,,,-4.87400000e-007,2.12500183e-004
,,,-4.87200000e-007,1.89843931e-004
,,,-4.87000000e-007,1.67187679e-004
,,,-4.86800000e-007,6.79689224e-005
,,,-4.86600000e-007,8.12501734e-005
,,,-4.86400000e-007,4.76564210e-005
,,,-4.86200000e-007,7.73439231e-005
,,,-4.86000000e-007,1.02343925e-004
,,,-4.85800000e-007,1.26562677e-004
,,,-4.85600000e-007,1.37500177e-004
,,,-4.85400000e-007,1.75781430e-004
,,,-4.85200000e-007,1.20312676e-004
,,,-4.85000000e-007,1.00781425e-004
,,,-4.84800000e-007,1.27343927e-004
,,,-4.84600000e-007,1.32812677e-004
,,,-4.84400000e-007,1.27343927e-004
,,,-4.84200000e-007,1.53125178e-004
,,,-4.84000000e-007,5.39064215e-005
,,,-4.83800000e-007,3.98439205e-005
,,,-4.83600000e-007,7.34376728e-005
,,,-4.83400000e-007,1.07031425e-004
,,,-4.83200000e-007,2.02343932e-004
,,,-4.83000000e-007,2.08593932e-004
,,,-4.82800000e-007,2.10937683e-004
,,,-4.82600000e-007,1.49218928e-004
,,,-4.82400000e-007,2.26564192e-005
,,,-4.82200000e-007,-5.39060862e-005
,,,-4.82000000e-007,-6.40623369e-005
,,,-4.81800000e-007,4.76564210e-005
,,,-4.81600000e-007,1.37500177e-004
,,,-4.81400000e-007,2.27343934e-004
,,,-4.81200000e-007,2.32031434e-004
,,,-4.81000000e-007,1.73437680e-004
,,,-4.80800000e-007,8.98439240e-005
,,,-4.80600000e-007,-3.51560849e-005
,,,-4.80400000e-007,-2.10935839e-005
,,,-4.80200000e-007,8.59391825e-006
,,,-4.80000000e-007,1.27343927e-004
,,,-4.79800000e-007,2.17968933e-004
,,,-4.79600000e-007,2.25000184e-004
,,,-4.79400000e-007,1.81250180e-004
,,,-4.79200000e-007,1.75000180e-004
,,,-4.79000000e-007,6.40626722e-005
,,,-4.78800000e-007,4.14064206e-005
,,,-4.78600000e-007,8.90626739e-005
,,,-4.78400000e-007,7.18751727e-005
,,,-4.78200000e-007,1.19531426e-004
,,,-4.78000000e-007,1.64062679e-004
,,,-4.77800000e-007,1.67187679e-004
,,,-4.77600000e-007,1.82031431e-004
,,,-4.77400000e-007,1.10937675e-004
,,,-4.77200000e-007,9.76564246e-005
,,,-4.77000000e-007,7.18751727e-005
,,,-4.76800000e-007,6.87501725e-005
,,,-4.76600000e-007,1.36718927e-004
,,,-4.76400000e-007,1.39843928e-004
,,,-4.76200000e-007,1.55468929e-004
,,,-4.76000000e-007,1.00000175e-004
,,,-4.75800000e-007,7.34376728e-005
,,,-4.75600000e-007,6.40626722e-005
,,,-4.75400000e-007,8.75001738e-005
,,,-4.75200000e-007,1.32812677e-004
,,,-4.75000000e-007,1.68750180e-004
,,,-4.74800000e-007,2.10937683e-004
,,,-4.74600000e-007,1.73437680e-004
,,,-4.74400000e-007,8.51564237e-005
,,,-4.74200000e-007,2.18751692e-005
,,,-4.74000000e-007,1.09376684e-005
,,,-4.73800000e-007,4.60939209e-005
,,,-4.73600000e-007,1.57031429e-004
,,,-4.73400000e-007,2.19531433e-004
,,,-4.73200000e-007,2.43750185e-004
,,,-4.73000000e-007,2.07812682e-004
,,,-4.72800000e-007,8.51564237e-005
,,,-4.72600000e-007,2.57814195e-005
,,,-4.72400000e-007,-2.34358253e-006
,,,-4.72200000e-007,7.03141814e-006
,,,-4.72000000e-007,7.89064232e-005
,,,-4.71800000e-007,1.54687679e-004
,,,-4.71600000e-007,1.67968930e-004
,,,-4.71400000e-007,1.58593929e-004
,,,-4.71200000e-007,1.47656428e-004
,,,-4.71000000e-007,1.13281426e-004
,,,-4.70800000e-007,5.70314217e-005
,,,-4.70600000e-007,4.14064206e-005
,,,-4.70400000e-007,3.82814203e-005
,,,-4.70200000e-007,4.37501707e-005
,,,-4.70000000e-007,9.76564246e-005
,,,-4.69800000e-007,1.22656426e-004
,,,-4.69600000e-007,1.25781427e-004
,,,-4.69400000e-007,1.76562680e-004
,,,-4.69200000e-007,2.07031432e-004
,,,-4.69000000e-007,2.01562682e-004
,,,-4.68800000e-007,1.62500179e-004
,,,-4.68600000e-007,5.00001712e-005
,,,-4.68400000e-007,3.43751701e-005
,,,-4.68200000e-007,3.90641791e-006
,,,-4.68000000e-007,8.67189238e-005
,,,-4.67800000e-007,1.19531426e-004
,,,-4.67600000e-007,1.84375181e-004
,,,-4.67400000e-007,2.17187683e-004
,,,-4.67200000e-007,1.56250179e-004
,,,-4.67000000e-007,1.68750180e-004
,,,-4.66800000e-007,9.60939244e-005
,,,-4.66600000e-007,4.92189211e-005
,,,-4.66400000e-007,3.90626704e-005
,,,-4.66200000e-007,-6.24983280e-006
,,,-4.66000000e-007,7.73439231e-005
,,,-4.65800000e-007,1.47656428e-004
,,,-4.65600000e-007,2.25000184e-004
,,,-4.65400000e-007,2.32812684e-004
,,,-4.65200000e-007,1.86718931e-004
,,,-4.65000000e-007,1.34375177e-004
,,,-4.64800000e-007,9.68751745e-005
,,,-4.64600000e-007,3.51564201e-005
,,,-4.64400000e-007,5.31251714e-005
,,,-4.64200000e-007,7.57814230e-005
,,,-4.64000000e-007,8.35939236e-005
,,,-4.63800000e-007,1.89062681e-004
,,,-4.63600000e-007,2.01562682e-004
,,,-4.63400000e-007,1.93750181e-004
,,,-4.63200000e-007,1.26562677e-004
,,,-4.63000000e-007,1.10156425e-004
,,,-4.62800000e-007,1.19531426e-004
,,,-4.62600000e-007,7.34376728e-005
,,,-4.62400000e-007,9.37501743e-005
,,,-4.62200000e-007,1.02343925e-004
,,,-4.62000000e-007,1.09375175e-004
,,,-4.61800000e-007,7.73439231e-005
,,,-4.61600000e-007,5.46876715e-005
,,,-4.61400000e-007,1.28906427e-004
,,,-4.61200000e-007,1.60937679e-004
,,,-4.61000000e-007,1.82812681e-004
,,,-4.60800000e-007,1.35156427e-004
,,,-4.60600000e-007,1.05468925e-004
,,,-4.60400000e-007,5.15626713e-005
,,,-4.60200000e-007,2.10939191e-005
,,,-4.60000000e-007,-1.95310837e-005
,,,-4.59800000e-007,1.05468925e-004
,,,-4.59600000e-007,1.88281431e-004
,,,-4.59400000e-007,2.14062683e-004
,,,-4.59200000e-007,2.54687686e-004
,,,-4.59000000e-007,1.45312678e-004
,,,-4.58800000e-007,7.57814230e-005
,,,-4.58600000e-007,3.75001703e-005
,,,-4.58400000e-007,1.67638063e-010
,,,-4.58200000e-007,1.05468925e-004
,,,-4.58000000e-007,1.22656426e-004
,,,-4.57800000e-007,1.67187679e-004
,,,-4.57600000e-007,1.89062681e-004
,,,-4.57400000e-007,1.65625179e-004
,,,-4.57200000e-007,1.59375179e-004
,,,-4.57000000e-007,8.43751736e-005
,,,-4.56800000e-007,2.50001694e-005
,,,-4.56600000e-007,2.96876697e-005
,,,-4.56400000e-007,2.18751692e-005
,,,-4.56200000e-007,8.98439240e-005
,,,-4.56000000e-007,1.39843928e-004
,,,-4.55800000e-007,1.71875180e-004
,,,-4.55600000e-007,2.34375184e-004
,,,-4.55400000e-007,1.90625181e-004
,,,-4.55200000e-007,1.35937677e-004
,,,-4.55000000e-007,8.51564237e-005
,,,-4.54800000e-007,2.10939191e-005
,,,-4.54600000e-007,3.12516786e-006
,,,-4.54400000e-007,6.25001721e-005
,,,-4.54200000e-007,1.69531430e-004
,,,-4.54000000e-007,2.30468934e-004
,,,-4.53800000e-007,2.10156433e-004
,,,-4.53600000e-007,2.03125182e-004
,,,-4.53400000e-007,9.60939244e-005
,,,-4.53200000e-007,7.65626731e-005
,,,-4.53000000e-007,8.82814239e-005
,,,-4.52800000e-007,8.51564237e-005
,,,-4.52600000e-007,1.12500176e-004
,,,-4.52400000e-007,7.81251732e-005
,,,-4.52200000e-007,1.00781425e-004
,,,-4.52000000e-007,1.53906429e-004
,,,-4.51800000e-007,1.63281429e-004
,,,-4.51600000e-007,2.02343932e-004
,,,-4.51400000e-007,1.52343928e-004
,,,-4.51200000e-007,1.00000175e-004
,,,-4.51000000e-007,5.46876715e-005
,,,-4.50800000e-007,9.37516830e-006
,,,-4.50600000e-007,5.70314217e-005
,,,-4.50400000e-007,7.89064232e-005
,,,-4.50200000e-007,1.75000180e-004
,,,-4.50000000e-007,1.89843931e-004
,,,-4.49800000e-007,1.45312678e-004
,,,-4.49600000e-007,1.52343928e-004
,,,-4.49400000e-007,7.42189229e-005
,,,-4.49200000e-007,3.82814203e-005
,,,-4.49000000e-007,6.17189220e-005
,,,-4.48800000e-007,1.04687675e-004
,,,-4.48600000e-007,1.68750180e-004
,,,-4.48400000e-007,1.43750178e-004
,,,-4.48200000e-007,1.00000175e-004
,,,-4.48000000e-007,7.50001729e-005
,,,-4.47800000e-007,5.00001712e-005
,,,-4.47600000e-007,7.65626731e-005
,,,-4.47400000e-007,1.34375177e-004
,,,-4.47200000e-007,1.55468929e-004
,,,-4.47000000e-007,1.42187678e-004
,,,-4.46800000e-007,9.14064241e-005
,,,-4.46600000e-007,7.89064232e-005
,,,-4.46400000e-007,7.26564228e-005
,,,-4.46200000e-007,5.85939218e-005
,,,-4.46000000e-007,1.00000175e-004
,,,-4.45800000e-007,1.28125177e-004
,,,-4.45600000e-007,1.71875180e-004
,,,-4.45400000e-007,1.62500179e-004
,,,-4.45200000e-007,8.43751736e-005
,,,-4.45000000e-007,9.76564246e-005
,,,-4.44800000e-007,1.24218926e-004
,,,-4.44600000e-007,1.15625176e-004
,,,-4.44400000e-007,1.32031427e-004
,,,-4.44200000e-007,1.16406426e-004
,,,-4.44000000e-007,1.07812675e-004
,,,-4.43800000e-007,1.20312676e-004
,,,-4.43600000e-007,1.39843928e-004
,,,-4.43400000e-007,1.53125178e-004
,,,-4.43200000e-007,1.65625179e-004
,,,-4.43000000e-007,1.41406428e-004
,,,-4.42800000e-007,1.18750176e-004
,,,-4.42600000e-007,5.15626713e-005
,,,-4.42400000e-007,1.28125177e-004
,,,-4.42200000e-007,1.39843928e-004
,,,-4.42000000e-007,1.51562678e-004
,,,-4.41800000e-007,1.82031431e-004
,,,-4.41600000e-007,1.14843926e-004
,,,-4.41400000e-007,1.25781427e-004
,,,-4.41200000e-007,5.62501716e-005
,,,-4.41000000e-007,8.12501734e-005
,,,-4.40800000e-007,1.36718927e-004
,,,-4.40600000e-007,1.31250177e-004
,,,-4.40400000e-007,1.42968928e-004
,,,-4.40200000e-007,1.50781428e-004
,,,-4.40000000e-007,1.05468925e-004
,,,-4.39800000e-007,1.10156425e-004
,,,-4.39600000e-007,5.00001712e-005
,,,-4.39400000e-007,1.03125175e-004
,,,-4.39200000e-007,1.43750178e-004
,,,-4.39000000e-007,1.18750176e-004
,,,-4.38800000e-007,1.76562680e-004
,,,-4.38600000e-007,1.04687675e-004
,,,-4.38400000e-007,5.70314217e-005
,,,-4.38200000e-007,4.53126708e-005
,,,-4.38000000e-007,6.64064223e-005
,,,-4.37800000e-007,1.05468925e-004
,,,-4.37600000e-007,1.24218926e-004
,,,-4.37400000e-007,9.37501743e-005
,,,-4.37200000e-007,7.57814230e-005
,,,-4.37000000e-007,5.31251714e-005
,,,-4.36800000e-007,1.10156425e-004
,,,-4.36600000e-007,1.00781425e-004
,,,-4.36400000e-007,1.12500176e-004
,,,-4.36200000e-007,1.30468927e-004
,,,-4.36000000e-007,5.62501716e-005
,,,-4.35800000e-007,8.35939236e-005
,,,-4.35600000e-007,8.51564237e-005
,,,-4.35400000e-007,9.14064241e-005
,,,-4.35200000e-007,1.85156431e-004
,,,-4.35000000e-007,1.80468930e-004
,,,-4.34800000e-007,1.80468930e-004
,,,-4.34600000e-007,1.39062677e-004
,,,-4.34400000e-007,7.26564228e-005
,,,-4.34200000e-007,4.68751710e-005
,,,-4.34000000e-007,6.87501725e-005
,,,-4.33800000e-007,8.67189238e-005
,,,-4.33600000e-007,1.76562680e-004
,,,-4.33400000e-007,1.98437682e-004
,,,-4.33200000e-007,2.08593932e-004
,,,-4.33000000e-007,1.73437680e-004
,,,-4.32800000e-007,8.59376737e-005
,,,-4.32600000e-007,5.93751718e-005
,,,-4.32400000e-007,4.92189211e-005
,,,-4.32200000e-007,6.09376720e-005
,,,-4.32000000e-007,1.10937675e-004
,,,-4.31800000e-007,1.09375175e-004
,,,-4.31600000e-007,2.01562682e-004
,,,-4.31400000e-007,1.76562680e-004
,,,-4.31200000e-007,1.53906429e-004
,,,-4.31000000e-007,1.28125177e-004
,,,-4.30800000e-007,9.21876742e-005
,,,-4.30600000e-007,8.98439240e-005
,,,-4.30400000e-007,7.65626731e-005
,,,-4.30200000e-007,5.93751718e-005
,,,-4.30000000e-007,1.27343927e-004
,,,-4.29800000e-007,1.57812679e-004
,,,-4.29600000e-007,1.81250180e-004
,,,-4.29400000e-007,1.61718929e-004
,,,-4.29200000e-007,1.28906427e-004
,,,-4.29000000e-007,6.71876724e-005
,,,-4.28800000e-007,3.90626704e-005
,,,-4.28600000e-007,5.46876715e-005
,,,-4.28400000e-007,1.14062676e-004
,,,-4.28200000e-007,1.57812679e-004
,,,-4.28000000e-007,1.08593925e-004
,,,-4.27800000e-007,7.18751727e-005
,,,-4.27600000e-007,5.07814212e-005
,,,-4.27400000e-007,5.70314217e-005
,,,-4.27200000e-007,7.65626731e-005
,,,-4.27000000e-007,1.67187679e-004
,,,-4.26800000e-007,1.79687680e-004
,,,-4.26600000e-007,1.32031427e-004
,,,-4.26400000e-007,8.59376737e-005
,,,-4.26200000e-007,1.56266775e-006
,,,-4.26000000e-007,2.03126691e-005
,,,-4.25800000e-007,5.78126717e-005
,,,-4.25600000e-007,9.92189247e-005
,,,-4.25400000e-007,2.37500184e-004
,,,-4.25200000e-007,2.34375184e-004
,,,-4.25000000e-007,2.19531433e-004
,,,-4.24800000e-007,1.62500179e-004
,,,-4.24600000e-007,2.18751692e-005
,,,-4.24400000e-007,-2.26560840e-005
,,,-4.24200000e-007,1.25001685e-005
,,,-4.24000000e-007,8.43751736e-005
,,,-4.23800000e-007,1.61718929e-004
,,,-4.23600000e-007,1.96093932e-004
,,,-4.23400000e-007,2.07031432e-004
,,,-4.23200000e-007,1.60937679e-004
,,,-4.23000000e-007,1.39843928e-004
,,,-4.22800000e-007,6.32814221e-005
,,,-4.22600000e-007,7.03126726e-005
,,,-4.22400000e-007,4.29689207e-005
,,,-4.22200000e-007,5.00001712e-005
,,,-4.22000000e-007,7.42189229e-005
,,,-4.21800000e-007,1.66406429e-004
,,,-4.21600000e-007,1.86718931e-004
,,,-4.21400000e-007,2.32812684e-004
,,,-4.21200000e-007,1.59375179e-004
,,,-4.21000000e-007,1.07031425e-004
,,,-4.20800000e-007,7.34376728e-005
,,,-4.20600000e-007,3.82814203e-005
,,,-4.20400000e-007,5.23439213e-005
,,,-4.20200000e-007,1.05468925e-004
,,,-4.20000000e-007,1.64062679e-004
,,,-4.19800000e-007,2.28125184e-004
,,,-4.19600000e-007,1.59375179e-004
,,,-4.19400000e-007,1.52343928e-004
,,,-4.19200000e-007,1.02343925e-004
,,,-4.19000000e-007,6.48439222e-005
,,,-4.18800000e-007,1.17187676e-004
,,,-4.18600000e-007,7.89064232e-005
,,,-4.18400000e-007,8.12501734e-005
,,,-4.18200000e-007,5.00001712e-005
,,,-4.18000000e-007,4.84376711e-005
,,,-4.17800000e-007,9.45314243e-005
,,,-4.17600000e-007,1.39843928e-004
,,,-4.17400000e-007,1.62500179e-004
,,,-4.17200000e-007,1.79687680e-004
,,,-4.17000000e-007,1.47656428e-004
,,,-4.16800000e-007,4.45314208e-005
,,,-4.16600000e-007,-3.59373349e-005
,,,-4.16400000e-007,-1.40623334e-005
,,,-4.16200000e-007,6.95314226e-005
,,,-4.16000000e-007,1.28125177e-004
,,,-4.15800000e-007,2.05468932e-004
,,,-4.15600000e-007,1.82812681e-004
,,,-4.15400000e-007,1.63281429e-004
,,,-4.15200000e-007,1.27343927e-004
,,,-4.15000000e-007,3.43751701e-005
,,,-4.14800000e-007,6.01564219e-005
,,,-4.14600000e-007,7.73439231e-005
,,,-4.14400000e-007,9.76564246e-005
,,,-4.14200000e-007,1.54687679e-004
,,,-4.14000000e-007,1.25000176e-004
,,,-4.13800000e-007,1.39062677e-004
,,,-4.13600000e-007,1.58593929e-004
,,,-4.13400000e-007,1.42968928e-004
,,,-4.13200000e-007,1.85156431e-004
,,,-4.13000000e-007,1.60156429e-004
,,,-4.12800000e-007,8.67189238e-005
,,,-4.12600000e-007,4.37501707e-005
,,,-4.12400000e-007,-5.46858275e-006
,,,-4.12200000e-007,6.09376720e-005
,,,-4.12000000e-007,1.68750180e-004
,,,-4.11800000e-007,2.02343932e-004
,,,-4.11600000e-007,2.44531435e-004
,,,-4.11400000e-007,1.90625181e-004
,,,-4.11200000e-007,1.60156429e-004
,,,-4.11000000e-007,8.51564237e-005
,,,-4.10800000e-007,2.89064197e-005
,,,-4.10600000e-007,2.26564192e-005
,,,-4.10400000e-007,5.39064215e-005
,,,-4.10200000e-007,9.21876742e-005
,,,-4.10000000e-007,1.55468929e-004
,,,-4.09800000e-007,1.99218932e-004
,,,-4.09600000e-007,2.54687686e-004
,,,-4.09400000e-007,2.33593934e-004
,,,-4.09200000e-007,1.69531430e-004
,,,-4.09000000e-007,8.20314234e-005
,,,-4.08800000e-007,2.34376693e-005
,,,-4.08600000e-007,-1.95310837e-005
,,,-4.08400000e-007,1.32814186e-005
,,,-4.08200000e-007,9.76564246e-005
,,,-4.08000000e-007,1.94531431e-004
,,,-4.07800000e-007,2.46093935e-004
,,,-4.07600000e-007,2.86718938e-004
,,,-4.07400000e-007,1.47656428e-004
,,,-4.07200000e-007,-7.81233291e-006
,,,-4.07000000e-007,-4.37498355e-005
,,,-4.06800000e-007,-4.06248352e-005
,,,-4.06600000e-007,1.56266775e-006
,,,-4.06400000e-007,1.53906429e-004
,,,-4.06200000e-007,1.84375181e-004
,,,-4.06000000e-007,2.42968935e-004
,,,-4.05800000e-007,1.78906430e-004
,,,-4.05600000e-007,8.90626739e-005
,,,-4.05400000e-007,6.17189220e-005
,,,-4.05200000e-007,2.89064197e-005
,,,-4.05000000e-007,6.32814221e-005
,,,-4.04800000e-007,1.17968926e-004
,,,-4.04600000e-007,1.14843926e-004
,,,-4.04400000e-007,1.27343927e-004
,,,-4.04200000e-007,1.17968926e-004
,,,-4.04000000e-007,1.28906427e-004
,,,-4.03800000e-007,1.20312676e-004
,,,-4.03600000e-007,1.50781428e-004
,,,-4.03400000e-007,1.53125178e-004
,,,-4.03200000e-007,8.67189238e-005
,,,-4.03000000e-007,6.17189220e-005
,,,-4.02800000e-007,4.53126708e-005
,,,-4.02600000e-007,6.40626722e-005
,,,-4.02400000e-007,1.46093928e-004
,,,-4.02200000e-007,1.90625181e-004
,,,-4.02000000e-007,1.96875182e-004
,,,-4.01800000e-007,1.50000178e-004
,,,-4.01600000e-007,1.32031427e-004
,,,-4.01400000e-007,1.21875176e-004
,,,-4.01200000e-007,9.14064241e-005
,,,-4.01000000e-007,7.26564228e-005
,,,-4.00800000e-007,1.14843926e-004
,,,-4.00600000e-007,7.57814230e-005
,,,-4.00400000e-007,1.50781428e-004
,,,-4.00200000e-007,1.63281429e-004
,,,-4.00000000e-007,1.48437678e-004
,,,-3.99800000e-007,1.96875182e-004
,,,-3.99600000e-007,1.02343925e-004
,,,-3.99400000e-007,8.98439240e-005
,,,-3.99200000e-007,6.71876724e-005
,,,-3.99000000e-007,5.85939218e-005
,,,-3.98800000e-007,6.71876724e-005
,,,-3.98600000e-007,6.32814221e-005
,,,-3.98400000e-007,1.22656426e-004
,,,-3.98200000e-007,2.07812682e-004
,,,-3.98000000e-007,1.90625181e-004
,,,-3.97800000e-007,1.68750180e-004
,,,-3.97600000e-007,3.82814203e-005
,,,-3.97400000e-007,2.18751692e-005
,,,-3.97200000e-007,6.95314226e-005
,,,-3.97000000e-007,1.06250175e-004
,,,-3.96800000e-007,1.67968930e-004
,,,-3.96600000e-007,1.26562677e-004
,,,-3.96400000e-007,1.40625178e-004
,,,-3.96200000e-007,9.92189247e-005
,,,-3.96000000e-007,9.53126744e-005
,,,-3.95800000e-007,1.28906427e-004
,,,-3.95600000e-007,1.32812677e-004
,,,-3.95400000e-007,1.27343927e-004
,,,-3.95200000e-007,9.53126744e-005
,,,-3.95000000e-007,4.60939209e-005
,,,-3.94800000e-007,7.03126726e-005
,,,-3.94600000e-007,3.75001703e-005
,,,-3.94400000e-007,8.90626739e-005
,,,-3.94200000e-007,1.67968930e-004
,,,-3.94000000e-007,1.78125180e-004
,,,-3.93800000e-007,1.97656432e-004
,,,-3.93600000e-007,1.50000178e-004
,,,-3.93400000e-007,-1.32810833e-005
,,,-3.93200000e-007,3.04689198e-005
,,,-3.93000000e-007,2.65626695e-005
,,,-3.92800000e-007,8.90626739e-005
,,,-3.92600000e-007,1.89843931e-004
,,,-3.92400000e-007,1.87500181e-004
,,,-3.92200000e-007,2.46093935e-004
,,,-3.92000000e-007,1.53125178e-004
,,,-3.91800000e-007,9.45314243e-005
,,,-3.91600000e-007,7.89064232e-005
,,,-3.91400000e-007,3.51564201e-005
,,,-3.91200000e-007,9.37501743e-005
,,,-3.91000000e-007,1.23437676e-004
