Data/20220822/UCLA_to_R2B_HPOL_20_001_Math1.csv

"Record Length",6250,"Points",0.00000000e+000,-1.32261477e+001
"Sample Interval",4.00000000e+005,Hz,4.00000000e+005,-1.98123283e+001
"Trigger Point",0,"Samples",8.00000000e+005,-2.17169895e+001
"Trigger Time",0.00000000e+000,Hz,1.20000000e+006,-2.51253986e+001
"",,,1.60000000e+006,-3.18167858e+001
"Horizontal Offset",0.00000000e+000,Hz,2.00000000e+006,-6.77824783e+001
,,,2.40000000e+006,-3.53691978e+001
,,,2.80000000e+006,-3.25179787e+001
,,,3.20000000e+006,-3.36810608e+001
,,,3.60000000e+006,-3.92426987e+001
,,,4.00000000e+006,-6.45221558e+001
,,,4.40000000e+006,-4.03888130e+001
,,,4.80000000e+006,-3.75514870e+001
,,,5.20000000e+006,-3.79106216e+001
,,,5.60000000e+006,-4.26531143e+001
,,,6.00000000e+006,-6.52570190e+001
,,,6.40000000e+006,-4.35766487e+001
,,,6.80000000e+006,-4.00542030e+001
,,,7.20000000e+006,-4.09799576e+001
,,,7.60000000e+006,-4.47174606e+001
,,,8.00000000e+006,-7.19293900e+001
,,,8.40000000e+006,-4.62488670e+001
,,,8.80000000e+006,-4.23228378e+001
,,,9.20000000e+006,-4.28354721e+001
,,,9.60000000e+006,-4.74489059e+001
,,,1.00000000e+007,-7.24371490e+001
,,,1.04000000e+007,-4.68776779e+001
,,,1.08000000e+007,-4.41393509e+001
,,,1.12000000e+007,-4.58167839e+001
,,,1.16000000e+007,-4.78807449e+001
,,,1.20000000e+007,-7.40293121e+001
,,,1.24000000e+007,-4.97697678e+001
,,,1.28000000e+007,-4.55225449e+001
,,,1.32000000e+007,-4.64007187e+001
,,,1.36000000e+007,-4.98446884e+001
,,,1.40000000e+007,-7.57063065e+001
,,,1.44000000e+007,-5.00468407e+001
,,,1.48000000e+007,-4.65631447e+001
,,,1.52000000e+007,-4.78648987e+001
,,,1.56000000e+007,-5.09946709e+001
,,,1.60000000e+007,-6.74013443e+001
,,,1.64000000e+007,-5.32417068e+001
,,,1.68000000e+007,-4.74719162e+001
,,,1.72000000e+007,-4.84554291e+001
,,,1.76000000e+007,-5.27423935e+001
,,,1.80000000e+007,-6.67321701e+001
,,,1.84000000e+007,-5.39116669e+001
,,,1.88000000e+007,-4.81871223e+001
,,,1.92000000e+007,-4.98036232e+001
,,,1.96000000e+007,-5.48540649e+001
,,,2.00000000e+007,-7.49854736e+001
,,,2.04000000e+007,-5.39644775e+001
,,,2.08000000e+007,-5.12971992e+001
,,,2.12000000e+007,-4.98870773e+001
,,,2.16000000e+007,-5.52330208e+001
,,,2.20000000e+007,-6.40320053e+001
,,,2.24000000e+007,-5.70999413e+001
,,,2.28000000e+007,-5.07021866e+001
,,,2.32000000e+007,-5.08388100e+001
,,,2.36000000e+007,-5.42616310e+001
,,,2.40000000e+007,-6.94063873e+001
,,,2.44000000e+007,-5.38224716e+001
,,,2.48000000e+007,-5.11981430e+001
,,,2.52000000e+007,-5.29895782e+001
,,,2.56000000e+007,-5.46567841e+001
,,,2.60000000e+007,-6.33491554e+001
,,,2.64000000e+007,-5.40911026e+001
,,,2.68000000e+007,-5.28953133e+001
,,,2.72000000e+007,-5.10387154e+001
,,,2.76000000e+007,-5.90407600e+001
,,,2.80000000e+007,-7.43194962e+001
,,,2.84000000e+007,-5.65365982e+001
,,,2.88000000e+007,-5.37590256e+001
,,,2.92000000e+007,-5.16660194e+001
,,,2.96000000e+007,-5.98355446e+001
,,,3.00000000e+007,-7.21504822e+001
,,,3.04000000e+007,-5.55627937e+001
,,,3.08000000e+007,-5.62475891e+001
,,,3.12000000e+007,-5.21920509e+001
,,,3.16000000e+007,-6.02251282e+001
,,,3.20000000e+007,-6.50244522e+001
,,,3.24000000e+007,-5.70482674e+001
,,,3.28000000e+007,-5.65811768e+001
,,,3.32000000e+007,-5.21049500e+001
,,,3.36000000e+007,-5.80522041e+001
,,,3.40000000e+007,-6.99224091e+001
,,,3.44000000e+007,-5.62039909e+001
,,,3.48000000e+007,-5.59791451e+001
,,,3.52000000e+007,-5.37874756e+001
,,,3.56000000e+007,-5.49777260e+001
,,,3.60000000e+007,-7.89483185e+001
,,,3.64000000e+007,-5.56550140e+001
,,,3.68000000e+007,-5.56315651e+001
,,,3.72000000e+007,-5.40587196e+001
,,,3.76000000e+007,-5.93448219e+001
,,,3.80000000e+007,-6.75735397e+001
,,,3.84000000e+007,-5.61774864e+001
,,,3.88000000e+007,-5.50172043e+001
,,,3.92000000e+007,-5.42997742e+001
,,,3.96000000e+007,-5.60426788e+001
,,,4.00000000e+007,-6.34971542e+001
,,,4.04000000e+007,-5.71646233e+001
,,,4.08000000e+007,-5.71052933e+001
,,,4.12000000e+007,-5.66953011e+001
,,,4.16000000e+007,-5.78283157e+001
,,,4.20000000e+007,-6.70036163e+001
,,,4.24000000e+007,-5.89399033e+001
,,,4.28000000e+007,-5.77026329e+001
,,,4.32000000e+007,-5.59574356e+001
,,,4.36000000e+007,-5.77256699e+001
,,,4.40000000e+007,-6.63352890e+001
,,,4.44000000e+007,-6.07559128e+001
,,,4.48000000e+007,-5.29147186e+001
,,,4.52000000e+007,-5.80664024e+001
,,,4.56000000e+007,-5.92194710e+001
,,,4.60000000e+007,-7.29654999e+001
,,,4.64000000e+007,-6.15764809e+001
,,,4.68000000e+007,-5.37085571e+001
,,,4.72000000e+007,-5.67663116e+001
,,,4.76000000e+007,-6.25181656e+001
,,,4.80000000e+007,-6.55826950e+001
,,,4.84000000e+007,-6.42123947e+001
,,,4.88000000e+007,-5.39071922e+001
,,,4.92000000e+007,-6.29511909e+001
,,,4.96000000e+007,-6.05665703e+001
,,,5.00000000e+007,-7.69804306e+001
,,,5.04000000e+007,-6.27579002e+001
,,,5.08000000e+007,-5.57217522e+001
,,,5.12000000e+007,-5.78930550e+001
,,,5.16000000e+007,-6.26434174e+001
,,,5.20000000e+007,-6.89684296e+001
,,,5.24000000e+007,-5.96551094e+001
,,,5.28000000e+007,-5.80863991e+001
,,,5.32000000e+007,-6.03405724e+001
,,,5.36000000e+007,-5.69296951e+001
,,,5.40000000e+007,-6.04795189e+001
,,,5.44000000e+007,-6.32018166e+001
,,,5.48000000e+007,-5.74343605e+001
,,,5.52000000e+007,-5.80047760e+001
,,,5.56000000e+007,-7.06470413e+001
,,,5.60000000e+007,-6.91111679e+001
,,,5.64000000e+007,-6.32642174e+001
,,,5.68000000e+007,-5.48277550e+001
,,,5.72000000e+007,-5.71107292e+001
,,,5.76000000e+007,-7.14277649e+001
,,,5.80000000e+007,-7.25801010e+001
,,,5.84000000e+007,-6.05336037e+001
,,,5.88000000e+007,-5.95586967e+001
,,,5.92000000e+007,-5.81212196e+001
,,,5.96000000e+007,-6.32181244e+001
,,,6.00000000e+007,-6.62390518e+001
,,,6.04000000e+007,-5.74103851e+001
,,,6.08000000e+007,-5.69872971e+001
,,,6.12000000e+007,-6.15833740e+001
,,,6.16000000e+007,-6.95006714e+001
,,,6.20000000e+007,-7.51806259e+001
,,,6.24000000e+007,-6.52130814e+001
,,,6.28000000e+007,-5.91342163e+001
,,,6.32000000e+007,-5.84243355e+001
,,,6.36000000e+007,-6.43199081e+001
,,,6.40000000e+007,-7.65657730e+001
,,,6.44000000e+007,-6.06397743e+001
,,,6.48000000e+007,-5.74711838e+001
,,,6.52000000e+007,-5.86925354e+001
,,,6.56000000e+007,-7.17080917e+001
,,,6.60000000e+007,-7.64021912e+001
,,,6.64000000e+007,-6.18512878e+001
,,,6.68000000e+007,-6.58252335e+001
,,,6.72000000e+007,-5.70087090e+001
,,,6.76000000e+007,-6.62817612e+001
,,,6.80000000e+007,-6.32425461e+001
,,,6.84000000e+007,-5.86278152e+001
,,,6.88000000e+007,-6.11992569e+001
,,,6.92000000e+007,-5.89256592e+001
,,,6.96000000e+007,-6.48793106e+001
,,,7.00000000e+007,-7.34328308e+001
,,,7.04000000e+007,-6.00318527e+001
,,,7.08000000e+007,-6.47219467e+001
,,,7.12000000e+007,-5.54172020e+001
,,,7.16000000e+007,-6.98639374e+001
,,,7.20000000e+007,-6.94839630e+001
,,,7.24000000e+007,-6.35482445e+001
,,,7.28000000e+007,-6.19352913e+001
,,,7.32000000e+007,-5.93370552e+001
,,,7.36000000e+007,-7.40802383e+001
,,,7.40000000e+007,-7.31278458e+001
,,,7.44000000e+007,-7.16846695e+001
,,,7.48000000e+007,-5.92317085e+001
,,,7.52000000e+007,-5.87787170e+001
,,,7.56000000e+007,-6.70489807e+001
,,,7.60000000e+007,-6.61876755e+001
,,,7.64000000e+007,-6.52762756e+001
,,,7.68000000e+007,-5.87608261e+001
,,,7.72000000e+007,-6.14373207e+001
,,,7.76000000e+007,-6.28274345e+001
,,,7.80000000e+007,-7.62528152e+001
,,,7.84000000e+007,-7.98469086e+001
,,,7.88000000e+007,-5.93618088e+001
,,,7.92000000e+007,-6.01634979e+001
,,,7.96000000e+007,-6.44850769e+001
,,,8.00000000e+007,-6.55625153e+001
,,,8.04000000e+007,-6.56781693e+001
,,,8.08000000e+007,-5.97840271e+001
,,,8.12000000e+007,-6.39032478e+001
,,,8.16000000e+007,-6.16996994e+001
,,,8.20000000e+007,-6.61050415e+001
,,,8.24000000e+007,-7.70940933e+001
,,,8.28000000e+007,-5.89313278e+001
,,,8.32000000e+007,-6.84126129e+001
,,,8.36000000e+007,-6.58970184e+001
,,,8.40000000e+007,-6.57759933e+001
,,,8.44000000e+007,-6.57984924e+001
,,,8.48000000e+007,-6.00156555e+001
,,,8.52000000e+007,-6.49311447e+001
,,,8.56000000e+007,-6.40459137e+001
,,,8.60000000e+007,-7.28238754e+001
,,,8.64000000e+007,-6.32780075e+001
,,,8.68000000e+007,-5.92426834e+001
,,,8.72000000e+007,-6.72859039e+001
,,,8.76000000e+007,-6.04200058e+001
,,,8.80000000e+007,-6.56023026e+001
,,,8.84000000e+007,-6.38123283e+001
,,,8.88000000e+007,-6.48703842e+001
,,,8.92000000e+007,-6.03762474e+001
,,,8.96000000e+007,-6.37502785e+001
,,,9.00000000e+007,-6.43429565e+001
,,,9.04000000e+007,-7.01808243e+001
,,,9.08000000e+007,-6.51441116e+001
,,,9.12000000e+007,-5.73330345e+001
,,,9.16000000e+007,-6.38098335e+001
,,,9.20000000e+007,-7.02242584e+001
,,,9.24000000e+007,-6.40067444e+001
,,,9.28000000e+007,-8.32836990e+001
,,,9.32000000e+007,-5.50487137e+001
,,,9.36000000e+007,-6.48119431e+001
,,,9.40000000e+007,-6.40147171e+001
,,,9.44000000e+007,-6.84933395e+001
,,,9.48000000e+007,-6.00555344e+001
,,,9.52000000e+007,-6.42504501e+001
,,,9.56000000e+007,-6.53637390e+001
,,,9.60000000e+007,-6.97332764e+001
,,,9.64000000e+007,-6.56751938e+001
,,,9.68000000e+007,-6.06473312e+001
,,,9.72000000e+007,-5.48539009e+001
,,,9.76000000e+007,-6.49176178e+001
,,,9.80000000e+007,-6.16567230e+001
,,,9.84000000e+007,-6.12911606e+001
,,,9.88000000e+007,-6.19195251e+001
,,,9.92000000e+007,-6.01260643e+001
,,,9.96000000e+007,-7.21302872e+001
,,,1.00000000e+008,-6.47577896e+001
,,,1.00400000e+008,-6.40906448e+001
,,,1.00800000e+008,-7.93397751e+001
,,,1.01200000e+008,-5.65292931e+001
,,,1.01600000e+008,-6.93735886e+001
,,,1.02000000e+008,-6.89345398e+001
,,,1.02400000e+008,-6.40189209e+001
,,,1.02800000e+008,-6.93287659e+001
,,,1.03200000e+008,-5.54958839e+001
,,,1.03600000e+008,-6.84398499e+001
,,,1.04000000e+008,-6.88962173e+001
,,,1.04400000e+008,-6.18072052e+001
,,,1.04800000e+008,-6.06655426e+001
,,,1.05200000e+008,-7.05898209e+001
,,,1.05600000e+008,-6.72436905e+001
,,,1.06000000e+008,-5.85444107e+001
,,,1.06400000e+008,-6.38031235e+001
,,,1.06800000e+008,-5.90995789e+001
,,,1.07200000e+008,-5.99354477e+001
,,,1.07600000e+008,-7.60226364e+001
,,,1.08000000e+008,-7.01078949e+001
,,,1.08400000e+008,-6.82106476e+001
,,,1.08800000e+008,-6.08765602e+001
,,,1.09200000e+008,-6.62347488e+001
,,,1.09600000e+008,-7.32555618e+001
,,,1.10000000e+008,-7.58072205e+001
,,,1.10400000e+008,-6.76704254e+001
,,,1.10800000e+008,-6.69084396e+001
,,,1.11200000e+008,-6.94195023e+001
,,,1.11600000e+008,-6.76330566e+001
,,,1.12000000e+008,-7.23228683e+001
,,,1.12400000e+008,-6.25851212e+001
,,,1.12800000e+008,-6.96780777e+001
,,,1.13200000e+008,-5.80661163e+001
,,,1.13600000e+008,-7.40366516e+001
,,,1.14000000e+008,-7.18195190e+001
,,,1.14400000e+008,-6.44739761e+001
,,,1.14800000e+008,-7.18284607e+001
,,,1.15200000e+008,-6.11635513e+001
,,,1.15600000e+008,-6.86848984e+001
,,,1.16000000e+008,-7.97883224e+001
,,,1.16400000e+008,-7.26599045e+001
,,,1.16800000e+008,-5.94159622e+001
,,,1.17200000e+008,-6.31973915e+001
,,,1.17600000e+008,-7.03537979e+001
,,,1.18000000e+008,-7.31121292e+001
,,,1.18400000e+008,-6.63413925e+001
,,,1.18800000e+008,-6.73678513e+001
,,,1.19200000e+008,-6.09421768e+001
,,,1.19600000e+008,-6.94423752e+001
,,,1.20000000e+008,-8.65161438e+001
,,,1.20400000e+008,-6.85365295e+001
,,,1.20800000e+008,-6.56997604e+001
,,,1.21200000e+008,-6.75903473e+001
,,,1.21600000e+008,-6.61557465e+001
,,,1.22000000e+008,-8.07625885e+001
,,,1.22400000e+008,-7.68540649e+001
,,,1.22800000e+008,-6.39965820e+001
,,,1.23200000e+008,-6.48562393e+001
,,,1.23600000e+008,-6.43056564e+001
,,,1.24000000e+008,-6.26248322e+001
,,,1.24400000e+008,-6.34549599e+001
,,,1.24800000e+008,-6.04944077e+001
,,,1.25200000e+008,-6.03630753e+001
,,,1.25600000e+008,-7.00856705e+001
,,,1.26000000e+008,-7.57518158e+001
,,,1.26400000e+008,-6.79544067e+001
,,,1.26800000e+008,-6.24299583e+001
,,,1.27200000e+008,-7.31831818e+001
,,,1.27600000e+008,-5.86283417e+001
,,,1.28000000e+008,-6.52520752e+001
,,,1.28400000e+008,-6.53476410e+001
,,,1.28800000e+008,-5.81792183e+001
,,,1.29200000e+008,-5.86503372e+001
,,,1.29600000e+008,-5.42593842e+001
,,,1.30000000e+008,-5.36122322e+001
,,,1.30400000e+008,-5.26724625e+001
,,,1.30800000e+008,-4.96989136e+001
,,,1.31200000e+008,-5.25524445e+001
,,,1.31600000e+008,-5.51754646e+001
,,,1.32000000e+008,-5.85703468e+001
,,,1.32400000e+008,-5.58034134e+001
,,,1.32800000e+008,-5.77563972e+001
,,,1.33200000e+008,-6.18676147e+001
,,,1.33600000e+008,-6.27727242e+001
,,,1.34000000e+008,-6.54850845e+001
,,,1.34400000e+008,-6.25889359e+001
,,,1.34800000e+008,-6.12019157e+001
,,,1.35200000e+008,-6.16936836e+001
,,,1.35600000e+008,-6.21689262e+001
,,,1.36000000e+008,-6.11475716e+001
,,,1.36400000e+008,-6.05645523e+001
,,,1.36800000e+008,-6.93225937e+001
,,,1.37200000e+008,-6.49643097e+001
,,,1.37600000e+008,-6.77015152e+001
,,,1.38000000e+008,-6.22601051e+001
,,,1.38400000e+008,-5.84448662e+001
,,,1.38800000e+008,-5.92155533e+001
,,,1.39200000e+008,-6.09754753e+001
,,,1.39600000e+008,-6.51001816e+001
,,,1.40000000e+008,-6.41963501e+001
,,,1.40400000e+008,-6.09863510e+001
,,,1.40800000e+008,-6.13858871e+001
,,,1.41200000e+008,-6.02017746e+001
,,,1.41600000e+008,-7.32521439e+001
,,,1.42000000e+008,-6.89901276e+001
,,,1.42400000e+008,-5.95240364e+001
,,,1.42800000e+008,-6.22893372e+001
,,,1.43200000e+008,-5.69984970e+001
,,,1.43600000e+008,-5.84331665e+001
,,,1.44000000e+008,-5.98113022e+001
,,,1.44400000e+008,-5.70023651e+001
,,,1.44800000e+008,-5.62555618e+001
,,,1.45200000e+008,-5.41470146e+001
,,,1.45600000e+008,-5.72444763e+001
,,,1.46000000e+008,-5.57496109e+001
,,,1.46400000e+008,-5.24717369e+001
,,,1.46800000e+008,-5.10392952e+001
,,,1.47200000e+008,-4.78335037e+001
,,,1.47600000e+008,-4.85951805e+001
,,,1.48000000e+008,-4.62434273e+001
,,,1.48400000e+008,-4.50901413e+001
,,,1.48800000e+008,-4.53795090e+001
,,,1.49200000e+008,-4.39527931e+001
,,,1.49600000e+008,-4.50960236e+001
,,,1.50000000e+008,-4.64316292e+001
,,,1.50400000e+008,-4.85090904e+001
,,,1.50800000e+008,-5.01855049e+001
,,,1.51200000e+008,-5.31188545e+001
,,,1.51600000e+008,-5.38295059e+001
,,,1.52000000e+008,-5.94316750e+001
,,,1.52400000e+008,-5.78456650e+001
,,,1.52800000e+008,-5.47828293e+001
,,,1.53200000e+008,-5.52712669e+001
,,,1.53600000e+008,-5.36086273e+001
,,,1.54000000e+008,-5.57516212e+001
,,,1.54400000e+008,-5.62097969e+001
,,,1.54800000e+008,-5.51740723e+001
,,,1.55200000e+008,-5.75135956e+001
,,,1.55600000e+008,-5.32982101e+001
,,,1.56000000e+008,-5.90261230e+001
,,,1.56400000e+008,-5.92907562e+001
,,,1.56800000e+008,-5.52701378e+001
,,,1.57200000e+008,-5.95090981e+001
,,,1.57600000e+008,-5.29166946e+001
,,,1.58000000e+008,-5.93361053e+001
,,,1.58400000e+008,-5.84607658e+001
,,,1.58800000e+008,-5.06182213e+001
,,,1.59200000e+008,-5.51046104e+001
,,,1.59600000e+008,-5.31469650e+001
,,,1.60000000e+008,-5.23299255e+001
,,,1.60400000e+008,-5.32548103e+001
,,,1.60800000e+008,-5.14515114e+001
,,,1.61200000e+008,-5.55446701e+001
,,,1.61600000e+008,-5.13783379e+001
,,,1.62000000e+008,-5.10239983e+001
,,,1.62400000e+008,-4.95932312e+001
,,,1.62800000e+008,-4.73530540e+001
,,,1.63200000e+008,-5.23670197e+001
,,,1.63600000e+008,-4.83795815e+001
,,,1.64000000e+008,-4.62856026e+001
,,,1.64400000e+008,-4.77450600e+001
,,,1.64800000e+008,-4.76497231e+001
,,,1.65200000e+008,-4.84950218e+001
,,,1.65600000e+008,-4.59280663e+001
,,,1.66000000e+008,-4.42308693e+001
,,,1.66400000e+008,-4.34592209e+001
,,,1.66800000e+008,-4.34022064e+001
,,,1.67200000e+008,-4.46817551e+001
,,,1.67600000e+008,-4.56094856e+001
,,,1.68000000e+008,-4.54653549e+001
,,,1.68400000e+008,-4.52811623e+001
,,,1.68800000e+008,-4.61419716e+001
,,,1.69200000e+008,-4.55580826e+001
,,,1.69600000e+008,-4.68315506e+001
,,,1.70000000e+008,-4.84188118e+001
,,,1.70400000e+008,-4.98597260e+001
,,,1.70800000e+008,-5.20410805e+001
,,,1.71200000e+008,-5.01447906e+001
,,,1.71600000e+008,-5.09711990e+001
,,,1.72000000e+008,-4.86799965e+001
,,,1.72400000e+008,-4.86586800e+001
,,,1.72800000e+008,-5.19422302e+001
,,,1.73200000e+008,-4.96728210e+001
,,,1.73600000e+008,-5.22790947e+001
,,,1.74000000e+008,-4.99332542e+001
,,,1.74400000e+008,-4.89106598e+001
,,,1.74800000e+008,-5.31987724e+001
,,,1.75200000e+008,-4.95931396e+001
,,,1.75600000e+008,-4.97069740e+001
,,,1.76000000e+008,-5.06112480e+001
,,,1.76400000e+008,-4.96660309e+001
,,,1.76800000e+008,-4.81298447e+001
,,,1.77200000e+008,-4.52939148e+001
,,,1.77600000e+008,-4.71899719e+001
,,,1.78000000e+008,-4.52881279e+001
,,,1.78400000e+008,-4.39325256e+001
,,,1.78800000e+008,-4.62313728e+001
,,,1.79200000e+008,-4.56862946e+001
,,,1.79600000e+008,-4.69393272e+001
,,,1.80000000e+008,-4.68808098e+001
,,,1.80400000e+008,-4.49051361e+001
,,,1.80800000e+008,-4.46215668e+001
,,,1.81200000e+008,-4.33696175e+001
,,,1.81600000e+008,-4.25547028e+001
,,,1.82000000e+008,-4.05211601e+001
,,,1.82400000e+008,-3.96733437e+001
,,,1.82800000e+008,-3.91413307e+001
,,,1.83200000e+008,-3.76812515e+001
,,,1.83600000e+008,-3.75199394e+001
,,,1.84000000e+008,-3.74514542e+001
,,,1.84400000e+008,-3.80330429e+001
,,,1.84800000e+008,-3.84572945e+001
,,,1.85200000e+008,-3.87000160e+001
,,,1.85600000e+008,-3.85749817e+001
,,,1.86000000e+008,-3.86245804e+001
,,,1.86400000e+008,-3.91756287e+001
,,,1.86800000e+008,-3.94172592e+001
,,,1.87200000e+008,-4.08505745e+001
,,,1.87600000e+008,-4.09987068e+001
,,,1.88000000e+008,-4.18088760e+001
,,,1.88400000e+008,-4.29720802e+001
,,,1.88800000e+008,-4.23963661e+001
,,,1.89200000e+008,-4.40280533e+001
,,,1.89600000e+008,-4.33598442e+001
,,,1.90000000e+008,-4.25889931e+001
,,,1.90400000e+008,-4.28279953e+001
,,,1.90800000e+008,-4.16043320e+001
,,,1.91200000e+008,-4.21048279e+001
,,,1.91600000e+008,-4.17217636e+001
,,,1.92000000e+008,-4.14555855e+001
,,,1.92400000e+008,-4.16639519e+001
,,,1.92800000e+008,-4.10355377e+001
,,,1.93200000e+008,-4.13047485e+001
,,,1.93600000e+008,-4.01955299e+001
,,,1.94000000e+008,-3.98497696e+001
,,,1.94400000e+008,-3.96047745e+001
,,,1.94800000e+008,-3.85574150e+001
,,,1.95200000e+008,-3.91761017e+001
,,,1.95600000e+008,-3.90532150e+001
,,,1.96000000e+008,-3.85146027e+001
,,,1.96400000e+008,-3.82562256e+001
,,,1.96800000e+008,-3.80701408e+001
,,,1.97200000e+008,-3.82942581e+001
,,,1.97600000e+008,-3.80092697e+001
,,,1.98000000e+008,-3.79735413e+001
,,,1.98400000e+008,-3.80735130e+001
,,,1.98800000e+008,-3.73258591e+001
,,,1.99200000e+008,-3.59602737e+001
,,,1.99600000e+008,-3.47494392e+001
,,,2.00000000e+008,-3.40819550e+001
,,,2.00400000e+008,-3.38258629e+001
,,,2.00800000e+008,-3.44142609e+001
,,,2.01200000e+008,-3.48270226e+001
,,,2.01600000e+008,-3.57997475e+001
,,,2.02000000e+008,-3.65750237e+001
,,,2.02400000e+008,-3.63308640e+001
,,,2.02800000e+008,-3.68431244e+001
,,,2.03200000e+008,-3.68450813e+001
,,,2.03600000e+008,-3.72555122e+001
,,,2.04000000e+008,-3.79708900e+001
,,,2.04400000e+008,-3.79496040e+001
,,,2.04800000e+008,-3.82812691e+001
,,,2.05200000e+008,-3.78093605e+001
,,,2.05600000e+008,-3.84919586e+001
,,,2.06000000e+008,-4.02106285e+001
,,,2.06400000e+008,-3.86134033e+001
,,,2.06800000e+008,-3.71956406e+001
,,,2.07200000e+008,-3.77274818e+001
,,,2.07600000e+008,-3.70652046e+001
,,,2.08000000e+008,-3.61574249e+001
,,,2.08400000e+008,-3.74280128e+001
,,,2.08800000e+008,-3.58523521e+001
,,,2.09200000e+008,-3.33905182e+001
,,,2.09600000e+008,-3.45530624e+001
,,,2.10000000e+008,-3.51227493e+001
,,,2.10400000e+008,-3.46169128e+001
,,,2.10800000e+008,-3.46848755e+001
,,,2.11200000e+008,-3.43434448e+001
,,,2.11600000e+008,-3.46233253e+001
,,,2.12000000e+008,-3.43536797e+001
,,,2.12400000e+008,-3.37187996e+001
,,,2.12800000e+008,-3.35116463e+001
,,,2.13200000e+008,-3.34922943e+001
,,,2.13600000e+008,-3.38267899e+001
,,,2.14000000e+008,-3.39935303e+001
,,,2.14400000e+008,-3.38823204e+001
,,,2.14800000e+008,-3.40111618e+001
,,,2.15200000e+008,-3.47780190e+001
,,,2.15600000e+008,-3.49383316e+001
,,,2.16000000e+008,-3.53521538e+001
,,,2.16400000e+008,-3.65240784e+001
,,,2.16800000e+008,-3.68298149e+001
,,,2.17200000e+008,-3.70416336e+001
,,,2.17600000e+008,-3.70181313e+001
,,,2.18000000e+008,-3.71071320e+001
,,,2.18400000e+008,-3.69670944e+001
,,,2.18800000e+008,-3.66180382e+001
,,,2.19200000e+008,-3.73764915e+001
,,,2.19600000e+008,-3.74790382e+001
,,,2.20000000e+008,-3.74577446e+001
