Data/20220822/UCLA_to_R2B_HPOL_10_001_Math2.csv

"Record Length",6250,"Points",0.00000000e+000,-7.16357346e+001
"Sample Interval",4.00000000e+005,Hz,4.00000000e+005,-7.82593536e+001
"Trigger Point",0,"Samples",8.00000000e+005,-8.00573349e+001
"Trigger Time",0.00000000e+000,Hz,1.20000000e+006,-8.34590530e+001
"",,,1.60000000e+006,-9.00307007e+001
"Horizontal Offset",0.00000000e+000,Hz,2.00000000e+006,-1.15166695e+002
,,,2.40000000e+006,-9.30691986e+001
,,,2.80000000e+006,-9.13135223e+001
,,,3.20000000e+006,-9.16894226e+001
,,,3.60000000e+006,-9.80215607e+001
,,,4.00000000e+006,-1.19683784e+002
,,,4.40000000e+006,-9.79527817e+001
,,,4.80000000e+006,-9.58747253e+001
,,,5.20000000e+006,-9.66635666e+001
,,,5.60000000e+006,-1.01910088e+002
,,,6.00000000e+006,-1.19669113e+002
,,,6.40000000e+006,-1.01371468e+002
,,,6.80000000e+006,-9.95090103e+001
,,,7.20000000e+006,-9.93407974e+001
,,,7.60000000e+006,-1.04779480e+002
,,,8.00000000e+006,-1.18730759e+002
,,,8.40000000e+006,-1.04646767e+002
,,,8.80000000e+006,-1.01022209e+002
,,,9.20000000e+006,-1.01562447e+002
,,,9.60000000e+006,-1.05892784e+002
,,,1.00000000e+007,-1.12177246e+002
,,,1.04000000e+007,-1.05170380e+002
,,,1.08000000e+007,-1.03286331e+002
,,,1.12000000e+007,-1.03922523e+002
,,,1.16000000e+007,-1.06391296e+002
,,,1.20000000e+007,-1.14073662e+002
,,,1.24000000e+007,-1.08513084e+002
,,,1.28000000e+007,-1.03821770e+002
,,,1.32000000e+007,-1.07180557e+002
,,,1.36000000e+007,-1.06086456e+002
,,,1.40000000e+007,-1.19626526e+002
,,,1.44000000e+007,-1.08064697e+002
,,,1.48000000e+007,-1.05486137e+002
,,,1.52000000e+007,-1.07923294e+002
,,,1.56000000e+007,-1.07292580e+002
,,,1.60000000e+007,-1.21735786e+002
,,,1.64000000e+007,-1.08670448e+002
,,,1.68000000e+007,-1.08037621e+002
,,,1.72000000e+007,-1.07275719e+002
,,,1.76000000e+007,-1.07345291e+002
,,,1.80000000e+007,-1.12251778e+002
,,,1.84000000e+007,-1.11500946e+002
,,,1.88000000e+007,-1.11115898e+002
,,,1.92000000e+007,-1.07195755e+002
,,,1.96000000e+007,-1.08174210e+002
,,,2.00000000e+007,-1.10431076e+002
,,,2.04000000e+007,-1.22918076e+002
,,,2.08000000e+007,-1.07126953e+002
,,,2.12000000e+007,-1.06162079e+002
,,,2.16000000e+007,-1.15701561e+002
,,,2.20000000e+007,-1.18004211e+002
,,,2.24000000e+007,-1.15812462e+002
,,,2.28000000e+007,-1.09947899e+002
,,,2.32000000e+007,-1.08776680e+002
,,,2.36000000e+007,-1.18604126e+002
,,,2.40000000e+007,-1.33651352e+002
,,,2.44000000e+007,-1.17108223e+002
,,,2.48000000e+007,-1.11364998e+002
,,,2.52000000e+007,-1.07662224e+002
,,,2.56000000e+007,-1.14786789e+002
,,,2.60000000e+007,-1.15114449e+002
,,,2.64000000e+007,-1.17387154e+002
,,,2.68000000e+007,-1.11913101e+002
,,,2.72000000e+007,-1.08140678e+002
,,,2.76000000e+007,-1.18897888e+002
,,,2.80000000e+007,-1.28954880e+002
,,,2.84000000e+007,-1.12700958e+002
,,,2.88000000e+007,-1.12903061e+002
,,,2.92000000e+007,-1.09954811e+002
,,,2.96000000e+007,-1.16764153e+002
,,,3.00000000e+007,-1.26868271e+002
,,,3.04000000e+007,-1.11635696e+002
,,,3.08000000e+007,-1.12006432e+002
,,,3.12000000e+007,-1.12782761e+002
,,,3.16000000e+007,-1.17068054e+002
,,,3.20000000e+007,-1.23577629e+002
,,,3.24000000e+007,-1.15137711e+002
,,,3.28000000e+007,-1.13553955e+002
,,,3.32000000e+007,-1.12460350e+002
,,,3.36000000e+007,-1.17367607e+002
,,,3.40000000e+007,-1.19372665e+002
,,,3.44000000e+007,-1.12669174e+002
,,,3.48000000e+007,-1.18681198e+002
,,,3.52000000e+007,-1.12456245e+002
,,,3.56000000e+007,-1.13843567e+002
,,,3.60000000e+007,-1.24692154e+002
,,,3.64000000e+007,-1.13728546e+002
,,,3.68000000e+007,-1.16407455e+002
,,,3.72000000e+007,-1.11069572e+002
,,,3.76000000e+007,-1.15331406e+002
,,,3.80000000e+007,-1.27295959e+002
,,,3.84000000e+007,-1.13433434e+002
,,,3.88000000e+007,-1.19897240e+002
,,,3.92000000e+007,-1.09535782e+002
,,,3.96000000e+007,-1.12309952e+002
,,,4.00000000e+007,-1.20608757e+002
,,,4.04000000e+007,-1.12935844e+002
,,,4.08000000e+007,-1.17180656e+002
,,,4.12000000e+007,-1.09645302e+002
,,,4.16000000e+007,-1.19123459e+002
,,,4.20000000e+007,-1.15439728e+002
,,,4.24000000e+007,-1.17079407e+002
,,,4.28000000e+007,-1.16231178e+002
,,,4.32000000e+007,-1.14547264e+002
,,,4.36000000e+007,-1.15115768e+002
,,,4.40000000e+007,-1.23320518e+002
,,,4.44000000e+007,-1.19451721e+002
,,,4.48000000e+007,-1.10862671e+002
,,,4.52000000e+007,-1.15740303e+002
,,,4.56000000e+007,-1.25165939e+002
,,,4.60000000e+007,-1.22797432e+002
,,,4.64000000e+007,-1.16038704e+002
,,,4.68000000e+007,-1.13460709e+002
,,,4.72000000e+007,-1.13792511e+002
,,,4.76000000e+007,-1.21203156e+002
,,,4.80000000e+007,-1.18848076e+002
,,,4.84000000e+007,-1.21647697e+002
,,,4.88000000e+007,-1.14443245e+002
,,,4.92000000e+007,-1.21999092e+002
,,,4.96000000e+007,-1.15907814e+002
,,,5.00000000e+007,-1.20724113e+002
,,,5.04000000e+007,-1.20823486e+002
,,,5.08000000e+007,-1.14306549e+002
,,,5.12000000e+007,-1.21413208e+002
,,,5.16000000e+007,-1.16804924e+002
,,,5.20000000e+007,-1.31317749e+002
,,,5.24000000e+007,-1.18683853e+002
,,,5.28000000e+007,-1.15419746e+002
,,,5.32000000e+007,-1.14432693e+002
,,,5.36000000e+007,-1.17295250e+002
,,,5.40000000e+007,-1.29231384e+002
,,,5.44000000e+007,-1.15107857e+002
,,,5.48000000e+007,-1.16451988e+002
,,,5.52000000e+007,-1.19974564e+002
,,,5.56000000e+007,-1.16496773e+002
,,,5.60000000e+007,-1.22403900e+002
,,,5.64000000e+007,-1.16641754e+002
,,,5.68000000e+007,-1.20145897e+002
,,,5.72000000e+007,-1.15365242e+002
,,,5.76000000e+007,-1.14962875e+002
,,,5.80000000e+007,-1.16524467e+002
,,,5.84000000e+007,-1.19951820e+002
,,,5.88000000e+007,-1.18861130e+002
,,,5.92000000e+007,-1.18664299e+002
,,,5.96000000e+007,-1.20743347e+002
,,,6.00000000e+007,-1.22341843e+002
,,,6.04000000e+007,-1.21876747e+002
,,,6.08000000e+007,-1.16936951e+002
,,,6.12000000e+007,-1.13364380e+002
,,,6.16000000e+007,-1.18174103e+002
,,,6.20000000e+007,-1.26850906e+002
,,,6.24000000e+007,-1.16702240e+002
,,,6.28000000e+007,-1.18214149e+002
,,,6.32000000e+007,-1.19751572e+002
,,,6.36000000e+007,-1.19351616e+002
,,,6.40000000e+007,-1.35319366e+002
,,,6.44000000e+007,-1.19707024e+002
,,,6.48000000e+007,-1.17403069e+002
,,,6.52000000e+007,-1.14273224e+002
,,,6.56000000e+007,-1.18453499e+002
,,,6.60000000e+007,-1.22918991e+002
,,,6.64000000e+007,-1.18378067e+002
,,,6.68000000e+007,-1.16307236e+002
,,,6.72000000e+007,-1.14321259e+002
,,,6.76000000e+007,-1.34004517e+002
,,,6.80000000e+007,-1.23688240e+002
,,,6.84000000e+007,-1.11523621e+002
,,,6.88000000e+007,-1.21354240e+002
,,,6.92000000e+007,-1.16873619e+002
,,,6.96000000e+007,-1.33469955e+002
,,,7.00000000e+007,-1.20640076e+002
,,,7.04000000e+007,-1.14601662e+002
,,,7.08000000e+007,-1.21544853e+002
,,,7.12000000e+007,-1.21764580e+002
,,,7.16000000e+007,-1.30413330e+002
,,,7.20000000e+007,-1.20925285e+002
,,,7.24000000e+007,-1.19698906e+002
,,,7.28000000e+007,-1.17335869e+002
,,,7.32000000e+007,-1.24783531e+002
,,,7.36000000e+007,-1.20163261e+002
,,,7.40000000e+007,-1.20872269e+002
,,,7.44000000e+007,-1.18528328e+002
,,,7.48000000e+007,-1.19006599e+002
,,,7.52000000e+007,-1.20026848e+002
,,,7.56000000e+007,-1.21716759e+002
,,,7.60000000e+007,-1.25356049e+002
,,,7.64000000e+007,-1.17483086e+002
,,,7.68000000e+007,-1.17194862e+002
,,,7.72000000e+007,-1.25871017e+002
,,,7.76000000e+007,-1.31610992e+002
,,,7.80000000e+007,-1.20930901e+002
,,,7.84000000e+007,-1.24886421e+002
,,,7.88000000e+007,-1.20167465e+002
,,,7.92000000e+007,-1.26277771e+002
,,,7.96000000e+007,-1.17943596e+002
,,,8.00000000e+007,-1.36294525e+002
,,,8.04000000e+007,-1.24443848e+002
,,,8.08000000e+007,-1.16329491e+002
,,,8.12000000e+007,-1.24297882e+002
,,,8.16000000e+007,-1.15650215e+002
,,,8.20000000e+007,-1.18138817e+002
,,,8.24000000e+007,-1.23883545e+002
,,,8.28000000e+007,-1.14871254e+002
,,,8.32000000e+007,-1.31802704e+002
,,,8.36000000e+007,-1.16434578e+002
,,,8.40000000e+007,-1.16738487e+002
,,,8.44000000e+007,-1.35129608e+002
,,,8.48000000e+007,-1.17461212e+002
,,,8.52000000e+007,-1.21055573e+002
,,,8.56000000e+007,-1.18234627e+002
,,,8.60000000e+007,-1.20647385e+002
,,,8.64000000e+007,-1.17848434e+002
,,,8.68000000e+007,-1.13685905e+002
,,,8.72000000e+007,-1.17475449e+002
,,,8.76000000e+007,-1.26656532e+002
,,,8.80000000e+007,-1.16966309e+002
,,,8.84000000e+007,-1.26363319e+002
,,,8.88000000e+007,-1.13525124e+002
,,,8.92000000e+007,-1.19610382e+002
,,,8.96000000e+007,-1.18605507e+002
,,,9.00000000e+007,-1.12699837e+002
,,,9.04000000e+007,-1.16560310e+002
,,,9.08000000e+007,-1.14625252e+002
,,,9.12000000e+007,-1.14547882e+002
,,,9.16000000e+007,-1.22300293e+002
,,,9.20000000e+007,-1.22165375e+002
,,,9.24000000e+007,-1.12756554e+002
,,,9.28000000e+007,-1.15420197e+002
,,,9.32000000e+007,-1.17442902e+002
,,,9.36000000e+007,-1.11616470e+002
,,,9.40000000e+007,-1.09629532e+002
,,,9.44000000e+007,-1.10286728e+002
,,,9.48000000e+007,-1.08740196e+002
,,,9.52000000e+007,-1.26089836e+002
,,,9.56000000e+007,-1.20030983e+002
,,,9.60000000e+007,-1.12903625e+002
,,,9.64000000e+007,-1.12986969e+002
,,,9.68000000e+007,-1.31907776e+002
,,,9.72000000e+007,-1.11414375e+002
,,,9.76000000e+007,-1.12852844e+002
,,,9.80000000e+007,-1.07792709e+002
,,,9.84000000e+007,-1.31995102e+002
,,,9.88000000e+007,-1.13548828e+002
,,,9.92000000e+007,-1.14466873e+002
,,,9.96000000e+007,-1.12979294e+002
,,,1.00000000e+008,-1.14363472e+002
,,,1.00400000e+008,-1.11721291e+002
,,,1.00800000e+008,-1.20139297e+002
,,,1.01200000e+008,-1.18241356e+002
,,,1.01600000e+008,-1.10774612e+002
,,,1.02000000e+008,-1.18403152e+002
,,,1.02400000e+008,-1.23516083e+002
,,,1.02800000e+008,-1.28765991e+002
,,,1.03200000e+008,-1.16024330e+002
,,,1.03600000e+008,-1.10077301e+002
,,,1.04000000e+008,-1.27364151e+002
,,,1.04400000e+008,-1.14067894e+002
,,,1.04800000e+008,-1.13120193e+002
,,,1.05200000e+008,-1.10644630e+002
,,,1.05600000e+008,-1.15572739e+002
,,,1.06000000e+008,-1.10577377e+002
,,,1.06400000e+008,-1.25431778e+002
,,,1.06800000e+008,-1.21209595e+002
,,,1.07200000e+008,-1.22239189e+002
,,,1.07600000e+008,-1.08567787e+002
,,,1.08000000e+008,-1.16542191e+002
,,,1.08400000e+008,-1.14048386e+002
,,,1.08800000e+008,-1.15719116e+002
,,,1.09200000e+008,-1.25764877e+002
,,,1.09600000e+008,-1.18371544e+002
,,,1.10000000e+008,-1.16184113e+002
,,,1.10400000e+008,-1.33936813e+002
,,,1.10800000e+008,-1.14990311e+002
,,,1.11200000e+008,-1.29725006e+002
,,,1.11600000e+008,-1.36607620e+002
,,,1.12000000e+008,-1.17381119e+002
,,,1.12400000e+008,-1.19638596e+002
,,,1.12800000e+008,-1.20404938e+002
,,,1.13200000e+008,-1.18786041e+002
,,,1.13600000e+008,-1.17018867e+002
,,,1.14000000e+008,-1.26787041e+002
,,,1.14400000e+008,-1.32717667e+002
,,,1.14800000e+008,-1.11132751e+002
,,,1.15200000e+008,-1.32375732e+002
,,,1.15600000e+008,-1.30932632e+002
,,,1.16000000e+008,-1.22344940e+002
,,,1.16400000e+008,-1.19655884e+002
,,,1.16800000e+008,-1.27175529e+002
,,,1.17200000e+008,-1.30078918e+002
,,,1.17600000e+008,-1.19301132e+002
,,,1.18000000e+008,-1.22525047e+002
,,,1.18400000e+008,-1.21596306e+002
,,,1.18800000e+008,-1.18172691e+002
,,,1.19200000e+008,-1.20153976e+002
,,,1.19600000e+008,-1.32218719e+002
,,,1.20000000e+008,-1.23621704e+002
,,,1.20400000e+008,-1.24492172e+002
,,,1.20800000e+008,-1.17045677e+002
,,,1.21200000e+008,-1.27620705e+002
,,,1.21600000e+008,-1.28338486e+002
,,,1.22000000e+008,-1.29325104e+002
,,,1.22400000e+008,-1.16552872e+002
,,,1.22800000e+008,-1.16531197e+002
,,,1.23200000e+008,-1.23457970e+002
,,,1.23600000e+008,-1.22452736e+002
,,,1.24000000e+008,-1.36189194e+002
,,,1.24400000e+008,-1.29866959e+002
,,,1.24800000e+008,-1.22505478e+002
,,,1.25200000e+008,-1.17901382e+002
,,,1.25600000e+008,-1.21832184e+002
,,,1.26000000e+008,-1.24691048e+002
,,,1.26400000e+008,-1.19818214e+002
,,,1.26800000e+008,-1.22185532e+002
,,,1.27200000e+008,-1.27039688e+002
,,,1.27600000e+008,-1.27988174e+002
,,,1.28000000e+008,-1.17382843e+002
,,,1.28400000e+008,-1.11804749e+002
,,,1.28800000e+008,-1.19100487e+002
,,,1.29200000e+008,-1.13017647e+002
,,,1.29600000e+008,-1.10583542e+002
,,,1.30000000e+008,-1.11726768e+002
,,,1.30400000e+008,-1.13140678e+002
,,,1.30800000e+008,-1.09154457e+002
,,,1.31200000e+008,-1.09658562e+002
,,,1.31600000e+008,-1.14086197e+002
,,,1.32000000e+008,-1.19545105e+002
,,,1.32400000e+008,-1.12776833e+002
,,,1.32800000e+008,-1.19818283e+002
,,,1.33200000e+008,-1.17940544e+002
,,,1.33600000e+008,-1.18633598e+002
,,,1.34000000e+008,-1.20878754e+002
,,,1.34400000e+008,-1.14053993e+002
,,,1.34800000e+008,-1.16767609e+002
,,,1.35200000e+008,-1.17870575e+002
,,,1.35600000e+008,-1.20658478e+002
,,,1.36000000e+008,-1.27827217e+002
,,,1.36400000e+008,-1.30055176e+002
,,,1.36800000e+008,-1.18025162e+002
,,,1.37200000e+008,-1.14582199e+002
,,,1.37600000e+008,-1.19265495e+002
,,,1.38000000e+008,-1.18722054e+002
,,,1.38400000e+008,-1.35972412e+002
,,,1.38800000e+008,-1.20920677e+002
,,,1.39200000e+008,-1.11630119e+002
,,,1.39600000e+008,-1.18183182e+002
,,,1.40000000e+008,-1.18759819e+002
,,,1.40400000e+008,-1.32069641e+002
,,,1.40800000e+008,-1.15671974e+002
,,,1.41200000e+008,-1.18096954e+002
,,,1.41600000e+008,-1.16225143e+002
,,,1.42000000e+008,-1.17742546e+002
,,,1.42400000e+008,-1.21086487e+002
,,,1.42800000e+008,-1.16590401e+002
,,,1.43200000e+008,-1.23874931e+002
,,,1.43600000e+008,-1.25296234e+002
,,,1.44000000e+008,-1.21195244e+002
,,,1.44400000e+008,-1.19115196e+002
,,,1.44800000e+008,-1.24577774e+002
,,,1.45200000e+008,-1.25309631e+002
,,,1.45600000e+008,-1.18710236e+002
,,,1.46000000e+008,-1.19892288e+002
,,,1.46400000e+008,-1.24177773e+002
,,,1.46800000e+008,-1.16974495e+002
,,,1.47200000e+008,-1.27960213e+002
,,,1.47600000e+008,-1.18054985e+002
,,,1.48000000e+008,-1.09250076e+002
,,,1.48400000e+008,-1.06160797e+002
,,,1.48800000e+008,-1.11663986e+002
,,,1.49200000e+008,-1.16180389e+002
,,,1.49600000e+008,-1.17105354e+002
,,,1.50000000e+008,-1.13556969e+002
,,,1.50400000e+008,-1.11167892e+002
,,,1.50800000e+008,-1.19184143e+002
,,,1.51200000e+008,-1.25565590e+002
,,,1.51600000e+008,-1.27566719e+002
,,,1.52000000e+008,-1.18403824e+002
,,,1.52400000e+008,-1.25295456e+002
,,,1.52800000e+008,-1.38215546e+002
,,,1.53200000e+008,-1.19580078e+002
,,,1.53600000e+008,-1.29555695e+002
,,,1.54000000e+008,-1.22541473e+002
,,,1.54400000e+008,-1.23699623e+002
,,,1.54800000e+008,-1.17198036e+002
,,,1.55200000e+008,-1.18289139e+002
,,,1.55600000e+008,-1.17140587e+002
,,,1.56000000e+008,-1.18768669e+002
,,,1.56400000e+008,-1.11632454e+002
,,,1.56800000e+008,-1.20484383e+002
,,,1.57200000e+008,-1.12735367e+002
,,,1.57600000e+008,-1.10446777e+002
,,,1.58000000e+008,-1.04783394e+002
,,,1.58400000e+008,-1.06430031e+002
,,,1.58800000e+008,-1.09462791e+002
,,,1.59200000e+008,-1.08117691e+002
,,,1.59600000e+008,-1.09071091e+002
,,,1.60000000e+008,-1.11132996e+002
,,,1.60400000e+008,-1.13174042e+002
,,,1.60800000e+008,-1.08366379e+002
,,,1.61200000e+008,-1.08732986e+002
,,,1.61600000e+008,-1.08142845e+002
,,,1.62000000e+008,-1.11314117e+002
,,,1.62400000e+008,-1.23549835e+002
,,,1.62800000e+008,-1.13676590e+002
,,,1.63200000e+008,-1.08659256e+002
,,,1.63600000e+008,-1.07009933e+002
,,,1.64000000e+008,-1.07674850e+002
,,,1.64400000e+008,-1.07023453e+002
,,,1.64800000e+008,-1.11218086e+002
,,,1.65200000e+008,-1.07555054e+002
,,,1.65600000e+008,-1.02619545e+002
,,,1.66000000e+008,-9.85741730e+001
,,,1.66400000e+008,-9.70959167e+001
,,,1.66800000e+008,-9.63836746e+001
,,,1.67200000e+008,-9.61591644e+001
,,,1.67600000e+008,-9.68690262e+001
,,,1.68000000e+008,-9.79802094e+001
,,,1.68400000e+008,-9.79468994e+001
,,,1.68800000e+008,-1.00044067e+002
,,,1.69200000e+008,-9.85029907e+001
,,,1.69600000e+008,-9.77390594e+001
,,,1.70000000e+008,-9.92045593e+001
,,,1.70400000e+008,-9.97968826e+001
,,,1.70800000e+008,-9.96662445e+001
,,,1.71200000e+008,-9.95647049e+001
,,,1.71600000e+008,-1.00200516e+002
,,,1.72000000e+008,-1.00855904e+002
,,,1.72400000e+008,-1.03384262e+002
,,,1.72800000e+008,-1.02933273e+002
,,,1.73200000e+008,-1.05528206e+002
,,,1.73600000e+008,-1.05281235e+002
,,,1.74000000e+008,-1.01116241e+002
,,,1.74400000e+008,-1.01689278e+002
,,,1.74800000e+008,-1.02880028e+002
,,,1.75200000e+008,-1.12133133e+002
,,,1.75600000e+008,-1.05334724e+002
,,,1.76000000e+008,-1.00655373e+002
,,,1.76400000e+008,-1.10428520e+002
,,,1.76800000e+008,-1.04983940e+002
,,,1.77200000e+008,-1.06021713e+002
,,,1.77600000e+008,-1.04277237e+002
,,,1.78000000e+008,-1.03770584e+002
,,,1.78400000e+008,-1.09343643e+002
,,,1.78800000e+008,-1.08377296e+002
,,,1.79200000e+008,-1.02762848e+002
,,,1.79600000e+008,-1.05525131e+002
,,,1.80000000e+008,-1.04383987e+002
,,,1.80400000e+008,-1.02740044e+002
,,,1.80800000e+008,-1.04338608e+002
,,,1.81200000e+008,-1.03613754e+002
,,,1.81600000e+008,-1.02156853e+002
,,,1.82000000e+008,-1.02089088e+002
,,,1.82400000e+008,-1.02699432e+002
,,,1.82800000e+008,-1.01098770e+002
,,,1.83200000e+008,-1.01112404e+002
,,,1.83600000e+008,-1.00218964e+002
,,,1.84000000e+008,-1.00604507e+002
,,,1.84400000e+008,-1.05906517e+002
,,,1.84800000e+008,-1.06272324e+002
,,,1.85200000e+008,-1.01294189e+002
,,,1.85600000e+008,-9.96589813e+001
,,,1.86000000e+008,-1.01586578e+002
,,,1.86400000e+008,-1.04226051e+002
,,,1.86800000e+008,-1.07267090e+002
,,,1.87200000e+008,-1.14539162e+002
,,,1.87600000e+008,-1.07422684e+002
,,,1.88000000e+008,-1.01947174e+002
,,,1.88400000e+008,-1.01032494e+002
,,,1.88800000e+008,-1.01273590e+002
,,,1.89200000e+008,-1.02379074e+002
,,,1.89600000e+008,-1.01996941e+002
,,,1.90000000e+008,-1.01377701e+002
,,,1.90400000e+008,-1.00768349e+002
,,,1.90800000e+008,-1.02284470e+002
,,,1.91200000e+008,-1.02891098e+002
,,,1.91600000e+008,-1.00395241e+002
,,,1.92000000e+008,-9.94092407e+001
,,,1.92400000e+008,-9.93607941e+001
,,,1.92800000e+008,-1.00406853e+002
,,,1.93200000e+008,-1.01362053e+002
,,,1.93600000e+008,-1.02489655e+002
,,,1.94000000e+008,-1.03977982e+002
,,,1.94400000e+008,-1.02852310e+002
,,,1.94800000e+008,-1.03210480e+002
,,,1.95200000e+008,-1.04356369e+002
,,,1.95600000e+008,-1.02512779e+002
,,,1.96000000e+008,-9.88141632e+001
,,,1.96400000e+008,-9.48041687e+001
,,,1.96800000e+008,-9.28555603e+001
,,,1.97200000e+008,-9.17943878e+001
,,,1.97600000e+008,-9.15146027e+001
,,,1.98000000e+008,-9.20570374e+001
,,,1.98400000e+008,-9.29060669e+001
,,,1.98800000e+008,-9.41723099e+001
,,,1.99200000e+008,-9.50485153e+001
,,,1.99600000e+008,-9.75902786e+001
,,,2.00000000e+008,-9.87781677e+001
,,,2.00400000e+008,-9.57683868e+001
,,,2.00800000e+008,-9.57570724e+001
,,,2.01200000e+008,-9.90531082e+001
,,,2.01600000e+008,-1.00289116e+002
,,,2.02000000e+008,-9.92262802e+001
,,,2.02400000e+008,-9.75189514e+001
,,,2.02800000e+008,-9.54860382e+001
,,,2.03200000e+008,-9.56876907e+001
,,,2.03600000e+008,-9.66530151e+001
,,,2.04000000e+008,-9.63140640e+001
,,,2.04400000e+008,-9.92078171e+001
,,,2.04800000e+008,-1.05574638e+002
,,,2.05200000e+008,-9.90818710e+001
,,,2.05600000e+008,-1.03419205e+002
,,,2.06000000e+008,-1.07272942e+002
,,,2.06400000e+008,-9.91123428e+001
,,,2.06800000e+008,-1.00490372e+002
,,,2.07200000e+008,-9.95021667e+001
,,,2.07600000e+008,-9.47752151e+001
,,,2.08000000e+008,-9.39607697e+001
,,,2.08400000e+008,-9.42151184e+001
,,,2.08800000e+008,-9.50614624e+001
,,,2.09200000e+008,-9.70528641e+001
,,,2.09600000e+008,-9.54022903e+001
,,,2.10000000e+008,-9.40501480e+001
,,,2.10400000e+008,-9.30548401e+001
,,,2.10800000e+008,-9.24737244e+001
,,,2.11200000e+008,-9.25203323e+001
,,,2.11600000e+008,-9.13032761e+001
,,,2.12000000e+008,-9.08670273e+001
,,,2.12400000e+008,-9.11763535e+001
,,,2.12800000e+008,-9.29875107e+001
,,,2.13200000e+008,-9.71869965e+001
,,,2.13600000e+008,-9.97997055e+001
,,,2.14000000e+008,-9.83125229e+001
,,,2.14400000e+008,-9.65402222e+001
,,,2.14800000e+008,-9.36721039e+001
,,,2.15200000e+008,-9.16068268e+001
,,,2.15600000e+008,-9.05319138e+001
,,,2.16000000e+008,-9.04488678e+001
,,,2.16400000e+008,-9.09945526e+001
,,,2.16800000e+008,-9.26579742e+001
,,,2.17200000e+008,-9.39304581e+001
,,,2.17600000e+008,-9.36482086e+001
,,,2.18000000e+008,-9.25530853e+001
,,,2.18400000e+008,-9.22831573e+001
,,,2.18800000e+008,-9.29381180e+001
,,,2.19200000e+008,-9.33624802e+001
,,,2.19600000e+008,-9.47264023e+001
,,,2.20000000e+008,-9.50022202e+001
