Data/20220822/UCLA_to_T1B_VPOL_NEG80_001_Ch2.csv

"Record Length",10000,"Points",-5.00800000e-007,6.13281461e-004
"Sample Interval",2.00000000e-010,s,-5.00600000e-007,6.59375214e-004
"Trigger Point",2504,"Samples",-5.00400000e-007,8.13281475e-004
"Trigger Time",0.00000000e+000,s,-5.00200000e-007,9.01562731e-004
"",,,-5.00000000e-007,9.39843984e-004
"Horizontal Offset",-5.00800000e-007,s,-4.99800000e-007,8.53906478e-004
,,,-4.99600000e-007,7.45312720e-004
,,,-4.99400000e-007,6.25781462e-004
,,,-4.99200000e-007,5.39062706e-004
,,,-4.99000000e-007,6.57031464e-004
,,,-4.98800000e-007,7.39843970e-004
,,,-4.98600000e-007,8.48437728e-004
,,,-4.98400000e-007,8.64062729e-004
,,,-4.98200000e-007,8.50781478e-004
,,,-4.98000000e-007,8.44531477e-004
,,,-4.97800000e-007,7.21875219e-004
,,,-4.97600000e-007,6.68750215e-004
,,,-4.97400000e-007,7.12500218e-004
,,,-4.97200000e-007,7.24218969e-004
,,,-4.97000000e-007,7.61718972e-004
,,,-4.96800000e-007,7.23437719e-004
,,,-4.96600000e-007,7.36718970e-004
,,,-4.96400000e-007,7.72656472e-004
,,,-4.96200000e-007,7.82031473e-004
,,,-4.96000000e-007,7.80468973e-004
,,,-4.95800000e-007,7.65625222e-004
,,,-4.95600000e-007,7.42968970e-004
,,,-4.95400000e-007,6.57031464e-004
,,,-4.95200000e-007,5.92187710e-004
,,,-4.95000000e-007,6.65625215e-004
,,,-4.94800000e-007,8.13281475e-004
,,,-4.94600000e-007,9.07031482e-004
,,,-4.94400000e-007,9.57031485e-004
,,,-4.94200000e-007,8.60156479e-004
,,,-4.94000000e-007,7.71093972e-004
,,,-4.93800000e-007,5.97656460e-004
,,,-4.93600000e-007,5.57031457e-004
,,,-4.93400000e-007,6.29687712e-004
,,,-4.93200000e-007,8.00000224e-004
,,,-4.93000000e-007,9.92968988e-004
,,,-4.92800000e-007,1.03750024e-003
,,,-4.92600000e-007,9.39843984e-004
,,,-4.92400000e-007,8.00000224e-004
,,,-4.92200000e-007,5.82031459e-004
,,,-4.92000000e-007,4.82031452e-004
,,,-4.91800000e-007,5.06250203e-004
,,,-4.91600000e-007,7.31250219e-004
,,,-4.91400000e-007,9.36718984e-004
,,,-4.91200000e-007,9.33593984e-004
,,,-4.91000000e-007,9.00000231e-004
,,,-4.90800000e-007,8.52343978e-004
,,,-4.90600000e-007,7.43750220e-004
,,,-4.90400000e-007,5.88281459e-004
,,,-4.90200000e-007,5.93750210e-004
,,,-4.90000000e-007,6.59375214e-004
,,,-4.89800000e-007,6.75000215e-004
,,,-4.89600000e-007,7.77343973e-004
,,,-4.89400000e-007,8.34375227e-004
,,,-4.89200000e-007,8.85156480e-004
,,,-4.89000000e-007,9.09375232e-004
,,,-4.88800000e-007,7.77343973e-004
,,,-4.88600000e-007,7.14843968e-004
,,,-4.88400000e-007,6.97656467e-004
,,,-4.88200000e-007,5.99218960e-004
,,,-4.88000000e-007,6.07812711e-004
,,,-4.87800000e-007,6.39062713e-004
,,,-4.87600000e-007,7.45312720e-004
,,,-4.87400000e-007,8.81250230e-004
,,,-4.87200000e-007,8.63281479e-004
,,,-4.87000000e-007,8.69531479e-004
,,,-4.86800000e-007,8.05468975e-004
,,,-4.86600000e-007,7.41406470e-004
,,,-4.86400000e-007,7.11718968e-004
,,,-4.86200000e-007,5.64062708e-004
,,,-4.86000000e-007,5.48437706e-004
,,,-4.85800000e-007,5.85156459e-004
,,,-4.85600000e-007,7.54687721e-004
,,,-4.85400000e-007,9.09375232e-004
,,,-4.85200000e-007,1.08359399e-003
,,,-4.85000000e-007,1.11718775e-003
,,,-4.84800000e-007,9.75000237e-004
,,,-4.84600000e-007,7.92968974e-004
,,,-4.84400000e-007,5.96875210e-004
,,,-4.84200000e-007,3.94531446e-004
,,,-4.84000000e-007,4.22656448e-004
,,,-4.83800000e-007,7.01562717e-004
,,,-4.83600000e-007,1.00390649e-003
,,,-4.83400000e-007,1.21796900e-003
,,,-4.83200000e-007,1.18593775e-003
,,,-4.83000000e-007,9.76562737e-004
,,,-4.82800000e-007,6.82812716e-004
,,,-4.82600000e-007,4.39843949e-004
,,,-4.82400000e-007,3.64843943e-004
,,,-4.82200000e-007,4.92968953e-004
,,,-4.82000000e-007,7.42187720e-004
,,,-4.81800000e-007,9.57812735e-004
,,,-4.81600000e-007,1.05937524e-003
,,,-4.81400000e-007,9.83593987e-004
,,,-4.81200000e-007,9.05468982e-004
,,,-4.81000000e-007,7.59375221e-004
,,,-4.80800000e-007,6.40625213e-004
,,,-4.80600000e-007,5.89843959e-004
,,,-4.80400000e-007,5.84375209e-004
,,,-4.80200000e-007,5.69531458e-004
,,,-4.80000000e-007,7.45312720e-004
,,,-4.79800000e-007,8.27343976e-004
,,,-4.79600000e-007,8.82031480e-004
,,,-4.79400000e-007,9.22656483e-004
,,,-4.79200000e-007,8.44531477e-004
,,,-4.79000000e-007,8.58593978e-004
,,,-4.78800000e-007,7.54687721e-004
,,,-4.78600000e-007,6.21875212e-004
,,,-4.78400000e-007,4.46093949e-004
,,,-4.78200000e-007,4.33593948e-004
,,,-4.78000000e-007,5.74218958e-004
,,,-4.77800000e-007,6.86718966e-004
,,,-4.77600000e-007,9.46093985e-004
,,,-4.77400000e-007,1.06875024e-003
,,,-4.77200000e-007,1.02421899e-003
,,,-4.77000000e-007,8.70312729e-004
,,,-4.76800000e-007,6.99218967e-004
,,,-4.76600000e-007,5.50000207e-004
,,,-4.76400000e-007,4.07812697e-004
,,,-4.76200000e-007,3.74218944e-004
,,,-4.76000000e-007,5.93750210e-004
,,,-4.75800000e-007,8.94531481e-004
,,,-4.75600000e-007,1.18125025e-003
,,,-4.75400000e-007,1.24921901e-003
,,,-4.75200000e-007,1.13203150e-003
,,,-4.75000000e-007,8.50781478e-004
,,,-4.74800000e-007,5.56250207e-004
,,,-4.74600000e-007,3.42968942e-004
,,,-4.74400000e-007,3.46875192e-004
,,,-4.74200000e-007,6.11718961e-004
,,,-4.74000000e-007,9.40625234e-004
,,,-4.73800000e-007,1.11796900e-003
,,,-4.73600000e-007,1.11796900e-003
,,,-4.73400000e-007,1.03281274e-003
,,,-4.73200000e-007,8.14062725e-004
,,,-4.73000000e-007,5.59375207e-004
,,,-4.72800000e-007,4.51562700e-004
,,,-4.72600000e-007,5.35156456e-004
,,,-4.72400000e-007,6.45312713e-004
,,,-4.72200000e-007,7.23437719e-004
,,,-4.72000000e-007,8.00781474e-004
,,,-4.71800000e-007,8.31250226e-004
,,,-4.71600000e-007,8.50781478e-004
,,,-4.71400000e-007,7.89062723e-004
,,,-4.71200000e-007,7.65625222e-004
,,,-4.71000000e-007,7.95312724e-004
,,,-4.70800000e-007,6.97656467e-004
,,,-4.70600000e-007,4.96875203e-004
,,,-4.70400000e-007,4.28906448e-004
,,,-4.70200000e-007,5.32031455e-004
,,,-4.70000000e-007,6.16406461e-004
,,,-4.69800000e-007,8.17968976e-004
,,,-4.69600000e-007,9.76562737e-004
,,,-4.69400000e-007,1.04218774e-003
,,,-4.69200000e-007,9.63281486e-004
,,,-4.69000000e-007,7.35937720e-004
,,,-4.68800000e-007,4.50781450e-004
,,,-4.68600000e-007,3.51562693e-004
,,,-4.68400000e-007,3.96093946e-004
,,,-4.68200000e-007,5.53906457e-004
,,,-4.68000000e-007,7.82031473e-004
,,,-4.67800000e-007,1.00625024e-003
,,,-4.67600000e-007,1.16015650e-003
,,,-4.67400000e-007,1.03984399e-003
,,,-4.67200000e-007,8.02343974e-004
,,,-4.67000000e-007,6.08593961e-004
,,,-4.66800000e-007,4.19531447e-004
,,,-4.66600000e-007,3.51562693e-004
,,,-4.66400000e-007,4.34375198e-004
,,,-4.66200000e-007,6.81250216e-004
,,,-4.66000000e-007,9.85156487e-004
,,,-4.65800000e-007,1.22734400e-003
,,,-4.65600000e-007,1.14062525e-003
,,,-4.65400000e-007,8.67968979e-004
,,,-4.65200000e-007,6.18750211e-004
,,,-4.65000000e-007,4.94531453e-004
,,,-4.64800000e-007,4.38281449e-004
,,,-4.64600000e-007,5.25000205e-004
,,,-4.64400000e-007,6.89062716e-004
,,,-4.64200000e-007,8.31250226e-004
,,,-4.64000000e-007,9.69531486e-004
,,,-4.63800000e-007,9.62500236e-004
,,,-4.63600000e-007,9.10937732e-004
,,,-4.63400000e-007,7.68750222e-004
,,,-4.63200000e-007,6.41406463e-004
,,,-4.63000000e-007,5.62500207e-004
,,,-4.62800000e-007,5.52343957e-004
,,,-4.62600000e-007,5.19531454e-004
,,,-4.62400000e-007,5.59375207e-004
,,,-4.62200000e-007,6.15625211e-004
,,,-4.62000000e-007,7.54687721e-004
,,,-4.61800000e-007,9.10156482e-004
,,,-4.61600000e-007,9.90625238e-004
,,,-4.61400000e-007,9.42187734e-004
,,,-4.61200000e-007,7.86718973e-004
,,,-4.61000000e-007,5.39062706e-004
,,,-4.60800000e-007,3.14843940e-004
,,,-4.60600000e-007,3.24218941e-004
,,,-4.60400000e-007,5.71875208e-004
,,,-4.60200000e-007,8.59375228e-004
,,,-4.60000000e-007,1.03984399e-003
,,,-4.59800000e-007,1.11875025e-003
,,,-4.59600000e-007,1.04609399e-003
,,,-4.59400000e-007,8.07031475e-004
,,,-4.59200000e-007,5.50781457e-004
,,,-4.59000000e-007,4.08593947e-004
,,,-4.58800000e-007,3.97656446e-004
,,,-4.58600000e-007,5.28906455e-004
,,,-4.58400000e-007,6.77343966e-004
,,,-4.58200000e-007,8.84375230e-004
,,,-4.58000000e-007,9.51562735e-004
,,,-4.57800000e-007,9.62500236e-004
,,,-4.57600000e-007,8.34375227e-004
,,,-4.57400000e-007,7.22656469e-004
,,,-4.57200000e-007,6.26562712e-004
,,,-4.57000000e-007,5.21875205e-004
,,,-4.56800000e-007,4.53906450e-004
,,,-4.56600000e-007,6.04687710e-004
,,,-4.56400000e-007,7.53906471e-004
,,,-4.56200000e-007,9.11718982e-004
,,,-4.56000000e-007,1.00468774e-003
,,,-4.55800000e-007,8.85937730e-004
,,,-4.55600000e-007,8.48437728e-004
,,,-4.55400000e-007,7.07031468e-004
,,,-4.55200000e-007,6.20312712e-004
,,,-4.55000000e-007,5.94531460e-004
,,,-4.54800000e-007,6.27343962e-004
,,,-4.54600000e-007,6.59375214e-004
,,,-4.54400000e-007,7.72656472e-004
,,,-4.54200000e-007,8.52343978e-004
,,,-4.54000000e-007,9.50000235e-004
,,,-4.53800000e-007,9.36718984e-004
,,,-4.53600000e-007,8.60156479e-004
,,,-4.53400000e-007,7.92968974e-004
,,,-4.53200000e-007,6.37500213e-004
,,,-4.53000000e-007,5.34375205e-004
,,,-4.52800000e-007,5.61718957e-004
,,,-4.52600000e-007,6.46875213e-004
,,,-4.52400000e-007,8.28906476e-004
,,,-4.52200000e-007,1.01250024e-003
,,,-4.52000000e-007,1.09375025e-003
,,,-4.51800000e-007,9.89062738e-004
,,,-4.51600000e-007,8.42968977e-004
,,,-4.51400000e-007,5.60937707e-004
,,,-4.51200000e-007,3.69531444e-004
,,,-4.51000000e-007,4.77343951e-004
,,,-4.50800000e-007,6.98437717e-004
,,,-4.50600000e-007,8.98437731e-004
,,,-4.50400000e-007,1.01875024e-003
,,,-4.50200000e-007,9.73437737e-004
,,,-4.50000000e-007,8.49218978e-004
,,,-4.49800000e-007,6.51562714e-004
,,,-4.49600000e-007,5.00781453e-004
,,,-4.49400000e-007,4.78906452e-004
,,,-4.49200000e-007,5.13281454e-004
,,,-4.49000000e-007,6.39062713e-004
,,,-4.48800000e-007,8.04687725e-004
,,,-4.48600000e-007,8.78125230e-004
,,,-4.48400000e-007,8.97656481e-004
,,,-4.48200000e-007,8.05468975e-004
,,,-4.48000000e-007,6.83593966e-004
,,,-4.47800000e-007,6.10937711e-004
,,,-4.47600000e-007,5.58593957e-004
,,,-4.47400000e-007,6.05468960e-004
,,,-4.47200000e-007,7.42187720e-004
,,,-4.47000000e-007,8.17968976e-004
,,,-4.46800000e-007,8.03125224e-004
,,,-4.46600000e-007,8.07031475e-004
,,,-4.46400000e-007,7.82031473e-004
,,,-4.46200000e-007,7.63281472e-004
,,,-4.46000000e-007,7.09375218e-004
,,,-4.45800000e-007,6.91406467e-004
,,,-4.45600000e-007,7.17187718e-004
,,,-4.45400000e-007,7.96093974e-004
,,,-4.45200000e-007,7.86718973e-004
,,,-4.45000000e-007,8.37500227e-004
,,,-4.44800000e-007,7.84375223e-004
,,,-4.44600000e-007,7.90625224e-004
,,,-4.44400000e-007,8.37500227e-004
,,,-4.44200000e-007,7.12500218e-004
,,,-4.44000000e-007,6.92187717e-004
,,,-4.43800000e-007,8.12500225e-004
,,,-4.43600000e-007,7.71093972e-004
,,,-4.43400000e-007,7.40625220e-004
,,,-4.43200000e-007,7.22656469e-004
,,,-4.43000000e-007,7.36718970e-004
,,,-4.42800000e-007,8.28125226e-004
,,,-4.42600000e-007,8.78125230e-004
,,,-4.42400000e-007,8.31250226e-004
,,,-4.42200000e-007,7.14062718e-004
,,,-4.42000000e-007,7.26562719e-004
,,,-4.41800000e-007,6.83593966e-004
,,,-4.41600000e-007,6.42187713e-004
,,,-4.41400000e-007,6.57031464e-004
,,,-4.41200000e-007,8.26562726e-004
,,,-4.41000000e-007,9.20312733e-004
,,,-4.40800000e-007,9.22656483e-004
,,,-4.40600000e-007,8.10156475e-004
,,,-4.40400000e-007,7.14062718e-004
,,,-4.40200000e-007,5.92968960e-004
,,,-4.40000000e-007,5.59375207e-004
,,,-4.39800000e-007,6.64062715e-004
,,,-4.39600000e-007,6.92187717e-004
,,,-4.39400000e-007,8.56250228e-004
,,,-4.39200000e-007,1.01562524e-003
,,,-4.39000000e-007,1.00937524e-003
,,,-4.38800000e-007,8.63281479e-004
,,,-4.38600000e-007,7.18750219e-004
,,,-4.38400000e-007,5.32031455e-004
,,,-4.38200000e-007,5.36718956e-004
,,,-4.38000000e-007,5.90625209e-004
,,,-4.37800000e-007,7.20312719e-004
,,,-4.37600000e-007,8.59375228e-004
,,,-4.37400000e-007,1.01015649e-003
,,,-4.37200000e-007,1.02812524e-003
,,,-4.37000000e-007,9.27343983e-004
,,,-4.36800000e-007,7.94531474e-004
,,,-4.36600000e-007,6.69531465e-004
,,,-4.36400000e-007,4.76562701e-004
,,,-4.36200000e-007,4.25781448e-004
,,,-4.36000000e-007,5.96093960e-004
,,,-4.35800000e-007,7.82812723e-004
,,,-4.35600000e-007,1.02812524e-003
,,,-4.35400000e-007,1.13750025e-003
,,,-4.35200000e-007,1.01250024e-003
,,,-4.35000000e-007,8.72656479e-004
,,,-4.34800000e-007,7.28906469e-004
,,,-4.34600000e-007,5.03125203e-004
,,,-4.34400000e-007,4.08593947e-004
,,,-4.34200000e-007,5.89062709e-004
,,,-4.34000000e-007,7.71875222e-004
,,,-4.33800000e-007,8.95312731e-004
,,,-4.33600000e-007,9.92968988e-004
,,,-4.33400000e-007,9.71875236e-004
,,,-4.33200000e-007,9.05468982e-004
,,,-4.33000000e-007,7.32812720e-004
,,,-4.32800000e-007,6.32031462e-004
,,,-4.32600000e-007,5.81250209e-004
,,,-4.32400000e-007,6.43750213e-004
,,,-4.32200000e-007,7.03125217e-004
,,,-4.32000000e-007,7.75781473e-004
,,,-4.31800000e-007,8.56250228e-004
,,,-4.31600000e-007,1.00781274e-003
,,,-4.31400000e-007,9.70312736e-004
,,,-4.31200000e-007,8.37500227e-004
,,,-4.31000000e-007,7.50000221e-004
,,,-4.30800000e-007,7.46093970e-004
,,,-4.30600000e-007,5.73437708e-004
,,,-4.30400000e-007,5.72656458e-004
,,,-4.30200000e-007,6.65625215e-004
,,,-4.30000000e-007,8.35937727e-004
,,,-4.29800000e-007,8.48437728e-004
,,,-4.29600000e-007,8.69531479e-004
,,,-4.29400000e-007,8.70312729e-004
,,,-4.29200000e-007,8.10156475e-004
,,,-4.29000000e-007,7.09375218e-004
,,,-4.28800000e-007,5.45312706e-004
,,,-4.28600000e-007,5.07031454e-004
,,,-4.28400000e-007,6.32031462e-004
,,,-4.28200000e-007,6.85156466e-004
,,,-4.28000000e-007,7.47656471e-004
,,,-4.27800000e-007,8.40625227e-004
,,,-4.27600000e-007,9.54687735e-004
,,,-4.27400000e-007,9.16406483e-004
,,,-4.27200000e-007,8.42187727e-004
,,,-4.27000000e-007,6.96093967e-004
,,,-4.26800000e-007,4.70312701e-004
,,,-4.26600000e-007,3.56250193e-004
,,,-4.26400000e-007,5.07812704e-004
,,,-4.26200000e-007,7.00000217e-004
,,,-4.26000000e-007,9.48437735e-004
,,,-4.25800000e-007,1.03984399e-003
,,,-4.25600000e-007,9.52343985e-004
,,,-4.25400000e-007,8.88281481e-004
,,,-4.25200000e-007,7.54687721e-004
,,,-4.25000000e-007,5.18750204e-004
,,,-4.24800000e-007,4.42187699e-004
,,,-4.24600000e-007,5.17187704e-004
,,,-4.24400000e-007,6.49218964e-004
,,,-4.24200000e-007,8.07812725e-004
,,,-4.24000000e-007,9.67187736e-004
,,,-4.23800000e-007,1.04296899e-003
,,,-4.23600000e-007,9.27343983e-004
,,,-4.23400000e-007,8.58593978e-004
,,,-4.23200000e-007,7.10156468e-004
,,,-4.23000000e-007,5.81250209e-004
,,,-4.22800000e-007,6.18750211e-004
,,,-4.22600000e-007,6.30468962e-004
,,,-4.22400000e-007,7.21093969e-004
,,,-4.22200000e-007,8.04687725e-004
,,,-4.22000000e-007,9.14843982e-004
,,,-4.21800000e-007,9.97656488e-004
,,,-4.21600000e-007,9.74218987e-004
,,,-4.21400000e-007,8.32812727e-004
,,,-4.21200000e-007,6.69531465e-004
,,,-4.21000000e-007,4.81250202e-004
,,,-4.20800000e-007,5.10156454e-004
,,,-4.20600000e-007,5.32812705e-004
,,,-4.20400000e-007,6.91406467e-004
,,,-4.20200000e-007,8.00781474e-004
,,,-4.20000000e-007,8.10937725e-004
,,,-4.19800000e-007,9.62500236e-004
,,,-4.19600000e-007,8.50781478e-004
,,,-4.19400000e-007,6.92187717e-004
,,,-4.19200000e-007,6.32812712e-004
,,,-4.19000000e-007,4.97656453e-004
,,,-4.18800000e-007,5.21875205e-004
,,,-4.18600000e-007,6.91406467e-004
,,,-4.18400000e-007,7.29687719e-004
,,,-4.18200000e-007,8.86718980e-004
,,,-4.18000000e-007,8.89843981e-004
,,,-4.17800000e-007,8.73437729e-004
,,,-4.17600000e-007,8.28125226e-004
,,,-4.17400000e-007,7.57812721e-004
,,,-4.17200000e-007,6.22656462e-004
,,,-4.17000000e-007,5.52343957e-004
,,,-4.16800000e-007,6.10156461e-004
,,,-4.16600000e-007,7.38281470e-004
,,,-4.16400000e-007,8.62500229e-004
,,,-4.16200000e-007,8.82031480e-004
,,,-4.16000000e-007,7.79687723e-004
,,,-4.15800000e-007,7.75781473e-004
,,,-4.15600000e-007,7.59375221e-004
,,,-4.15400000e-007,7.21875219e-004
,,,-4.15200000e-007,7.40625220e-004
,,,-4.15000000e-007,7.35937720e-004
,,,-4.14800000e-007,6.17187711e-004
,,,-4.14600000e-007,6.86718966e-004
,,,-4.14400000e-007,6.57031464e-004
,,,-4.14200000e-007,7.22656469e-004
,,,-4.14000000e-007,7.78906473e-004
,,,-4.13800000e-007,8.67187729e-004
,,,-4.13600000e-007,9.45312735e-004
,,,-4.13400000e-007,8.73437729e-004
,,,-4.13200000e-007,7.91406474e-004
,,,-4.13000000e-007,7.21875219e-004
,,,-4.12800000e-007,5.61718957e-004
,,,-4.12600000e-007,5.78125209e-004
,,,-4.12400000e-007,5.53125207e-004
,,,-4.12200000e-007,8.10156475e-004
,,,-4.12000000e-007,9.71875236e-004
,,,-4.11800000e-007,9.46875235e-004
,,,-4.11600000e-007,8.96093981e-004
,,,-4.11400000e-007,6.34375213e-004
,,,-4.11200000e-007,5.53906457e-004
,,,-4.11000000e-007,5.55468957e-004
,,,-4.10800000e-007,5.08593954e-004
,,,-4.10600000e-007,6.91406467e-004
,,,-4.10400000e-007,7.49218971e-004
,,,-4.10200000e-007,9.46093985e-004
,,,-4.10000000e-007,1.01718774e-003
,,,-4.09800000e-007,9.23437733e-004
,,,-4.09600000e-007,8.06250225e-004
,,,-4.09400000e-007,6.11718961e-004
,,,-4.09200000e-007,5.24218955e-004
,,,-4.09000000e-007,6.30468962e-004
,,,-4.08800000e-007,6.99218967e-004
,,,-4.08600000e-007,8.67187729e-004
,,,-4.08400000e-007,8.74218980e-004
,,,-4.08200000e-007,8.45312727e-004
,,,-4.08000000e-007,8.87500230e-004
,,,-4.07800000e-007,8.14062725e-004
,,,-4.07600000e-007,8.00000224e-004
,,,-4.07400000e-007,6.93750217e-004
,,,-4.07200000e-007,6.78906466e-004
,,,-4.07000000e-007,7.67187722e-004
,,,-4.06800000e-007,7.26562719e-004
,,,-4.06600000e-007,7.74218972e-004
,,,-4.06400000e-007,7.55468971e-004
,,,-4.06200000e-007,7.59375221e-004
,,,-4.06000000e-007,8.11718975e-004
,,,-4.05800000e-007,7.57812721e-004
,,,-4.05600000e-007,8.22656476e-004
,,,-4.05400000e-007,8.78906480e-004
,,,-4.05200000e-007,7.84375223e-004
,,,-4.05000000e-007,6.65625215e-004
,,,-4.04800000e-007,5.56250207e-004
,,,-4.04600000e-007,5.77343959e-004
,,,-4.04400000e-007,6.90625217e-004
,,,-4.04200000e-007,7.85937723e-004
,,,-4.04000000e-007,9.32031484e-004
,,,-4.03800000e-007,9.69531486e-004
,,,-4.03600000e-007,1.00546899e-003
,,,-4.03400000e-007,8.57031478e-004
,,,-4.03200000e-007,5.93750210e-004
,,,-4.03000000e-007,5.68750208e-004
,,,-4.02800000e-007,5.23437705e-004
,,,-4.02600000e-007,6.89062716e-004
,,,-4.02400000e-007,9.28906483e-004
,,,-4.02200000e-007,9.69531486e-004
,,,-4.02000000e-007,9.88281488e-004
,,,-4.01800000e-007,8.30468976e-004
,,,-4.01600000e-007,6.64843965e-004
,,,-4.01400000e-007,6.43750213e-004
,,,-4.01200000e-007,5.78906459e-004
,,,-4.01000000e-007,6.38281463e-004
,,,-4.00800000e-007,6.47656463e-004
,,,-4.00600000e-007,7.47656471e-004
,,,-4.00400000e-007,8.29687726e-004
,,,-4.00200000e-007,8.27343976e-004
,,,-4.00000000e-007,8.93750231e-004
,,,-3.99800000e-007,7.81250223e-004
,,,-3.99600000e-007,6.80468966e-004
,,,-3.99400000e-007,6.28906462e-004
,,,-3.99200000e-007,6.51562714e-004
,,,-3.99000000e-007,7.12500218e-004
,,,-3.98800000e-007,6.35937713e-004
,,,-3.98600000e-007,7.36718970e-004
,,,-3.98400000e-007,8.47656478e-004
,,,-3.98200000e-007,9.03906482e-004
,,,-3.98000000e-007,8.92968981e-004
,,,-3.97800000e-007,7.94531474e-004
,,,-3.97600000e-007,7.67187722e-004
,,,-3.97400000e-007,7.13281468e-004
,,,-3.97200000e-007,6.88281466e-004
,,,-3.97000000e-007,6.82031466e-004
,,,-3.96800000e-007,8.22656476e-004
,,,-3.96600000e-007,7.72656472e-004
,,,-3.96400000e-007,8.14062725e-004
,,,-3.96200000e-007,7.39843970e-004
,,,-3.96000000e-007,7.69531472e-004
,,,-3.95800000e-007,8.44531477e-004
,,,-3.95600000e-007,7.43750220e-004
,,,-3.95400000e-007,7.48437721e-004
,,,-3.95200000e-007,6.48437714e-004
,,,-3.95000000e-007,6.97656467e-004
,,,-3.94800000e-007,7.60156471e-004
,,,-3.94600000e-007,7.63281472e-004
,,,-3.94400000e-007,8.29687726e-004
,,,-3.94200000e-007,8.33593977e-004
,,,-3.94000000e-007,8.59375228e-004
,,,-3.93800000e-007,8.03125224e-004
,,,-3.93600000e-007,7.19531469e-004
,,,-3.93400000e-007,7.20312719e-004
,,,-3.93200000e-007,6.95312717e-004
,,,-3.93000000e-007,6.46875213e-004
,,,-3.92800000e-007,7.39843970e-004
,,,-3.92600000e-007,8.05468975e-004
,,,-3.92400000e-007,8.03125224e-004
,,,-3.92200000e-007,7.53906471e-004
,,,-3.92000000e-007,7.00781467e-004
,,,-3.91800000e-007,7.09375218e-004
,,,-3.91600000e-007,7.31250219e-004
,,,-3.91400000e-007,7.03906467e-004
,,,-3.91200000e-007,6.24218962e-004
,,,-3.91000000e-007,6.27343962e-004
,,,-3.90800000e-007,6.85156466e-004
