Data/20220822/UCLA_to_T1B_VPOL_NEG80_001_Math1.csv

"Record Length",6250,"Points",0.00000000e+000,-1.57675028e+001
"Sample Interval",4.00000000e+005,Hz,4.00000000e+005,-2.23283844e+001
"Trigger Point",0,"Samples",8.00000000e+005,-2.42406597e+001
"Trigger Time",0.00000000e+000,Hz,1.20000000e+006,-2.78047733e+001
"",,,1.60000000e+006,-3.42635193e+001
"Horizontal Offset",0.00000000e+000,Hz,2.00000000e+006,-7.07132874e+001
,,,2.40000000e+006,-3.80431633e+001
,,,2.80000000e+006,-3.51521530e+001
,,,3.20000000e+006,-3.60595741e+001
,,,3.60000000e+006,-4.16613426e+001
,,,4.00000000e+006,-7.70721436e+001
,,,4.40000000e+006,-4.29456177e+001
,,,4.80000000e+006,-3.98811989e+001
,,,5.20000000e+006,-4.02553024e+001
,,,5.60000000e+006,-4.56445618e+001
,,,6.00000000e+006,-7.57687683e+001
,,,6.40000000e+006,-4.61591721e+001
,,,6.80000000e+006,-4.24677620e+001
,,,7.20000000e+006,-4.34908638e+001
,,,7.60000000e+006,-4.86809120e+001
,,,8.00000000e+006,-6.97699051e+001
,,,8.40000000e+006,-4.83693237e+001
,,,8.80000000e+006,-4.53694420e+001
,,,9.20000000e+006,-4.54072647e+001
,,,9.60000000e+006,-4.99982452e+001
,,,1.00000000e+007,-7.22062378e+001
,,,1.04000000e+007,-4.97764359e+001
,,,1.08000000e+007,-4.70121651e+001
,,,1.12000000e+007,-4.75221176e+001
,,,1.16000000e+007,-5.20756073e+001
,,,1.20000000e+007,-7.06122971e+001
,,,1.24000000e+007,-5.30140610e+001
,,,1.28000000e+007,-4.86226234e+001
,,,1.32000000e+007,-4.80837708e+001
,,,1.36000000e+007,-5.31951256e+001
,,,1.40000000e+007,-7.78348541e+001
,,,1.44000000e+007,-5.23575897e+001
,,,1.48000000e+007,-5.02094955e+001
,,,1.52000000e+007,-5.01437874e+001
,,,1.56000000e+007,-5.44232788e+001
,,,1.60000000e+007,-6.84257202e+001
,,,1.64000000e+007,-5.76823387e+001
,,,1.68000000e+007,-4.87870216e+001
,,,1.72000000e+007,-5.02836914e+001
,,,1.76000000e+007,-5.36583786e+001
,,,1.80000000e+007,-6.64343338e+001
,,,1.84000000e+007,-5.38296089e+001
,,,1.88000000e+007,-5.18864326e+001
,,,1.92000000e+007,-5.39269562e+001
,,,1.96000000e+007,-5.41275864e+001
,,,2.00000000e+007,-8.11317291e+001
,,,2.04000000e+007,-5.42065353e+001
,,,2.08000000e+007,-5.23925133e+001
,,,2.12000000e+007,-5.41297188e+001
,,,2.16000000e+007,-5.69560776e+001
,,,2.20000000e+007,-7.43859253e+001
,,,2.24000000e+007,-5.62518768e+001
,,,2.28000000e+007,-5.50264511e+001
,,,2.32000000e+007,-5.16577492e+001
,,,2.36000000e+007,-5.61609230e+001
,,,2.40000000e+007,-6.28889236e+001
,,,2.44000000e+007,-5.56719170e+001
,,,2.48000000e+007,-5.53364372e+001
,,,2.52000000e+007,-5.29991913e+001
,,,2.56000000e+007,-5.43584633e+001
,,,2.60000000e+007,-6.12690010e+001
,,,2.64000000e+007,-6.10355949e+001
,,,2.68000000e+007,-5.26458206e+001
,,,2.72000000e+007,-5.42685356e+001
,,,2.76000000e+007,-6.38431778e+001
,,,2.80000000e+007,-6.05558815e+001
,,,2.84000000e+007,-6.35849991e+001
,,,2.88000000e+007,-5.67930527e+001
,,,2.92000000e+007,-5.22789307e+001
,,,2.96000000e+007,-6.23313560e+001
,,,3.00000000e+007,-6.82871628e+001
,,,3.04000000e+007,-6.11102142e+001
,,,3.08000000e+007,-5.34404373e+001
,,,3.12000000e+007,-5.82160034e+001
,,,3.16000000e+007,-5.70041962e+001
,,,3.20000000e+007,-6.58610001e+001
,,,3.24000000e+007,-5.52649155e+001
,,,3.28000000e+007,-5.59135857e+001
,,,3.32000000e+007,-5.78502693e+001
,,,3.36000000e+007,-5.89579659e+001
,,,3.40000000e+007,-7.40638046e+001
,,,3.44000000e+007,-5.93193512e+001
,,,3.48000000e+007,-5.70940323e+001
,,,3.52000000e+007,-5.63311577e+001
,,,3.56000000e+007,-6.10852280e+001
,,,3.60000000e+007,-6.60704193e+001
,,,3.64000000e+007,-5.96010284e+001
,,,3.68000000e+007,-5.50339279e+001
,,,3.72000000e+007,-5.58216934e+001
,,,3.76000000e+007,-6.28206253e+001
,,,3.80000000e+007,-7.35535278e+001
,,,3.84000000e+007,-6.11889305e+001
,,,3.88000000e+007,-5.76003532e+001
,,,3.92000000e+007,-5.62061806e+001
,,,3.96000000e+007,-6.33209648e+001
,,,4.00000000e+007,-7.01173248e+001
,,,4.04000000e+007,-6.42894821e+001
,,,4.08000000e+007,-5.96418953e+001
,,,4.12000000e+007,-5.68932457e+001
,,,4.16000000e+007,-5.99640579e+001
,,,4.20000000e+007,-7.02675629e+001
,,,4.24000000e+007,-5.96403618e+001
,,,4.28000000e+007,-5.85496864e+001
,,,4.32000000e+007,-5.65138969e+001
,,,4.36000000e+007,-6.14113808e+001
,,,4.40000000e+007,-7.20125732e+001
,,,4.44000000e+007,-6.18992462e+001
,,,4.48000000e+007,-6.02361450e+001
,,,4.52000000e+007,-5.65645370e+001
,,,4.56000000e+007,-6.18285332e+001
,,,4.60000000e+007,-7.30138931e+001
,,,4.64000000e+007,-6.41276855e+001
,,,4.68000000e+007,-5.96514511e+001
,,,4.72000000e+007,-5.87168541e+001
,,,4.76000000e+007,-6.06094246e+001
,,,4.80000000e+007,-6.85888290e+001
,,,4.84000000e+007,-6.74924316e+001
,,,4.88000000e+007,-5.69431801e+001
,,,4.92000000e+007,-6.01956062e+001
,,,4.96000000e+007,-6.16467285e+001
,,,5.00000000e+007,-8.09106903e+001
,,,5.04000000e+007,-6.40087814e+001
,,,5.08000000e+007,-5.64241104e+001
,,,5.12000000e+007,-5.67710266e+001
,,,5.16000000e+007,-6.99530334e+001
,,,5.20000000e+007,-6.34600029e+001
,,,5.24000000e+007,-6.03946991e+001
,,,5.28000000e+007,-6.74616089e+001
,,,5.32000000e+007,-5.90896263e+001
,,,5.36000000e+007,-7.74811935e+001
,,,5.40000000e+007,-6.63336792e+001
,,,5.44000000e+007,-6.52030716e+001
,,,5.48000000e+007,-6.03758240e+001
,,,5.52000000e+007,-5.68385162e+001
,,,5.56000000e+007,-6.74916992e+001
,,,5.60000000e+007,-6.41500702e+001
,,,5.64000000e+007,-6.23122177e+001
,,,5.68000000e+007,-6.50758057e+001
,,,5.72000000e+007,-5.93467636e+001
,,,5.76000000e+007,-6.29616051e+001
,,,5.80000000e+007,-6.70413742e+001
,,,5.84000000e+007,-6.76979294e+001
,,,5.88000000e+007,-5.63370781e+001
,,,5.92000000e+007,-6.61983109e+001
,,,5.96000000e+007,-6.32985153e+001
,,,6.00000000e+007,-7.12840118e+001
,,,6.04000000e+007,-6.26805687e+001
,,,6.08000000e+007,-6.07213707e+001
,,,6.12000000e+007,-5.96175575e+001
,,,6.16000000e+007,-7.05660095e+001
,,,6.20000000e+007,-6.93369141e+001
,,,6.24000000e+007,-7.07892990e+001
,,,6.28000000e+007,-6.22567482e+001
,,,6.32000000e+007,-6.41376648e+001
,,,6.36000000e+007,-6.07126503e+001
,,,6.40000000e+007,-7.33007050e+001
,,,6.44000000e+007,-6.06707268e+001
,,,6.48000000e+007,-6.19499245e+001
,,,6.52000000e+007,-6.07956467e+001
,,,6.56000000e+007,-6.81943588e+001
,,,6.60000000e+007,-7.06157379e+001
,,,6.64000000e+007,-6.84292526e+001
,,,6.68000000e+007,-6.47369156e+001
,,,6.72000000e+007,-6.12801781e+001
,,,6.76000000e+007,-7.09185791e+001
,,,6.80000000e+007,-6.35413399e+001
,,,6.84000000e+007,-6.68250504e+001
,,,6.88000000e+007,-6.00924072e+001
,,,6.92000000e+007,-6.32014389e+001
,,,6.96000000e+007,-6.66834335e+001
,,,7.00000000e+007,-7.08446960e+001
,,,7.04000000e+007,-6.47516479e+001
,,,7.08000000e+007,-6.31328163e+001
,,,7.12000000e+007,-5.88677368e+001
,,,7.16000000e+007,-6.59031601e+001
,,,7.20000000e+007,-6.65855865e+001
,,,7.24000000e+007,-8.14882202e+001
,,,7.28000000e+007,-5.89314728e+001
,,,7.32000000e+007,-6.26570740e+001
,,,7.36000000e+007,-6.67123032e+001
,,,7.40000000e+007,-6.64167862e+001
,,,7.44000000e+007,-6.60007553e+001
,,,7.48000000e+007,-6.43995667e+001
,,,7.52000000e+007,-6.30653877e+001
,,,7.56000000e+007,-6.58990097e+001
,,,7.60000000e+007,-7.91486053e+001
,,,7.64000000e+007,-7.25998001e+001
,,,7.68000000e+007,-5.87852974e+001
,,,7.72000000e+007,-6.20404625e+001
,,,7.76000000e+007,-6.77850952e+001
,,,7.80000000e+007,-7.55527573e+001
,,,7.84000000e+007,-6.06325417e+001
,,,7.88000000e+007,-6.06541138e+001
,,,7.92000000e+007,-6.53350449e+001
,,,7.96000000e+007,-7.53963013e+001
,,,8.00000000e+007,-6.88817215e+001
,,,8.04000000e+007,-7.02872391e+001
,,,8.08000000e+007,-5.99075470e+001
,,,8.12000000e+007,-6.06038895e+001
,,,8.16000000e+007,-7.77799072e+001
,,,8.20000000e+007,-6.13111305e+001
,,,8.24000000e+007,-6.38945160e+001
,,,8.28000000e+007,-7.41083755e+001
,,,8.32000000e+007,-6.72981720e+001
,,,8.36000000e+007,-6.36882668e+001
,,,8.40000000e+007,-6.74746094e+001
,,,8.44000000e+007,-6.67428894e+001
,,,8.48000000e+007,-6.39392776e+001
,,,8.52000000e+007,-6.34892349e+001
,,,8.56000000e+007,-6.30680161e+001
,,,8.60000000e+007,-7.20093918e+001
,,,8.64000000e+007,-7.45238495e+001
,,,8.68000000e+007,-6.40008545e+001
,,,8.72000000e+007,-6.09830971e+001
,,,8.76000000e+007,-6.75997925e+001
,,,8.80000000e+007,-6.15148888e+001
,,,8.84000000e+007,-5.46217155e+001
,,,8.88000000e+007,-5.87517319e+001
,,,8.92000000e+007,-6.74380035e+001
,,,8.96000000e+007,-6.02245407e+001
,,,9.00000000e+007,-6.93359070e+001
,,,9.04000000e+007,-6.16645851e+001
,,,9.08000000e+007,-5.94085884e+001
,,,9.12000000e+007,-5.68847580e+001
,,,9.16000000e+007,-5.57681084e+001
,,,9.20000000e+007,-6.11690559e+001
,,,9.24000000e+007,-5.38261795e+001
,,,9.28000000e+007,-4.65859947e+001
,,,9.32000000e+007,-4.28692970e+001
,,,9.36000000e+007,-5.69639320e+001
,,,9.40000000e+007,-6.03908882e+001
,,,9.44000000e+007,-5.70196724e+001
,,,9.48000000e+007,-5.05720596e+001
,,,9.52000000e+007,-7.02643661e+001
,,,9.56000000e+007,-5.69962349e+001
,,,9.60000000e+007,-6.38145027e+001
,,,9.64000000e+007,-6.79667969e+001
,,,9.68000000e+007,-5.75138359e+001
,,,9.72000000e+007,-6.06519814e+001
,,,9.76000000e+007,-6.12980003e+001
,,,9.80000000e+007,-5.67455177e+001
,,,9.84000000e+007,-4.70642509e+001
,,,9.88000000e+007,-4.28738899e+001
,,,9.92000000e+007,-5.35599480e+001
,,,9.96000000e+007,-5.28881187e+001
,,,1.00000000e+008,-6.43572388e+001
,,,1.00400000e+008,-6.55480804e+001
,,,1.00800000e+008,-5.86523094e+001
,,,1.01200000e+008,-5.44490891e+001
,,,1.01600000e+008,-6.07749443e+001
,,,1.02000000e+008,-4.74289780e+001
,,,1.02400000e+008,-5.75893440e+001
,,,1.02800000e+008,-5.75646858e+001
,,,1.03200000e+008,-5.65895233e+001
,,,1.03600000e+008,-5.82150230e+001
,,,1.04000000e+008,-6.56746521e+001
,,,1.04400000e+008,-5.48155632e+001
,,,1.04800000e+008,-5.92294159e+001
,,,1.05200000e+008,-5.72644653e+001
,,,1.05600000e+008,-5.47911720e+001
,,,1.06000000e+008,-5.12548981e+001
,,,1.06400000e+008,-6.18845940e+001
,,,1.06800000e+008,-6.07374077e+001
,,,1.07200000e+008,-5.23692818e+001
,,,1.07600000e+008,-5.24386711e+001
,,,1.08000000e+008,-6.67815399e+001
,,,1.08400000e+008,-6.76683502e+001
,,,1.08800000e+008,-6.86460266e+001
,,,1.09200000e+008,-6.75541458e+001
,,,1.09600000e+008,-6.21846199e+001
,,,1.10000000e+008,-6.76483002e+001
,,,1.10400000e+008,-6.44793015e+001
,,,1.10800000e+008,-5.61012993e+001
,,,1.11200000e+008,-6.46491394e+001
,,,1.11600000e+008,-5.84340286e+001
,,,1.12000000e+008,-5.62685471e+001
,,,1.12400000e+008,-5.47505951e+001
,,,1.12800000e+008,-5.77933083e+001
,,,1.13200000e+008,-5.69919624e+001
,,,1.13600000e+008,-6.15368385e+001
,,,1.14000000e+008,-5.97221565e+001
,,,1.14400000e+008,-5.87885399e+001
,,,1.14800000e+008,-6.36757355e+001
,,,1.15200000e+008,-6.06986618e+001
,,,1.15600000e+008,-6.39816628e+001
,,,1.16000000e+008,-6.19128494e+001
,,,1.16400000e+008,-6.46187439e+001
,,,1.16800000e+008,-6.49073944e+001
,,,1.17200000e+008,-6.32686996e+001
,,,1.17600000e+008,-7.11055069e+001
,,,1.18000000e+008,-7.26866531e+001
,,,1.18400000e+008,-6.24201584e+001
,,,1.18800000e+008,-6.52605743e+001
,,,1.19200000e+008,-6.23737640e+001
,,,1.19600000e+008,-6.29962158e+001
,,,1.20000000e+008,-7.07481689e+001
,,,1.20400000e+008,-6.28511848e+001
,,,1.20800000e+008,-7.08342896e+001
,,,1.21200000e+008,-6.54849319e+001
,,,1.21600000e+008,-6.45035553e+001
,,,1.22000000e+008,-6.65899734e+001
,,,1.22400000e+008,-7.09441910e+001
,,,1.22800000e+008,-6.66492004e+001
,,,1.23200000e+008,-5.95971184e+001
,,,1.23600000e+008,-6.08547249e+001
,,,1.24000000e+008,-6.12914124e+001
,,,1.24400000e+008,-6.31017532e+001
,,,1.24800000e+008,-6.26787987e+001
,,,1.25200000e+008,-5.90891228e+001
,,,1.25600000e+008,-6.43852463e+001
,,,1.26000000e+008,-6.73614120e+001
,,,1.26400000e+008,-6.44374313e+001
,,,1.26800000e+008,-6.00311317e+001
,,,1.27200000e+008,-7.26068878e+001
,,,1.27600000e+008,-6.17578316e+001
,,,1.28000000e+008,-6.06147194e+001
,,,1.28400000e+008,-6.29211731e+001
,,,1.28800000e+008,-5.64196434e+001
,,,1.29200000e+008,-5.62648277e+001
,,,1.29600000e+008,-5.12753334e+001
,,,1.30000000e+008,-4.83377151e+001
,,,1.30400000e+008,-4.75900726e+001
,,,1.30800000e+008,-4.67308617e+001
,,,1.31200000e+008,-4.87534447e+001
,,,1.31600000e+008,-5.12389984e+001
,,,1.32000000e+008,-5.50309334e+001
,,,1.32400000e+008,-5.68669739e+001
,,,1.32800000e+008,-5.89209480e+001
,,,1.33200000e+008,-5.87091980e+001
,,,1.33600000e+008,-6.27088470e+001
,,,1.34000000e+008,-6.49622116e+001
,,,1.34400000e+008,-5.66655502e+001
,,,1.34800000e+008,-5.87185516e+001
,,,1.35200000e+008,-5.85142288e+001
,,,1.35600000e+008,-6.14015923e+001
,,,1.36000000e+008,-6.70652618e+001
,,,1.36400000e+008,-5.75183678e+001
,,,1.36800000e+008,-5.92970924e+001
,,,1.37200000e+008,-5.85202179e+001
,,,1.37600000e+008,-6.56946030e+001
,,,1.38000000e+008,-7.53214111e+001
,,,1.38400000e+008,-6.44436722e+001
,,,1.38800000e+008,-6.26852303e+001
,,,1.39200000e+008,-5.99464722e+001
,,,1.39600000e+008,-7.22795868e+001
,,,1.40000000e+008,-6.65572739e+001
,,,1.40400000e+008,-6.16815605e+001
,,,1.40800000e+008,-6.90228958e+001
,,,1.41200000e+008,-5.85252190e+001
,,,1.41600000e+008,-6.35194321e+001
,,,1.42000000e+008,-6.22048645e+001
,,,1.42400000e+008,-7.33847504e+001
,,,1.42800000e+008,-6.75209122e+001
,,,1.43200000e+008,-5.65913429e+001
,,,1.43600000e+008,-6.56382675e+001
,,,1.44000000e+008,-7.75428925e+001
,,,1.44400000e+008,-6.64696426e+001
,,,1.44800000e+008,-6.90186234e+001
,,,1.45200000e+008,-5.95778236e+001
,,,1.45600000e+008,-6.02200775e+001
,,,1.46000000e+008,-6.35048409e+001
,,,1.46400000e+008,-6.10146065e+001
,,,1.46800000e+008,-6.35242386e+001
,,,1.47200000e+008,-5.82922592e+001
,,,1.47600000e+008,-5.40998230e+001
,,,1.48000000e+008,-5.02387848e+001
,,,1.48400000e+008,-5.02169991e+001
,,,1.48800000e+008,-4.88686600e+001
,,,1.49200000e+008,-4.42726135e+001
,,,1.49600000e+008,-4.45164719e+001
,,,1.50000000e+008,-4.51459351e+001
,,,1.50400000e+008,-4.67700081e+001
,,,1.50800000e+008,-4.70601425e+001
,,,1.51200000e+008,-4.66184731e+001
,,,1.51600000e+008,-4.77731323e+001
,,,1.52000000e+008,-5.04029846e+001
,,,1.52400000e+008,-5.27105255e+001
,,,1.52800000e+008,-5.13869591e+001
,,,1.53200000e+008,-5.58920135e+001
,,,1.53600000e+008,-5.33696709e+001
,,,1.54000000e+008,-5.46719551e+001
,,,1.54400000e+008,-5.66776657e+001
,,,1.54800000e+008,-5.21772766e+001
,,,1.55200000e+008,-5.57954292e+001
,,,1.55600000e+008,-5.43857002e+001
,,,1.56000000e+008,-5.46344566e+001
,,,1.56400000e+008,-5.68966141e+001
,,,1.56800000e+008,-5.25016251e+001
,,,1.57200000e+008,-6.28129997e+001
,,,1.57600000e+008,-6.42583313e+001
,,,1.58000000e+008,-5.34873123e+001
,,,1.58400000e+008,-5.89113464e+001
,,,1.58800000e+008,-6.21906586e+001
,,,1.59200000e+008,-5.95030289e+001
,,,1.59600000e+008,-5.51259689e+001
,,,1.60000000e+008,-5.53641396e+001
,,,1.60400000e+008,-5.32667503e+001
,,,1.60800000e+008,-5.31973305e+001
,,,1.61200000e+008,-5.68324585e+001
,,,1.61600000e+008,-5.11128998e+001
,,,1.62000000e+008,-5.19202309e+001
,,,1.62400000e+008,-5.18295441e+001
,,,1.62800000e+008,-4.77794685e+001
,,,1.63200000e+008,-4.98559723e+001
,,,1.63600000e+008,-4.95442696e+001
,,,1.64000000e+008,-4.93345108e+001
,,,1.64400000e+008,-5.01893616e+001
,,,1.64800000e+008,-4.80284195e+001
,,,1.65200000e+008,-4.78697357e+001
,,,1.65600000e+008,-4.61833839e+001
,,,1.66000000e+008,-4.45241547e+001
,,,1.66400000e+008,-4.45070229e+001
,,,1.66800000e+008,-4.39916611e+001
,,,1.67200000e+008,-4.17668228e+001
,,,1.67600000e+008,-4.04342041e+001
,,,1.68000000e+008,-4.03539276e+001
,,,1.68400000e+008,-4.02411957e+001
,,,1.68800000e+008,-4.20624008e+001
,,,1.69200000e+008,-4.34615021e+001
,,,1.69600000e+008,-4.46188774e+001
,,,1.70000000e+008,-4.61900673e+001
,,,1.70400000e+008,-4.67414322e+001
,,,1.70800000e+008,-4.80964470e+001
,,,1.71200000e+008,-4.91486511e+001
,,,1.71600000e+008,-5.06177101e+001
,,,1.72000000e+008,-5.10511780e+001
,,,1.72400000e+008,-5.01152802e+001
,,,1.72800000e+008,-4.94854202e+001
,,,1.73200000e+008,-4.81206360e+001
,,,1.73600000e+008,-4.62874908e+001
,,,1.74000000e+008,-4.61941261e+001
,,,1.74400000e+008,-4.86415634e+001
,,,1.74800000e+008,-4.71744080e+001
,,,1.75200000e+008,-4.60218773e+001
,,,1.75600000e+008,-4.80811195e+001
,,,1.76000000e+008,-4.90431328e+001
,,,1.76400000e+008,-4.95572739e+001
,,,1.76800000e+008,-5.17564964e+001
,,,1.77200000e+008,-4.86497803e+001
,,,1.77600000e+008,-4.49737930e+001
,,,1.78000000e+008,-4.75589714e+001
,,,1.78400000e+008,-5.22455025e+001
,,,1.78800000e+008,-5.16564140e+001
,,,1.79200000e+008,-4.78880196e+001
,,,1.79600000e+008,-4.53895264e+001
,,,1.80000000e+008,-4.37156219e+001
,,,1.80400000e+008,-4.33339310e+001
,,,1.80800000e+008,-4.21861610e+001
,,,1.81200000e+008,-4.26527634e+001
,,,1.81600000e+008,-4.14744949e+001
,,,1.82000000e+008,-4.15137596e+001
,,,1.82400000e+008,-4.23655739e+001
,,,1.82800000e+008,-4.11305428e+001
,,,1.83200000e+008,-4.28212547e+001
,,,1.83600000e+008,-4.20544090e+001
,,,1.84000000e+008,-4.08415909e+001
,,,1.84400000e+008,-4.16644630e+001
,,,1.84800000e+008,-4.24943695e+001
,,,1.85200000e+008,-4.39342232e+001
,,,1.85600000e+008,-4.41920242e+001
,,,1.86000000e+008,-4.47716942e+001
,,,1.86400000e+008,-4.53108482e+001
,,,1.86800000e+008,-4.74456825e+001
,,,1.87200000e+008,-4.98115158e+001
,,,1.87600000e+008,-5.11576958e+001
,,,1.88000000e+008,-5.02609787e+001
,,,1.88400000e+008,-4.90431442e+001
,,,1.88800000e+008,-5.22297859e+001
,,,1.89200000e+008,-5.14434929e+001
,,,1.89600000e+008,-5.17228012e+001
,,,1.90000000e+008,-5.48064995e+001
,,,1.90400000e+008,-5.63298035e+001
,,,1.90800000e+008,-5.94144478e+001
,,,1.91200000e+008,-5.56960640e+001
,,,1.91600000e+008,-6.19317245e+001
,,,1.92000000e+008,-6.13273048e+001
,,,1.92400000e+008,-5.89117966e+001
,,,1.92800000e+008,-5.22759247e+001
,,,1.93200000e+008,-5.03104362e+001
,,,1.93600000e+008,-4.92262039e+001
,,,1.94000000e+008,-5.05603905e+001
,,,1.94400000e+008,-5.03863602e+001
,,,1.94800000e+008,-5.15404587e+001
,,,1.95200000e+008,-4.82659302e+001
,,,1.95600000e+008,-5.24960709e+001
,,,1.96000000e+008,-5.24254608e+001
,,,1.96400000e+008,-5.25825081e+001
,,,1.96800000e+008,-4.89792519e+001
,,,1.97200000e+008,-4.74499626e+001
,,,1.97600000e+008,-4.60550423e+001
,,,1.98000000e+008,-4.48098793e+001
,,,1.98400000e+008,-4.50779686e+001
,,,1.98800000e+008,-4.84878807e+001
,,,1.99200000e+008,-4.81163788e+001
,,,1.99600000e+008,-5.74663010e+001
,,,2.00000000e+008,-5.64294472e+001
,,,2.00400000e+008,-5.19032478e+001
,,,2.00800000e+008,-5.47184563e+001
,,,2.01200000e+008,-4.58914070e+001
,,,2.01600000e+008,-4.40761528e+001
,,,2.02000000e+008,-4.65136948e+001
,,,2.02400000e+008,-4.73860664e+001
,,,2.02800000e+008,-4.88923950e+001
,,,2.03200000e+008,-4.93196526e+001
,,,2.03600000e+008,-5.15306091e+001
,,,2.04000000e+008,-5.24595833e+001
,,,2.04400000e+008,-4.81225624e+001
,,,2.04800000e+008,-4.29859962e+001
,,,2.05200000e+008,-4.21118469e+001
,,,2.05600000e+008,-4.79135170e+001
,,,2.06000000e+008,-4.86079903e+001
,,,2.06400000e+008,-4.57210884e+001
,,,2.06800000e+008,-4.83690720e+001
,,,2.07200000e+008,-4.62159767e+001
,,,2.07600000e+008,-5.15794830e+001
,,,2.08000000e+008,-4.90107613e+001
,,,2.08400000e+008,-5.61484146e+001
,,,2.08800000e+008,-5.72280731e+001
,,,2.09200000e+008,-4.77444572e+001
,,,2.09600000e+008,-4.72973518e+001
,,,2.10000000e+008,-5.26705284e+001
,,,2.10400000e+008,-5.71664848e+001
,,,2.10800000e+008,-5.75193214e+001
,,,2.11200000e+008,-5.78092957e+001
,,,2.11600000e+008,-5.19107933e+001
,,,2.12000000e+008,-4.60550041e+001
,,,2.12400000e+008,-4.52460899e+001
,,,2.12800000e+008,-4.57004509e+001
,,,2.13200000e+008,-4.55280838e+001
,,,2.13600000e+008,-4.62283020e+001
,,,2.14000000e+008,-4.66168861e+001
,,,2.14400000e+008,-4.79423943e+001
,,,2.14800000e+008,-4.98837738e+001
,,,2.15200000e+008,-5.01261978e+001
,,,2.15600000e+008,-4.89454269e+001
,,,2.16000000e+008,-4.92990494e+001
,,,2.16400000e+008,-4.84147491e+001
,,,2.16800000e+008,-4.80126801e+001
,,,2.17200000e+008,-5.07649498e+001
,,,2.17600000e+008,-4.94987450e+001
,,,2.18000000e+008,-4.64725647e+001
,,,2.18400000e+008,-4.46564522e+001
,,,2.18800000e+008,-4.32233124e+001
,,,2.19200000e+008,-4.44374771e+001
,,,2.19600000e+008,-4.44367561e+001
,,,2.20000000e+008,-4.50778275e+001
