Data/20220822/UCLA_to_T1B_HPOL_NEG60_001_Math2.csv

"Record Length",6250,"Points",0.00000000e+000,-6.62312622e+001
"Sample Interval",4.00000000e+005,Hz,4.00000000e+005,-7.21820221e+001
"Trigger Point",0,"Samples",8.00000000e+005,-7.62558365e+001
"Trigger Time",0.00000000e+000,Hz,1.20000000e+006,-7.67830048e+001
"",,,1.60000000e+006,-8.85626297e+001
"Horizontal Offset",0.00000000e+000,Hz,2.00000000e+006,-9.26469269e+001
,,,2.40000000e+006,-8.45942688e+001
,,,2.80000000e+006,-8.93545074e+001
,,,3.20000000e+006,-8.39160919e+001
,,,3.60000000e+006,-9.54448929e+001
,,,4.00000000e+006,-9.30392609e+001
,,,4.40000000e+006,-8.90894547e+001
,,,4.80000000e+006,-9.16720200e+001
,,,5.20000000e+006,-8.68191910e+001
,,,5.60000000e+006,-9.33139420e+001
,,,6.00000000e+006,-9.36349716e+001
,,,6.40000000e+006,-9.01304321e+001
,,,6.80000000e+006,-9.13243790e+001
,,,7.20000000e+006,-9.01052094e+001
,,,7.60000000e+006,-9.16368027e+001
,,,8.00000000e+006,-9.33813019e+001
,,,8.40000000e+006,-9.31521606e+001
,,,8.80000000e+006,-9.08235931e+001
,,,9.20000000e+006,-9.19994049e+001
,,,9.60000000e+006,-9.17932816e+001
,,,1.00000000e+007,-9.36126099e+001
,,,1.04000000e+007,-9.39178772e+001
,,,1.08000000e+007,-9.03456879e+001
,,,1.12000000e+007,-9.38696136e+001
,,,1.16000000e+007,-9.05584946e+001
,,,1.20000000e+007,-9.41976624e+001
,,,1.24000000e+007,-9.73072891e+001
,,,1.28000000e+007,-9.05988235e+001
,,,1.32000000e+007,-9.82578888e+001
,,,1.36000000e+007,-9.02736130e+001
,,,1.40000000e+007,-9.38034134e+001
,,,1.44000000e+007,-9.64323425e+001
,,,1.48000000e+007,-9.05141907e+001
,,,1.52000000e+007,-1.00030190e+002
,,,1.56000000e+007,-9.06350632e+001
,,,1.60000000e+007,-9.29287796e+001
,,,1.64000000e+007,-9.84660110e+001
,,,1.68000000e+007,-9.13392258e+001
,,,1.72000000e+007,-9.82721558e+001
,,,1.76000000e+007,-9.17363739e+001
,,,1.80000000e+007,-9.38934631e+001
,,,1.84000000e+007,-9.81493759e+001
,,,1.88000000e+007,-9.21663055e+001
,,,1.92000000e+007,-9.61832123e+001
,,,1.96000000e+007,-9.18537140e+001
,,,2.00000000e+007,-9.32706757e+001
,,,2.04000000e+007,-9.47521439e+001
,,,2.08000000e+007,-9.15784225e+001
,,,2.12000000e+007,-9.47210236e+001
,,,2.16000000e+007,-9.27263794e+001
,,,2.20000000e+007,-9.32716599e+001
,,,2.24000000e+007,-9.42840271e+001
,,,2.28000000e+007,-9.28396835e+001
,,,2.32000000e+007,-9.38655472e+001
,,,2.36000000e+007,-9.40843201e+001
,,,2.40000000e+007,-9.29683075e+001
,,,2.44000000e+007,-9.27460632e+001
,,,2.48000000e+007,-9.42478943e+001
,,,2.52000000e+007,-9.39556198e+001
,,,2.56000000e+007,-9.47622223e+001
,,,2.60000000e+007,-9.38762970e+001
,,,2.64000000e+007,-9.34988403e+001
,,,2.68000000e+007,-9.45187302e+001
,,,2.72000000e+007,-9.26877899e+001
,,,2.76000000e+007,-9.59567719e+001
,,,2.80000000e+007,-9.46667633e+001
,,,2.84000000e+007,-9.32929459e+001
,,,2.88000000e+007,-9.58668900e+001
,,,2.92000000e+007,-9.24577255e+001
,,,2.96000000e+007,-9.56533051e+001
,,,3.00000000e+007,-9.39795227e+001
,,,3.04000000e+007,-9.25958099e+001
,,,3.08000000e+007,-9.59197845e+001
,,,3.12000000e+007,-9.23313141e+001
,,,3.16000000e+007,-9.61331406e+001
,,,3.20000000e+007,-9.46895065e+001
,,,3.24000000e+007,-9.31700897e+001
,,,3.28000000e+007,-9.56947327e+001
,,,3.32000000e+007,-9.23213043e+001
,,,3.36000000e+007,-9.67330933e+001
,,,3.40000000e+007,-9.48383179e+001
,,,3.44000000e+007,-9.30012054e+001
,,,3.48000000e+007,-9.53021317e+001
,,,3.52000000e+007,-9.26989975e+001
,,,3.56000000e+007,-9.60847244e+001
,,,3.60000000e+007,-9.45212021e+001
,,,3.64000000e+007,-9.34681015e+001
,,,3.68000000e+007,-9.50430756e+001
,,,3.72000000e+007,-9.29664154e+001
,,,3.76000000e+007,-9.60184097e+001
,,,3.80000000e+007,-9.50584335e+001
,,,3.84000000e+007,-9.34375992e+001
,,,3.88000000e+007,-9.39125137e+001
,,,3.92000000e+007,-9.38517532e+001
,,,3.96000000e+007,-9.60692978e+001
,,,4.00000000e+007,-9.46684723e+001
,,,4.04000000e+007,-9.41540527e+001
,,,4.08000000e+007,-9.42557907e+001
,,,4.12000000e+007,-9.39793243e+001
,,,4.16000000e+007,-9.47039948e+001
,,,4.20000000e+007,-9.48466949e+001
,,,4.24000000e+007,-9.43826447e+001
,,,4.28000000e+007,-9.32342987e+001
,,,4.32000000e+007,-9.43470001e+001
,,,4.36000000e+007,-9.43677597e+001
,,,4.40000000e+007,-9.48066177e+001
,,,4.44000000e+007,-9.47943420e+001
,,,4.48000000e+007,-9.38339462e+001
,,,4.52000000e+007,-9.54601822e+001
,,,4.56000000e+007,-9.35363083e+001
,,,4.60000000e+007,-9.46115952e+001
,,,4.64000000e+007,-9.50520782e+001
,,,4.68000000e+007,-9.35976944e+001
,,,4.72000000e+007,-9.64402084e+001
,,,4.76000000e+007,-9.42790909e+001
,,,4.80000000e+007,-9.55189056e+001
,,,4.84000000e+007,-9.56124268e+001
,,,4.88000000e+007,-9.37429733e+001
,,,4.92000000e+007,-9.68413544e+001
,,,4.96000000e+007,-9.39088211e+001
,,,5.00000000e+007,-9.49875107e+001
,,,5.04000000e+007,-9.64381943e+001
,,,5.08000000e+007,-9.41547775e+001
,,,5.12000000e+007,-9.55302887e+001
,,,5.16000000e+007,-9.38516922e+001
,,,5.20000000e+007,-9.53378143e+001
,,,5.24000000e+007,-9.54216995e+001
,,,5.28000000e+007,-9.37840805e+001
,,,5.32000000e+007,-9.54724197e+001
,,,5.36000000e+007,-9.40745239e+001
,,,5.40000000e+007,-9.50176468e+001
,,,5.44000000e+007,-9.53809357e+001
,,,5.48000000e+007,-9.42470703e+001
,,,5.52000000e+007,-9.48340912e+001
,,,5.56000000e+007,-9.39368286e+001
,,,5.60000000e+007,-9.47296829e+001
,,,5.64000000e+007,-9.51672211e+001
,,,5.68000000e+007,-9.47585068e+001
,,,5.72000000e+007,-9.47989273e+001
,,,5.76000000e+007,-9.47810440e+001
,,,5.80000000e+007,-9.51592178e+001
,,,5.84000000e+007,-9.54253387e+001
,,,5.88000000e+007,-9.53256531e+001
,,,5.92000000e+007,-9.48128586e+001
,,,5.96000000e+007,-9.55256805e+001
,,,6.00000000e+007,-9.52596970e+001
,,,6.04000000e+007,-9.54567184e+001
,,,6.08000000e+007,-9.55878983e+001
,,,6.12000000e+007,-9.40119781e+001
,,,6.16000000e+007,-9.53895340e+001
,,,6.20000000e+007,-9.47554245e+001
,,,6.24000000e+007,-9.50951996e+001
,,,6.28000000e+007,-9.57196884e+001
,,,6.32000000e+007,-9.39664993e+001
,,,6.36000000e+007,-9.61216202e+001
,,,6.40000000e+007,-9.45264587e+001
,,,6.44000000e+007,-9.42670746e+001
,,,6.48000000e+007,-9.55056534e+001
,,,6.52000000e+007,-9.39025345e+001
,,,6.56000000e+007,-9.58302460e+001
,,,6.60000000e+007,-9.44056854e+001
,,,6.64000000e+007,-9.44122467e+001
,,,6.68000000e+007,-9.55634918e+001
,,,6.72000000e+007,-9.40617676e+001
,,,6.76000000e+007,-9.60787506e+001
,,,6.80000000e+007,-9.43300781e+001
,,,6.84000000e+007,-9.47038727e+001
,,,6.88000000e+007,-9.64151917e+001
,,,6.92000000e+007,-9.43996048e+001
,,,6.96000000e+007,-9.60848923e+001
,,,7.00000000e+007,-9.51710205e+001
,,,7.04000000e+007,-9.41689301e+001
,,,7.08000000e+007,-9.57034378e+001
,,,7.12000000e+007,-9.54835052e+001
,,,7.16000000e+007,-9.54431076e+001
,,,7.20000000e+007,-9.49582672e+001
,,,7.24000000e+007,-9.45230789e+001
,,,7.28000000e+007,-9.49634857e+001
,,,7.32000000e+007,-9.52800751e+001
,,,7.36000000e+007,-9.52081223e+001
,,,7.40000000e+007,-9.52707367e+001
,,,7.44000000e+007,-9.47120972e+001
,,,7.48000000e+007,-9.38441849e+001
,,,7.52000000e+007,-9.59270325e+001
,,,7.56000000e+007,-9.60101471e+001
,,,7.60000000e+007,-9.50456314e+001
,,,7.64000000e+007,-9.49606018e+001
,,,7.68000000e+007,-9.50707550e+001
,,,7.72000000e+007,-9.63206024e+001
,,,7.76000000e+007,-9.51303558e+001
,,,7.80000000e+007,-9.55995331e+001
,,,7.84000000e+007,-9.53650894e+001
,,,7.88000000e+007,-9.43893585e+001
,,,7.92000000e+007,-9.56747055e+001
,,,7.96000000e+007,-9.54765320e+001
,,,8.00000000e+007,-9.75738144e+001
,,,8.04000000e+007,-9.61589737e+001
,,,8.08000000e+007,-9.44369812e+001
,,,8.12000000e+007,-9.65284958e+001
,,,8.16000000e+007,-9.46342926e+001
,,,8.20000000e+007,-9.58757401e+001
,,,8.24000000e+007,-9.61118240e+001
,,,8.28000000e+007,-9.47665787e+001
,,,8.32000000e+007,-9.63220825e+001
,,,8.36000000e+007,-9.49474487e+001
,,,8.40000000e+007,-9.56827850e+001
,,,8.44000000e+007,-9.57788620e+001
,,,8.48000000e+007,-9.52427826e+001
,,,8.52000000e+007,-9.65534363e+001
,,,8.56000000e+007,-9.54120331e+001
,,,8.60000000e+007,-9.59285812e+001
,,,8.64000000e+007,-9.57001495e+001
,,,8.68000000e+007,-9.58472977e+001
,,,8.72000000e+007,-9.70917435e+001
,,,8.76000000e+007,-9.42400818e+001
,,,8.80000000e+007,-9.42771301e+001
,,,8.84000000e+007,-9.66478043e+001
,,,8.88000000e+007,-9.57821960e+001
,,,8.92000000e+007,-9.58330231e+001
,,,8.96000000e+007,-9.69950867e+001
,,,9.00000000e+007,-9.60041580e+001
,,,9.04000000e+007,-9.63081131e+001
,,,9.08000000e+007,-9.56361313e+001
,,,9.12000000e+007,-9.58142319e+001
,,,9.16000000e+007,-9.66038971e+001
,,,9.20000000e+007,-9.49431152e+001
,,,9.24000000e+007,-9.70802612e+001
,,,9.28000000e+007,-9.19093781e+001
,,,9.32000000e+007,-8.91303329e+001
,,,9.36000000e+007,-9.93089294e+001
,,,9.40000000e+007,-1.02867836e+002
,,,9.44000000e+007,-9.66492081e+001
,,,9.48000000e+007,-9.49114380e+001
,,,9.52000000e+007,-9.42195816e+001
,,,9.56000000e+007,-9.63923340e+001
,,,9.60000000e+007,-9.54850616e+001
,,,9.64000000e+007,-9.48845901e+001
,,,9.68000000e+007,-9.55081482e+001
,,,9.72000000e+007,-9.49827423e+001
,,,9.76000000e+007,-9.52092590e+001
,,,9.80000000e+007,-9.17562714e+001
,,,9.84000000e+007,-1.08826561e+002
,,,9.88000000e+007,-1.01806053e+002
,,,9.92000000e+007,-1.01365334e+002
,,,9.96000000e+007,-1.01781227e+002
,,,1.00000000e+008,-1.01182480e+002
,,,1.00400000e+008,-9.57803192e+001
,,,1.00800000e+008,-9.33150635e+001
,,,1.01200000e+008,-8.93429260e+001
,,,1.01600000e+008,-9.25799255e+001
,,,1.02000000e+008,-9.21213150e+001
,,,1.02400000e+008,-9.28093338e+001
,,,1.02800000e+008,-9.59070129e+001
,,,1.03200000e+008,-9.35414200e+001
,,,1.03600000e+008,-9.78222656e+001
,,,1.04000000e+008,-9.48127365e+001
,,,1.04400000e+008,-9.28129807e+001
,,,1.04800000e+008,-9.61074905e+001
,,,1.05200000e+008,-9.59464798e+001
,,,1.05600000e+008,-9.39024658e+001
,,,1.06000000e+008,-9.42111282e+001
,,,1.06400000e+008,-9.73776855e+001
,,,1.06800000e+008,-9.61750259e+001
,,,1.07200000e+008,-1.01022461e+002
,,,1.07600000e+008,-1.08403427e+002
,,,1.08000000e+008,-9.65137329e+001
,,,1.08400000e+008,-9.79548187e+001
,,,1.08800000e+008,-9.77230682e+001
,,,1.09200000e+008,-9.53182220e+001
,,,1.09600000e+008,-9.71149979e+001
,,,1.10000000e+008,-9.53038712e+001
,,,1.10400000e+008,-9.60071945e+001
,,,1.10800000e+008,-9.69636688e+001
,,,1.11200000e+008,-9.72582092e+001
,,,1.11600000e+008,-9.79265289e+001
,,,1.12000000e+008,-1.01292984e+002
,,,1.12400000e+008,-9.94505234e+001
,,,1.12800000e+008,-9.56493835e+001
,,,1.13200000e+008,-9.55548935e+001
,,,1.13600000e+008,-9.48592682e+001
,,,1.14000000e+008,-9.54329910e+001
,,,1.14400000e+008,-9.60093689e+001
,,,1.14800000e+008,-9.54123688e+001
,,,1.15200000e+008,-9.67284622e+001
,,,1.15600000e+008,-9.53432541e+001
,,,1.16000000e+008,-9.71946640e+001
,,,1.16400000e+008,-9.77363129e+001
,,,1.16800000e+008,-9.64628754e+001
,,,1.17200000e+008,-9.84490585e+001
,,,1.17600000e+008,-9.53161469e+001
,,,1.18000000e+008,-9.61770554e+001
,,,1.18400000e+008,-9.70623550e+001
,,,1.18800000e+008,-9.52258759e+001
,,,1.19200000e+008,-9.69363327e+001
,,,1.19600000e+008,-9.55920563e+001
,,,1.20000000e+008,-9.64715729e+001
,,,1.20400000e+008,-9.64801865e+001
,,,1.20800000e+008,-9.50085373e+001
,,,1.21200000e+008,-9.63952026e+001
,,,1.21600000e+008,-9.60051498e+001
,,,1.22000000e+008,-9.71550293e+001
,,,1.22400000e+008,-9.79507751e+001
,,,1.22800000e+008,-9.74939346e+001
,,,1.23200000e+008,-9.78790970e+001
,,,1.23600000e+008,-9.68728485e+001
,,,1.24000000e+008,-9.79541092e+001
,,,1.24400000e+008,-9.82475891e+001
,,,1.24800000e+008,-9.73506393e+001
,,,1.25200000e+008,-9.76628647e+001
,,,1.25600000e+008,-9.72997513e+001
,,,1.26000000e+008,-9.77405319e+001
,,,1.26400000e+008,-9.77377701e+001
,,,1.26800000e+008,-9.73662720e+001
,,,1.27200000e+008,-9.76154327e+001
,,,1.27600000e+008,-9.89519958e+001
,,,1.28000000e+008,-9.90838623e+001
,,,1.28400000e+008,-9.94249496e+001
,,,1.28800000e+008,-1.01378708e+002
,,,1.29200000e+008,-1.02645668e+002
,,,1.29600000e+008,-1.02087639e+002
,,,1.30000000e+008,-9.73562164e+001
,,,1.30400000e+008,-9.35057220e+001
,,,1.30800000e+008,-9.15637817e+001
,,,1.31200000e+008,-9.04548492e+001
,,,1.31600000e+008,-9.23161316e+001
,,,1.32000000e+008,-9.40857086e+001
,,,1.32400000e+008,-9.41090164e+001
,,,1.32800000e+008,-9.39398499e+001
,,,1.33200000e+008,-9.24413528e+001
,,,1.33600000e+008,-9.35769196e+001
,,,1.34000000e+008,-9.36027298e+001
,,,1.34400000e+008,-9.32045441e+001
,,,1.34800000e+008,-9.34474716e+001
,,,1.35200000e+008,-9.29531479e+001
,,,1.35600000e+008,-9.50104828e+001
,,,1.36000000e+008,-9.44375305e+001
,,,1.36400000e+008,-9.43192520e+001
,,,1.36800000e+008,-9.55678482e+001
,,,1.37200000e+008,-9.49136276e+001
,,,1.37600000e+008,-9.61753922e+001
,,,1.38000000e+008,-9.58649673e+001
,,,1.38400000e+008,-9.59630280e+001
,,,1.38800000e+008,-9.57644196e+001
,,,1.39200000e+008,-9.42878418e+001
,,,1.39600000e+008,-9.55690460e+001
,,,1.40000000e+008,-9.61602478e+001
,,,1.40400000e+008,-9.66066360e+001
,,,1.40800000e+008,-9.65051117e+001
,,,1.41200000e+008,-9.54550705e+001
,,,1.41600000e+008,-9.65550156e+001
,,,1.42000000e+008,-9.74766846e+001
,,,1.42400000e+008,-9.77305908e+001
,,,1.42800000e+008,-9.82128677e+001
,,,1.43200000e+008,-9.77195206e+001
,,,1.43600000e+008,-9.72350845e+001
,,,1.44000000e+008,-9.69499130e+001
,,,1.44400000e+008,-9.67979965e+001
,,,1.44800000e+008,-9.57065659e+001
,,,1.45200000e+008,-9.41261215e+001
,,,1.45600000e+008,-9.27974472e+001
,,,1.46000000e+008,-9.29160385e+001
,,,1.46400000e+008,-9.33265381e+001
,,,1.46800000e+008,-9.18255310e+001
,,,1.47200000e+008,-9.15481415e+001
,,,1.47600000e+008,-9.16448822e+001
,,,1.48000000e+008,-9.41351776e+001
,,,1.48400000e+008,-9.55680466e+001
,,,1.48800000e+008,-9.25833588e+001
,,,1.49200000e+008,-9.08990402e+001
,,,1.49600000e+008,-8.99046097e+001
,,,1.50000000e+008,-9.14960861e+001
,,,1.50400000e+008,-9.27529602e+001
,,,1.50800000e+008,-9.22670288e+001
,,,1.51200000e+008,-9.36022949e+001
,,,1.51600000e+008,-9.28428955e+001
,,,1.52000000e+008,-9.35368805e+001
,,,1.52400000e+008,-9.48030396e+001
,,,1.52800000e+008,-9.45509720e+001
,,,1.53200000e+008,-9.49246597e+001
,,,1.53600000e+008,-9.32639389e+001
,,,1.54000000e+008,-9.32122803e+001
,,,1.54400000e+008,-9.33633194e+001
,,,1.54800000e+008,-9.34001236e+001
,,,1.55200000e+008,-9.47297287e+001
,,,1.55600000e+008,-9.46961594e+001
,,,1.56000000e+008,-9.55116272e+001
,,,1.56400000e+008,-9.62052536e+001
,,,1.56800000e+008,-9.59857254e+001
,,,1.57200000e+008,-9.57782669e+001
,,,1.57600000e+008,-9.48436356e+001
,,,1.58000000e+008,-9.51656036e+001
,,,1.58400000e+008,-9.41667786e+001
,,,1.58800000e+008,-9.29956284e+001
,,,1.59200000e+008,-9.27936249e+001
,,,1.59600000e+008,-9.23412170e+001
,,,1.60000000e+008,-9.22128677e+001
,,,1.60400000e+008,-9.24352188e+001
,,,1.60800000e+008,-9.32494431e+001
,,,1.61200000e+008,-9.36889877e+001
,,,1.61600000e+008,-9.46695709e+001
,,,1.62000000e+008,-9.46887436e+001
,,,1.62400000e+008,-9.48641815e+001
,,,1.62800000e+008,-9.69482727e+001
,,,1.63200000e+008,-9.66490021e+001
,,,1.63600000e+008,-9.65212708e+001
,,,1.64000000e+008,-9.63436050e+001
,,,1.64400000e+008,-9.31207581e+001
,,,1.64800000e+008,-9.28221741e+001
,,,1.65200000e+008,-9.18139343e+001
,,,1.65600000e+008,-8.83521118e+001
,,,1.66000000e+008,-8.81156998e+001
,,,1.66400000e+008,-9.28506699e+001
,,,1.66800000e+008,-9.36448898e+001
,,,1.67200000e+008,-8.97027359e+001
,,,1.67600000e+008,-9.01747513e+001
,,,1.68000000e+008,-8.87182465e+001
,,,1.68400000e+008,-8.82182693e+001
,,,1.68800000e+008,-8.83703079e+001
,,,1.69200000e+008,-8.74961548e+001
,,,1.69600000e+008,-8.85932083e+001
,,,1.70000000e+008,-8.83552246e+001
,,,1.70400000e+008,-8.81054993e+001
,,,1.70800000e+008,-8.85653152e+001
,,,1.71200000e+008,-8.91835175e+001
,,,1.71600000e+008,-9.12895050e+001
,,,1.72000000e+008,-9.30473480e+001
,,,1.72400000e+008,-9.36064758e+001
,,,1.72800000e+008,-9.40844345e+001
,,,1.73200000e+008,-9.45657806e+001
,,,1.73600000e+008,-9.64435577e+001
,,,1.74000000e+008,-1.00563538e+002
,,,1.74400000e+008,-9.79941101e+001
,,,1.74800000e+008,-9.74780045e+001
,,,1.75200000e+008,-9.33295670e+001
,,,1.75600000e+008,-9.25854645e+001
,,,1.76000000e+008,-9.46021194e+001
,,,1.76400000e+008,-9.44602356e+001
,,,1.76800000e+008,-9.24015350e+001
,,,1.77200000e+008,-9.05404968e+001
,,,1.77600000e+008,-9.03247147e+001
,,,1.78000000e+008,-9.12515259e+001
,,,1.78400000e+008,-9.11731873e+001
,,,1.78800000e+008,-8.99272385e+001
,,,1.79200000e+008,-9.01373062e+001
,,,1.79600000e+008,-9.11657486e+001
,,,1.80000000e+008,-9.08169708e+001
,,,1.80400000e+008,-9.03497162e+001
,,,1.80800000e+008,-8.97001877e+001
,,,1.81200000e+008,-8.96105118e+001
,,,1.81600000e+008,-8.98497620e+001
,,,1.82000000e+008,-9.01934509e+001
,,,1.82400000e+008,-8.97468033e+001
,,,1.82800000e+008,-8.93381653e+001
,,,1.83200000e+008,-8.99981079e+001
,,,1.83600000e+008,-9.00138474e+001
,,,1.84000000e+008,-9.04967117e+001
,,,1.84400000e+008,-9.04362411e+001
,,,1.84800000e+008,-9.00365753e+001
,,,1.85200000e+008,-9.00518036e+001
,,,1.85600000e+008,-8.87065582e+001
,,,1.86000000e+008,-8.83020020e+001
,,,1.86400000e+008,-8.88218231e+001
,,,1.86800000e+008,-9.09224777e+001
,,,1.87200000e+008,-9.45142517e+001
,,,1.87600000e+008,-9.52497101e+001
,,,1.88000000e+008,-9.56018906e+001
,,,1.88400000e+008,-9.67213593e+001
,,,1.88800000e+008,-9.56189957e+001
,,,1.89200000e+008,-9.45402985e+001
,,,1.89600000e+008,-9.32537613e+001
,,,1.90000000e+008,-9.36113968e+001
,,,1.90400000e+008,-9.38654022e+001
,,,1.90800000e+008,-9.33863220e+001
,,,1.91200000e+008,-9.32548752e+001
,,,1.91600000e+008,-9.16771011e+001
,,,1.92000000e+008,-9.10813065e+001
,,,1.92400000e+008,-9.22947769e+001
,,,1.92800000e+008,-9.52468948e+001
,,,1.93200000e+008,-9.57991257e+001
,,,1.93600000e+008,-9.17952118e+001
,,,1.94000000e+008,-8.96326675e+001
,,,1.94400000e+008,-8.88928223e+001
,,,1.94800000e+008,-8.99621048e+001
,,,1.95200000e+008,-9.31527710e+001
,,,1.95600000e+008,-9.49988403e+001
,,,1.96000000e+008,-9.28592377e+001
,,,1.96400000e+008,-8.93949585e+001
,,,1.96800000e+008,-8.67644653e+001
,,,1.97200000e+008,-8.60992661e+001
,,,1.97600000e+008,-8.58061600e+001
,,,1.98000000e+008,-8.42389755e+001
,,,1.98400000e+008,-8.32794113e+001
,,,1.98800000e+008,-8.38050079e+001
,,,1.99200000e+008,-8.42835846e+001
,,,1.99600000e+008,-8.46340790e+001
,,,2.00000000e+008,-8.41950607e+001
,,,2.00400000e+008,-8.36805573e+001
,,,2.00800000e+008,-8.35931168e+001
,,,2.01200000e+008,-8.39875336e+001
,,,2.01600000e+008,-8.40483704e+001
,,,2.02000000e+008,-8.25775909e+001
,,,2.02400000e+008,-8.27199860e+001
,,,2.02800000e+008,-8.34889450e+001
,,,2.03200000e+008,-8.40830307e+001
,,,2.03600000e+008,-8.60811462e+001
,,,2.04000000e+008,-8.42925034e+001
,,,2.04400000e+008,-8.27045364e+001
,,,2.04800000e+008,-8.48687744e+001
,,,2.05200000e+008,-8.53565674e+001
,,,2.05600000e+008,-8.50043716e+001
,,,2.06000000e+008,-8.79505615e+001
,,,2.06400000e+008,-8.83338776e+001
,,,2.06800000e+008,-8.56275711e+001
,,,2.07200000e+008,-8.51716461e+001
,,,2.07600000e+008,-8.56449280e+001
,,,2.08000000e+008,-8.72637634e+001
,,,2.08400000e+008,-8.83434982e+001
,,,2.08800000e+008,-8.72404099e+001
,,,2.09200000e+008,-8.54413757e+001
,,,2.09600000e+008,-8.57830124e+001
,,,2.10000000e+008,-8.50101471e+001
,,,2.10400000e+008,-8.31813354e+001
,,,2.10800000e+008,-8.24310226e+001
,,,2.11200000e+008,-8.18753204e+001
,,,2.11600000e+008,-8.19868774e+001
,,,2.12000000e+008,-8.28401871e+001
,,,2.12400000e+008,-8.36501999e+001
,,,2.12800000e+008,-8.46824265e+001
,,,2.13200000e+008,-8.65842438e+001
,,,2.13600000e+008,-8.68362579e+001
,,,2.14000000e+008,-8.60714798e+001
,,,2.14400000e+008,-8.54429245e+001
,,,2.14800000e+008,-8.51387711e+001
,,,2.15200000e+008,-8.49141464e+001
,,,2.15600000e+008,-8.41059799e+001
,,,2.16000000e+008,-8.35587158e+001
,,,2.16400000e+008,-8.32355804e+001
,,,2.16800000e+008,-8.36359940e+001
,,,2.17200000e+008,-8.47223892e+001
,,,2.17600000e+008,-8.45558167e+001
,,,2.18000000e+008,-8.41417542e+001
,,,2.18400000e+008,-8.39473267e+001
,,,2.18800000e+008,-8.35528488e+001
,,,2.19200000e+008,-8.36037674e+001
,,,2.19600000e+008,-8.34455109e+001
,,,2.20000000e+008,-8.34475250e+001
