Data/20220822/UCLA_to_R2A_HPOL_80_001_Math2.csv

"Record Length",6250,"Points",0.00000000e+000,-5.67433815e+001
"Sample Interval",4.00000000e+005,Hz,4.00000000e+005,-6.32598610e+001
"Trigger Point",0,"Samples",8.00000000e+005,-6.54003525e+001
"Trigger Time",0.00000000e+000,Hz,1.20000000e+006,-6.83952789e+001
"",,,1.60000000e+006,-7.58491821e+001
"Horizontal Offset",0.00000000e+000,Hz,2.00000000e+006,-9.45366974e+001
,,,2.40000000e+006,-7.67354050e+001
,,,2.80000000e+006,-7.75594330e+001
,,,3.20000000e+006,-7.63118362e+001
,,,3.60000000e+006,-8.33270416e+001
,,,4.00000000e+006,-1.02060898e+002
,,,4.40000000e+006,-8.25461197e+001
,,,4.80000000e+006,-8.16789627e+001
,,,5.20000000e+006,-8.09202881e+001
,,,5.60000000e+006,-8.89170761e+001
,,,6.00000000e+006,-9.55874329e+001
,,,6.40000000e+006,-8.92902832e+001
,,,6.80000000e+006,-8.29869461e+001
,,,7.20000000e+006,-8.41281509e+001
,,,7.60000000e+006,-9.09028015e+001
,,,8.00000000e+006,-9.70868225e+001
,,,8.40000000e+006,-9.08372879e+001
,,,8.80000000e+006,-8.52788620e+001
,,,9.20000000e+006,-8.55632858e+001
,,,9.60000000e+006,-8.84536667e+001
,,,1.00000000e+007,-9.42546768e+001
,,,1.04000000e+007,-9.39040833e+001
,,,1.08000000e+007,-8.61517181e+001
,,,1.12000000e+007,-8.92686386e+001
,,,1.16000000e+007,-8.91510086e+001
,,,1.20000000e+007,-9.57127838e+001
,,,1.24000000e+007,-9.85638504e+001
,,,1.28000000e+007,-8.71957245e+001
,,,1.32000000e+007,-9.32310944e+001
,,,1.36000000e+007,-8.89170761e+001
,,,1.40000000e+007,-9.50772400e+001
,,,1.44000000e+007,-1.04394272e+002
,,,1.48000000e+007,-8.71145935e+001
,,,1.52000000e+007,-9.47521896e+001
,,,1.56000000e+007,-9.31475143e+001
,,,1.60000000e+007,-1.02968933e+002
,,,1.64000000e+007,-1.01413818e+002
,,,1.68000000e+007,-8.88980637e+001
,,,1.72000000e+007,-9.27412643e+001
,,,1.76000000e+007,-9.09089203e+001
,,,1.80000000e+007,-9.30916595e+001
,,,1.84000000e+007,-1.07443565e+002
,,,1.88000000e+007,-9.00894852e+001
,,,1.92000000e+007,-9.44952698e+001
,,,1.96000000e+007,-9.46875916e+001
,,,2.00000000e+007,-9.82238770e+001
,,,2.04000000e+007,-9.96283569e+001
,,,2.08000000e+007,-8.97658920e+001
,,,2.12000000e+007,-9.14223480e+001
,,,2.16000000e+007,-9.51716995e+001
,,,2.20000000e+007,-9.69662781e+001
,,,2.24000000e+007,-1.00268463e+002
,,,2.28000000e+007,-9.39598465e+001
,,,2.32000000e+007,-9.32398911e+001
,,,2.36000000e+007,-9.33609695e+001
,,,2.40000000e+007,-9.71554337e+001
,,,2.44000000e+007,-9.66204376e+001
,,,2.48000000e+007,-9.26266251e+001
,,,2.52000000e+007,-9.10218124e+001
,,,2.56000000e+007,-9.72452621e+001
,,,2.60000000e+007,-1.01984253e+002
,,,2.64000000e+007,-9.42432709e+001
,,,2.68000000e+007,-9.67089615e+001
,,,2.72000000e+007,-9.09376068e+001
,,,2.76000000e+007,-1.01675285e+002
,,,2.80000000e+007,-1.05422745e+002
,,,2.84000000e+007,-9.43143234e+001
,,,2.88000000e+007,-1.02213409e+002
,,,2.92000000e+007,-9.19215469e+001
,,,2.96000000e+007,-1.05128899e+002
,,,3.00000000e+007,-9.85563202e+001
,,,3.04000000e+007,-9.42243423e+001
,,,3.08000000e+007,-1.10829826e+002
,,,3.12000000e+007,-9.17172165e+001
,,,3.16000000e+007,-1.10884460e+002
,,,3.20000000e+007,-1.00370499e+002
,,,3.24000000e+007,-9.41389771e+001
,,,3.28000000e+007,-1.05950020e+002
,,,3.32000000e+007,-9.21235046e+001
,,,3.36000000e+007,-1.08377335e+002
,,,3.40000000e+007,-9.75539398e+001
,,,3.44000000e+007,-9.37175903e+001
,,,3.48000000e+007,-1.01199120e+002
,,,3.52000000e+007,-9.27730865e+001
,,,3.56000000e+007,-1.00531898e+002
,,,3.60000000e+007,-9.69738159e+001
,,,3.64000000e+007,-9.56612091e+001
,,,3.68000000e+007,-9.90095749e+001
,,,3.72000000e+007,-9.36667252e+001
,,,3.76000000e+007,-1.00599838e+002
,,,3.80000000e+007,-9.84356766e+001
,,,3.84000000e+007,-9.47305069e+001
,,,3.88000000e+007,-9.60487976e+001
,,,3.92000000e+007,-9.61543732e+001
,,,3.96000000e+007,-9.82822418e+001
,,,4.00000000e+007,-9.90539856e+001
,,,4.04000000e+007,-9.72258301e+001
,,,4.08000000e+007,-9.50023727e+001
,,,4.12000000e+007,-9.84503174e+001
,,,4.16000000e+007,-9.74084015e+001
,,,4.20000000e+007,-9.81399231e+001
,,,4.24000000e+007,-9.99706955e+001
,,,4.28000000e+007,-9.44563217e+001
,,,4.32000000e+007,-9.96065445e+001
,,,4.36000000e+007,-9.61837845e+001
,,,4.40000000e+007,-9.89687729e+001
,,,4.44000000e+007,-1.02304543e+002
,,,4.48000000e+007,-9.44724884e+001
,,,4.52000000e+007,-1.05165802e+002
,,,4.56000000e+007,-9.54592819e+001
,,,4.60000000e+007,-9.86328049e+001
,,,4.64000000e+007,-1.04209984e+002
,,,4.68000000e+007,-9.42538834e+001
,,,4.72000000e+007,-1.13665627e+002
,,,4.76000000e+007,-9.59027786e+001
,,,4.80000000e+007,-9.83784180e+001
,,,4.84000000e+007,-1.01838989e+002
,,,4.88000000e+007,-9.37362900e+001
,,,4.92000000e+007,-1.08707108e+002
,,,4.96000000e+007,-9.62522202e+001
,,,5.00000000e+007,-9.89848785e+001
,,,5.04000000e+007,-1.02966141e+002
,,,5.08000000e+007,-9.46909409e+001
,,,5.12000000e+007,-1.01870209e+002
,,,5.16000000e+007,-9.53405380e+001
,,,5.20000000e+007,-9.94177780e+001
,,,5.24000000e+007,-1.02439568e+002
,,,5.28000000e+007,-9.55018463e+001
,,,5.32000000e+007,-9.82508545e+001
,,,5.36000000e+007,-9.73181229e+001
,,,5.40000000e+007,-9.87079620e+001
,,,5.44000000e+007,-9.87101288e+001
,,,5.48000000e+007,-9.69978485e+001
,,,5.52000000e+007,-9.73096085e+001
,,,5.56000000e+007,-9.77788925e+001
,,,5.60000000e+007,-9.98296585e+001
,,,5.64000000e+007,-9.81730499e+001
,,,5.68000000e+007,-9.89902420e+001
,,,5.72000000e+007,-9.61295700e+001
,,,5.76000000e+007,-9.99938583e+001
,,,5.80000000e+007,-9.89622498e+001
,,,5.84000000e+007,-9.73577728e+001
,,,5.88000000e+007,-1.03292549e+002
,,,5.92000000e+007,-9.56769943e+001
,,,5.96000000e+007,-1.01456841e+002
,,,6.00000000e+007,-9.92704163e+001
,,,6.04000000e+007,-9.67421722e+001
,,,6.08000000e+007,-1.06689407e+002
,,,6.12000000e+007,-9.53109665e+001
,,,6.16000000e+007,-1.02556374e+002
,,,6.20000000e+007,-9.91281891e+001
,,,6.24000000e+007,-9.57654953e+001
,,,6.28000000e+007,-1.05317055e+002
,,,6.32000000e+007,-9.56700974e+001
,,,6.36000000e+007,-1.05237076e+002
,,,6.40000000e+007,-9.89858398e+001
,,,6.44000000e+007,-9.61278534e+001
,,,6.48000000e+007,-1.06752312e+002
,,,6.52000000e+007,-9.55446472e+001
,,,6.56000000e+007,-1.02788834e+002
,,,6.60000000e+007,-1.01448700e+002
,,,6.64000000e+007,-9.76673050e+001
,,,6.68000000e+007,-9.98208618e+001
,,,6.72000000e+007,-9.64476776e+001
,,,6.76000000e+007,-1.04575760e+002
,,,6.80000000e+007,-9.91776123e+001
,,,6.84000000e+007,-9.93873062e+001
,,,6.88000000e+007,-1.05173500e+002
,,,6.92000000e+007,-9.75474243e+001
,,,6.96000000e+007,-1.01267181e+002
,,,7.00000000e+007,-1.00445869e+002
,,,7.04000000e+007,-9.76222229e+001
,,,7.08000000e+007,-1.00418152e+002
,,,7.12000000e+007,-9.99023514e+001
,,,7.16000000e+007,-9.77283936e+001
,,,7.20000000e+007,-9.89691620e+001
,,,7.24000000e+007,-9.92817154e+001
,,,7.28000000e+007,-9.98438110e+001
,,,7.32000000e+007,-1.02086418e+002
,,,7.36000000e+007,-9.80357513e+001
,,,7.40000000e+007,-9.92307739e+001
,,,7.44000000e+007,-9.99945297e+001
,,,7.48000000e+007,-9.76456909e+001
,,,7.52000000e+007,-1.04079010e+002
,,,7.56000000e+007,-9.76719589e+001
,,,7.60000000e+007,-9.98635025e+001
,,,7.64000000e+007,-1.01491356e+002
,,,7.68000000e+007,-9.62029953e+001
,,,7.72000000e+007,-1.04227524e+002
,,,7.76000000e+007,-9.60575790e+001
,,,7.80000000e+007,-9.98369522e+001
,,,7.84000000e+007,-1.04777061e+002
,,,7.88000000e+007,-9.75366974e+001
,,,7.92000000e+007,-1.06723625e+002
,,,7.96000000e+007,-9.69103699e+001
,,,8.00000000e+007,-1.00686287e+002
,,,8.04000000e+007,-1.03373344e+002
,,,8.08000000e+007,-9.74382477e+001
,,,8.12000000e+007,-1.07424706e+002
,,,8.16000000e+007,-9.76101990e+001
,,,8.20000000e+007,-1.01394203e+002
,,,8.24000000e+007,-1.01399948e+002
,,,8.28000000e+007,-9.72889252e+001
,,,8.32000000e+007,-1.03099060e+002
,,,8.36000000e+007,-9.93665237e+001
,,,8.40000000e+007,-1.02132286e+002
,,,8.44000000e+007,-1.02670532e+002
,,,8.48000000e+007,-9.68819046e+001
,,,8.52000000e+007,-1.00275291e+002
,,,8.56000000e+007,-1.00516525e+002
,,,8.60000000e+007,-1.00344307e+002
,,,8.64000000e+007,-9.98701096e+001
,,,8.68000000e+007,-1.00103905e+002
,,,8.72000000e+007,-1.00191376e+002
,,,8.76000000e+007,-9.86836777e+001
,,,8.80000000e+007,-1.01131020e+002
,,,8.84000000e+007,-9.90983963e+001
,,,8.88000000e+007,-9.93159485e+001
,,,8.92000000e+007,-9.83136978e+001
,,,8.96000000e+007,-9.98433990e+001
,,,9.00000000e+007,-1.00777435e+002
,,,9.04000000e+007,-1.00573837e+002
,,,9.08000000e+007,-1.01157677e+002
,,,9.12000000e+007,-9.80433807e+001
,,,9.16000000e+007,-1.00522934e+002
,,,9.20000000e+007,-9.96423721e+001
,,,9.24000000e+007,-1.00436272e+002
,,,9.28000000e+007,-1.01104477e+002
,,,9.32000000e+007,-9.65388184e+001
,,,9.36000000e+007,-1.03497612e+002
,,,9.40000000e+007,-9.67155304e+001
,,,9.44000000e+007,-9.75405884e+001
,,,9.48000000e+007,-1.08465164e+002
,,,9.52000000e+007,-9.79778671e+001
,,,9.56000000e+007,-1.23683228e+002
,,,9.60000000e+007,-1.01273148e+002
,,,9.64000000e+007,-9.67378769e+001
,,,9.68000000e+007,-1.07354729e+002
,,,9.72000000e+007,-9.41733398e+001
,,,9.76000000e+007,-9.87517242e+001
,,,9.80000000e+007,-1.01237297e+002
,,,9.84000000e+007,-9.72587051e+001
,,,9.88000000e+007,-1.09942184e+002
,,,9.92000000e+007,-1.02559311e+002
,,,9.96000000e+007,-1.00700836e+002
,,,1.00000000e+008,-1.17974907e+002
,,,1.00400000e+008,-1.04318771e+002
,,,1.00800000e+008,-9.96218796e+001
,,,1.01200000e+008,-9.83395462e+001
,,,1.01600000e+008,-1.02918251e+002
,,,1.02000000e+008,-9.74138412e+001
,,,1.02400000e+008,-9.92505341e+001
,,,1.02800000e+008,-1.06656670e+002
,,,1.03200000e+008,-1.01733521e+002
,,,1.03600000e+008,-9.89531860e+001
,,,1.04000000e+008,-1.02840881e+002
,,,1.04400000e+008,-1.01543182e+002
,,,1.04800000e+008,-9.93456116e+001
,,,1.05200000e+008,-1.00008881e+002
,,,1.05600000e+008,-1.00063782e+002
,,,1.06000000e+008,-1.09916176e+002
,,,1.06400000e+008,-1.03575180e+002
,,,1.06800000e+008,-9.61811447e+001
,,,1.07200000e+008,-1.11120949e+002
,,,1.07600000e+008,-9.65322952e+001
,,,1.08000000e+008,-9.82899017e+001
,,,1.08400000e+008,-1.09833389e+002
,,,1.08800000e+008,-9.96284485e+001
,,,1.09200000e+008,-1.04751770e+002
,,,1.09600000e+008,-9.81990891e+001
,,,1.10000000e+008,-1.04074623e+002
,,,1.10400000e+008,-1.04540016e+002
,,,1.10800000e+008,-9.57584457e+001
,,,1.11200000e+008,-1.03701958e+002
,,,1.11600000e+008,-9.82829208e+001
,,,1.12000000e+008,-1.01919403e+002
,,,1.12400000e+008,-1.11483215e+002
,,,1.12800000e+008,-9.70463028e+001
,,,1.13200000e+008,-9.93413467e+001
,,,1.13600000e+008,-9.78644257e+001
,,,1.14000000e+008,-1.00185516e+002
,,,1.14400000e+008,-1.01991066e+002
,,,1.14800000e+008,-1.08841362e+002
,,,1.15200000e+008,-1.10730232e+002
,,,1.15600000e+008,-9.29279404e+001
,,,1.16000000e+008,-9.60090103e+001
,,,1.16400000e+008,-1.03573975e+002
,,,1.16800000e+008,-9.84833832e+001
,,,1.17200000e+008,-1.03712830e+002
,,,1.17600000e+008,-9.85394669e+001
,,,1.18000000e+008,-9.91818008e+001
,,,1.18400000e+008,-1.03160011e+002
,,,1.18800000e+008,-9.92766724e+001
,,,1.19200000e+008,-9.77443924e+001
,,,1.19600000e+008,-1.02972313e+002
,,,1.20000000e+008,-1.01938797e+002
,,,1.20400000e+008,-9.87896729e+001
,,,1.20800000e+008,-1.02383202e+002
,,,1.21200000e+008,-1.01271690e+002
,,,1.21600000e+008,-1.02389755e+002
,,,1.22000000e+008,-1.01685104e+002
,,,1.22400000e+008,-9.84226990e+001
,,,1.22800000e+008,-1.13889465e+002
,,,1.23200000e+008,-9.89311371e+001
,,,1.23600000e+008,-9.96596756e+001
,,,1.24000000e+008,-1.02923233e+002
,,,1.24400000e+008,-1.00292030e+002
,,,1.24800000e+008,-1.00356880e+002
,,,1.25200000e+008,-1.01291519e+002
,,,1.25600000e+008,-1.03364166e+002
,,,1.26000000e+008,-1.00142021e+002
,,,1.26400000e+008,-1.01139717e+002
,,,1.26800000e+008,-1.07105042e+002
,,,1.27200000e+008,-9.64732056e+001
,,,1.27600000e+008,-1.02618866e+002
,,,1.28000000e+008,-1.01560982e+002
,,,1.28400000e+008,-9.70421219e+001
,,,1.28800000e+008,-1.03420021e+002
,,,1.29200000e+008,-9.91959610e+001
,,,1.29600000e+008,-1.01330910e+002
,,,1.30000000e+008,-9.91786957e+001
,,,1.30400000e+008,-1.01824043e+002
,,,1.30800000e+008,-9.87875748e+001
,,,1.31200000e+008,-9.68025436e+001
,,,1.31600000e+008,-1.02524048e+002
,,,1.32000000e+008,-9.64923630e+001
,,,1.32400000e+008,-9.61848450e+001
,,,1.32800000e+008,-1.12395271e+002
,,,1.33200000e+008,-1.04307434e+002
,,,1.33600000e+008,-1.01169998e+002
,,,1.34000000e+008,-9.75594482e+001
,,,1.34400000e+008,-9.89550858e+001
,,,1.34800000e+008,-1.02221550e+002
,,,1.35200000e+008,-9.89609375e+001
,,,1.35600000e+008,-1.00809349e+002
,,,1.36000000e+008,-1.05259262e+002
,,,1.36400000e+008,-1.00459702e+002
,,,1.36800000e+008,-9.92291489e+001
,,,1.37200000e+008,-1.02611519e+002
,,,1.37600000e+008,-9.95383072e+001
,,,1.38000000e+008,-1.02013519e+002
,,,1.38400000e+008,-1.01920052e+002
,,,1.38800000e+008,-1.01766563e+002
,,,1.39200000e+008,-1.07110695e+002
,,,1.39600000e+008,-1.00171944e+002
,,,1.40000000e+008,-9.79882889e+001
,,,1.40400000e+008,-9.87985611e+001
,,,1.40800000e+008,-9.53851242e+001
,,,1.41200000e+008,-1.01203590e+002
,,,1.41600000e+008,-9.84864349e+001
,,,1.42000000e+008,-9.96614075e+001
,,,1.42400000e+008,-1.00913857e+002
,,,1.42800000e+008,-1.00995438e+002
,,,1.43200000e+008,-1.10428650e+002
,,,1.43600000e+008,-9.84084320e+001
,,,1.44000000e+008,-9.83719864e+001
,,,1.44400000e+008,-9.84585342e+001
,,,1.44800000e+008,-9.50684662e+001
,,,1.45200000e+008,-1.01132187e+002
,,,1.45600000e+008,-1.01413467e+002
,,,1.46000000e+008,-1.00136665e+002
,,,1.46400000e+008,-9.92169800e+001
,,,1.46800000e+008,-9.74327621e+001
,,,1.47200000e+008,-1.01666969e+002
,,,1.47600000e+008,-9.76212006e+001
,,,1.48000000e+008,-9.73161316e+001
,,,1.48400000e+008,-9.59780884e+001
,,,1.48800000e+008,-9.33514328e+001
,,,1.49200000e+008,-9.35843048e+001
,,,1.49600000e+008,-9.57808304e+001
,,,1.50000000e+008,-9.79268494e+001
,,,1.50400000e+008,-9.95649185e+001
,,,1.50800000e+008,-1.05987755e+002
,,,1.51200000e+008,-1.02159508e+002
,,,1.51600000e+008,-1.04716599e+002
,,,1.52000000e+008,-1.03843338e+002
,,,1.52400000e+008,-1.01181511e+002
,,,1.52800000e+008,-1.00498657e+002
,,,1.53200000e+008,-9.78593979e+001
,,,1.53600000e+008,-9.85757599e+001
,,,1.54000000e+008,-9.85177460e+001
,,,1.54400000e+008,-9.80403214e+001
,,,1.54800000e+008,-1.00708832e+002
,,,1.55200000e+008,-9.71939087e+001
,,,1.55600000e+008,-1.00605820e+002
,,,1.56000000e+008,-1.00490456e+002
,,,1.56400000e+008,-9.91105957e+001
,,,1.56800000e+008,-1.02510483e+002
,,,1.57200000e+008,-9.77143555e+001
,,,1.57600000e+008,-1.00452690e+002
,,,1.58000000e+008,-9.85778961e+001
,,,1.58400000e+008,-9.75566940e+001
,,,1.58800000e+008,-1.00423843e+002
,,,1.59200000e+008,-9.84395218e+001
,,,1.59600000e+008,-1.04572388e+002
,,,1.60000000e+008,-1.04178299e+002
,,,1.60400000e+008,-1.02169876e+002
,,,1.60800000e+008,-1.06351204e+002
,,,1.61200000e+008,-9.97630234e+001
,,,1.61600000e+008,-1.03223640e+002
,,,1.62000000e+008,-1.00913368e+002
,,,1.62400000e+008,-9.87218781e+001
,,,1.62800000e+008,-9.95998764e+001
,,,1.63200000e+008,-9.75867081e+001
,,,1.63600000e+008,-9.95541840e+001
,,,1.64000000e+008,-9.86081924e+001
,,,1.64400000e+008,-9.78710938e+001
,,,1.64800000e+008,-9.91073227e+001
,,,1.65200000e+008,-9.64878006e+001
,,,1.65600000e+008,-9.41560516e+001
,,,1.66000000e+008,-9.17139130e+001
,,,1.66400000e+008,-9.13865204e+001
,,,1.66800000e+008,-9.09263306e+001
,,,1.67200000e+008,-9.60600815e+001
,,,1.67600000e+008,-9.73795471e+001
,,,1.68000000e+008,-1.01429276e+002
,,,1.68400000e+008,-1.08269142e+002
,,,1.68800000e+008,-1.04138733e+002
,,,1.69200000e+008,-1.15572517e+002
,,,1.69600000e+008,-1.07789253e+002
,,,1.70000000e+008,-1.12299805e+002
,,,1.70400000e+008,-1.10923790e+002
,,,1.70800000e+008,-1.03073135e+002
,,,1.71200000e+008,-1.05709938e+002
,,,1.71600000e+008,-1.02593018e+002
,,,1.72000000e+008,-1.05415817e+002
,,,1.72400000e+008,-1.10770912e+002
,,,1.72800000e+008,-1.02063705e+002
,,,1.73200000e+008,-1.03762680e+002
,,,1.73600000e+008,-9.99412689e+001
,,,1.74000000e+008,-9.91310959e+001
,,,1.74400000e+008,-9.95426941e+001
,,,1.74800000e+008,-9.69982834e+001
,,,1.75200000e+008,-9.77758713e+001
,,,1.75600000e+008,-9.46283722e+001
,,,1.76000000e+008,-9.67028809e+001
,,,1.76400000e+008,-9.63220291e+001
,,,1.76800000e+008,-9.43047256e+001
,,,1.77200000e+008,-1.00441818e+002
,,,1.77600000e+008,-9.99993744e+001
,,,1.78000000e+008,-9.74750748e+001
,,,1.78400000e+008,-9.62428741e+001
,,,1.78800000e+008,-9.51807709e+001
,,,1.79200000e+008,-9.61898880e+001
,,,1.79600000e+008,-9.70029907e+001
,,,1.80000000e+008,-9.82931290e+001
,,,1.80400000e+008,-9.73282700e+001
,,,1.80800000e+008,-9.53386002e+001
,,,1.81200000e+008,-9.49755554e+001
,,,1.81600000e+008,-9.54604492e+001
,,,1.82000000e+008,-9.51864319e+001
,,,1.82400000e+008,-9.49614487e+001
,,,1.82800000e+008,-9.45799561e+001
,,,1.83200000e+008,-9.24246902e+001
,,,1.83600000e+008,-9.49425430e+001
,,,1.84000000e+008,-9.65666885e+001
,,,1.84400000e+008,-9.57521896e+001
,,,1.84800000e+008,-9.60391159e+001
,,,1.85200000e+008,-9.34662170e+001
,,,1.85600000e+008,-9.51420746e+001
,,,1.86000000e+008,-9.45390778e+001
,,,1.86400000e+008,-9.45109482e+001
,,,1.86800000e+008,-9.74453278e+001
,,,1.87200000e+008,-9.75450287e+001
,,,1.87600000e+008,-9.92807693e+001
,,,1.88000000e+008,-1.01214371e+002
,,,1.88400000e+008,-1.02940552e+002
,,,1.88800000e+008,-1.04745712e+002
,,,1.89200000e+008,-1.10840347e+002
,,,1.89600000e+008,-1.14471886e+002
,,,1.90000000e+008,-1.02435196e+002
,,,1.90400000e+008,-9.82556915e+001
,,,1.90800000e+008,-1.01148163e+002
,,,1.91200000e+008,-9.72253036e+001
,,,1.91600000e+008,-9.88181152e+001
,,,1.92000000e+008,-9.96412125e+001
,,,1.92400000e+008,-9.89034424e+001
,,,1.92800000e+008,-9.90347672e+001
,,,1.93200000e+008,-9.87383957e+001
,,,1.93600000e+008,-9.94354095e+001
,,,1.94000000e+008,-9.77401733e+001
,,,1.94400000e+008,-9.62497787e+001
,,,1.94800000e+008,-9.52639847e+001
,,,1.95200000e+008,-9.60383911e+001
,,,1.95600000e+008,-9.53974304e+001
,,,1.96000000e+008,-9.78146057e+001
,,,1.96400000e+008,-1.01105385e+002
,,,1.96800000e+008,-9.98860931e+001
,,,1.97200000e+008,-1.12089729e+002
,,,1.97600000e+008,-1.12176903e+002
,,,1.98000000e+008,-1.10686394e+002
,,,1.98400000e+008,-1.03657059e+002
,,,1.98800000e+008,-9.99833603e+001
,,,1.99200000e+008,-9.64041214e+001
,,,1.99600000e+008,-9.45984039e+001
,,,2.00000000e+008,-9.50877609e+001
,,,2.00400000e+008,-9.52691956e+001
,,,2.00800000e+008,-9.49920044e+001
,,,2.01200000e+008,-9.96482315e+001
,,,2.01600000e+008,-1.01832733e+002
,,,2.02000000e+008,-1.11854454e+002
,,,2.02400000e+008,-1.01985062e+002
,,,2.02800000e+008,-9.52964096e+001
,,,2.03200000e+008,-9.48717651e+001
,,,2.03600000e+008,-9.25308990e+001
,,,2.04000000e+008,-9.35940628e+001
,,,2.04400000e+008,-9.45073776e+001
,,,2.04800000e+008,-9.26039429e+001
,,,2.05200000e+008,-9.35861435e+001
,,,2.05600000e+008,-9.62670059e+001
,,,2.06000000e+008,-9.57558594e+001
,,,2.06400000e+008,-9.10630035e+001
,,,2.06800000e+008,-9.11979141e+001
,,,2.07200000e+008,-9.20580902e+001
,,,2.07600000e+008,-9.17212143e+001
,,,2.08000000e+008,-9.36685257e+001
,,,2.08400000e+008,-9.43752594e+001
,,,2.08800000e+008,-9.66623764e+001
,,,2.09200000e+008,-9.09245300e+001
,,,2.09600000e+008,-9.05780640e+001
,,,2.10000000e+008,-9.57231598e+001
,,,2.10400000e+008,-9.26358643e+001
,,,2.10800000e+008,-9.00503540e+001
,,,2.11200000e+008,-8.89949570e+001
,,,2.11600000e+008,-8.82303391e+001
,,,2.12000000e+008,-8.85762558e+001
,,,2.12400000e+008,-8.82111816e+001
,,,2.12800000e+008,-8.83670654e+001
,,,2.13200000e+008,-8.74710159e+001
,,,2.13600000e+008,-8.82595749e+001
,,,2.14000000e+008,-8.82301636e+001
,,,2.14400000e+008,-8.81981888e+001
,,,2.14800000e+008,-8.93594971e+001
,,,2.15200000e+008,-8.91568298e+001
,,,2.15600000e+008,-9.13358307e+001
,,,2.16000000e+008,-9.18369980e+001
,,,2.16400000e+008,-9.18380508e+001
,,,2.16800000e+008,-9.24379959e+001
,,,2.17200000e+008,-9.03400040e+001
,,,2.17600000e+008,-9.04807510e+001
,,,2.18000000e+008,-9.06800461e+001
,,,2.18400000e+008,-9.16184616e+001
,,,2.18800000e+008,-9.33386993e+001
,,,2.19200000e+008,-9.44213867e+001
,,,2.19600000e+008,-9.43603592e+001
,,,2.20000000e+008,-9.59136353e+001
