Data/20220822/UCLA_to_R2A_HPOL_NEG90_001_Ch2.csv

"Record Length",10000,"Points",-5.00800000e-007,1.21562525e-003
"Sample Interval",2.00000000e-010,s,-5.00600000e-007,1.01562524e-003
"Trigger Point",2504,"Samples",-5.00400000e-007,8.56250228e-004
"Trigger Time",0.00000000e+000,s,-5.00200000e-007,6.51562714e-004
"",,,-5.00000000e-007,6.18750211e-004
"Horizontal Offset",-5.00800000e-007,s,-4.99800000e-007,6.02343960e-004
,,,-4.99600000e-007,6.28125212e-004
,,,-4.99400000e-007,9.35156484e-004
,,,-4.99200000e-007,1.07421899e-003
,,,-4.99000000e-007,9.56250235e-004
,,,-4.98800000e-007,8.85156480e-004
,,,-4.98600000e-007,7.07812718e-004
,,,-4.98400000e-007,7.70312722e-004
,,,-4.98200000e-007,7.06250218e-004
,,,-4.98000000e-007,6.74218965e-004
,,,-4.97800000e-007,9.78906487e-004
,,,-4.97600000e-007,9.25000233e-004
,,,-4.97400000e-007,7.82812723e-004
,,,-4.97200000e-007,7.93750224e-004
,,,-4.97000000e-007,7.96093974e-004
,,,-4.96800000e-007,8.32812727e-004
,,,-4.96600000e-007,7.68750222e-004
,,,-4.96400000e-007,8.17968976e-004
,,,-4.96200000e-007,1.01875024e-003
,,,-4.96000000e-007,9.98437738e-004
,,,-4.95800000e-007,8.75781480e-004
,,,-4.95600000e-007,7.23437719e-004
,,,-4.95400000e-007,6.48437714e-004
,,,-4.95200000e-007,7.39843970e-004
,,,-4.95000000e-007,7.07812718e-004
,,,-4.94800000e-007,9.06250232e-004
,,,-4.94600000e-007,1.13046900e-003
,,,-4.94400000e-007,1.11484400e-003
,,,-4.94200000e-007,9.02343982e-004
,,,-4.94000000e-007,7.10937718e-004
,,,-4.93800000e-007,4.98437703e-004
,,,-4.93600000e-007,5.49218957e-004
,,,-4.93400000e-007,6.52343964e-004
,,,-4.93200000e-007,9.85937737e-004
,,,-4.93000000e-007,1.18515650e-003
,,,-4.92800000e-007,1.21718775e-003
,,,-4.92600000e-007,1.01093774e-003
,,,-4.92400000e-007,7.14062718e-004
,,,-4.92200000e-007,5.89062709e-004
,,,-4.92000000e-007,5.10156454e-004
,,,-4.91800000e-007,5.40625206e-004
,,,-4.91600000e-007,9.07812732e-004
,,,-4.91400000e-007,1.07421899e-003
,,,-4.91200000e-007,1.16562525e-003
,,,-4.91000000e-007,8.89843981e-004
,,,-4.90800000e-007,7.13281468e-004
,,,-4.90600000e-007,6.77343966e-004
,,,-4.90400000e-007,5.54687707e-004
,,,-4.90200000e-007,6.42187713e-004
,,,-4.90000000e-007,8.68750229e-004
,,,-4.89800000e-007,9.91406488e-004
,,,-4.89600000e-007,9.89062738e-004
,,,-4.89400000e-007,8.08593975e-004
,,,-4.89200000e-007,7.25781469e-004
,,,-4.89000000e-007,7.16406468e-004
,,,-4.88800000e-007,7.25000219e-004
,,,-4.88600000e-007,8.46093978e-004
,,,-4.88400000e-007,9.85937737e-004
,,,-4.88200000e-007,1.03750024e-003
,,,-4.88000000e-007,9.23437733e-004
,,,-4.87800000e-007,6.94531467e-004
,,,-4.87600000e-007,6.97656467e-004
,,,-4.87400000e-007,7.51562721e-004
,,,-4.87200000e-007,8.07031475e-004
,,,-4.87000000e-007,9.41406484e-004
,,,-4.86800000e-007,9.93750238e-004
,,,-4.86600000e-007,1.11015650e-003
,,,-4.86400000e-007,9.53906485e-004
,,,-4.86200000e-007,7.57812721e-004
,,,-4.86000000e-007,6.31250212e-004
,,,-4.85800000e-007,5.96093960e-004
,,,-4.85600000e-007,7.53125221e-004
,,,-4.85400000e-007,8.96875231e-004
,,,-4.85200000e-007,1.07734399e-003
,,,-4.85000000e-007,1.20703150e-003
,,,-4.84800000e-007,1.07578149e-003
,,,-4.84600000e-007,7.73437722e-004
,,,-4.84400000e-007,5.91406459e-004
,,,-4.84200000e-007,4.83593952e-004
,,,-4.84000000e-007,5.76562708e-004
,,,-4.83800000e-007,8.14843975e-004
,,,-4.83600000e-007,1.01640649e-003
,,,-4.83400000e-007,1.19140650e-003
,,,-4.83200000e-007,1.03906274e-003
,,,-4.83000000e-007,8.52343978e-004
,,,-4.82800000e-007,6.08593961e-004
,,,-4.82600000e-007,4.99218953e-004
,,,-4.82400000e-007,6.01562710e-004
,,,-4.82200000e-007,7.12500218e-004
,,,-4.82000000e-007,1.03437524e-003
,,,-4.81800000e-007,1.15078150e-003
,,,-4.81600000e-007,9.75000237e-004
,,,-4.81400000e-007,7.85156473e-004
,,,-4.81200000e-007,6.18750211e-004
,,,-4.81000000e-007,6.30468962e-004
,,,-4.80800000e-007,6.85937716e-004
,,,-4.80600000e-007,8.48437728e-004
,,,-4.80400000e-007,1.06250024e-003
,,,-4.80200000e-007,9.96875238e-004
,,,-4.80000000e-007,8.54687728e-004
,,,-4.79800000e-007,7.50000221e-004
,,,-4.79600000e-007,6.74218965e-004
,,,-4.79400000e-007,7.47656471e-004
,,,-4.79200000e-007,8.18750226e-004
,,,-4.79000000e-007,9.77343987e-004
,,,-4.78800000e-007,1.06796899e-003
,,,-4.78600000e-007,9.78125237e-004
,,,-4.78400000e-007,8.71093979e-004
,,,-4.78200000e-007,7.53125221e-004
,,,-4.78000000e-007,7.04687718e-004
,,,-4.77800000e-007,7.72656472e-004
,,,-4.77600000e-007,8.21875226e-004
,,,-4.77400000e-007,9.67968986e-004
,,,-4.77200000e-007,1.00937524e-003
,,,-4.77000000e-007,9.66406486e-004
,,,-4.76800000e-007,9.84375237e-004
,,,-4.76600000e-007,8.07031475e-004
,,,-4.76400000e-007,6.56250214e-004
,,,-4.76200000e-007,6.78906466e-004
,,,-4.76000000e-007,7.15625218e-004
,,,-4.75800000e-007,8.57031478e-004
,,,-4.75600000e-007,9.13281482e-004
,,,-4.75400000e-007,9.58593985e-004
,,,-4.75200000e-007,9.77343987e-004
,,,-4.75000000e-007,8.07812725e-004
,,,-4.74800000e-007,6.59375214e-004
,,,-4.74600000e-007,5.77343959e-004
,,,-4.74400000e-007,7.17968968e-004
,,,-4.74200000e-007,8.46093978e-004
,,,-4.74000000e-007,9.02343982e-004
,,,-4.73800000e-007,1.02265649e-003
,,,-4.73600000e-007,9.25000233e-004
,,,-4.73400000e-007,7.94531474e-004
,,,-4.73200000e-007,7.20312719e-004
,,,-4.73000000e-007,5.89062709e-004
,,,-4.72800000e-007,7.23437719e-004
,,,-4.72600000e-007,8.10937725e-004
,,,-4.72400000e-007,9.55468985e-004
,,,-4.72200000e-007,1.04921899e-003
,,,-4.72000000e-007,8.78906480e-004
,,,-4.71800000e-007,7.44531470e-004
,,,-4.71600000e-007,7.16406468e-004
,,,-4.71400000e-007,6.98437717e-004
,,,-4.71200000e-007,7.99218974e-004
,,,-4.71000000e-007,8.13281475e-004
,,,-4.70800000e-007,9.08593982e-004
,,,-4.70600000e-007,9.43750234e-004
,,,-4.70400000e-007,8.33593977e-004
,,,-4.70200000e-007,8.32031477e-004
,,,-4.70000000e-007,7.95312724e-004
,,,-4.69800000e-007,8.34375227e-004
,,,-4.69600000e-007,8.65625229e-004
,,,-4.69400000e-007,8.03125224e-004
,,,-4.69200000e-007,7.92968974e-004
,,,-4.69000000e-007,8.14843975e-004
,,,-4.68800000e-007,8.98437731e-004
,,,-4.68600000e-007,8.38281477e-004
,,,-4.68400000e-007,8.04687725e-004
,,,-4.68200000e-007,9.07812732e-004
,,,-4.68000000e-007,8.85937730e-004
,,,-4.67800000e-007,7.64062722e-004
,,,-4.67600000e-007,7.27343969e-004
,,,-4.67400000e-007,7.07031468e-004
,,,-4.67200000e-007,8.46093978e-004
,,,-4.67000000e-007,8.28906476e-004
,,,-4.66800000e-007,7.64843972e-004
,,,-4.66600000e-007,8.71875229e-004
,,,-4.66400000e-007,8.09375225e-004
,,,-4.66200000e-007,7.47656471e-004
,,,-4.66000000e-007,7.57812721e-004
,,,-4.65800000e-007,7.54687721e-004
,,,-4.65600000e-007,8.90625231e-004
,,,-4.65400000e-007,7.79687723e-004
,,,-4.65200000e-007,7.88281473e-004
,,,-4.65000000e-007,7.93750224e-004
,,,-4.64800000e-007,7.46093970e-004
,,,-4.64600000e-007,8.23437726e-004
,,,-4.64400000e-007,8.36718977e-004
,,,-4.64200000e-007,9.00781481e-004
,,,-4.64000000e-007,9.29687733e-004
,,,-4.63800000e-007,8.73437729e-004
,,,-4.63600000e-007,8.28906476e-004
,,,-4.63400000e-007,7.17187718e-004
,,,-4.63200000e-007,7.30468969e-004
,,,-4.63000000e-007,8.12500225e-004
,,,-4.62800000e-007,8.34375227e-004
,,,-4.62600000e-007,9.38281484e-004
,,,-4.62400000e-007,9.42187734e-004
,,,-4.62200000e-007,8.25000226e-004
,,,-4.62000000e-007,7.84375223e-004
,,,-4.61800000e-007,7.06250218e-004
,,,-4.61600000e-007,7.21875219e-004
,,,-4.61400000e-007,7.71093972e-004
,,,-4.61200000e-007,7.51562721e-004
,,,-4.61000000e-007,8.60156479e-004
,,,-4.60800000e-007,9.90625238e-004
,,,-4.60600000e-007,9.09375232e-004
,,,-4.60400000e-007,9.50781485e-004
,,,-4.60200000e-007,8.35937727e-004
,,,-4.60000000e-007,7.72656472e-004
,,,-4.59800000e-007,6.52343964e-004
,,,-4.59600000e-007,5.78125209e-004
,,,-4.59400000e-007,7.25781469e-004
,,,-4.59200000e-007,9.17968983e-004
,,,-4.59000000e-007,9.45312735e-004
,,,-4.58800000e-007,9.56250235e-004
,,,-4.58600000e-007,9.08593982e-004
,,,-4.58400000e-007,8.54687728e-004
,,,-4.58200000e-007,6.74218965e-004
,,,-4.58000000e-007,5.46093956e-004
,,,-4.57800000e-007,6.38281463e-004
,,,-4.57600000e-007,7.95312724e-004
,,,-4.57400000e-007,8.89062731e-004
,,,-4.57200000e-007,8.60156479e-004
,,,-4.57000000e-007,8.71875229e-004
,,,-4.56800000e-007,8.37500227e-004
,,,-4.56600000e-007,7.38281470e-004
,,,-4.56400000e-007,7.67187722e-004
,,,-4.56200000e-007,8.41406477e-004
,,,-4.56000000e-007,8.57031478e-004
,,,-4.55800000e-007,8.35156477e-004
,,,-4.55600000e-007,7.10156468e-004
,,,-4.55400000e-007,6.96093967e-004
,,,-4.55200000e-007,7.57812721e-004
,,,-4.55000000e-007,7.64843972e-004
,,,-4.54800000e-007,9.07031482e-004
,,,-4.54600000e-007,9.57031485e-004
,,,-4.54400000e-007,9.97656488e-004
,,,-4.54200000e-007,9.02343982e-004
,,,-4.54000000e-007,6.92187717e-004
,,,-4.53800000e-007,5.55468957e-004
,,,-4.53600000e-007,5.99218960e-004
,,,-4.53400000e-007,6.54687714e-004
,,,-4.53200000e-007,8.76562730e-004
,,,-4.53000000e-007,1.04921899e-003
,,,-4.52800000e-007,1.10859400e-003
,,,-4.52600000e-007,1.02265649e-003
,,,-4.52400000e-007,7.56250221e-004
,,,-4.52200000e-007,5.39843956e-004
,,,-4.52000000e-007,5.60937707e-004
,,,-4.51800000e-007,5.78906459e-004
,,,-4.51600000e-007,7.28125219e-004
,,,-4.51400000e-007,9.39843984e-004
,,,-4.51200000e-007,1.10937525e-003
,,,-4.51000000e-007,1.00625024e-003
,,,-4.50800000e-007,8.99218981e-004
,,,-4.50600000e-007,7.93750224e-004
,,,-4.50400000e-007,6.22656462e-004
,,,-4.50200000e-007,5.71875208e-004
,,,-4.50000000e-007,5.79687709e-004
,,,-4.49800000e-007,8.21093976e-004
,,,-4.49600000e-007,9.66406486e-004
,,,-4.49400000e-007,9.30468983e-004
,,,-4.49200000e-007,9.00781481e-004
,,,-4.49000000e-007,8.53125228e-004
,,,-4.48800000e-007,8.01562724e-004
,,,-4.48600000e-007,6.96093967e-004
,,,-4.48400000e-007,6.28906462e-004
,,,-4.48200000e-007,7.54687721e-004
,,,-4.48000000e-007,8.42968977e-004
,,,-4.47800000e-007,8.54687728e-004
,,,-4.47600000e-007,8.18750226e-004
,,,-4.47400000e-007,7.98437724e-004
,,,-4.47200000e-007,7.21875219e-004
,,,-4.47000000e-007,7.21875219e-004
,,,-4.46800000e-007,8.04687725e-004
,,,-4.46600000e-007,9.98437738e-004
,,,-4.46400000e-007,9.86718987e-004
,,,-4.46200000e-007,8.10937725e-004
,,,-4.46000000e-007,5.89062709e-004
,,,-4.45800000e-007,4.75781451e-004
,,,-4.45600000e-007,6.02343960e-004
,,,-4.45400000e-007,7.71093972e-004
,,,-4.45200000e-007,9.98437738e-004
,,,-4.45000000e-007,1.21406275e-003
,,,-4.44800000e-007,1.11640650e-003
,,,-4.44600000e-007,8.80468980e-004
,,,-4.44400000e-007,5.48437706e-004
,,,-4.44200000e-007,3.52343943e-004
,,,-4.44000000e-007,4.35156448e-004
,,,-4.43800000e-007,7.00000217e-004
,,,-4.43600000e-007,9.75000237e-004
,,,-4.43400000e-007,1.22343775e-003
,,,-4.43200000e-007,1.25156276e-003
,,,-4.43000000e-007,1.03359399e-003
,,,-4.42800000e-007,6.47656463e-004
,,,-4.42600000e-007,4.11718947e-004
,,,-4.42400000e-007,4.16406447e-004
,,,-4.42200000e-007,6.06250211e-004
,,,-4.42000000e-007,8.66406479e-004
,,,-4.41800000e-007,1.05546899e-003
,,,-4.41600000e-007,1.12890650e-003
,,,-4.41400000e-007,9.93750238e-004
,,,-4.41200000e-007,8.25781476e-004
,,,-4.41000000e-007,7.60156471e-004
,,,-4.40800000e-007,6.14843961e-004
,,,-4.40600000e-007,5.78125209e-004
,,,-4.40400000e-007,7.20312719e-004
,,,-4.40200000e-007,9.00781481e-004
,,,-4.40000000e-007,1.04531274e-003
,,,-4.39800000e-007,1.00000024e-003
,,,-4.39600000e-007,8.31250226e-004
,,,-4.39400000e-007,8.10937725e-004
,,,-4.39200000e-007,7.20312719e-004
,,,-4.39000000e-007,7.03125217e-004
,,,-4.38800000e-007,8.39843977e-004
,,,-4.38600000e-007,9.23437733e-004
,,,-4.38400000e-007,1.00859399e-003
,,,-4.38200000e-007,8.33593977e-004
,,,-4.38000000e-007,6.90625217e-004
,,,-4.37800000e-007,6.39843963e-004
,,,-4.37600000e-007,6.47656463e-004
,,,-4.37400000e-007,7.46875221e-004
,,,-4.37200000e-007,9.09375232e-004
,,,-4.37000000e-007,1.09140649e-003
,,,-4.36800000e-007,1.08515649e-003
,,,-4.36600000e-007,7.94531474e-004
,,,-4.36400000e-007,5.30468955e-004
,,,-4.36200000e-007,4.32031448e-004
,,,-4.36000000e-007,5.85937709e-004
,,,-4.35800000e-007,7.95312724e-004
,,,-4.35600000e-007,1.01484399e-003
,,,-4.35400000e-007,1.23593776e-003
,,,-4.35200000e-007,1.16093775e-003
,,,-4.35000000e-007,8.37500227e-004
,,,-4.34800000e-007,5.67968958e-004
,,,-4.34600000e-007,4.34375198e-004
,,,-4.34400000e-007,5.61718957e-004
,,,-4.34200000e-007,8.46093978e-004
,,,-4.34000000e-007,9.85937737e-004
,,,-4.33800000e-007,1.18046900e-003
,,,-4.33600000e-007,1.12265650e-003
,,,-4.33400000e-007,9.31250234e-004
,,,-4.33200000e-007,6.21093962e-004
,,,-4.33000000e-007,4.88281452e-004
,,,-4.32800000e-007,5.76562708e-004
,,,-4.32600000e-007,7.21093969e-004
,,,-4.32400000e-007,9.63281486e-004
,,,-4.32200000e-007,1.05234399e-003
,,,-4.32000000e-007,9.92187738e-004
,,,-4.31800000e-007,9.16406483e-004
,,,-4.31600000e-007,7.14843968e-004
,,,-4.31400000e-007,7.03125217e-004
,,,-4.31200000e-007,7.25000219e-004
,,,-4.31000000e-007,7.20312719e-004
,,,-4.30800000e-007,8.30468976e-004
,,,-4.30600000e-007,9.25781483e-004
,,,-4.30400000e-007,9.67187736e-004
,,,-4.30200000e-007,9.35156484e-004
,,,-4.30000000e-007,7.44531470e-004
,,,-4.29800000e-007,7.53906471e-004
,,,-4.29600000e-007,7.19531469e-004
,,,-4.29400000e-007,7.93750224e-004
,,,-4.29200000e-007,9.02343982e-004
,,,-4.29000000e-007,9.10937732e-004
,,,-4.28800000e-007,8.95312731e-004
,,,-4.28600000e-007,7.88281473e-004
,,,-4.28400000e-007,6.39062713e-004
,,,-4.28200000e-007,7.08593968e-004
,,,-4.28000000e-007,7.83593973e-004
,,,-4.27800000e-007,8.53125228e-004
,,,-4.27600000e-007,1.02109399e-003
,,,-4.27400000e-007,9.61718986e-004
,,,-4.27200000e-007,9.59375236e-004
,,,-4.27000000e-007,7.78125223e-004
,,,-4.26800000e-007,5.61718957e-004
,,,-4.26600000e-007,6.24218962e-004
,,,-4.26400000e-007,7.22656469e-004
,,,-4.26200000e-007,9.07031482e-004
,,,-4.26000000e-007,1.02031274e-003
,,,-4.25800000e-007,1.04218774e-003
,,,-4.25600000e-007,9.78125237e-004
,,,-4.25400000e-007,7.27343969e-004
,,,-4.25200000e-007,6.37500213e-004
,,,-4.25000000e-007,6.25781462e-004
,,,-4.24800000e-007,8.17187725e-004
,,,-4.24600000e-007,9.42968984e-004
,,,-4.24400000e-007,9.49218985e-004
,,,-4.24200000e-007,9.73437737e-004
,,,-4.24000000e-007,9.39843984e-004
,,,-4.23800000e-007,7.23437719e-004
,,,-4.23600000e-007,7.11718968e-004
,,,-4.23400000e-007,6.80468966e-004
,,,-4.23200000e-007,8.03125224e-004
,,,-4.23000000e-007,9.60937736e-004
,,,-4.22800000e-007,8.83593980e-004
,,,-4.22600000e-007,9.64062736e-004
,,,-4.22400000e-007,9.03125232e-004
,,,-4.22200000e-007,7.01562717e-004
,,,-4.22000000e-007,6.76562716e-004
,,,-4.21800000e-007,7.44531470e-004
,,,-4.21600000e-007,8.78906480e-004
,,,-4.21400000e-007,9.34375234e-004
,,,-4.21200000e-007,8.99218981e-004
,,,-4.21000000e-007,9.25000233e-004
,,,-4.20800000e-007,8.67968979e-004
,,,-4.20600000e-007,7.78906473e-004
,,,-4.20400000e-007,7.11718968e-004
,,,-4.20200000e-007,7.26562719e-004
,,,-4.20000000e-007,8.42187727e-004
,,,-4.19800000e-007,9.11718982e-004
,,,-4.19600000e-007,9.62500236e-004
,,,-4.19400000e-007,9.45312735e-004
,,,-4.19200000e-007,8.47656478e-004
,,,-4.19000000e-007,7.39062720e-004
,,,-4.18800000e-007,7.17968968e-004
,,,-4.18600000e-007,8.38281477e-004
,,,-4.18400000e-007,9.03125232e-004
,,,-4.18200000e-007,9.08593982e-004
,,,-4.18000000e-007,9.86718987e-004
,,,-4.17800000e-007,9.34375234e-004
,,,-4.17600000e-007,8.70312729e-004
,,,-4.17400000e-007,8.23437726e-004
,,,-4.17200000e-007,7.31250219e-004
,,,-4.17000000e-007,8.65625229e-004
,,,-4.16800000e-007,8.96093981e-004
,,,-4.16600000e-007,8.85156480e-004
,,,-4.16400000e-007,1.01015649e-003
,,,-4.16200000e-007,9.68750236e-004
,,,-4.16000000e-007,9.00781481e-004
,,,-4.15800000e-007,6.89062716e-004
,,,-4.15600000e-007,6.18750211e-004
,,,-4.15400000e-007,7.60156471e-004
,,,-4.15200000e-007,8.79687730e-004
,,,-4.15000000e-007,9.93750238e-004
,,,-4.14800000e-007,1.01328149e-003
,,,-4.14600000e-007,8.99218981e-004
,,,-4.14400000e-007,8.45312727e-004
,,,-4.14200000e-007,6.82031466e-004
,,,-4.14000000e-007,6.85156466e-004
,,,-4.13800000e-007,7.41406470e-004
,,,-4.13600000e-007,8.06250225e-004
,,,-4.13400000e-007,9.65625236e-004
,,,-4.13200000e-007,1.05234399e-003
,,,-4.13000000e-007,9.59375236e-004
,,,-4.12800000e-007,9.14062732e-004
,,,-4.12600000e-007,6.45312713e-004
,,,-4.12400000e-007,6.40625213e-004
,,,-4.12200000e-007,7.19531469e-004
,,,-4.12000000e-007,8.14062725e-004
,,,-4.11800000e-007,9.97656488e-004
,,,-4.11600000e-007,9.71875236e-004
,,,-4.11400000e-007,9.41406484e-004
,,,-4.11200000e-007,8.53125228e-004
,,,-4.11000000e-007,7.69531472e-004
,,,-4.10800000e-007,8.94531481e-004
,,,-4.10600000e-007,7.70312722e-004
,,,-4.10400000e-007,7.67968972e-004
,,,-4.10200000e-007,9.34375234e-004
,,,-4.10000000e-007,9.29687733e-004
,,,-4.09800000e-007,1.01953149e-003
,,,-4.09600000e-007,9.20312733e-004
,,,-4.09400000e-007,8.11718975e-004
,,,-4.09200000e-007,8.56250228e-004
,,,-4.09000000e-007,7.75781473e-004
,,,-4.08800000e-007,7.75781473e-004
,,,-4.08600000e-007,8.64843979e-004
,,,-4.08400000e-007,8.85156480e-004
,,,-4.08200000e-007,9.96875238e-004
,,,-4.08000000e-007,8.57812728e-004
,,,-4.07800000e-007,8.25781476e-004
,,,-4.07600000e-007,8.39843977e-004
,,,-4.07400000e-007,7.30468969e-004
,,,-4.07200000e-007,7.96093974e-004
,,,-4.07000000e-007,8.33593977e-004
,,,-4.06800000e-007,9.03906482e-004
,,,-4.06600000e-007,9.82031487e-004
,,,-4.06400000e-007,8.32812727e-004
,,,-4.06200000e-007,8.03125224e-004
,,,-4.06000000e-007,6.90625217e-004
,,,-4.05800000e-007,7.24218969e-004
,,,-4.05600000e-007,8.51562728e-004
,,,-4.05400000e-007,9.15625232e-004
,,,-4.05200000e-007,1.00000024e-003
,,,-4.05000000e-007,9.19531483e-004
,,,-4.04800000e-007,8.00000224e-004
,,,-4.04600000e-007,8.19531476e-004
,,,-4.04400000e-007,7.19531469e-004
,,,-4.04200000e-007,7.35937720e-004
,,,-4.04000000e-007,7.90625224e-004
,,,-4.03800000e-007,9.46093985e-004
,,,-4.03600000e-007,9.58593985e-004
,,,-4.03400000e-007,9.06250232e-004
,,,-4.03200000e-007,8.66406479e-004
,,,-4.03000000e-007,8.38281477e-004
,,,-4.02800000e-007,8.04687725e-004
,,,-4.02600000e-007,7.79687723e-004
,,,-4.02400000e-007,8.25781476e-004
,,,-4.02200000e-007,9.70312736e-004
,,,-4.02000000e-007,9.44531484e-004
,,,-4.01800000e-007,8.53125228e-004
,,,-4.01600000e-007,8.45312727e-004
,,,-4.01400000e-007,8.51562728e-004
,,,-4.01200000e-007,9.28906483e-004
,,,-4.01000000e-007,8.22656476e-004
,,,-4.00800000e-007,7.75781473e-004
,,,-4.00600000e-007,9.16406483e-004
,,,-4.00400000e-007,8.59375228e-004
,,,-4.00200000e-007,9.09375232e-004
,,,-4.00000000e-007,8.71093979e-004
,,,-3.99800000e-007,8.28125226e-004
,,,-3.99600000e-007,8.47656478e-004
,,,-3.99400000e-007,8.14062725e-004
,,,-3.99200000e-007,8.45312727e-004
,,,-3.99000000e-007,9.08593982e-004
,,,-3.98800000e-007,8.57031478e-004
,,,-3.98600000e-007,9.21875233e-004
,,,-3.98400000e-007,8.28125226e-004
,,,-3.98200000e-007,8.30468976e-004
,,,-3.98000000e-007,7.76562723e-004
,,,-3.97800000e-007,8.10937725e-004
,,,-3.97600000e-007,8.98437731e-004
,,,-3.97400000e-007,9.23437733e-004
,,,-3.97200000e-007,8.23437726e-004
,,,-3.97000000e-007,9.29687733e-004
,,,-3.96800000e-007,8.51562728e-004
,,,-3.96600000e-007,7.67187722e-004
,,,-3.96400000e-007,7.28906469e-004
,,,-3.96200000e-007,8.03125224e-004
,,,-3.96000000e-007,9.16406483e-004
,,,-3.95800000e-007,9.78906487e-004
,,,-3.95600000e-007,9.60156486e-004
,,,-3.95400000e-007,9.23437733e-004
,,,-3.95200000e-007,8.14843975e-004
,,,-3.95000000e-007,8.51562728e-004
,,,-3.94800000e-007,7.78906473e-004
,,,-3.94600000e-007,8.36718977e-004
,,,-3.94400000e-007,9.67968986e-004
,,,-3.94200000e-007,9.27343983e-004
,,,-3.94000000e-007,9.24218983e-004
,,,-3.93800000e-007,8.36718977e-004
,,,-3.93600000e-007,7.85156473e-004
,,,-3.93400000e-007,8.28125226e-004
,,,-3.93200000e-007,8.21875226e-004
,,,-3.93000000e-007,8.45312727e-004
,,,-3.92800000e-007,9.32031484e-004
,,,-3.92600000e-007,8.97656481e-004
,,,-3.92400000e-007,8.64843979e-004
,,,-3.92200000e-007,7.89843974e-004
,,,-3.92000000e-007,7.14062718e-004
,,,-3.91800000e-007,8.01562724e-004
,,,-3.91600000e-007,9.10156482e-004
,,,-3.91400000e-007,9.38281484e-004
,,,-3.91200000e-007,9.04687732e-004
,,,-3.91000000e-007,8.69531479e-004
,,,-3.90800000e-007,7.78906473e-004
