Data/20220822/UCLA_to_T1A_HPOL_NEG80_001_Ch2.csv

"Record Length",10000,"Points",-5.00800000e-007,5.75781458e-004
"Sample Interval",2.00000000e-010,s,-5.00600000e-007,4.31250198e-004
"Trigger Point",2504,"Samples",-5.00400000e-007,3.52343943e-004
"Trigger Time",0.00000000e+000,s,-5.00200000e-007,3.03125189e-004
"",,,-5.00000000e-007,2.54687686e-004
"Horizontal Offset",-5.00800000e-007,s,-4.99800000e-007,3.66406444e-004
,,,-4.99600000e-007,3.84375195e-004
,,,-4.99400000e-007,4.74218951e-004
,,,-4.99200000e-007,5.55468957e-004
,,,-4.99000000e-007,4.35937698e-004
,,,-4.98800000e-007,4.46093949e-004
,,,-4.98600000e-007,3.98437696e-004
,,,-4.98400000e-007,3.00000189e-004
,,,-4.98200000e-007,3.89843945e-004
,,,-4.98000000e-007,3.60937693e-004
,,,-4.97800000e-007,4.99218953e-004
,,,-4.97600000e-007,4.58593950e-004
,,,-4.97400000e-007,4.50781450e-004
,,,-4.97200000e-007,4.28906448e-004
,,,-4.97000000e-007,3.43750192e-004
,,,-4.96800000e-007,3.86718945e-004
,,,-4.96600000e-007,4.19531447e-004
,,,-4.96400000e-007,3.61718943e-004
,,,-4.96200000e-007,4.45312699e-004
,,,-4.96000000e-007,3.28125191e-004
,,,-4.95800000e-007,2.63281436e-004
,,,-4.95600000e-007,3.33593941e-004
,,,-4.95400000e-007,3.05468939e-004
,,,-4.95200000e-007,4.62500200e-004
,,,-4.95000000e-007,5.10156454e-004
,,,-4.94800000e-007,4.71093951e-004
,,,-4.94600000e-007,5.05468953e-004
,,,-4.94400000e-007,3.73437694e-004
,,,-4.94200000e-007,3.43750192e-004
,,,-4.94000000e-007,2.77343937e-004
,,,-4.93800000e-007,2.75781437e-004
,,,-4.93600000e-007,4.87500202e-004
,,,-4.93400000e-007,5.84375209e-004
,,,-4.93200000e-007,6.53906464e-004
,,,-4.93000000e-007,5.74218958e-004
,,,-4.92800000e-007,3.55468943e-004
,,,-4.92600000e-007,3.08593939e-004
,,,-4.92400000e-007,2.70312687e-004
,,,-4.92200000e-007,3.99218946e-004
,,,-4.92000000e-007,4.86718952e-004
,,,-4.91800000e-007,4.87500202e-004
,,,-4.91600000e-007,5.77343959e-004
,,,-4.91400000e-007,4.78906452e-004
,,,-4.91200000e-007,3.71093944e-004
,,,-4.91000000e-007,3.67187694e-004
,,,-4.90800000e-007,3.46093942e-004
,,,-4.90600000e-007,4.34375198e-004
,,,-4.90400000e-007,4.18750197e-004
,,,-4.90200000e-007,4.53125200e-004
,,,-4.90000000e-007,4.96875203e-004
,,,-4.89800000e-007,3.82031445e-004
,,,-4.89600000e-007,3.71875194e-004
,,,-4.89400000e-007,3.03125189e-004
,,,-4.89200000e-007,3.65625194e-004
,,,-4.89000000e-007,4.89843952e-004
,,,-4.88800000e-007,4.76562701e-004
,,,-4.88600000e-007,5.42187706e-004
,,,-4.88400000e-007,4.78906452e-004
,,,-4.88200000e-007,3.10937690e-004
,,,-4.88000000e-007,3.64843943e-004
,,,-4.87800000e-007,2.97656439e-004
,,,-4.87600000e-007,3.63281443e-004
,,,-4.87400000e-007,4.53906450e-004
,,,-4.87200000e-007,5.15625204e-004
,,,-4.87000000e-007,5.36718956e-004
,,,-4.86800000e-007,4.61718950e-004
,,,-4.86600000e-007,3.50000192e-004
,,,-4.86400000e-007,2.52343935e-004
,,,-4.86200000e-007,1.86718931e-004
,,,-4.86000000e-007,2.82812688e-004
,,,-4.85800000e-007,3.65625194e-004
,,,-4.85600000e-007,5.19531454e-004
,,,-4.85400000e-007,6.54687714e-004
,,,-4.85200000e-007,5.69531458e-004
,,,-4.85000000e-007,4.99218953e-004
,,,-4.84800000e-007,3.21093940e-004
,,,-4.84600000e-007,2.52343935e-004
,,,-4.84400000e-007,3.14062690e-004
,,,-4.84200000e-007,3.18750190e-004
,,,-4.84000000e-007,5.75781458e-004
,,,-4.83800000e-007,6.59375214e-004
,,,-4.83600000e-007,6.23437712e-004
,,,-4.83400000e-007,5.89843959e-004
,,,-4.83200000e-007,3.19531440e-004
,,,-4.83000000e-007,3.10156440e-004
,,,-4.82800000e-007,3.29687691e-004
,,,-4.82600000e-007,3.28125191e-004
,,,-4.82400000e-007,4.99218953e-004
,,,-4.82200000e-007,4.42187699e-004
,,,-4.82000000e-007,5.11718954e-004
,,,-4.81800000e-007,4.94531453e-004
,,,-4.81600000e-007,3.81250195e-004
,,,-4.81400000e-007,4.20312697e-004
,,,-4.81200000e-007,4.37500199e-004
,,,-4.81000000e-007,4.21093947e-004
,,,-4.80800000e-007,4.63281450e-004
,,,-4.80600000e-007,3.67968944e-004
,,,-4.80400000e-007,3.81250195e-004
,,,-4.80200000e-007,3.86718945e-004
,,,-4.80000000e-007,3.75781444e-004
,,,-4.79800000e-007,4.45312699e-004
,,,-4.79600000e-007,4.53906450e-004
,,,-4.79400000e-007,5.93750210e-004
,,,-4.79200000e-007,5.39843956e-004
,,,-4.79000000e-007,3.90625195e-004
,,,-4.78800000e-007,3.72656444e-004
,,,-4.78600000e-007,2.52343935e-004
,,,-4.78400000e-007,3.63281443e-004
,,,-4.78200000e-007,4.23437698e-004
,,,-4.78000000e-007,4.31250198e-004
,,,-4.77800000e-007,5.41406456e-004
,,,-4.77600000e-007,4.69531451e-004
,,,-4.77400000e-007,4.37500199e-004
,,,-4.77200000e-007,3.82812695e-004
,,,-4.77000000e-007,2.89843938e-004
,,,-4.76800000e-007,3.09375190e-004
,,,-4.76600000e-007,2.77343937e-004
,,,-4.76400000e-007,3.08593939e-004
,,,-4.76200000e-007,4.28125198e-004
,,,-4.76000000e-007,4.42187699e-004
,,,-4.75800000e-007,5.17968954e-004
,,,-4.75600000e-007,4.44531449e-004
,,,-4.75400000e-007,4.04687696e-004
,,,-4.75200000e-007,3.71875194e-004
,,,-4.75000000e-007,3.53906443e-004
,,,-4.74800000e-007,3.42968942e-004
,,,-4.74600000e-007,4.52343950e-004
,,,-4.74400000e-007,3.99218946e-004
,,,-4.74200000e-007,4.81250202e-004
,,,-4.74000000e-007,4.27343948e-004
,,,-4.73800000e-007,4.92187702e-004
,,,-4.73600000e-007,4.70312701e-004
,,,-4.73400000e-007,4.15625197e-004
,,,-4.73200000e-007,4.81250202e-004
,,,-4.73000000e-007,4.88281452e-004
,,,-4.72800000e-007,3.93750196e-004
,,,-4.72600000e-007,3.58593943e-004
,,,-4.72400000e-007,3.25000191e-004
,,,-4.72200000e-007,4.02343946e-004
,,,-4.72000000e-007,4.39843949e-004
,,,-4.71800000e-007,5.14062704e-004
,,,-4.71600000e-007,5.67187708e-004
,,,-4.71400000e-007,4.88281452e-004
,,,-4.71200000e-007,3.67187694e-004
,,,-4.71000000e-007,2.56250186e-004
,,,-4.70800000e-007,2.12500183e-004
,,,-4.70600000e-007,3.23437691e-004
,,,-4.70400000e-007,3.91406445e-004
,,,-4.70200000e-007,4.95312703e-004
,,,-4.70000000e-007,5.78125209e-004
,,,-4.69800000e-007,5.91406459e-004
,,,-4.69600000e-007,4.82031452e-004
,,,-4.69400000e-007,2.94531438e-004
,,,-4.69200000e-007,1.94531431e-004
,,,-4.69000000e-007,3.03906439e-004
,,,-4.68800000e-007,3.48437692e-004
,,,-4.68600000e-007,5.43750206e-004
,,,-4.68400000e-007,5.96875210e-004
,,,-4.68200000e-007,5.56250207e-004
,,,-4.68000000e-007,4.97656453e-004
,,,-4.67800000e-007,3.00000189e-004
,,,-4.67600000e-007,3.36718941e-004
,,,-4.67400000e-007,3.43750192e-004
,,,-4.67200000e-007,3.74218944e-004
,,,-4.67000000e-007,4.43750199e-004
,,,-4.66800000e-007,3.76562694e-004
,,,-4.66600000e-007,4.48437699e-004
,,,-4.66400000e-007,3.81250195e-004
,,,-4.66200000e-007,3.95312696e-004
,,,-4.66000000e-007,3.97656446e-004
,,,-4.65800000e-007,3.61718943e-004
,,,-4.65600000e-007,3.89062695e-004
,,,-4.65400000e-007,4.58593950e-004
,,,-4.65200000e-007,4.48437699e-004
,,,-4.65000000e-007,4.43750199e-004
,,,-4.64800000e-007,3.28906441e-004
,,,-4.64600000e-007,3.23437691e-004
,,,-4.64400000e-007,4.08593947e-004
,,,-4.64200000e-007,4.43750199e-004
,,,-4.64000000e-007,5.43750206e-004
,,,-4.63800000e-007,5.39843956e-004
,,,-4.63600000e-007,5.83593959e-004
,,,-4.63400000e-007,5.52343957e-004
,,,-4.63200000e-007,3.71093944e-004
,,,-4.63000000e-007,3.32812691e-004
,,,-4.62800000e-007,3.21875190e-004
,,,-4.62600000e-007,3.18750190e-004
,,,-4.62400000e-007,4.06250196e-004
,,,-4.62200000e-007,4.87500202e-004
,,,-4.62000000e-007,6.32812712e-004
,,,-4.61800000e-007,5.40625206e-004
,,,-4.61600000e-007,3.99218946e-004
,,,-4.61400000e-007,3.32031441e-004
,,,-4.61200000e-007,2.01562682e-004
,,,-4.61000000e-007,2.71875187e-004
,,,-4.60800000e-007,3.63281443e-004
,,,-4.60600000e-007,4.55468950e-004
,,,-4.60400000e-007,5.53125207e-004
,,,-4.60200000e-007,5.09375204e-004
,,,-4.60000000e-007,4.59375200e-004
,,,-4.59800000e-007,3.92968945e-004
,,,-4.59600000e-007,3.54687693e-004
,,,-4.59400000e-007,3.98437696e-004
,,,-4.59200000e-007,4.09375197e-004
,,,-4.59000000e-007,4.40625199e-004
,,,-4.58800000e-007,4.87500202e-004
,,,-4.58600000e-007,4.00781446e-004
,,,-4.58400000e-007,4.66406451e-004
,,,-4.58200000e-007,4.33593948e-004
,,,-4.58000000e-007,4.43750199e-004
,,,-4.57800000e-007,5.19531454e-004
,,,-4.57600000e-007,4.27343948e-004
,,,-4.57400000e-007,4.00000196e-004
,,,-4.57200000e-007,3.57812693e-004
,,,-4.57000000e-007,2.67187687e-004
,,,-4.56800000e-007,3.67187694e-004
,,,-4.56600000e-007,4.48437699e-004
,,,-4.56400000e-007,5.22656455e-004
,,,-4.56200000e-007,5.25781455e-004
,,,-4.56000000e-007,4.43750199e-004
,,,-4.55800000e-007,3.84375195e-004
,,,-4.55600000e-007,4.25000198e-004
,,,-4.55400000e-007,3.64062693e-004
,,,-4.55200000e-007,3.46875192e-004
,,,-4.55000000e-007,4.70312701e-004
,,,-4.54800000e-007,5.28125205e-004
,,,-4.54600000e-007,6.01562710e-004
,,,-4.54400000e-007,5.38281456e-004
,,,-4.54200000e-007,4.46093949e-004
,,,-4.54000000e-007,3.64062693e-004
,,,-4.53800000e-007,4.12500197e-004
,,,-4.53600000e-007,3.75000194e-004
,,,-4.53400000e-007,4.15625197e-004
,,,-4.53200000e-007,4.53125200e-004
,,,-4.53000000e-007,4.50781450e-004
,,,-4.52800000e-007,4.60937700e-004
,,,-4.52600000e-007,4.63281450e-004
,,,-4.52400000e-007,3.87500195e-004
,,,-4.52200000e-007,3.61718943e-004
,,,-4.52000000e-007,3.58593943e-004
,,,-4.51800000e-007,3.68750194e-004
,,,-4.51600000e-007,4.19531447e-004
,,,-4.51400000e-007,4.41406449e-004
,,,-4.51200000e-007,5.50781457e-004
,,,-4.51000000e-007,4.63281450e-004
,,,-4.50800000e-007,4.22656448e-004
,,,-4.50600000e-007,3.51562693e-004
,,,-4.50400000e-007,3.25781441e-004
,,,-4.50200000e-007,3.70312694e-004
,,,-4.50000000e-007,5.04687703e-004
,,,-4.49800000e-007,5.76562708e-004
,,,-4.49600000e-007,5.36718956e-004
,,,-4.49400000e-007,5.03125203e-004
,,,-4.49200000e-007,3.72656444e-004
,,,-4.49000000e-007,3.10937690e-004
,,,-4.48800000e-007,3.60156443e-004
,,,-4.48600000e-007,3.98437696e-004
,,,-4.48400000e-007,5.53906457e-004
,,,-4.48200000e-007,5.68750208e-004
,,,-4.48000000e-007,5.30468955e-004
,,,-4.47800000e-007,4.72656451e-004
,,,-4.47600000e-007,3.85937695e-004
,,,-4.47400000e-007,2.93750188e-004
,,,-4.47200000e-007,3.28906441e-004
,,,-4.47000000e-007,5.01562703e-004
,,,-4.46800000e-007,5.42187706e-004
,,,-4.46600000e-007,6.00000210e-004
,,,-4.46400000e-007,4.83593952e-004
,,,-4.46200000e-007,3.86718945e-004
,,,-4.46000000e-007,3.96875196e-004
,,,-4.45800000e-007,3.64843943e-004
,,,-4.45600000e-007,4.50781450e-004
,,,-4.45400000e-007,5.29687705e-004
,,,-4.45200000e-007,5.94531460e-004
,,,-4.45000000e-007,5.84375209e-004
,,,-4.44800000e-007,4.80468952e-004
,,,-4.44600000e-007,3.87500195e-004
,,,-4.44400000e-007,3.69531444e-004
,,,-4.44200000e-007,4.39843949e-004
,,,-4.44000000e-007,4.75781451e-004
,,,-4.43800000e-007,5.22656455e-004
,,,-4.43600000e-007,5.35937706e-004
,,,-4.43400000e-007,4.94531453e-004
,,,-4.43200000e-007,4.42187699e-004
,,,-4.43000000e-007,3.77343944e-004
,,,-4.42800000e-007,3.44531442e-004
,,,-4.42600000e-007,3.41406442e-004
,,,-4.42400000e-007,4.07812697e-004
,,,-4.42200000e-007,3.84375195e-004
,,,-4.42000000e-007,4.46875199e-004
,,,-4.41800000e-007,4.97656453e-004
,,,-4.41600000e-007,4.70312701e-004
,,,-4.41400000e-007,4.68750201e-004
,,,-4.41200000e-007,3.70312694e-004
,,,-4.41000000e-007,3.70312694e-004
,,,-4.40800000e-007,4.10937697e-004
,,,-4.40600000e-007,3.81250195e-004
,,,-4.40400000e-007,4.80468952e-004
,,,-4.40200000e-007,4.77343951e-004
,,,-4.40000000e-007,4.50000199e-004
,,,-4.39800000e-007,4.83593952e-004
,,,-4.39600000e-007,4.28125198e-004
,,,-4.39400000e-007,4.18750197e-004
,,,-4.39200000e-007,4.61718950e-004
,,,-4.39000000e-007,4.66406451e-004
,,,-4.38800000e-007,5.14062704e-004
,,,-4.38600000e-007,4.32031448e-004
,,,-4.38400000e-007,4.21875197e-004
,,,-4.38200000e-007,4.16406447e-004
,,,-4.38000000e-007,3.35156441e-004
,,,-4.37800000e-007,4.21875197e-004
,,,-4.37600000e-007,5.03906453e-004
,,,-4.37400000e-007,5.50781457e-004
,,,-4.37200000e-007,6.02343960e-004
,,,-4.37000000e-007,4.61718950e-004
,,,-4.36800000e-007,3.34375191e-004
,,,-4.36600000e-007,2.66406436e-004
,,,-4.36400000e-007,3.19531440e-004
,,,-4.36200000e-007,4.71875201e-004
,,,-4.36000000e-007,5.22656455e-004
,,,-4.35800000e-007,6.34375213e-004
,,,-4.35600000e-007,6.07031461e-004
,,,-4.35400000e-007,5.05468953e-004
,,,-4.35200000e-007,4.22656448e-004
,,,-4.35000000e-007,3.57812693e-004
,,,-4.34800000e-007,4.03125196e-004
,,,-4.34600000e-007,4.96875203e-004
,,,-4.34400000e-007,5.16406454e-004
,,,-4.34200000e-007,6.04687710e-004
,,,-4.34000000e-007,5.12500204e-004
,,,-4.33800000e-007,4.45312699e-004
,,,-4.33600000e-007,3.67968944e-004
,,,-4.33400000e-007,3.30468941e-004
,,,-4.33200000e-007,4.39843949e-004
,,,-4.33000000e-007,4.13281447e-004
,,,-4.32800000e-007,3.82812695e-004
,,,-4.32600000e-007,4.30468948e-004
,,,-4.32400000e-007,3.21875190e-004
,,,-4.32200000e-007,3.72656444e-004
,,,-4.32000000e-007,3.57031443e-004
,,,-4.31800000e-007,3.59375193e-004
,,,-4.31600000e-007,4.29687698e-004
,,,-4.31400000e-007,4.25781448e-004
,,,-4.31200000e-007,5.02343953e-004
,,,-4.31000000e-007,4.01562696e-004
,,,-4.30800000e-007,3.78906444e-004
,,,-4.30600000e-007,4.53906450e-004
,,,-4.30400000e-007,3.24218941e-004
,,,-4.30200000e-007,3.98437696e-004
,,,-4.30000000e-007,4.60156450e-004
,,,-4.29800000e-007,4.46875199e-004
,,,-4.29600000e-007,6.07031461e-004
,,,-4.29400000e-007,4.84375202e-004
,,,-4.29200000e-007,4.62500200e-004
,,,-4.29000000e-007,4.62500200e-004
,,,-4.28800000e-007,3.10937690e-004
,,,-4.28600000e-007,3.32812691e-004
,,,-4.28400000e-007,3.14062690e-004
,,,-4.28200000e-007,4.10937697e-004
,,,-4.28000000e-007,5.76562708e-004
,,,-4.27800000e-007,5.21093955e-004
,,,-4.27600000e-007,5.89843959e-004
,,,-4.27400000e-007,4.27343948e-004
,,,-4.27200000e-007,2.88281438e-004
,,,-4.27000000e-007,3.16406440e-004
,,,-4.26800000e-007,2.96093939e-004
,,,-4.26600000e-007,4.94531453e-004
,,,-4.26400000e-007,5.75000208e-004
,,,-4.26200000e-007,5.53906457e-004
,,,-4.26000000e-007,5.75781458e-004
,,,-4.25800000e-007,4.27343948e-004
,,,-4.25600000e-007,4.16406447e-004
,,,-4.25400000e-007,4.46093949e-004
,,,-4.25200000e-007,4.54687700e-004
,,,-4.25000000e-007,5.42187706e-004
,,,-4.24800000e-007,4.75781451e-004
,,,-4.24600000e-007,4.75781451e-004
,,,-4.24400000e-007,4.45312699e-004
,,,-4.24200000e-007,3.56250193e-004
,,,-4.24000000e-007,3.41406442e-004
,,,-4.23800000e-007,4.13281447e-004
,,,-4.23600000e-007,5.73437708e-004
,,,-4.23400000e-007,6.62500215e-004
,,,-4.23200000e-007,4.32812698e-004
,,,-4.23000000e-007,4.07812697e-004
,,,-4.22800000e-007,2.67968937e-004
,,,-4.22600000e-007,2.07812682e-004
,,,-4.22400000e-007,2.44531435e-004
,,,-4.22200000e-007,2.80468937e-004
,,,-4.22000000e-007,5.39062706e-004
,,,-4.21800000e-007,6.22656462e-004
,,,-4.21600000e-007,5.25781455e-004
,,,-4.21400000e-007,4.94531453e-004
,,,-4.21200000e-007,3.72656444e-004
,,,-4.21000000e-007,3.01562689e-004
,,,-4.20800000e-007,1.90625181e-004
,,,-4.20600000e-007,2.01562682e-004
,,,-4.20400000e-007,3.84375195e-004
,,,-4.20200000e-007,4.60156450e-004
,,,-4.20000000e-007,6.00781460e-004
,,,-4.19800000e-007,6.27343962e-004
,,,-4.19600000e-007,5.49218957e-004
,,,-4.19400000e-007,4.59375200e-004
,,,-4.19200000e-007,2.61718936e-004
,,,-4.19000000e-007,1.88281431e-004
,,,-4.18800000e-007,2.32031434e-004
,,,-4.18600000e-007,2.76562687e-004
,,,-4.18400000e-007,5.25781455e-004
,,,-4.18200000e-007,5.39062706e-004
,,,-4.18000000e-007,6.21093962e-004
,,,-4.17800000e-007,5.85156459e-004
,,,-4.17600000e-007,3.85156445e-004
,,,-4.17400000e-007,3.76562694e-004
,,,-4.17200000e-007,3.21875190e-004
,,,-4.17000000e-007,3.18750190e-004
,,,-4.16800000e-007,5.39062706e-004
,,,-4.16600000e-007,4.76562701e-004
,,,-4.16400000e-007,5.14843954e-004
,,,-4.16200000e-007,4.73437701e-004
,,,-4.16000000e-007,4.89843952e-004
,,,-4.15800000e-007,6.02343960e-004
,,,-4.15600000e-007,5.56250207e-004
,,,-4.15400000e-007,5.38281456e-004
,,,-4.15200000e-007,4.70312701e-004
,,,-4.15000000e-007,3.43750192e-004
,,,-4.14800000e-007,3.70312694e-004
,,,-4.14600000e-007,3.15625190e-004
,,,-4.14400000e-007,3.58593943e-004
,,,-4.14200000e-007,5.02343953e-004
,,,-4.14000000e-007,5.46093956e-004
,,,-4.13800000e-007,7.05468968e-004
,,,-4.13600000e-007,5.10156454e-004
,,,-4.13400000e-007,3.56250193e-004
,,,-4.13200000e-007,2.94531438e-004
,,,-4.13000000e-007,1.04687675e-004
,,,-4.12800000e-007,2.20312683e-004
,,,-4.12600000e-007,3.29687691e-004
,,,-4.12400000e-007,4.60156450e-004
,,,-4.12200000e-007,6.32812712e-004
,,,-4.12000000e-007,4.56250200e-004
,,,-4.11800000e-007,5.08593954e-004
,,,-4.11600000e-007,4.21093947e-004
,,,-4.11400000e-007,2.16406433e-004
,,,-4.11200000e-007,2.94531438e-004
,,,-4.11000000e-007,1.96875182e-004
,,,-4.10800000e-007,2.92187688e-004
,,,-4.10600000e-007,4.50000199e-004
,,,-4.10400000e-007,4.82031452e-004
,,,-4.10200000e-007,6.60156464e-004
,,,-4.10000000e-007,6.10156461e-004
,,,-4.09800000e-007,4.59375200e-004
,,,-4.09600000e-007,3.57031443e-004
,,,-4.09400000e-007,2.46093935e-004
,,,-4.09200000e-007,2.81250188e-004
,,,-4.09000000e-007,3.08593939e-004
,,,-4.08800000e-007,3.93750196e-004
,,,-4.08600000e-007,5.73437708e-004
,,,-4.08400000e-007,5.87500209e-004
,,,-4.08200000e-007,5.50000207e-004
,,,-4.08000000e-007,4.42187699e-004
,,,-4.07800000e-007,4.17187697e-004
,,,-4.07600000e-007,4.67187701e-004
,,,-4.07400000e-007,3.35156441e-004
,,,-4.07200000e-007,3.91406445e-004
,,,-4.07000000e-007,4.32031448e-004
,,,-4.06800000e-007,3.66406444e-004
,,,-4.06600000e-007,4.61718950e-004
,,,-4.06400000e-007,4.46875199e-004
,,,-4.06200000e-007,6.40625213e-004
,,,-4.06000000e-007,7.59375221e-004
,,,-4.05800000e-007,5.91406459e-004
,,,-4.05600000e-007,5.92968960e-004
,,,-4.05400000e-007,3.69531444e-004
,,,-4.05200000e-007,1.85156431e-004
,,,-4.05000000e-007,2.07031432e-004
,,,-4.04800000e-007,2.15625183e-004
,,,-4.04600000e-007,5.07031454e-004
,,,-4.04400000e-007,6.81250216e-004
,,,-4.04200000e-007,7.39062720e-004
,,,-4.04000000e-007,6.88281466e-004
,,,-4.03800000e-007,4.17968947e-004
,,,-4.03600000e-007,2.25000184e-004
,,,-4.03400000e-007,8.75001738e-005
,,,-4.03200000e-007,6.40626722e-005
,,,-4.03000000e-007,2.60937686e-004
,,,-4.02800000e-007,4.10156447e-004
,,,-4.02600000e-007,6.07031461e-004
,,,-4.02400000e-007,6.17968961e-004
,,,-4.02200000e-007,5.81250209e-004
,,,-4.02000000e-007,5.54687707e-004
,,,-4.01800000e-007,3.25000191e-004
,,,-4.01600000e-007,2.31250184e-004
,,,-4.01400000e-007,2.20312683e-004
,,,-4.01200000e-007,1.54687679e-004
,,,-4.01000000e-007,4.19531447e-004
,,,-4.00800000e-007,5.80468959e-004
,,,-4.00600000e-007,7.20312719e-004
,,,-4.00400000e-007,6.71093965e-004
,,,-4.00200000e-007,4.06250196e-004
,,,-4.00000000e-007,3.89843945e-004
,,,-3.99800000e-007,2.64843936e-004
,,,-3.99600000e-007,2.12500183e-004
,,,-3.99400000e-007,2.99218939e-004
,,,-3.99200000e-007,3.85156445e-004
,,,-3.99000000e-007,5.69531458e-004
,,,-3.98800000e-007,5.46875206e-004
,,,-3.98600000e-007,4.67187701e-004
,,,-3.98400000e-007,4.17187697e-004
,,,-3.98200000e-007,4.03906446e-004
,,,-3.98000000e-007,4.32031448e-004
,,,-3.97800000e-007,4.84375202e-004
,,,-3.97600000e-007,4.85937702e-004
,,,-3.97400000e-007,5.24218955e-004
,,,-3.97200000e-007,3.47656442e-004
,,,-3.97000000e-007,3.17968940e-004
,,,-3.96800000e-007,3.61718943e-004
,,,-3.96600000e-007,4.60156450e-004
,,,-3.96400000e-007,7.11718968e-004
,,,-3.96200000e-007,7.07812718e-004
,,,-3.96000000e-007,6.08593961e-004
,,,-3.95800000e-007,4.71875201e-004
,,,-3.95600000e-007,2.01562682e-004
,,,-3.95400000e-007,1.90625181e-004
,,,-3.95200000e-007,2.25781434e-004
,,,-3.95000000e-007,4.32812698e-004
,,,-3.94800000e-007,6.51562714e-004
,,,-3.94600000e-007,6.50000214e-004
,,,-3.94400000e-007,6.42968963e-004
,,,-3.94200000e-007,5.14062704e-004
,,,-3.94000000e-007,2.64062686e-004
,,,-3.93800000e-007,2.06250182e-004
,,,-3.93600000e-007,1.04687675e-004
,,,-3.93400000e-007,2.58593936e-004
,,,-3.93200000e-007,4.78125201e-004
,,,-3.93000000e-007,5.30468955e-004
,,,-3.92800000e-007,6.46875213e-004
,,,-3.92600000e-007,5.60156457e-004
,,,-3.92400000e-007,4.15625197e-004
,,,-3.92200000e-007,3.64843943e-004
,,,-3.92000000e-007,2.61718936e-004
,,,-3.91800000e-007,2.86718938e-004
,,,-3.91600000e-007,2.91406438e-004
,,,-3.91400000e-007,4.13281447e-004
,,,-3.91200000e-007,5.39843956e-004
,,,-3.91000000e-007,5.54687707e-004
,,,-3.90800000e-007,5.07031454e-004
