Data/20220822/UCLA_to_T1B_HPOL_50_001_Math1.csv

"Record Length",6250,"Points",0.00000000e+000,-1.50423927e+001
"Sample Interval",4.00000000e+005,Hz,4.00000000e+005,-2.16239414e+001
"Trigger Point",0,"Samples",8.00000000e+005,-2.35157337e+001
"Trigger Time",0.00000000e+000,Hz,1.20000000e+006,-2.70564938e+001
"",,,1.60000000e+006,-3.36710396e+001
"Horizontal Offset",0.00000000e+000,Hz,2.00000000e+006,-6.50407181e+001
,,,2.40000000e+006,-3.71754875e+001
,,,2.80000000e+006,-3.44150848e+001
,,,3.20000000e+006,-3.53887215e+001
,,,3.60000000e+006,-4.05316010e+001
,,,4.00000000e+006,-7.13239365e+001
,,,4.40000000e+006,-4.22941971e+001
,,,4.80000000e+006,-3.92011185e+001
,,,5.20000000e+006,-3.93878441e+001
,,,5.60000000e+006,-4.52437744e+001
,,,6.00000000e+006,-7.85088882e+001
,,,6.40000000e+006,-4.60954323e+001
,,,6.80000000e+006,-4.24496384e+001
,,,7.20000000e+006,-4.19391060e+001
,,,7.60000000e+006,-4.73363800e+001
,,,8.00000000e+006,-7.07315903e+001
,,,8.40000000e+006,-4.80319252e+001
,,,8.80000000e+006,-4.39842567e+001
,,,9.20000000e+006,-4.49415283e+001
,,,9.60000000e+006,-4.93599701e+001
,,,1.00000000e+007,-7.84699020e+001
,,,1.04000000e+007,-5.05061150e+001
,,,1.08000000e+007,-4.65812988e+001
,,,1.12000000e+007,-4.63039627e+001
,,,1.16000000e+007,-5.00779991e+001
,,,1.20000000e+007,-6.81172333e+001
,,,1.24000000e+007,-5.34381676e+001
,,,1.28000000e+007,-4.71724243e+001
,,,1.32000000e+007,-4.79472885e+001
,,,1.36000000e+007,-5.13856277e+001
,,,1.40000000e+007,-8.15962830e+001
,,,1.44000000e+007,-5.16943626e+001
,,,1.48000000e+007,-5.00348129e+001
,,,1.52000000e+007,-4.89885483e+001
,,,1.56000000e+007,-5.28089104e+001
,,,1.60000000e+007,-7.50930023e+001
,,,1.64000000e+007,-5.45892487e+001
,,,1.68000000e+007,-5.01049995e+001
,,,1.72000000e+007,-4.94609146e+001
,,,1.76000000e+007,-5.61099892e+001
,,,1.80000000e+007,-6.96275177e+001
,,,1.84000000e+007,-5.73165016e+001
,,,1.88000000e+007,-5.06129608e+001
,,,1.92000000e+007,-5.09716873e+001
,,,1.96000000e+007,-5.37039413e+001
,,,2.00000000e+007,-6.79142075e+001
,,,2.04000000e+007,-5.72634392e+001
,,,2.08000000e+007,-5.13398018e+001
,,,2.12000000e+007,-5.11437111e+001
,,,2.16000000e+007,-5.59585457e+001
,,,2.20000000e+007,-7.26644897e+001
,,,2.24000000e+007,-5.58864632e+001
,,,2.28000000e+007,-5.56628342e+001
,,,2.32000000e+007,-5.15263023e+001
,,,2.36000000e+007,-5.60789337e+001
,,,2.40000000e+007,-7.85835495e+001
,,,2.44000000e+007,-5.96716537e+001
,,,2.48000000e+007,-5.26652298e+001
,,,2.52000000e+007,-5.32822647e+001
,,,2.56000000e+007,-5.71515503e+001
,,,2.60000000e+007,-7.12469559e+001
,,,2.64000000e+007,-5.98055267e+001
,,,2.68000000e+007,-5.19426918e+001
,,,2.72000000e+007,-5.51209831e+001
,,,2.76000000e+007,-6.12078056e+001
,,,2.80000000e+007,-6.11188583e+001
,,,2.84000000e+007,-5.71480598e+001
,,,2.88000000e+007,-5.54713058e+001
,,,2.92000000e+007,-5.45829163e+001
,,,2.96000000e+007,-5.81938972e+001
,,,3.00000000e+007,-6.36092834e+001
,,,3.04000000e+007,-5.76249962e+001
,,,3.08000000e+007,-5.26054459e+001
,,,3.12000000e+007,-5.76287842e+001
,,,3.16000000e+007,-5.83727226e+001
,,,3.20000000e+007,-6.47273407e+001
,,,3.24000000e+007,-5.66467819e+001
,,,3.28000000e+007,-5.67979202e+001
,,,3.32000000e+007,-5.67478333e+001
,,,3.36000000e+007,-5.86148415e+001
,,,3.40000000e+007,-6.55094757e+001
,,,3.44000000e+007,-5.91068268e+001
,,,3.48000000e+007,-5.85382423e+001
,,,3.52000000e+007,-5.40069618e+001
,,,3.56000000e+007,-5.76819153e+001
,,,3.60000000e+007,-6.49653320e+001
,,,3.64000000e+007,-6.09928780e+001
,,,3.68000000e+007,-5.55078125e+001
,,,3.72000000e+007,-5.56382446e+001
,,,3.76000000e+007,-5.86881981e+001
,,,3.80000000e+007,-7.54483871e+001
,,,3.84000000e+007,-5.99301300e+001
,,,3.88000000e+007,-5.80337219e+001
,,,3.92000000e+007,-5.59024315e+001
,,,3.96000000e+007,-5.84715614e+001
,,,4.00000000e+007,-7.60199966e+001
,,,4.04000000e+007,-6.04727097e+001
,,,4.08000000e+007,-5.62118607e+001
,,,4.12000000e+007,-5.74438744e+001
,,,4.16000000e+007,-6.38378677e+001
,,,4.20000000e+007,-6.94618073e+001
,,,4.24000000e+007,-5.99489021e+001
,,,4.28000000e+007,-5.74245338e+001
,,,4.32000000e+007,-5.81474190e+001
,,,4.36000000e+007,-5.74983673e+001
,,,4.40000000e+007,-6.89903412e+001
,,,4.44000000e+007,-6.23836441e+001
,,,4.48000000e+007,-5.91425247e+001
,,,4.52000000e+007,-5.77087212e+001
,,,4.56000000e+007,-5.75141335e+001
,,,4.60000000e+007,-7.43402939e+001
,,,4.64000000e+007,-6.43482056e+001
,,,4.68000000e+007,-5.49423523e+001
,,,4.72000000e+007,-5.55507507e+001
,,,4.76000000e+007,-7.38815460e+001
,,,4.80000000e+007,-6.98155594e+001
,,,4.84000000e+007,-6.11056366e+001
,,,4.88000000e+007,-5.92184601e+001
,,,4.92000000e+007,-5.92986336e+001
,,,4.96000000e+007,-6.35993309e+001
,,,5.00000000e+007,-6.17762909e+001
,,,5.04000000e+007,-6.12637100e+001
,,,5.08000000e+007,-5.95417175e+001
,,,5.12000000e+007,-6.24938354e+001
,,,5.16000000e+007,-6.06644821e+001
,,,5.20000000e+007,-6.86424866e+001
,,,5.24000000e+007,-6.69690247e+001
,,,5.28000000e+007,-5.84070511e+001
,,,5.32000000e+007,-5.79022255e+001
,,,5.36000000e+007,-6.71622314e+001
,,,5.40000000e+007,-6.46839066e+001
,,,5.44000000e+007,-6.39248238e+001
,,,5.48000000e+007,-6.75976791e+001
,,,5.52000000e+007,-5.87281685e+001
,,,5.56000000e+007,-6.31383057e+001
,,,5.60000000e+007,-7.38219757e+001
,,,5.64000000e+007,-8.50504532e+001
,,,5.68000000e+007,-5.68126221e+001
,,,5.72000000e+007,-6.23094788e+001
,,,5.76000000e+007,-7.36977310e+001
,,,5.80000000e+007,-6.87862930e+001
,,,5.84000000e+007,-7.01174088e+001
,,,5.88000000e+007,-6.58255005e+001
,,,5.92000000e+007,-6.09944572e+001
,,,5.96000000e+007,-5.93410225e+001
,,,6.00000000e+007,-7.35684738e+001
,,,6.04000000e+007,-6.82562561e+001
,,,6.08000000e+007,-6.26460228e+001
,,,6.12000000e+007,-5.58593903e+001
,,,6.16000000e+007,-6.88265915e+001
,,,6.20000000e+007,-8.65061951e+001
,,,6.24000000e+007,-7.99803619e+001
,,,6.28000000e+007,-6.17168694e+001
,,,6.32000000e+007,-6.11880493e+001
,,,6.36000000e+007,-5.93527756e+001
,,,6.40000000e+007,-6.82463913e+001
,,,6.44000000e+007,-6.39793091e+001
,,,6.48000000e+007,-6.11070518e+001
,,,6.52000000e+007,-5.84452248e+001
,,,6.56000000e+007,-6.37051048e+001
,,,6.60000000e+007,-6.38862915e+001
,,,6.64000000e+007,-6.01859436e+001
,,,6.68000000e+007,-5.83416824e+001
,,,6.72000000e+007,-6.60534058e+001
,,,6.76000000e+007,-5.92523003e+001
,,,6.80000000e+007,-6.68903503e+001
,,,6.84000000e+007,-6.50599136e+001
,,,6.88000000e+007,-6.18645859e+001
,,,6.92000000e+007,-5.99850807e+001
,,,6.96000000e+007,-6.07691994e+001
,,,7.00000000e+007,-6.98572006e+001
,,,7.04000000e+007,-7.35420303e+001
,,,7.08000000e+007,-5.66686058e+001
,,,7.12000000e+007,-6.50190430e+001
,,,7.16000000e+007,-6.50760498e+001
,,,7.20000000e+007,-6.44696732e+001
,,,7.24000000e+007,-6.09514999e+001
,,,7.28000000e+007,-6.56903687e+001
,,,7.32000000e+007,-6.26995811e+001
,,,7.36000000e+007,-6.07864265e+001
,,,7.40000000e+007,-7.17847748e+001
,,,7.44000000e+007,-6.36507607e+001
,,,7.48000000e+007,-6.11301918e+001
,,,7.52000000e+007,-6.43143005e+001
,,,7.56000000e+007,-6.17117805e+001
,,,7.60000000e+007,-6.88323059e+001
,,,7.64000000e+007,-5.78692398e+001
,,,7.68000000e+007,-6.32837753e+001
,,,7.72000000e+007,-5.96868629e+001
,,,7.76000000e+007,-6.72814636e+001
,,,7.80000000e+007,-6.42679214e+001
,,,7.84000000e+007,-6.86723785e+001
,,,7.88000000e+007,-7.18086777e+001
,,,7.92000000e+007,-6.12862968e+001
,,,7.96000000e+007,-6.49983902e+001
,,,8.00000000e+007,-6.05525703e+001
,,,8.04000000e+007,-8.38224487e+001
,,,8.08000000e+007,-7.12480621e+001
,,,8.12000000e+007,-5.76392479e+001
,,,8.16000000e+007,-5.97993622e+001
,,,8.20000000e+007,-7.13898392e+001
,,,8.24000000e+007,-7.18953476e+001
,,,8.28000000e+007,-6.54760895e+001
,,,8.32000000e+007,-6.04616127e+001
,,,8.36000000e+007,-6.66179581e+001
,,,8.40000000e+007,-8.13165970e+001
,,,8.44000000e+007,-6.74628601e+001
,,,8.48000000e+007,-7.10044632e+001
,,,8.52000000e+007,-6.32386742e+001
,,,8.56000000e+007,-6.57387238e+001
,,,8.60000000e+007,-6.72881470e+001
,,,8.64000000e+007,-6.12756767e+001
,,,8.68000000e+007,-6.38957138e+001
,,,8.72000000e+007,-6.56726532e+001
,,,8.76000000e+007,-5.98263588e+001
,,,8.80000000e+007,-6.60032501e+001
,,,8.84000000e+007,-7.31267471e+001
,,,8.88000000e+007,-6.46022873e+001
,,,8.92000000e+007,-6.39772873e+001
,,,8.96000000e+007,-6.52017899e+001
,,,9.00000000e+007,-5.98343506e+001
,,,9.04000000e+007,-6.44729233e+001
,,,9.08000000e+007,-6.23104286e+001
,,,9.12000000e+007,-6.16685295e+001
,,,9.16000000e+007,-6.22372246e+001
,,,9.20000000e+007,-6.59773941e+001
,,,9.24000000e+007,-5.85653000e+001
,,,9.28000000e+007,-5.67626953e+001
,,,9.32000000e+007,-5.02169609e+001
,,,9.36000000e+007,-7.00566101e+001
,,,9.40000000e+007,-5.99925690e+001
,,,9.44000000e+007,-6.01718979e+001
,,,9.48000000e+007,-6.75743027e+001
,,,9.52000000e+007,-5.61127167e+001
,,,9.56000000e+007,-4.76642303e+001
,,,9.60000000e+007,-6.80217896e+001
,,,9.64000000e+007,-5.30665283e+001
,,,9.68000000e+007,-5.92758064e+001
,,,9.72000000e+007,-4.67953453e+001
,,,9.76000000e+007,-5.48089561e+001
,,,9.80000000e+007,-7.36153870e+001
,,,9.84000000e+007,-5.65292091e+001
,,,9.88000000e+007,-4.64051132e+001
,,,9.92000000e+007,-5.52251358e+001
,,,9.96000000e+007,-5.97115669e+001
,,,1.00000000e+008,-7.01216736e+001
,,,1.00400000e+008,-6.41044312e+001
,,,1.00800000e+008,-5.47688065e+001
,,,1.01200000e+008,-6.06417160e+001
,,,1.01600000e+008,-6.24436302e+001
,,,1.02000000e+008,-5.83739967e+001
,,,1.02400000e+008,-5.67209740e+001
,,,1.02800000e+008,-7.66672211e+001
,,,1.03200000e+008,-6.53450012e+001
,,,1.03600000e+008,-5.85162086e+001
,,,1.04000000e+008,-6.77183228e+001
,,,1.04400000e+008,-7.03498154e+001
,,,1.04800000e+008,-5.80482941e+001
,,,1.05200000e+008,-6.18948326e+001
,,,1.05600000e+008,-5.48933105e+001
,,,1.06000000e+008,-5.44524879e+001
,,,1.06400000e+008,-6.42897415e+001
,,,1.06800000e+008,-6.82630310e+001
,,,1.07200000e+008,-6.05588684e+001
,,,1.07600000e+008,-5.97146950e+001
,,,1.08000000e+008,-6.83725357e+001
,,,1.08400000e+008,-6.93104630e+001
,,,1.08800000e+008,-6.66773529e+001
,,,1.09200000e+008,-6.65295715e+001
,,,1.09600000e+008,-6.20948410e+001
,,,1.10000000e+008,-6.62490082e+001
,,,1.10400000e+008,-6.92732468e+001
,,,1.10800000e+008,-5.99640388e+001
,,,1.11200000e+008,-6.96001892e+001
,,,1.11600000e+008,-6.03312950e+001
,,,1.12000000e+008,-6.18095436e+001
,,,1.12400000e+008,-5.60686798e+001
,,,1.12800000e+008,-5.28067055e+001
,,,1.13200000e+008,-5.66449280e+001
,,,1.13600000e+008,-6.03086700e+001
,,,1.14000000e+008,-6.77911148e+001
,,,1.14400000e+008,-6.14071693e+001
,,,1.14800000e+008,-7.15412140e+001
,,,1.15200000e+008,-5.93876953e+001
,,,1.15600000e+008,-6.30127640e+001
,,,1.16000000e+008,-6.40194626e+001
,,,1.16400000e+008,-6.15331001e+001
,,,1.16800000e+008,-6.82646332e+001
,,,1.17200000e+008,-5.75250854e+001
,,,1.17600000e+008,-6.39631310e+001
,,,1.18000000e+008,-7.10335464e+001
,,,1.18400000e+008,-6.50643082e+001
,,,1.18800000e+008,-6.79051590e+001
,,,1.19200000e+008,-6.00756416e+001
,,,1.19600000e+008,-6.31883430e+001
,,,1.20000000e+008,-6.28006020e+001
,,,1.20400000e+008,-6.34663925e+001
,,,1.20800000e+008,-6.29642372e+001
,,,1.21200000e+008,-6.17214203e+001
,,,1.21600000e+008,-6.55119629e+001
,,,1.22000000e+008,-6.62233963e+001
,,,1.22400000e+008,-6.17962036e+001
,,,1.22800000e+008,-6.80457611e+001
,,,1.23200000e+008,-6.25916367e+001
,,,1.23600000e+008,-6.27449532e+001
,,,1.24000000e+008,-6.00216484e+001
,,,1.24400000e+008,-6.10292130e+001
,,,1.24800000e+008,-6.89042969e+001
,,,1.25200000e+008,-5.83630447e+001
,,,1.25600000e+008,-6.54931259e+001
,,,1.26000000e+008,-5.83353195e+001
,,,1.26400000e+008,-5.62701454e+001
,,,1.26800000e+008,-6.13908195e+001
,,,1.27200000e+008,-5.53110504e+001
,,,1.27600000e+008,-5.72951698e+001
,,,1.28000000e+008,-5.18140106e+001
,,,1.28400000e+008,-5.10391579e+001
,,,1.28800000e+008,-5.36966362e+001
,,,1.29200000e+008,-4.75962677e+001
,,,1.29600000e+008,-4.81274796e+001
,,,1.30000000e+008,-4.46137810e+001
,,,1.30400000e+008,-4.14623566e+001
,,,1.30800000e+008,-4.10206375e+001
,,,1.31200000e+008,-4.21324310e+001
,,,1.31600000e+008,-4.43373604e+001
,,,1.32000000e+008,-4.63883934e+001
,,,1.32400000e+008,-4.80106087e+001
,,,1.32800000e+008,-4.80460205e+001
,,,1.33200000e+008,-5.31891136e+001
,,,1.33600000e+008,-5.22884712e+001
,,,1.34000000e+008,-5.24034920e+001
,,,1.34400000e+008,-5.49036064e+001
,,,1.34800000e+008,-5.51901207e+001
,,,1.35200000e+008,-6.08215065e+001
,,,1.35600000e+008,-5.77602577e+001
,,,1.36000000e+008,-6.26667709e+001
,,,1.36400000e+008,-6.31036606e+001
,,,1.36800000e+008,-5.60078316e+001
,,,1.37200000e+008,-6.09234200e+001
,,,1.37600000e+008,-5.93204117e+001
,,,1.38000000e+008,-6.10763130e+001
,,,1.38400000e+008,-5.74968147e+001
,,,1.38800000e+008,-5.74603577e+001
,,,1.39200000e+008,-6.52911301e+001
,,,1.39600000e+008,-5.38867874e+001
,,,1.40000000e+008,-5.65418854e+001
,,,1.40400000e+008,-5.86356544e+001
,,,1.40800000e+008,-5.24869690e+001
,,,1.41200000e+008,-5.66965599e+001
,,,1.41600000e+008,-5.53791046e+001
,,,1.42000000e+008,-5.75730438e+001
,,,1.42400000e+008,-5.62691727e+001
,,,1.42800000e+008,-5.19940605e+001
,,,1.43200000e+008,-5.38823929e+001
,,,1.43600000e+008,-4.96289902e+001
,,,1.44000000e+008,-5.04172401e+001
,,,1.44400000e+008,-5.11078110e+001
,,,1.44800000e+008,-4.85092735e+001
,,,1.45200000e+008,-5.08771324e+001
,,,1.45600000e+008,-4.84726334e+001
,,,1.46000000e+008,-4.71307945e+001
,,,1.46400000e+008,-4.57869377e+001
,,,1.46800000e+008,-4.25019684e+001
,,,1.47200000e+008,-4.11093025e+001
,,,1.47600000e+008,-3.94813957e+001
,,,1.48000000e+008,-3.79757843e+001
,,,1.48400000e+008,-3.63161621e+001
,,,1.48800000e+008,-3.51852684e+001
,,,1.49200000e+008,-3.46761742e+001
,,,1.49600000e+008,-3.61801224e+001
,,,1.50000000e+008,-3.80538635e+001
,,,1.50400000e+008,-4.05006790e+001
,,,1.50800000e+008,-4.31369629e+001
,,,1.51200000e+008,-4.41270981e+001
,,,1.51600000e+008,-4.78130531e+001
,,,1.52000000e+008,-4.99307709e+001
,,,1.52400000e+008,-5.08762512e+001
,,,1.52800000e+008,-5.25056839e+001
,,,1.53200000e+008,-4.93935127e+001
,,,1.53600000e+008,-5.04857368e+001
,,,1.54000000e+008,-4.99491997e+001
,,,1.54400000e+008,-4.88352089e+001
,,,1.54800000e+008,-4.87419510e+001
,,,1.55200000e+008,-4.76972122e+001
,,,1.55600000e+008,-4.96434288e+001
,,,1.56000000e+008,-4.93635254e+001
,,,1.56400000e+008,-4.98548813e+001
,,,1.56800000e+008,-5.24151611e+001
,,,1.57200000e+008,-5.16573143e+001
,,,1.57600000e+008,-5.21747665e+001
,,,1.58000000e+008,-5.22041130e+001
,,,1.58400000e+008,-5.06007385e+001
,,,1.58800000e+008,-4.92255020e+001
,,,1.59200000e+008,-4.79100418e+001
,,,1.59600000e+008,-4.81299973e+001
,,,1.60000000e+008,-4.74586449e+001
,,,1.60400000e+008,-4.89663811e+001
,,,1.60800000e+008,-4.89384117e+001
,,,1.61200000e+008,-4.61536102e+001
,,,1.61600000e+008,-4.53468361e+001
,,,1.62000000e+008,-4.43737946e+001
,,,1.62400000e+008,-4.37151794e+001
,,,1.62800000e+008,-4.29009628e+001
,,,1.63200000e+008,-4.19074402e+001
,,,1.63600000e+008,-4.09399948e+001
,,,1.64000000e+008,-3.99670944e+001
,,,1.64400000e+008,-3.98106613e+001
,,,1.64800000e+008,-3.95858040e+001
,,,1.65200000e+008,-3.96808701e+001
,,,1.65600000e+008,-4.02940979e+001
,,,1.66000000e+008,-4.17371941e+001
,,,1.66400000e+008,-4.06982841e+001
,,,1.66800000e+008,-4.03009644e+001
,,,1.67200000e+008,-4.11056519e+001
,,,1.67600000e+008,-3.89122543e+001
,,,1.68000000e+008,-3.84095306e+001
,,,1.68400000e+008,-3.92148476e+001
,,,1.68800000e+008,-3.98753624e+001
,,,1.69200000e+008,-4.02661133e+001
,,,1.69600000e+008,-3.99128952e+001
,,,1.70000000e+008,-4.14109154e+001
,,,1.70400000e+008,-4.28744164e+001
,,,1.70800000e+008,-4.38394699e+001
,,,1.71200000e+008,-4.45753403e+001
,,,1.71600000e+008,-4.49802246e+001
,,,1.72000000e+008,-4.54572144e+001
,,,1.72400000e+008,-4.52914505e+001
,,,1.72800000e+008,-4.67136612e+001
,,,1.73200000e+008,-4.68458557e+001
,,,1.73600000e+008,-4.68038635e+001
,,,1.74000000e+008,-5.05564499e+001
,,,1.74400000e+008,-5.14944382e+001
,,,1.74800000e+008,-5.28815117e+001
,,,1.75200000e+008,-5.08768044e+001
,,,1.75600000e+008,-4.70756454e+001
,,,1.76000000e+008,-4.62458076e+001
,,,1.76400000e+008,-4.35607452e+001
,,,1.76800000e+008,-4.19667511e+001
,,,1.77200000e+008,-4.39854126e+001
,,,1.77600000e+008,-4.18365555e+001
,,,1.78000000e+008,-4.09431458e+001
,,,1.78400000e+008,-4.23982964e+001
,,,1.78800000e+008,-4.35532227e+001
,,,1.79200000e+008,-4.26071320e+001
,,,1.79600000e+008,-4.19489861e+001
,,,1.80000000e+008,-4.33447227e+001
,,,1.80400000e+008,-4.44565163e+001
,,,1.80800000e+008,-4.41587105e+001
,,,1.81200000e+008,-4.26872444e+001
,,,1.81600000e+008,-4.02606812e+001
,,,1.82000000e+008,-3.80712891e+001
,,,1.82400000e+008,-3.65939217e+001
,,,1.82800000e+008,-3.52024689e+001
,,,1.83200000e+008,-3.40962868e+001
,,,1.83600000e+008,-3.38828850e+001
,,,1.84000000e+008,-3.32387657e+001
,,,1.84400000e+008,-3.27117767e+001
,,,1.84800000e+008,-3.28825073e+001
,,,1.85200000e+008,-3.29327812e+001
,,,1.85600000e+008,-3.33420677e+001
,,,1.86000000e+008,-3.36809883e+001
,,,1.86400000e+008,-3.46038055e+001
,,,1.86800000e+008,-3.56116219e+001
,,,1.87200000e+008,-3.58756638e+001
,,,1.87600000e+008,-3.66607704e+001
,,,1.88000000e+008,-3.74489555e+001
,,,1.88400000e+008,-3.80874939e+001
,,,1.88800000e+008,-3.85258293e+001
,,,1.89200000e+008,-3.84300652e+001
,,,1.89600000e+008,-3.87929497e+001
,,,1.90000000e+008,-3.93832130e+001
,,,1.90400000e+008,-4.01250648e+001
,,,1.90800000e+008,-4.07891655e+001
,,,1.91200000e+008,-3.99419136e+001
,,,1.91600000e+008,-3.88454247e+001
,,,1.92000000e+008,-3.85998917e+001
,,,1.92400000e+008,-3.83525391e+001
,,,1.92800000e+008,-3.85069695e+001
,,,1.93200000e+008,-3.93144798e+001
,,,1.93600000e+008,-3.90484047e+001
,,,1.94000000e+008,-3.80287323e+001
,,,1.94400000e+008,-3.67076721e+001
,,,1.94800000e+008,-3.57431335e+001
,,,1.95200000e+008,-3.49532471e+001
,,,1.95600000e+008,-3.35884933e+001
,,,1.96000000e+008,-3.32861176e+001
,,,1.96400000e+008,-3.37783356e+001
,,,1.96800000e+008,-3.46680603e+001
,,,1.97200000e+008,-3.64223137e+001
,,,1.97600000e+008,-3.73322525e+001
,,,1.98000000e+008,-3.85850029e+001
,,,1.98400000e+008,-4.00273895e+001
,,,1.98800000e+008,-3.87769508e+001
,,,1.99200000e+008,-3.60590363e+001
,,,1.99600000e+008,-3.33529816e+001
,,,2.00000000e+008,-3.22347412e+001
,,,2.00400000e+008,-3.18490334e+001
,,,2.00800000e+008,-3.16077976e+001
,,,2.01200000e+008,-3.21566811e+001
,,,2.01600000e+008,-3.25452003e+001
,,,2.02000000e+008,-3.30231934e+001
,,,2.02400000e+008,-3.36108932e+001
,,,2.02800000e+008,-3.38820724e+001
,,,2.03200000e+008,-3.42255020e+001
,,,2.03600000e+008,-3.46797104e+001
,,,2.04000000e+008,-3.45840950e+001
,,,2.04400000e+008,-3.51112938e+001
,,,2.04800000e+008,-3.64170876e+001
,,,2.05200000e+008,-3.50256958e+001
,,,2.05600000e+008,-3.40737953e+001
,,,2.06000000e+008,-3.58709602e+001
,,,2.06400000e+008,-3.71009407e+001
,,,2.06800000e+008,-3.56690636e+001
,,,2.07200000e+008,-3.44611206e+001
,,,2.07600000e+008,-3.50568085e+001
,,,2.08000000e+008,-3.47966537e+001
,,,2.08400000e+008,-3.37149048e+001
,,,2.08800000e+008,-3.43191528e+001
,,,2.09200000e+008,-3.45374413e+001
,,,2.09600000e+008,-3.37362251e+001
,,,2.10000000e+008,-3.36908607e+001
,,,2.10400000e+008,-3.41709824e+001
,,,2.10800000e+008,-3.39626503e+001
,,,2.11200000e+008,-3.29891739e+001
,,,2.11600000e+008,-3.26667595e+001
,,,2.12000000e+008,-3.24453316e+001
,,,2.12400000e+008,-3.20449028e+001
,,,2.12800000e+008,-3.15458202e+001
,,,2.13200000e+008,-3.09763489e+001
,,,2.13600000e+008,-3.11302624e+001
,,,2.14000000e+008,-3.14464626e+001
,,,2.14400000e+008,-3.19975109e+001
,,,2.14800000e+008,-3.27024269e+001
,,,2.15200000e+008,-3.29889069e+001
,,,2.15600000e+008,-3.34971504e+001
,,,2.16000000e+008,-3.39516449e+001
,,,2.16400000e+008,-3.50819931e+001
,,,2.16800000e+008,-3.66228294e+001
,,,2.17200000e+008,-3.71215057e+001
,,,2.17600000e+008,-3.73557396e+001
,,,2.18000000e+008,-3.69832611e+001
,,,2.18400000e+008,-3.63650169e+001
,,,2.18800000e+008,-3.62418213e+001
,,,2.19200000e+008,-3.62996140e+001
,,,2.19600000e+008,-3.62840805e+001
,,,2.20000000e+008,-3.57933922e+001
