Data/20220822/UCLA_to_R2A_HPOL_80_001_Math1.csv

"Record Length",6250,"Points",0.00000000e+000,-1.33456945e+001
"Sample Interval",4.00000000e+005,Hz,4.00000000e+005,-1.99230499e+001
"Trigger Point",0,"Samples",8.00000000e+005,-2.18049946e+001
"Trigger Time",0.00000000e+000,Hz,1.20000000e+006,-2.52753811e+001
"",,,1.60000000e+006,-3.21225891e+001
"Horizontal Offset",0.00000000e+000,Hz,2.00000000e+006,-7.78213425e+001
,,,2.40000000e+006,-3.54987335e+001
,,,2.80000000e+006,-3.26965904e+001
,,,3.20000000e+006,-3.38270988e+001
,,,3.60000000e+006,-3.90724030e+001
,,,4.00000000e+006,-6.87295914e+001
,,,4.40000000e+006,-4.10635757e+001
,,,4.80000000e+006,-3.72827682e+001
,,,5.20000000e+006,-3.78729973e+001
,,,5.60000000e+006,-4.35602112e+001
,,,6.00000000e+006,-7.29923935e+001
,,,6.40000000e+006,-4.41143265e+001
,,,6.80000000e+006,-4.05332527e+001
,,,7.20000000e+006,-4.08604202e+001
,,,7.60000000e+006,-4.58842430e+001
,,,8.00000000e+006,-6.14787483e+001
,,,8.40000000e+006,-4.59323387e+001
,,,8.80000000e+006,-4.25520554e+001
,,,9.20000000e+006,-4.29257278e+001
,,,9.60000000e+006,-4.72622452e+001
,,,1.00000000e+007,-6.69112473e+001
,,,1.04000000e+007,-4.80841904e+001
,,,1.08000000e+007,-4.45329514e+001
,,,1.12000000e+007,-4.47599792e+001
,,,1.16000000e+007,-4.89204903e+001
,,,1.20000000e+007,-7.06148071e+001
,,,1.24000000e+007,-4.89608994e+001
,,,1.28000000e+007,-4.64196167e+001
,,,1.32000000e+007,-4.65549812e+001
,,,1.36000000e+007,-5.06262932e+001
,,,1.40000000e+007,-6.57834702e+001
,,,1.44000000e+007,-5.00043945e+001
,,,1.48000000e+007,-4.65689735e+001
,,,1.52000000e+007,-4.74118118e+001
,,,1.56000000e+007,-5.33594856e+001
,,,1.60000000e+007,-6.67400665e+001
,,,1.64000000e+007,-5.38026161e+001
,,,1.68000000e+007,-4.83150253e+001
,,,1.72000000e+007,-4.83694763e+001
,,,1.76000000e+007,-5.35206108e+001
,,,1.80000000e+007,-7.19593430e+001
,,,1.84000000e+007,-5.48074150e+001
,,,1.88000000e+007,-4.87150307e+001
,,,1.92000000e+007,-5.05783272e+001
,,,1.96000000e+007,-5.47522774e+001
,,,2.00000000e+007,-7.05754852e+001
,,,2.04000000e+007,-5.94062958e+001
,,,2.08000000e+007,-4.83080673e+001
,,,2.12000000e+007,-4.99853096e+001
,,,2.16000000e+007,-5.40372963e+001
,,,2.20000000e+007,-6.99715195e+001
,,,2.24000000e+007,-5.42001572e+001
,,,2.28000000e+007,-5.20340080e+001
,,,2.32000000e+007,-5.05341301e+001
,,,2.36000000e+007,-5.46518250e+001
,,,2.40000000e+007,-7.19301529e+001
,,,2.44000000e+007,-5.71393127e+001
,,,2.48000000e+007,-5.13106613e+001
,,,2.52000000e+007,-5.00651398e+001
,,,2.56000000e+007,-5.88064919e+001
,,,2.60000000e+007,-6.49002914e+001
,,,2.64000000e+007,-5.66206093e+001
,,,2.68000000e+007,-5.27841835e+001
,,,2.72000000e+007,-5.26678352e+001
,,,2.76000000e+007,-5.94892960e+001
,,,2.80000000e+007,-6.70927353e+001
,,,2.84000000e+007,-5.81687622e+001
,,,2.88000000e+007,-5.24843063e+001
,,,2.92000000e+007,-5.24039116e+001
,,,2.96000000e+007,-5.66114540e+001
,,,3.00000000e+007,-7.09155884e+001
,,,3.04000000e+007,-5.74484138e+001
,,,3.08000000e+007,-5.36175270e+001
,,,3.12000000e+007,-5.35883789e+001
,,,3.16000000e+007,-5.51846085e+001
,,,3.20000000e+007,-6.37043610e+001
,,,3.24000000e+007,-5.73669357e+001
,,,3.28000000e+007,-5.57680511e+001
,,,3.32000000e+007,-5.29937897e+001
,,,3.36000000e+007,-5.78007584e+001
,,,3.40000000e+007,-7.28822784e+001
,,,3.44000000e+007,-5.79000969e+001
,,,3.48000000e+007,-5.48836823e+001
,,,3.52000000e+007,-5.34966621e+001
,,,3.56000000e+007,-6.28798943e+001
,,,3.60000000e+007,-6.95473099e+001
,,,3.64000000e+007,-5.75046883e+001
,,,3.68000000e+007,-5.43904800e+001
,,,3.72000000e+007,-5.47532005e+001
,,,3.76000000e+007,-6.00693741e+001
,,,3.80000000e+007,-6.17502441e+001
,,,3.84000000e+007,-6.49149780e+001
,,,3.88000000e+007,-5.46399155e+001
,,,3.92000000e+007,-5.81407852e+001
,,,3.96000000e+007,-5.85914650e+001
,,,4.00000000e+007,-6.90831757e+001
,,,4.04000000e+007,-6.10899658e+001
,,,4.08000000e+007,-5.71497917e+001
,,,4.12000000e+007,-5.49312744e+001
,,,4.16000000e+007,-6.14476318e+001
,,,4.20000000e+007,-7.14949188e+001
,,,4.24000000e+007,-6.14948196e+001
,,,4.28000000e+007,-5.72797318e+001
,,,4.32000000e+007,-5.52977982e+001
,,,4.36000000e+007,-5.98934288e+001
,,,4.40000000e+007,-7.10736618e+001
,,,4.44000000e+007,-6.35995064e+001
,,,4.48000000e+007,-5.46874809e+001
,,,4.52000000e+007,-6.00448418e+001
,,,4.56000000e+007,-5.93098640e+001
,,,4.60000000e+007,-7.11739502e+001
,,,4.64000000e+007,-6.00561981e+001
,,,4.68000000e+007,-5.76872520e+001
,,,4.72000000e+007,-5.59299240e+001
,,,4.76000000e+007,-6.40235596e+001
,,,4.80000000e+007,-6.43286438e+001
,,,4.84000000e+007,-6.27271347e+001
,,,4.88000000e+007,-5.77862892e+001
,,,4.92000000e+007,-5.67781906e+001
,,,4.96000000e+007,-6.57293243e+001
,,,5.00000000e+007,-6.97623596e+001
,,,5.04000000e+007,-6.59841232e+001
,,,5.08000000e+007,-5.83714790e+001
,,,5.12000000e+007,-5.83797112e+001
,,,5.16000000e+007,-6.01452141e+001
,,,5.20000000e+007,-6.99550781e+001
,,,5.24000000e+007,-5.93628502e+001
,,,5.28000000e+007,-5.97138786e+001
,,,5.32000000e+007,-6.03969307e+001
,,,5.36000000e+007,-5.92600708e+001
,,,5.40000000e+007,-7.20225906e+001
,,,5.44000000e+007,-6.34367867e+001
,,,5.48000000e+007,-5.60015907e+001
,,,5.52000000e+007,-5.99511719e+001
,,,5.56000000e+007,-6.39502487e+001
,,,5.60000000e+007,-7.75803452e+001
,,,5.64000000e+007,-6.83119659e+001
,,,5.68000000e+007,-6.32910652e+001
,,,5.72000000e+007,-5.74968300e+001
,,,5.76000000e+007,-5.99132576e+001
,,,5.80000000e+007,-6.69773102e+001
,,,5.84000000e+007,-6.29528999e+001
,,,5.88000000e+007,-5.72653275e+001
,,,5.92000000e+007,-6.10528564e+001
,,,5.96000000e+007,-6.02150879e+001
,,,6.00000000e+007,-8.39682541e+001
,,,6.04000000e+007,-6.60220032e+001
,,,6.08000000e+007,-6.00673027e+001
,,,6.12000000e+007,-5.73431091e+001
,,,6.16000000e+007,-6.37770996e+001
,,,6.20000000e+007,-6.93845825e+001
,,,6.24000000e+007,-6.82811050e+001
,,,6.28000000e+007,-5.78348312e+001
,,,6.32000000e+007,-5.77291679e+001
,,,6.36000000e+007,-6.02111855e+001
,,,6.40000000e+007,-6.76332626e+001
,,,6.44000000e+007,-6.48640366e+001
,,,6.48000000e+007,-6.03194160e+001
,,,6.52000000e+007,-5.81576500e+001
,,,6.56000000e+007,-6.16537552e+001
,,,6.60000000e+007,-7.00645828e+001
,,,6.64000000e+007,-6.18445702e+001
,,,6.68000000e+007,-5.89445801e+001
,,,6.72000000e+007,-6.20725632e+001
,,,6.76000000e+007,-6.22258224e+001
,,,6.80000000e+007,-6.59885941e+001
,,,6.84000000e+007,-6.44989471e+001
,,,6.88000000e+007,-5.83718758e+001
,,,6.92000000e+007,-5.92634468e+001
,,,6.96000000e+007,-6.23973465e+001
,,,7.00000000e+007,-7.35586090e+001
,,,7.04000000e+007,-6.02175293e+001
,,,7.08000000e+007,-6.22530937e+001
,,,7.12000000e+007,-6.31580238e+001
,,,7.16000000e+007,-6.38789825e+001
,,,7.20000000e+007,-6.73976898e+001
,,,7.24000000e+007,-6.48623734e+001
,,,7.28000000e+007,-5.86166687e+001
,,,7.32000000e+007,-6.52360840e+001
,,,7.36000000e+007,-6.02803383e+001
,,,7.40000000e+007,-5.88520355e+001
,,,7.44000000e+007,-5.98329811e+001
,,,7.48000000e+007,-5.64059258e+001
,,,7.52000000e+007,-6.55563812e+001
,,,7.56000000e+007,-6.48047791e+001
,,,7.60000000e+007,-6.94669876e+001
,,,7.64000000e+007,-6.78142471e+001
,,,7.68000000e+007,-6.03371201e+001
,,,7.72000000e+007,-5.94880371e+001
,,,7.76000000e+007,-6.39658127e+001
,,,7.80000000e+007,-7.45523911e+001
,,,7.84000000e+007,-6.25741119e+001
,,,7.88000000e+007,-6.02708626e+001
,,,7.92000000e+007,-6.68564529e+001
,,,7.96000000e+007,-5.98251762e+001
,,,8.00000000e+007,-6.48718109e+001
,,,8.04000000e+007,-5.89403954e+001
,,,8.08000000e+007,-5.91831245e+001
,,,8.12000000e+007,-6.11932602e+001
,,,8.16000000e+007,-6.84724426e+001
,,,8.20000000e+007,-6.35117531e+001
,,,8.24000000e+007,-6.07989082e+001
,,,8.28000000e+007,-6.18825645e+001
,,,8.32000000e+007,-6.07582245e+001
,,,8.36000000e+007,-6.75663757e+001
,,,8.40000000e+007,-7.31606140e+001
,,,8.44000000e+007,-6.91061096e+001
,,,8.48000000e+007,-6.17217941e+001
,,,8.52000000e+007,-6.11602135e+001
,,,8.56000000e+007,-6.17656441e+001
,,,8.60000000e+007,-6.42468033e+001
,,,8.64000000e+007,-7.01366196e+001
,,,8.68000000e+007,-6.06338882e+001
,,,8.72000000e+007,-6.73517990e+001
,,,8.76000000e+007,-7.18575439e+001
,,,8.80000000e+007,-6.78996506e+001
,,,8.84000000e+007,-6.64527664e+001
,,,8.88000000e+007,-6.23914185e+001
,,,8.92000000e+007,-6.42963486e+001
,,,8.96000000e+007,-6.31640854e+001
,,,9.00000000e+007,-6.62859497e+001
,,,9.04000000e+007,-6.61296539e+001
,,,9.08000000e+007,-5.90121727e+001
,,,9.12000000e+007,-6.08068237e+001
,,,9.16000000e+007,-6.93246841e+001
,,,9.20000000e+007,-7.54037476e+001
,,,9.24000000e+007,-6.63956985e+001
,,,9.28000000e+007,-5.83167267e+001
,,,9.32000000e+007,-6.80710144e+001
,,,9.36000000e+007,-6.97608261e+001
,,,9.40000000e+007,-7.74113541e+001
,,,9.44000000e+007,-7.14953995e+001
,,,9.48000000e+007,-5.83006058e+001
,,,9.52000000e+007,-6.46077271e+001
,,,9.56000000e+007,-6.55837708e+001
,,,9.60000000e+007,-6.96187363e+001
,,,9.64000000e+007,-6.02494583e+001
,,,9.68000000e+007,-6.29498482e+001
,,,9.72000000e+007,-6.27444839e+001
,,,9.76000000e+007,-6.21191711e+001
,,,9.80000000e+007,-6.92206497e+001
,,,9.84000000e+007,-6.32578316e+001
,,,9.88000000e+007,-6.00879288e+001
,,,9.92000000e+007,-6.18668251e+001
,,,9.96000000e+007,-6.90982361e+001
,,,1.00000000e+008,-6.85999222e+001
,,,1.00400000e+008,-5.93101501e+001
,,,1.00800000e+008,-5.91255684e+001
,,,1.01200000e+008,-6.92659225e+001
,,,1.01600000e+008,-6.29103127e+001
,,,1.02000000e+008,-6.57316513e+001
,,,1.02400000e+008,-7.90455322e+001
,,,1.02800000e+008,-6.16132317e+001
,,,1.03200000e+008,-5.88859367e+001
,,,1.03600000e+008,-6.44732208e+001
,,,1.04000000e+008,-6.50277557e+001
,,,1.04400000e+008,-5.93354721e+001
,,,1.04800000e+008,-6.45053940e+001
,,,1.05200000e+008,-6.32663689e+001
,,,1.05600000e+008,-6.45705490e+001
,,,1.06000000e+008,-7.36518326e+001
,,,1.06400000e+008,-6.28661995e+001
,,,1.06800000e+008,-6.39271889e+001
,,,1.07200000e+008,-6.37704201e+001
,,,1.07600000e+008,-7.21531830e+001
,,,1.08000000e+008,-8.10033951e+001
,,,1.08400000e+008,-7.34349289e+001
,,,1.08800000e+008,-7.10939484e+001
,,,1.09200000e+008,-6.59025040e+001
,,,1.09600000e+008,-5.99540062e+001
,,,1.10000000e+008,-7.26109009e+001
,,,1.10400000e+008,-7.13383484e+001
,,,1.10800000e+008,-5.93623848e+001
,,,1.11200000e+008,-7.51823502e+001
,,,1.11600000e+008,-5.98643913e+001
,,,1.12000000e+008,-6.44291687e+001
,,,1.12400000e+008,-6.94163589e+001
,,,1.12800000e+008,-6.13880768e+001
,,,1.13200000e+008,-6.69417038e+001
,,,1.13600000e+008,-6.79709396e+001
,,,1.14000000e+008,-6.67453156e+001
,,,1.14400000e+008,-6.17552719e+001
,,,1.14800000e+008,-6.49341965e+001
,,,1.15200000e+008,-7.01897583e+001
,,,1.15600000e+008,-6.91326065e+001
,,,1.16000000e+008,-6.58793030e+001
,,,1.16400000e+008,-6.77075424e+001
,,,1.16800000e+008,-6.27075539e+001
,,,1.17200000e+008,-7.18987503e+001
,,,1.17600000e+008,-6.86201172e+001
,,,1.18000000e+008,-7.04728088e+001
,,,1.18400000e+008,-6.81887436e+001
,,,1.18800000e+008,-6.38026657e+001
,,,1.19200000e+008,-7.06637039e+001
,,,1.19600000e+008,-6.87924881e+001
,,,1.20000000e+008,-6.86297455e+001
,,,1.20400000e+008,-7.32161713e+001
,,,1.20800000e+008,-7.59641724e+001
,,,1.21200000e+008,-5.97363777e+001
,,,1.21600000e+008,-7.26617508e+001
,,,1.22000000e+008,-6.34509544e+001
,,,1.22400000e+008,-6.19333000e+001
,,,1.22800000e+008,-6.77400894e+001
,,,1.23200000e+008,-6.17336235e+001
,,,1.23600000e+008,-6.19922523e+001
,,,1.24000000e+008,-7.07417603e+001
,,,1.24400000e+008,-6.58432541e+001
,,,1.24800000e+008,-6.31039925e+001
,,,1.25200000e+008,-6.19306068e+001
,,,1.25600000e+008,-6.95141983e+001
,,,1.26000000e+008,-6.78471298e+001
,,,1.26400000e+008,-6.45465469e+001
,,,1.26800000e+008,-6.40562744e+001
,,,1.27200000e+008,-5.88198280e+001
,,,1.27600000e+008,-7.22776108e+001
,,,1.28000000e+008,-6.74981842e+001
,,,1.28400000e+008,-6.18144989e+001
,,,1.28800000e+008,-7.05305405e+001
,,,1.29200000e+008,-5.78875389e+001
,,,1.29600000e+008,-6.12510605e+001
,,,1.30000000e+008,-5.92059326e+001
,,,1.30400000e+008,-5.66131897e+001
,,,1.30800000e+008,-5.77346077e+001
,,,1.31200000e+008,-5.53175201e+001
,,,1.31600000e+008,-5.84386482e+001
,,,1.32000000e+008,-5.82086334e+001
,,,1.32400000e+008,-5.73556786e+001
,,,1.32800000e+008,-5.47141838e+001
,,,1.33200000e+008,-5.94103279e+001
,,,1.33600000e+008,-6.06586075e+001
,,,1.34000000e+008,-6.09400940e+001
,,,1.34400000e+008,-7.61899719e+001
,,,1.34800000e+008,-5.87054977e+001
,,,1.35200000e+008,-8.22961502e+001
,,,1.35600000e+008,-7.76827927e+001
,,,1.36000000e+008,-7.53404160e+001
,,,1.36400000e+008,-6.52591858e+001
,,,1.36800000e+008,-6.26756172e+001
,,,1.37200000e+008,-6.76503067e+001
,,,1.37600000e+008,-6.57555313e+001
,,,1.38000000e+008,-6.94363632e+001
,,,1.38400000e+008,-6.58460007e+001
,,,1.38800000e+008,-6.51984634e+001
,,,1.39200000e+008,-7.67290878e+001
,,,1.39600000e+008,-5.99379539e+001
,,,1.40000000e+008,-6.26304131e+001
,,,1.40400000e+008,-8.42243652e+001
,,,1.40800000e+008,-6.35616646e+001
,,,1.41200000e+008,-7.22625275e+001
,,,1.41600000e+008,-6.58736496e+001
,,,1.42000000e+008,-6.31279297e+001
,,,1.42400000e+008,-6.63198853e+001
,,,1.42800000e+008,-5.84755363e+001
,,,1.43200000e+008,-6.06407623e+001
,,,1.43600000e+008,-5.70194702e+001
,,,1.44000000e+008,-5.76285706e+001
,,,1.44400000e+008,-6.37609215e+001
,,,1.44800000e+008,-5.61606979e+001
,,,1.45200000e+008,-6.78434143e+001
,,,1.45600000e+008,-5.98069344e+001
,,,1.46000000e+008,-5.54293671e+001
,,,1.46400000e+008,-5.56086235e+001
,,,1.46800000e+008,-5.22129745e+001
,,,1.47200000e+008,-5.06937637e+001
,,,1.47600000e+008,-4.69944801e+001
,,,1.48000000e+008,-4.64644966e+001
,,,1.48400000e+008,-4.53485107e+001
,,,1.48800000e+008,-4.31185112e+001
,,,1.49200000e+008,-4.24904709e+001
,,,1.49600000e+008,-4.37111702e+001
,,,1.50000000e+008,-4.44318085e+001
,,,1.50400000e+008,-4.66007347e+001
,,,1.50800000e+008,-5.03218307e+001
,,,1.51200000e+008,-5.06078568e+001
,,,1.51600000e+008,-5.69827461e+001
,,,1.52000000e+008,-5.94675140e+001
,,,1.52400000e+008,-5.77284241e+001
,,,1.52800000e+008,-6.46376419e+001
,,,1.53200000e+008,-5.68672562e+001
,,,1.53600000e+008,-6.42507629e+001
,,,1.54000000e+008,-6.04230652e+001
,,,1.54400000e+008,-5.72716637e+001
,,,1.54800000e+008,-5.98064766e+001
,,,1.55200000e+008,-5.38576050e+001
,,,1.55600000e+008,-5.80722923e+001
,,,1.56000000e+008,-5.94198570e+001
,,,1.56400000e+008,-5.91962891e+001
,,,1.56800000e+008,-5.59529419e+001
,,,1.57200000e+008,-5.65371819e+001
,,,1.57600000e+008,-6.16389160e+001
,,,1.58000000e+008,-5.66299591e+001
,,,1.58400000e+008,-5.61108971e+001
,,,1.58800000e+008,-5.99703255e+001
,,,1.59200000e+008,-5.74560661e+001
,,,1.59600000e+008,-5.87931709e+001
,,,1.60000000e+008,-5.38747711e+001
,,,1.60400000e+008,-5.26961746e+001
,,,1.60800000e+008,-5.40377121e+001
,,,1.61200000e+008,-5.22000694e+001
,,,1.61600000e+008,-5.30049362e+001
,,,1.62000000e+008,-5.26942253e+001
,,,1.62400000e+008,-5.16441383e+001
,,,1.62800000e+008,-5.02160568e+001
,,,1.63200000e+008,-4.92346230e+001
,,,1.63600000e+008,-4.91223145e+001
,,,1.64000000e+008,-4.88884583e+001
,,,1.64400000e+008,-4.81475410e+001
,,,1.64800000e+008,-4.70455132e+001
,,,1.65200000e+008,-4.76075974e+001
,,,1.65600000e+008,-4.53820724e+001
,,,1.66000000e+008,-4.62892723e+001
,,,1.66400000e+008,-4.87299538e+001
,,,1.66800000e+008,-4.98827896e+001
,,,1.67200000e+008,-5.13655968e+001
,,,1.67600000e+008,-5.10846291e+001
,,,1.68000000e+008,-5.41084023e+001
,,,1.68400000e+008,-5.49756279e+001
,,,1.68800000e+008,-5.44781952e+001
,,,1.69200000e+008,-5.70982819e+001
,,,1.69600000e+008,-5.32670631e+001
,,,1.70000000e+008,-5.29224281e+001
,,,1.70400000e+008,-5.41142235e+001
,,,1.70800000e+008,-5.62080574e+001
,,,1.71200000e+008,-5.60981560e+001
,,,1.71600000e+008,-5.44687195e+001
,,,1.72000000e+008,-5.50363350e+001
,,,1.72400000e+008,-5.45228767e+001
,,,1.72800000e+008,-5.70636673e+001
,,,1.73200000e+008,-6.08941078e+001
,,,1.73600000e+008,-6.02452469e+001
,,,1.74000000e+008,-6.05541496e+001
,,,1.74400000e+008,-5.91842651e+001
,,,1.74800000e+008,-6.20608368e+001
,,,1.75200000e+008,-5.94277115e+001
,,,1.75600000e+008,-6.99455643e+001
,,,1.76000000e+008,-6.15434151e+001
,,,1.76400000e+008,-6.39538116e+001
,,,1.76800000e+008,-5.73154602e+001
,,,1.77200000e+008,-6.05049744e+001
,,,1.77600000e+008,-5.65147476e+001
,,,1.78000000e+008,-5.18326378e+001
,,,1.78400000e+008,-4.98183022e+001
,,,1.78800000e+008,-4.86805573e+001
,,,1.79200000e+008,-5.02429733e+001
,,,1.79600000e+008,-5.20779877e+001
,,,1.80000000e+008,-5.18703537e+001
,,,1.80400000e+008,-5.09411469e+001
,,,1.80800000e+008,-5.18189735e+001
,,,1.81200000e+008,-5.01482086e+001
,,,1.81600000e+008,-4.76981888e+001
,,,1.82000000e+008,-4.58505554e+001
,,,1.82400000e+008,-4.40013466e+001
,,,1.82800000e+008,-4.36562004e+001
,,,1.83200000e+008,-4.22250137e+001
,,,1.83600000e+008,-4.16016197e+001
,,,1.84000000e+008,-4.07074661e+001
,,,1.84400000e+008,-3.97992249e+001
,,,1.84800000e+008,-4.02601357e+001
,,,1.85200000e+008,-3.96524467e+001
,,,1.85600000e+008,-4.05672035e+001
,,,1.86000000e+008,-4.11685715e+001
,,,1.86400000e+008,-4.14906311e+001
,,,1.86800000e+008,-4.29390678e+001
,,,1.87200000e+008,-4.31154099e+001
,,,1.87600000e+008,-4.32603645e+001
,,,1.88000000e+008,-4.39499168e+001
,,,1.88400000e+008,-4.48649445e+001
,,,1.88800000e+008,-4.48151093e+001
,,,1.89200000e+008,-4.47464523e+001
,,,1.89600000e+008,-4.47377892e+001
,,,1.90000000e+008,-4.48007202e+001
,,,1.90400000e+008,-4.66368790e+001
,,,1.90800000e+008,-4.68539734e+001
,,,1.91200000e+008,-4.66935692e+001
,,,1.91600000e+008,-4.58795624e+001
,,,1.92000000e+008,-4.43407440e+001
,,,1.92400000e+008,-4.43244553e+001
,,,1.92800000e+008,-4.40946159e+001
,,,1.93200000e+008,-4.51749268e+001
,,,1.93600000e+008,-4.56891556e+001
,,,1.94000000e+008,-4.71368523e+001
,,,1.94400000e+008,-5.04377136e+001
,,,1.94800000e+008,-4.87069969e+001
,,,1.95200000e+008,-4.66323929e+001
,,,1.95600000e+008,-4.47239380e+001
,,,1.96000000e+008,-4.20467491e+001
,,,1.96400000e+008,-4.11270332e+001
,,,1.96800000e+008,-4.09790726e+001
,,,1.97200000e+008,-4.11376343e+001
,,,1.97600000e+008,-4.16526222e+001
,,,1.98000000e+008,-4.21274567e+001
,,,1.98400000e+008,-4.23829651e+001
,,,1.98800000e+008,-4.47344856e+001
,,,1.99200000e+008,-4.77435417e+001
,,,1.99600000e+008,-4.62893028e+001
,,,2.00000000e+008,-4.65481415e+001
,,,2.00400000e+008,-4.56092148e+001
,,,2.00800000e+008,-4.40083694e+001
,,,2.01200000e+008,-4.40674706e+001
,,,2.01600000e+008,-4.23306389e+001
,,,2.02000000e+008,-4.19351120e+001
,,,2.02400000e+008,-4.20327606e+001
,,,2.02800000e+008,-4.23035545e+001
,,,2.03200000e+008,-4.25977325e+001
,,,2.03600000e+008,-4.33913765e+001
,,,2.04000000e+008,-4.29497986e+001
,,,2.04400000e+008,-4.32424927e+001
,,,2.04800000e+008,-4.67004166e+001
,,,2.05200000e+008,-4.80755005e+001
,,,2.05600000e+008,-4.84849129e+001
,,,2.06000000e+008,-5.10272141e+001
,,,2.06400000e+008,-4.50577126e+001
,,,2.06800000e+008,-4.30700684e+001
,,,2.07200000e+008,-4.65056763e+001
,,,2.07600000e+008,-4.66572609e+001
,,,2.08000000e+008,-4.75321693e+001
,,,2.08400000e+008,-4.72611694e+001
,,,2.08800000e+008,-4.92033768e+001
,,,2.09200000e+008,-5.25044556e+001
,,,2.09600000e+008,-4.58943291e+001
,,,2.10000000e+008,-4.35476074e+001
,,,2.10400000e+008,-4.46659660e+001
,,,2.10800000e+008,-4.74541588e+001
,,,2.11200000e+008,-4.70922089e+001
,,,2.11600000e+008,-4.97503548e+001
,,,2.12000000e+008,-4.90222130e+001
,,,2.12400000e+008,-4.46336708e+001
,,,2.12800000e+008,-4.20064812e+001
,,,2.13200000e+008,-3.96780548e+001
,,,2.13600000e+008,-3.90716629e+001
,,,2.14000000e+008,-3.91669540e+001
,,,2.14400000e+008,-3.99071465e+001
,,,2.14800000e+008,-4.14364510e+001
,,,2.15200000e+008,-4.13746910e+001
,,,2.15600000e+008,-4.12828369e+001
,,,2.16000000e+008,-4.12700195e+001
,,,2.16400000e+008,-4.26352425e+001
,,,2.16800000e+008,-4.50025597e+001
,,,2.17200000e+008,-4.48510132e+001
,,,2.17600000e+008,-4.41701698e+001
,,,2.18000000e+008,-4.35321960e+001
,,,2.18400000e+008,-4.29359398e+001
,,,2.18800000e+008,-4.21233025e+001
,,,2.19200000e+008,-4.14795799e+001
,,,2.19600000e+008,-4.12231865e+001
,,,2.20000000e+008,-4.02014427e+001
