Data/PULSER/20220822/AVTECH_PULSER_20220822_2cables_R2B_eod_Math1.csv

"Record Length",6250,"Points",0.00000000e+000,9.34303474e+000
"Sample Interval",4.00000000e+005,Hz,4.00000000e+005,-5.61306655e-001
"Trigger Point",0,"Samples",8.00000000e+005,1.14085674e+001
"Trigger Time",0.00000000e+000,Hz,1.20000000e+006,3.70154476e+000
"",,,1.60000000e+006,8.81273365e+000
"Horizontal Offset",0.00000000e+000,Hz,2.00000000e+006,7.21029282e+000
,,,2.40000000e+006,8.38456821e+000
,,,2.80000000e+006,6.16557169e+000
,,,3.20000000e+006,7.27799273e+000
,,,3.60000000e+006,7.20508194e+000
,,,4.00000000e+006,6.31269979e+000
,,,4.40000000e+006,6.02551556e+000
,,,4.80000000e+006,4.90047121e+000
,,,5.20000000e+006,6.02614450e+000
,,,5.60000000e+006,4.25126362e+000
,,,6.00000000e+006,4.27120876e+000
,,,6.40000000e+006,3.03523827e+000
,,,6.80000000e+006,3.82554722e+000
,,,7.20000000e+006,3.34151673e+000
,,,7.60000000e+006,2.23540592e+000
,,,8.00000000e+006,2.72935724e+000
,,,8.40000000e+006,2.24377584e+000
,,,8.80000000e+006,3.27455497e+000
,,,9.20000000e+006,2.17392230e+000
,,,9.60000000e+006,2.68915248e+000
,,,1.00000000e+007,2.83860397e+000
,,,1.04000000e+007,3.15674710e+000
,,,1.08000000e+007,3.33547854e+000
,,,1.12000000e+007,2.67592812e+000
,,,1.16000000e+007,3.61337352e+000
,,,1.20000000e+007,3.26044202e+000
,,,1.24000000e+007,3.74592328e+000
,,,1.28000000e+007,3.06230450e+000
,,,1.32000000e+007,3.50954771e+000
,,,1.36000000e+007,3.63976693e+000
,,,1.40000000e+007,3.39021111e+000
,,,1.44000000e+007,3.50125551e+000
,,,1.48000000e+007,3.12491918e+000
,,,1.52000000e+007,3.67854857e+000
,,,1.56000000e+007,3.07177901e+000
,,,1.60000000e+007,3.15964580e+000
,,,1.64000000e+007,2.83328819e+000
,,,1.68000000e+007,3.11922574e+000
,,,1.72000000e+007,3.06061459e+000
,,,1.76000000e+007,2.52600574e+000
,,,1.80000000e+007,2.81730008e+000
,,,1.84000000e+007,2.57901216e+000
,,,1.88000000e+007,2.96205235e+000
,,,1.92000000e+007,2.29135752e+000
,,,1.96000000e+007,2.49667859e+000
,,,2.00000000e+007,2.45781755e+000
,,,2.04000000e+007,2.59120011e+000
,,,2.08000000e+007,2.57506943e+000
,,,2.12000000e+007,2.20274973e+000
,,,2.16000000e+007,2.67722797e+000
,,,2.20000000e+007,2.38811922e+000
,,,2.24000000e+007,2.67721319e+000
,,,2.28000000e+007,2.32462096e+000
,,,2.32000000e+007,2.50854707e+000
,,,2.36000000e+007,2.67335534e+000
,,,2.40000000e+007,2.49554682e+000
,,,2.44000000e+007,2.54438114e+000
,,,2.48000000e+007,2.32241821e+000
,,,2.52000000e+007,2.79681110e+000
,,,2.56000000e+007,2.43377495e+000
,,,2.60000000e+007,2.51510882e+000
,,,2.64000000e+007,2.29161572e+000
,,,2.68000000e+007,2.53782129e+000
,,,2.72000000e+007,2.52682710e+000
,,,2.76000000e+007,2.18626881e+000
,,,2.80000000e+007,2.39035439e+000
,,,2.84000000e+007,2.20388222e+000
,,,2.88000000e+007,2.55117536e+000
,,,2.92000000e+007,2.09080935e+000
,,,2.96000000e+007,2.25063586e+000
,,,3.00000000e+007,2.22741747e+000
,,,3.04000000e+007,2.38762021e+000
,,,3.08000000e+007,2.34123397e+000
,,,3.12000000e+007,2.14343333e+000
,,,3.16000000e+007,2.43179584e+000
,,,3.20000000e+007,2.28792167e+000
,,,3.24000000e+007,2.43819594e+000
,,,3.28000000e+007,2.18540430e+000
,,,3.32000000e+007,2.47647858e+000
,,,3.36000000e+007,2.46825695e+000
,,,3.40000000e+007,2.38678694e+000
,,,3.44000000e+007,2.38739061e+000
,,,3.48000000e+007,2.21731830e+000
,,,3.52000000e+007,2.54886198e+000
,,,3.56000000e+007,2.28957462e+000
,,,3.60000000e+007,2.34827733e+000
,,,3.64000000e+007,2.26472831e+000
,,,3.68000000e+007,2.31387711e+000
,,,3.72000000e+007,2.30972266e+000
,,,3.76000000e+007,2.02487850e+000
,,,3.80000000e+007,2.10666251e+000
,,,3.84000000e+007,2.07127953e+000
,,,3.88000000e+007,2.30181289e+000
,,,3.92000000e+007,1.91655827e+000
,,,3.96000000e+007,2.08363938e+000
,,,4.00000000e+007,2.03003669e+000
,,,4.04000000e+007,2.15452552e+000
,,,4.08000000e+007,2.03155875e+000
,,,4.12000000e+007,1.84072232e+000
,,,4.16000000e+007,2.09836984e+000
,,,4.20000000e+007,2.05247879e+000
,,,4.24000000e+007,2.17175055e+000
,,,4.28000000e+007,1.96845853e+000
,,,4.32000000e+007,2.18562174e+000
,,,4.36000000e+007,2.26494145e+000
,,,4.40000000e+007,2.18058658e+000
,,,4.44000000e+007,2.11979985e+000
,,,4.48000000e+007,2.06196976e+000
,,,4.52000000e+007,2.35229921e+000
,,,4.56000000e+007,2.14673686e+000
,,,4.60000000e+007,2.17600560e+000
,,,4.64000000e+007,2.01932216e+000
,,,4.68000000e+007,2.17847776e+000
,,,4.72000000e+007,2.15520191e+000
,,,4.76000000e+007,2.00313473e+000
,,,4.80000000e+007,2.09486032e+000
,,,4.84000000e+007,2.11288166e+000
,,,4.88000000e+007,2.21787429e+000
,,,4.92000000e+007,1.94131112e+000
,,,4.96000000e+007,2.04612088e+000
,,,5.00000000e+007,2.05644917e+000
,,,5.04000000e+007,2.10173297e+000
,,,5.08000000e+007,2.03278375e+000
,,,5.12000000e+007,1.98326731e+000
,,,5.16000000e+007,2.11434221e+000
,,,5.20000000e+007,2.03554392e+000
,,,5.24000000e+007,2.10970092e+000
,,,5.28000000e+007,1.91304398e+000
,,,5.32000000e+007,2.10468531e+000
,,,5.36000000e+007,2.08287215e+000
,,,5.40000000e+007,2.06025290e+000
,,,5.44000000e+007,2.04228377e+000
,,,5.48000000e+007,1.97515833e+000
,,,5.52000000e+007,2.17929268e+000
,,,5.56000000e+007,1.97127700e+000
,,,5.60000000e+007,2.00582290e+000
,,,5.64000000e+007,1.98396707e+000
,,,5.68000000e+007,1.97838557e+000
,,,5.72000000e+007,1.97816336e+000
,,,5.76000000e+007,1.84810841e+000
,,,5.80000000e+007,1.96472049e+000
,,,5.84000000e+007,1.88982558e+000
,,,5.88000000e+007,2.05109787e+000
,,,5.92000000e+007,1.81178892e+000
,,,5.96000000e+007,1.96404243e+000
,,,6.00000000e+007,1.85748041e+000
,,,6.04000000e+007,1.97976387e+000
,,,6.08000000e+007,1.97708023e+000
,,,6.12000000e+007,1.82356620e+000
,,,6.16000000e+007,2.00379777e+000
,,,6.20000000e+007,1.82625139e+000
,,,6.24000000e+007,1.99022222e+000
,,,6.28000000e+007,1.76449311e+000
,,,6.32000000e+007,1.95230269e+000
,,,6.36000000e+007,1.84728694e+000
,,,6.40000000e+007,1.84531426e+000
,,,6.44000000e+007,1.80455363e+000
,,,6.48000000e+007,1.77764452e+000
,,,6.52000000e+007,1.88631463e+000
,,,6.56000000e+007,1.81708920e+000
,,,6.60000000e+007,1.72633600e+000
,,,6.64000000e+007,1.65595496e+000
,,,6.68000000e+007,1.82372200e+000
,,,6.72000000e+007,1.80628550e+000
,,,6.76000000e+007,1.72938550e+000
,,,6.80000000e+007,1.85585451e+000
,,,6.84000000e+007,1.73224485e+000
,,,6.88000000e+007,1.82458901e+000
,,,6.92000000e+007,1.62306011e+000
,,,6.96000000e+007,1.81862521e+000
,,,7.00000000e+007,1.87805629e+000
,,,7.04000000e+007,1.90546298e+000
,,,7.08000000e+007,1.84750044e+000
,,,7.12000000e+007,1.72738183e+000
,,,7.16000000e+007,1.88939250e+000
,,,7.20000000e+007,1.92075205e+000
,,,7.24000000e+007,1.87585187e+000
,,,7.28000000e+007,1.75182390e+000
,,,7.32000000e+007,1.86284316e+000
,,,7.36000000e+007,1.84668660e+000
,,,7.40000000e+007,1.73530221e+000
,,,7.44000000e+007,1.73385930e+000
,,,7.48000000e+007,1.54388511e+000
,,,7.52000000e+007,1.75147450e+000
,,,7.56000000e+007,1.49788511e+000
,,,7.60000000e+007,1.59610522e+000
,,,7.64000000e+007,1.43365347e+000
,,,7.68000000e+007,1.65977585e+000
,,,7.72000000e+007,1.51774192e+000
,,,7.76000000e+007,1.44012725e+000
,,,7.80000000e+007,1.47789383e+000
,,,7.84000000e+007,1.41110539e+000
,,,7.88000000e+007,1.59842372e+000
,,,7.92000000e+007,1.40198135e+000
,,,7.96000000e+007,1.55641234e+000
,,,8.00000000e+007,1.50213897e+000
,,,8.04000000e+007,1.59021628e+000
,,,8.08000000e+007,1.57887602e+000
,,,8.12000000e+007,1.54529107e+000
,,,8.16000000e+007,1.63906419e+000
,,,8.20000000e+007,1.55424559e+000
,,,8.24000000e+007,1.57549894e+000
,,,8.28000000e+007,1.50380647e+000
,,,8.32000000e+007,1.56986248e+000
,,,8.36000000e+007,1.52216792e+000
,,,8.40000000e+007,1.46984887e+000
,,,8.44000000e+007,1.47881901e+000
,,,8.48000000e+007,1.46866703e+000
,,,8.52000000e+007,1.61316431e+000
,,,8.56000000e+007,1.28439152e+000
,,,8.60000000e+007,1.39854074e+000
,,,8.64000000e+007,1.27538967e+000
,,,8.68000000e+007,1.42113614e+000
,,,8.72000000e+007,1.25690973e+000
,,,8.76000000e+007,1.29278052e+000
,,,8.80000000e+007,1.30696929e+000
,,,8.84000000e+007,1.41272068e+000
,,,8.88000000e+007,1.49294281e+000
,,,8.92000000e+007,1.29842472e+000
,,,8.96000000e+007,1.39118183e+000
,,,9.00000000e+007,1.30123246e+000
,,,9.04000000e+007,1.41381538e+000
,,,9.08000000e+007,1.39106357e+000
,,,9.12000000e+007,1.32497787e+000
,,,9.16000000e+007,1.48759103e+000
,,,9.20000000e+007,1.32799089e+000
,,,9.24000000e+007,1.44268513e+000
,,,9.28000000e+007,1.29472101e+000
,,,9.32000000e+007,1.44496071e+000
,,,9.36000000e+007,1.36978805e+000
,,,9.40000000e+007,1.32179117e+000
,,,9.44000000e+007,1.24266016e+000
,,,9.48000000e+007,1.16580307e+000
,,,9.52000000e+007,1.20297813e+000
,,,9.56000000e+007,1.09262872e+000
,,,9.60000000e+007,1.08449101e+000
,,,9.64000000e+007,1.05710113e+000
,,,9.68000000e+007,1.08901525e+000
,,,9.72000000e+007,1.04129755e+000
,,,9.76000000e+007,9.48970735e-001
,,,9.80000000e+007,1.01876342e+000
,,,9.84000000e+007,9.73077118e-001
,,,9.88000000e+007,1.06720829e+000
,,,9.92000000e+007,9.31598246e-001
,,,9.96000000e+007,1.01732409e+000
,,,1.00000000e+008,1.08451080e+000
,,,1.00400000e+008,1.13635981e+000
,,,1.00800000e+008,1.10278594e+000
,,,1.01200000e+008,1.04832101e+000
,,,1.01600000e+008,1.23207259e+000
,,,1.02000000e+008,1.13681579e+000
,,,1.02400000e+008,1.16799045e+000
,,,1.02800000e+008,1.03897071e+000
,,,1.03200000e+008,1.15127015e+000
,,,1.03600000e+008,1.13572967e+000
,,,1.04000000e+008,1.11800468e+000
,,,1.04400000e+008,1.02617300e+000
,,,1.04800000e+008,9.76299822e-001
,,,1.05200000e+008,1.03254211e+000
,,,1.05600000e+008,1.04632378e+000
,,,1.06000000e+008,1.08282983e+000
,,,1.06400000e+008,9.09245610e-001
,,,1.06800000e+008,1.07760036e+000
,,,1.07200000e+008,9.62255120e-001
,,,1.07600000e+008,9.20085967e-001
,,,1.08000000e+008,9.27969873e-001
,,,1.08400000e+008,9.86343801e-001
,,,1.08800000e+008,1.06684160e+000
,,,1.09200000e+008,9.35861588e-001
,,,1.09600000e+008,1.07863140e+000
,,,1.10000000e+008,1.01872337e+000
,,,1.10400000e+008,1.03502548e+000
,,,1.10800000e+008,9.73194480e-001
,,,1.11200000e+008,9.22829270e-001
,,,1.11600000e+008,1.01171505e+000
,,,1.12000000e+008,8.98129404e-001
,,,1.12400000e+008,8.89958739e-001
,,,1.12800000e+008,8.43276441e-001
,,,1.13200000e+008,8.43968451e-001
,,,1.13600000e+008,7.79661000e-001
,,,1.14000000e+008,7.47056842e-001
,,,1.14400000e+008,7.65676975e-001
,,,1.14800000e+008,6.00092053e-001
,,,1.15200000e+008,6.27965093e-001
,,,1.15600000e+008,6.16248786e-001
,,,1.16000000e+008,5.96612632e-001
,,,1.16400000e+008,5.93912482e-001
,,,1.16800000e+008,6.48905337e-001
,,,1.17200000e+008,4.74911690e-001
,,,1.17600000e+008,5.41228354e-001
,,,1.18000000e+008,5.74747026e-001
,,,1.18400000e+008,5.79650998e-001
,,,1.18800000e+008,6.07770801e-001
,,,1.19200000e+008,5.18828630e-001
,,,1.19600000e+008,6.72647595e-001
,,,1.20000000e+008,4.13884461e-001
,,,1.20400000e+008,6.03054523e-001
,,,1.20800000e+008,5.12668431e-001
,,,1.21200000e+008,5.57034135e-001
,,,1.21600000e+008,5.33872604e-001
,,,1.22000000e+008,4.21988815e-001
,,,1.22400000e+008,4.67254490e-001
,,,1.22800000e+008,3.41206193e-001
,,,1.23200000e+008,4.78146940e-001
,,,1.23600000e+008,3.89954895e-001
,,,1.24000000e+008,3.71952593e-001
,,,1.24400000e+008,3.98430377e-001
,,,1.24800000e+008,4.86637563e-001
,,,1.25200000e+008,5.71983755e-001
,,,1.25600000e+008,3.82984161e-001
,,,1.26000000e+008,4.24032211e-001
,,,1.26400000e+008,3.21132690e-001
,,,1.26800000e+008,5.59617519e-001
,,,1.27200000e+008,4.93988931e-001
,,,1.27600000e+008,4.52389449e-001
,,,1.28000000e+008,5.52372634e-001
,,,1.28400000e+008,6.46358967e-001
,,,1.28800000e+008,7.89431095e-001
,,,1.29200000e+008,6.88937128e-001
,,,1.29600000e+008,7.52258241e-001
,,,1.30000000e+008,8.14560056e-001
,,,1.30400000e+008,9.11584735e-001
,,,1.30800000e+008,8.30130935e-001
,,,1.31200000e+008,7.40999162e-001
,,,1.31600000e+008,7.86411285e-001
,,,1.32000000e+008,6.62410319e-001
,,,1.32400000e+008,6.71077788e-001
,,,1.32800000e+008,4.47272331e-001
,,,1.33200000e+008,6.25934660e-001
,,,1.33600000e+008,5.12341261e-001
,,,1.34000000e+008,3.63098383e-001
,,,1.34400000e+008,3.05530339e-001
,,,1.34800000e+008,1.88231543e-001
,,,1.35200000e+008,2.90564060e-001
,,,1.35600000e+008,1.25930890e-001
,,,1.36000000e+008,1.26198187e-001
,,,1.36400000e+008,-1.49471434e-002
,,,1.36800000e+008,1.31508797e-001
,,,1.37200000e+008,-4.19116905e-003
,,,1.37600000e+008,4.14909534e-002
,,,1.38000000e+008,1.12037048e-001
,,,1.38400000e+008,1.40016049e-001
,,,1.38800000e+008,1.96427673e-001
,,,1.39200000e+008,1.19166024e-001
,,,1.39600000e+008,2.54672617e-001
,,,1.40000000e+008,2.26802692e-001
,,,1.40400000e+008,2.13355884e-001
,,,1.40800000e+008,1.51877061e-001
,,,1.41200000e+008,1.28029570e-001
,,,1.41600000e+008,1.74927309e-001
,,,1.42000000e+008,1.78926870e-001
,,,1.42400000e+008,1.76447123e-001
,,,1.42800000e+008,7.76837170e-002
,,,1.43200000e+008,9.05712917e-002
,,,1.43600000e+008,-1.13939180e-003
,,,1.44000000e+008,-1.28036144e-003
,,,1.44400000e+008,1.06703425e-002
,,,1.44800000e+008,-5.03378920e-002
,,,1.45200000e+008,1.17262915e-001
,,,1.45600000e+008,3.50152925e-002
,,,1.46000000e+008,9.10921171e-002
,,,1.46400000e+008,6.37574345e-002
,,,1.46800000e+008,3.05184513e-001
,,,1.47200000e+008,3.55022222e-001
,,,1.47600000e+008,4.87666637e-001
,,,1.48000000e+008,4.57168519e-001
,,,1.48400000e+008,4.99146521e-001
,,,1.48800000e+008,6.44237995e-001
,,,1.49200000e+008,5.64849973e-001
,,,1.49600000e+008,6.61514282e-001
,,,1.50000000e+008,6.63441360e-001
,,,1.50400000e+008,7.51094043e-001
,,,1.50800000e+008,6.56201243e-001
,,,1.51200000e+008,6.93307340e-001
,,,1.51600000e+008,7.04253078e-001
,,,1.52000000e+008,7.45729566e-001
,,,1.52400000e+008,5.72098136e-001
,,,1.52800000e+008,4.44990426e-001
,,,1.53200000e+008,4.82481211e-001
,,,1.53600000e+008,4.42317277e-001
,,,1.54000000e+008,3.89357001e-001
,,,1.54400000e+008,3.18879426e-001
,,,1.54800000e+008,2.82628924e-001
,,,1.55200000e+008,3.05479616e-001
,,,1.55600000e+008,1.77776694e-001
,,,1.56000000e+008,1.32919878e-001
,,,1.56400000e+008,8.07556063e-002
,,,1.56800000e+008,2.10279420e-001
,,,1.57200000e+008,1.64665759e-001
,,,1.57600000e+008,1.08015552e-001
,,,1.58000000e+008,1.79013625e-001
,,,1.58400000e+008,1.94773182e-001
,,,1.58800000e+008,1.01825550e-001
,,,1.59200000e+008,8.66047144e-002
,,,1.59600000e+008,1.28744498e-001
,,,1.60000000e+008,1.33216977e-001
,,,1.60400000e+008,1.62725434e-001
,,,1.60800000e+008,1.31056398e-001
,,,1.61200000e+008,1.63366646e-001
,,,1.61600000e+008,1.95785806e-001
,,,1.62000000e+008,1.87512845e-001
,,,1.62400000e+008,2.58863449e-001
,,,1.62800000e+008,3.08361892e-002
,,,1.63200000e+008,1.83656260e-001
,,,1.63600000e+008,5.63099459e-002
,,,1.64000000e+008,1.33231685e-001
,,,1.64400000e+008,6.63859919e-002
,,,1.64800000e+008,1.27159417e-001
,,,1.65200000e+008,8.25054049e-002
,,,1.65600000e+008,9.92330909e-002
,,,1.66000000e+008,8.36418644e-002
,,,1.66400000e+008,3.16428728e-002
,,,1.66800000e+008,1.58376783e-001
,,,1.67200000e+008,9.95619074e-002
,,,1.67600000e+008,2.06118181e-001
,,,1.68000000e+008,2.61951536e-001
,,,1.68400000e+008,3.36098909e-001
,,,1.68800000e+008,3.33185971e-001
,,,1.69200000e+008,2.86409140e-001
,,,1.69600000e+008,4.17606652e-001
,,,1.70000000e+008,4.03392196e-001
,,,1.70400000e+008,2.54312694e-001
,,,1.70800000e+008,2.68149167e-001
,,,1.71200000e+008,2.82664359e-001
,,,1.71600000e+008,1.83573902e-001
,,,1.72000000e+008,2.28624880e-001
,,,1.72400000e+008,-9.44826230e-002
,,,1.72800000e+008,-1.25926817e-002
,,,1.73200000e+008,3.09169050e-002
,,,1.73600000e+008,-4.42537703e-002
,,,1.74000000e+008,-1.11771405e-001
,,,1.74400000e+008,-1.79842547e-001
,,,1.74800000e+008,-1.37932360e-001
,,,1.75200000e+008,-1.23292819e-001
,,,1.75600000e+008,-2.22026169e-001
,,,1.76000000e+008,-1.77767485e-001
,,,1.76400000e+008,-1.31497800e-001
,,,1.76800000e+008,-1.46225065e-001
,,,1.77200000e+008,-1.18522458e-001
,,,1.77600000e+008,-1.25267878e-001
,,,1.78000000e+008,-5.29394485e-002
,,,1.78400000e+008,5.03384043e-003
,,,1.78800000e+008,6.56304285e-002
,,,1.79200000e+008,-2.73818281e-002
,,,1.79600000e+008,-1.99503102e-003
,,,1.80000000e+008,3.47584300e-002
,,,1.80400000e+008,9.52163339e-002
,,,1.80800000e+008,-2.68334839e-002
,,,1.81200000e+008,-6.57029971e-002
,,,1.81600000e+008,3.11036389e-002
,,,1.82000000e+008,7.96368718e-002
,,,1.82400000e+008,-7.65281320e-002
,,,1.82800000e+008,-1.88491255e-001
,,,1.83200000e+008,-2.05129504e-001
,,,1.83600000e+008,-2.07586050e-001
,,,1.84000000e+008,-2.47590065e-001
,,,1.84400000e+008,-2.99119979e-001
,,,1.84800000e+008,-3.13735962e-001
,,,1.85200000e+008,-2.09690556e-001
,,,1.85600000e+008,-3.24311644e-001
,,,1.86000000e+008,-3.23859006e-001
,,,1.86400000e+008,-3.82761955e-001
,,,1.86800000e+008,-1.42851174e-001
,,,1.87200000e+008,-1.60370156e-001
,,,1.87600000e+008,-1.64232671e-001
,,,1.88000000e+008,-3.97330001e-002
,,,1.88400000e+008,6.15979657e-002
,,,1.88800000e+008,1.89971909e-001
,,,1.89200000e+008,6.08080216e-002
,,,1.89600000e+008,1.50004223e-001
,,,1.90000000e+008,1.39745370e-001
,,,1.90400000e+008,1.84235111e-001
,,,1.90800000e+008,9.64832902e-002
,,,1.91200000e+008,6.61839694e-002
,,,1.91600000e+008,7.18938857e-002
,,,1.92000000e+008,-4.71009202e-002
,,,1.92400000e+008,-5.21038808e-002
,,,1.92800000e+008,-7.85116032e-002
,,,1.93200000e+008,-9.30906534e-002
,,,1.93600000e+008,-2.64041841e-001
,,,1.94000000e+008,-1.73226655e-001
,,,1.94400000e+008,-2.49857441e-001
,,,1.94800000e+008,-1.87817574e-001
,,,1.95200000e+008,-3.26021940e-001
,,,1.95600000e+008,-4.62994844e-001
,,,1.96000000e+008,-3.19375277e-001
,,,1.96400000e+008,-3.63345146e-001
,,,1.96800000e+008,-3.23715210e-001
,,,1.97200000e+008,-3.43986243e-001
,,,1.97600000e+008,-3.31199735e-001
,,,1.98000000e+008,-2.76838481e-001
,,,1.98400000e+008,-3.04066449e-001
,,,1.98800000e+008,-2.59661436e-001
,,,1.99200000e+008,-3.48719537e-001
,,,1.99600000e+008,-2.30676427e-001
,,,2.00000000e+008,-3.11893821e-001
,,,2.00400000e+008,-1.94614768e-001
,,,2.00800000e+008,-2.82430023e-001
,,,2.01200000e+008,-2.74118155e-001
,,,2.01600000e+008,-3.31434280e-001
,,,2.02000000e+008,-3.13759178e-001
,,,2.02400000e+008,-3.95281404e-001
,,,2.02800000e+008,-4.01414216e-001
,,,2.03200000e+008,-4.33219999e-001
,,,2.03600000e+008,-4.67024803e-001
,,,2.04000000e+008,-4.30197626e-001
,,,2.04400000e+008,-5.21531761e-001
,,,2.04800000e+008,-4.63554084e-001
,,,2.05200000e+008,-5.01674235e-001
,,,2.05600000e+008,-3.94262165e-001
,,,2.06000000e+008,-3.24567974e-001
,,,2.06400000e+008,-3.98964465e-001
,,,2.06800000e+008,-2.26285189e-001
,,,2.07200000e+008,-3.51090699e-001
,,,2.07600000e+008,-1.66047528e-001
,,,2.08000000e+008,-8.76733735e-002
,,,2.08400000e+008,-1.18772402e-001
,,,2.08800000e+008,1.67540628e-002
,,,2.09200000e+008,-2.35470235e-002
,,,2.09600000e+008,-8.34518205e-003
,,,2.10000000e+008,6.82127243e-003
,,,2.10400000e+008,-6.22763531e-003
,,,2.10800000e+008,-1.98677510e-001
,,,2.11200000e+008,-8.22436512e-002
,,,2.11600000e+008,-1.39901012e-001
,,,2.12000000e+008,-1.67539060e-001
,,,2.12400000e+008,-3.44774514e-001
,,,2.12800000e+008,-4.14232641e-001
,,,2.13200000e+008,-4.02075201e-001
,,,2.13600000e+008,-5.13894558e-001
,,,2.14000000e+008,-5.08813918e-001
,,,2.14400000e+008,-4.39698994e-001
,,,2.14800000e+008,-5.59515238e-001
,,,2.15200000e+008,-5.29931903e-001
,,,2.15600000e+008,-6.67017043e-001
,,,2.16000000e+008,-5.65144181e-001
,,,2.16400000e+008,-5.77206254e-001
,,,2.16800000e+008,-4.74060178e-001
,,,2.17200000e+008,-5.45805693e-001
,,,2.17600000e+008,-5.64220011e-001
,,,2.18000000e+008,-4.85861331e-001
,,,2.18400000e+008,-3.59577566e-001
,,,2.18800000e+008,-2.96755463e-001
,,,2.19200000e+008,-3.86280328e-001
,,,2.19600000e+008,-2.95782268e-001
,,,2.20000000e+008,-3.89665276e-001
,,,2.20400000e+008,-2.66330332e-001
,,,2.20800000e+008,-3.59886944e-001
,,,2.21200000e+008,-4.86009479e-001
,,,2.21600000e+008,-4.58703309e-001
,,,2.22000000e+008,-5.50550818e-001
,,,2.22400000e+008,-5.30386090e-001
,,,2.22800000e+008,-6.22597873e-001
,,,2.23200000e+008,-5.53677857e-001
,,,2.23600000e+008,-5.25873721e-001
,,,2.24000000e+008,-5.26017904e-001
,,,2.24400000e+008,-5.76900661e-001
,,,2.24800000e+008,-6.29395187e-001
