Data/PULSER/20220822/AVTECH_PULSER_20220822_2cables_T1B_Math1.csv

"Record Length",3200,"Points",0.00000000e+000,3.37216187e+000
"Sample Interval",7.81250000e+005,Hz,7.81250000e+005,1.31547089e+001
"Trigger Point",0,"Samples",1.56250000e+006,1.50518799e+001
"Trigger Time",0.00000000e+000,Hz,2.34375000e+006,1.36723585e+001
"",,,3.12500000e+006,1.31035128e+001
"Horizontal Offset",0.00000000e+000,Hz,3.90625000e+006,1.26641617e+001
,,,4.68750000e+006,1.17362623e+001
,,,5.46875000e+006,1.14076176e+001
,,,6.25000000e+006,1.02088137e+001
,,,7.03125000e+006,9.25827026e+000
,,,7.81250000e+006,8.83963299e+000
,,,8.59375000e+006,8.32853413e+000
,,,9.37500000e+006,8.75881577e+000
,,,1.01562500e+007,9.19203472e+000
,,,1.09375000e+007,9.40501213e+000
,,,1.17187500e+007,9.73456383e+000
,,,1.25000000e+007,9.64493847e+000
,,,1.32812500e+007,9.54897118e+000
,,,1.40625000e+007,9.66824436e+000
,,,1.48437500e+007,9.50961590e+000
,,,1.56250000e+007,9.54026222e+000
,,,1.64062500e+007,9.37969398e+000
,,,1.71875000e+007,9.00053692e+000
,,,1.79687500e+007,8.90729237e+000
,,,1.87500000e+007,8.69727325e+000
,,,1.95312500e+007,8.74719620e+000
,,,2.03125000e+007,8.88165379e+000
,,,2.10937500e+007,8.79384041e+000
,,,2.18750000e+007,8.85139656e+000
,,,2.26562500e+007,8.77618122e+000
,,,2.34375000e+007,8.68853474e+000
,,,2.42187500e+007,8.85166168e+000
,,,2.50000000e+007,8.80809593e+000
,,,2.57812500e+007,8.80972672e+000
,,,2.65625000e+007,8.80890369e+000
,,,2.73437500e+007,8.57749367e+000
,,,2.81250000e+007,8.56928921e+000
,,,2.89062500e+007,8.54199219e+000
,,,2.96875000e+007,8.54906654e+000
,,,3.04687500e+007,8.73543358e+000
,,,3.12500000e+007,8.66990948e+000
,,,3.20312500e+007,8.68282413e+000
,,,3.28125000e+007,8.68392563e+000
,,,3.35937500e+007,8.62808418e+000
,,,3.43750000e+007,8.68526268e+000
,,,3.51562500e+007,8.71086121e+000
,,,3.59375000e+007,8.69012547e+000
,,,3.67187500e+007,8.61938572e+000
,,,3.75000000e+007,8.47851849e+000
,,,3.82812500e+007,8.36595058e+000
,,,3.90625000e+007,8.42645741e+000
,,,3.98437500e+007,8.35087967e+000
,,,4.06250000e+007,8.47716999e+000
,,,4.14062500e+007,8.49601746e+000
,,,4.21875000e+007,8.46224403e+000
,,,4.29687500e+007,8.54763603e+000
,,,4.37500000e+007,8.46916866e+000
,,,4.45312500e+007,8.58235550e+000
,,,4.53125000e+007,8.60539627e+000
,,,4.60937500e+007,8.54548836e+000
,,,4.68750000e+007,8.52564526e+000
,,,4.76562500e+007,8.40912533e+000
,,,4.84375000e+007,8.34461594e+000
,,,4.92187500e+007,8.41892815e+000
,,,5.00000000e+007,8.42113400e+000
,,,5.07812500e+007,8.46804142e+000
,,,5.15625000e+007,8.53392887e+000
,,,5.23437500e+007,8.42983150e+000
,,,5.31250000e+007,8.46685219e+000
,,,5.39062500e+007,8.42439556e+000
,,,5.46875000e+007,8.38862896e+000
,,,5.54687500e+007,8.46539974e+000
,,,5.62500000e+007,8.41182518e+000
,,,5.70312500e+007,8.35402203e+000
,,,5.78125000e+007,8.26055336e+000
,,,5.85937500e+007,8.26470280e+000
,,,5.93750000e+007,8.27035236e+000
,,,6.01562500e+007,8.25844765e+000
,,,6.09375000e+007,8.27567959e+000
,,,6.17187500e+007,8.27829552e+000
,,,6.25000000e+007,8.25433350e+000
,,,6.32812500e+007,8.22900200e+000
,,,6.40625000e+007,8.27385807e+000
,,,6.48437500e+007,8.20259857e+000
,,,6.56250000e+007,8.23526096e+000
,,,6.64062500e+007,8.21374607e+000
,,,6.71875000e+007,8.13272190e+000
,,,6.79687500e+007,8.13076210e+000
,,,6.87500000e+007,8.10750961e+000
,,,6.95312500e+007,8.21171856e+000
,,,7.03125000e+007,8.24475765e+000
,,,7.10937500e+007,8.23439026e+000
,,,7.18750000e+007,8.24379826e+000
,,,7.26562500e+007,8.20355797e+000
,,,7.34375000e+007,8.15557766e+000
,,,7.42187500e+007,8.15417385e+000
,,,7.50000000e+007,8.10330391e+000
,,,7.57812500e+007,8.04746532e+000
,,,7.65625000e+007,8.01522541e+000
,,,7.73437500e+007,7.89385748e+000
,,,7.81250000e+007,7.86188889e+000
,,,7.89062500e+007,7.87428379e+000
,,,7.96875000e+007,7.90189600e+000
,,,8.04687500e+007,8.00734329e+000
,,,8.12500000e+007,7.94692230e+000
,,,8.20312500e+007,7.93551826e+000
,,,8.28125000e+007,7.87721109e+000
,,,8.35937500e+007,7.84462070e+000
,,,8.43750000e+007,7.82224894e+000
,,,8.51562500e+007,7.78174496e+000
,,,8.59375000e+007,7.79589796e+000
,,,8.67187500e+007,7.77223587e+000
,,,8.75000000e+007,7.75026131e+000
,,,8.82812500e+007,7.78866053e+000
,,,8.90625000e+007,7.82289505e+000
,,,8.98437500e+007,7.85015059e+000
,,,9.06250000e+007,7.87886572e+000
,,,9.14062500e+007,7.81193399e+000
,,,9.21875000e+007,7.80918264e+000
,,,9.29687500e+007,7.73209333e+000
,,,9.37500000e+007,7.65914774e+000
,,,9.45312500e+007,7.58025169e+000
,,,9.53125000e+007,7.50321150e+000
,,,9.60937500e+007,7.46383333e+000
,,,9.68750000e+007,7.37566853e+000
,,,9.76562500e+007,7.37802315e+000
,,,9.84375000e+007,7.38293552e+000
,,,9.92187500e+007,7.46892262e+000
,,,1.00000000e+008,7.53716898e+000
,,,1.00781250e+008,7.59256506e+000
,,,1.01562500e+008,7.58925390e+000
,,,1.02343750e+008,7.54788351e+000
,,,1.03125000e+008,7.51897478e+000
,,,1.03906250e+008,7.51374292e+000
,,,1.04687500e+008,7.41133785e+000
,,,1.05468750e+008,7.42440414e+000
,,,1.06250000e+008,7.28244400e+000
,,,1.07031250e+008,7.31499100e+000
,,,1.07812500e+008,7.29587889e+000
,,,1.08593750e+008,7.33449602e+000
,,,1.09375000e+008,7.40356922e+000
,,,1.10156250e+008,7.46178341e+000
,,,1.10937500e+008,7.44979334e+000
,,,1.11718750e+008,7.46026850e+000
,,,1.12500000e+008,7.39787912e+000
,,,1.13281250e+008,7.33913183e+000
,,,1.14062500e+008,7.26709414e+000
,,,1.14843750e+008,7.22098637e+000
,,,1.15625000e+008,7.10239697e+000
,,,1.16406250e+008,7.00155401e+000
,,,1.17187500e+008,6.92448568e+000
,,,1.17968750e+008,6.98183870e+000
,,,1.18750000e+008,6.90545893e+000
,,,1.19531250e+008,6.96231699e+000
,,,1.20312500e+008,6.99381590e+000
,,,1.21093750e+008,6.94778156e+000
,,,1.21875000e+008,6.94434452e+000
,,,1.22656250e+008,6.92877388e+000
,,,1.23437500e+008,6.92850876e+000
,,,1.24218750e+008,6.93220425e+000
,,,1.25000000e+008,6.88438940e+000
,,,1.25781250e+008,6.98333597e+000
,,,1.26562500e+008,6.96460009e+000
,,,1.27343750e+008,7.03823280e+000
,,,1.28125000e+008,7.07915735e+000
,,,1.28906250e+008,7.12869883e+000
,,,1.29687500e+008,7.20231819e+000
,,,1.30468750e+008,7.18451500e+000
,,,1.31250000e+008,7.14819908e+000
,,,1.32031250e+008,7.04726601e+000
,,,1.32812500e+008,6.89953804e+000
,,,1.33593750e+008,6.76635170e+000
,,,1.34375000e+008,6.73422766e+000
,,,1.35156250e+008,6.63866663e+000
,,,1.35937500e+008,6.64205647e+000
,,,1.36718750e+008,6.57763815e+000
,,,1.37500000e+008,6.55335665e+000
,,,1.38281250e+008,6.58196783e+000
,,,1.39062500e+008,6.62225342e+000
,,,1.39843750e+008,6.62645149e+000
,,,1.40625000e+008,6.63364363e+000
,,,1.41406250e+008,6.59425592e+000
,,,1.42187500e+008,6.50657511e+000
,,,1.42968750e+008,6.46009016e+000
,,,1.43750000e+008,6.37752295e+000
,,,1.44531250e+008,6.45933247e+000
,,,1.45312500e+008,6.45610189e+000
,,,1.46093750e+008,6.63526630e+000
,,,1.46875000e+008,6.77659369e+000
,,,1.47656250e+008,6.92817450e+000
,,,1.48437500e+008,7.09304857e+000
,,,1.49218750e+008,7.17575932e+000
,,,1.50000000e+008,7.27257633e+000
,,,1.50781250e+008,7.25141382e+000
,,,1.51562500e+008,7.19660616e+000
,,,1.52343750e+008,7.02399635e+000
,,,1.53125000e+008,6.95144939e+000
,,,1.53906250e+008,6.81450939e+000
,,,1.54687500e+008,6.66323137e+000
,,,1.55468750e+008,6.64432240e+000
,,,1.56250000e+008,6.53855133e+000
,,,1.57031250e+008,6.59857464e+000
,,,1.57812500e+008,6.55868387e+000
,,,1.58593750e+008,6.68024826e+000
,,,1.59375000e+008,6.75711203e+000
,,,1.60156250e+008,6.74151039e+000
,,,1.60937500e+008,6.74792528e+000
,,,1.61718750e+008,6.72567129e+000
,,,1.62500000e+008,6.63391638e+000
,,,1.63281250e+008,6.61334419e+000
,,,1.64062500e+008,6.59519434e+000
,,,1.64843750e+008,6.54011774e+000
,,,1.65625000e+008,6.53901529e+000
,,,1.66406250e+008,6.57747936e+000
,,,1.67187500e+008,6.60555887e+000
,,,1.67968750e+008,6.70732021e+000
,,,1.68750000e+008,6.75348377e+000
,,,1.69531250e+008,6.84223652e+000
,,,1.70312500e+008,6.87220049e+000
,,,1.71093750e+008,6.79503870e+000
,,,1.71875000e+008,6.71682405e+000
,,,1.72656250e+008,6.60213995e+000
,,,1.73437500e+008,6.53181076e+000
,,,1.74218750e+008,6.50031996e+000
,,,1.75000000e+008,6.35347033e+000
,,,1.75781250e+008,6.35343742e+000
,,,1.76562500e+008,6.37161255e+000
,,,1.77343750e+008,6.35854101e+000
,,,1.78125000e+008,6.44723654e+000
,,,1.78906250e+008,6.49704504e+000
,,,1.79687500e+008,6.50124741e+000
,,,1.80468750e+008,6.57768250e+000
,,,1.81250000e+008,6.47856808e+000
,,,1.82031250e+008,6.41804886e+000
,,,1.82812500e+008,6.35527802e+000
,,,1.83593750e+008,6.34350872e+000
,,,1.84375000e+008,6.28910923e+000
,,,1.85156250e+008,6.25818253e+000
,,,1.85937500e+008,6.32776880e+000
,,,1.86718750e+008,6.33529425e+000
,,,1.87500000e+008,6.34886694e+000
,,,1.88281250e+008,6.50155687e+000
,,,1.89062500e+008,6.53187275e+000
,,,1.89843750e+008,6.58724928e+000
,,,1.90625000e+008,6.54655123e+000
,,,1.91406250e+008,6.50025940e+000
,,,1.92187500e+008,6.46567059e+000
,,,1.92968750e+008,6.29992199e+000
,,,1.93750000e+008,6.26160336e+000
,,,1.94531250e+008,6.24703503e+000
,,,1.95312500e+008,6.20028353e+000
,,,1.96093750e+008,6.16858482e+000
,,,1.96875000e+008,6.21205139e+000
,,,1.97656250e+008,6.20909739e+000
,,,1.98437500e+008,6.27926493e+000
,,,1.99218750e+008,6.30213070e+000
,,,2.00000000e+008,6.30487299e+000
,,,2.00781250e+008,6.25683212e+000
,,,2.01562500e+008,6.18324804e+000
,,,2.02343750e+008,6.05417442e+000
,,,2.03125000e+008,6.02539015e+000
,,,2.03906250e+008,6.00934553e+000
,,,2.04687500e+008,5.97213554e+000
,,,2.05468750e+008,6.12443924e+000
,,,2.06250000e+008,6.10731316e+000
,,,2.07031250e+008,6.24280262e+000
,,,2.07812500e+008,6.33023930e+000
,,,2.08593750e+008,6.43822622e+000
,,,2.09375000e+008,6.50032806e+000
,,,2.10156250e+008,6.47420788e+000
,,,2.10937500e+008,6.37909365e+000
,,,2.11718750e+008,6.20376873e+000
,,,2.12500000e+008,6.07414341e+000
,,,2.13281250e+008,6.06452656e+000
,,,2.14062500e+008,5.95359564e+000
,,,2.14843750e+008,5.95768976e+000
,,,2.15625000e+008,5.89710665e+000
,,,2.16406250e+008,5.86033058e+000
,,,2.17187500e+008,5.98608828e+000
,,,2.17968750e+008,6.06144285e+000
,,,2.18750000e+008,6.10624170e+000
,,,2.19531250e+008,6.16886806e+000
,,,2.20312500e+008,6.12041950e+000
,,,2.21093750e+008,6.05983591e+000
,,,2.21875000e+008,6.01307249e+000
,,,2.22656250e+008,5.92114592e+000
,,,2.23437500e+008,5.87029314e+000
,,,2.24218750e+008,5.92075157e+000
,,,2.25000000e+008,5.94590569e+000
,,,2.25781250e+008,6.01167154e+000
,,,2.26562500e+008,6.14179230e+000
,,,2.27343750e+008,6.15340805e+000
,,,2.28125000e+008,6.28865719e+000
,,,2.28906250e+008,6.28237343e+000
,,,2.29687500e+008,6.24736357e+000
,,,2.30468750e+008,6.09973621e+000
,,,2.31250000e+008,5.97640944e+000
,,,2.32031250e+008,5.79834843e+000
,,,2.32812500e+008,5.66552734e+000
,,,2.33593750e+008,5.57216549e+000
,,,2.34375000e+008,5.59892178e+000
,,,2.35156250e+008,5.58652067e+000
,,,2.35937500e+008,5.62152195e+000
,,,2.36718750e+008,5.75831556e+000
,,,2.37500000e+008,5.88083792e+000
,,,2.38281250e+008,6.06562090e+000
,,,2.39062500e+008,6.10975552e+000
,,,2.39843750e+008,6.20666265e+000
,,,2.40625000e+008,6.15709305e+000
,,,2.41406250e+008,6.07584381e+000
,,,2.42187500e+008,5.96755362e+000
,,,2.42968750e+008,5.89155197e+000
,,,2.43750000e+008,5.78384352e+000
,,,2.44531250e+008,5.88620567e+000
,,,2.45312500e+008,5.90239620e+000
,,,2.46093750e+008,5.92497253e+000
,,,2.46875000e+008,6.01957941e+000
,,,2.47656250e+008,6.11267900e+000
,,,2.48437500e+008,6.12777376e+000
,,,2.49218750e+008,6.17604399e+000
,,,2.50000000e+008,6.04110241e+000
,,,2.50781250e+008,6.03292990e+000
,,,2.51562500e+008,5.85528231e+000
,,,2.52343750e+008,5.72485590e+000
,,,2.53125000e+008,5.58322525e+000
,,,2.53906250e+008,5.55420160e+000
,,,2.54687500e+008,5.52157211e+000
,,,2.55468750e+008,5.60019636e+000
,,,2.56250000e+008,5.60347795e+000
,,,2.57031250e+008,5.81816578e+000
,,,2.57812500e+008,5.92658901e+000
,,,2.58593750e+008,5.95742035e+000
,,,2.59375000e+008,6.01680899e+000
,,,2.60156250e+008,5.96393490e+000
,,,2.60937500e+008,5.98323441e+000
,,,2.61718750e+008,5.81618357e+000
,,,2.62500000e+008,5.74742413e+000
,,,2.63281250e+008,5.71566534e+000
,,,2.64062500e+008,5.72333670e+000
,,,2.64843750e+008,5.75212479e+000
,,,2.65625000e+008,5.89420700e+000
,,,2.66406250e+008,6.00384855e+000
,,,2.67187500e+008,6.03968048e+000
,,,2.67968750e+008,6.11491394e+000
,,,2.68750000e+008,6.15280485e+000
,,,2.69531250e+008,6.07191133e+000
,,,2.70312500e+008,5.92210102e+000
,,,2.71093750e+008,5.83704567e+000
,,,2.71875000e+008,5.67179585e+000
,,,2.72656250e+008,5.49747944e+000
,,,2.73437500e+008,5.47905493e+000
,,,2.74218750e+008,5.37314320e+000
,,,2.75000000e+008,5.37625265e+000
,,,2.75781250e+008,5.51066828e+000
,,,2.76562500e+008,5.63655472e+000
,,,2.77343750e+008,5.70775318e+000
,,,2.78125000e+008,5.76868820e+000
,,,2.78906250e+008,5.85475874e+000
,,,2.79687500e+008,5.89708376e+000
,,,2.80468750e+008,5.84263277e+000
,,,2.81250000e+008,5.72714520e+000
,,,2.82031250e+008,5.70203876e+000
,,,2.82812500e+008,5.63042927e+000
,,,2.83593750e+008,5.55727530e+000
,,,2.84375000e+008,5.57124472e+000
,,,2.85156250e+008,5.58087873e+000
,,,2.85937500e+008,5.68504667e+000
,,,2.86718750e+008,5.74279976e+000
,,,2.87500000e+008,5.82298231e+000
,,,2.88281250e+008,5.68869019e+000
,,,2.89062500e+008,5.62472343e+000
,,,2.89843750e+008,5.39144850e+000
,,,2.90625000e+008,5.25293922e+000
,,,2.91406250e+008,5.00580454e+000
,,,2.92187500e+008,4.77060795e+000
,,,2.92968750e+008,4.62056684e+000
,,,2.93750000e+008,4.39133883e+000
,,,2.94531250e+008,4.28579807e+000
,,,2.95312500e+008,4.31852198e+000
,,,2.96093750e+008,4.20226765e+000
,,,2.96875000e+008,4.24121237e+000
,,,2.97656250e+008,4.24790430e+000
,,,2.98437500e+008,4.40530539e+000
,,,2.99218750e+008,4.50278807e+000
,,,3.00000000e+008,4.51872396e+000
,,,3.00781250e+008,4.62017775e+000
,,,3.01562500e+008,4.65114784e+000
,,,3.02343750e+008,4.68741608e+000
,,,3.03125000e+008,4.79235172e+000
,,,3.03906250e+008,4.94055462e+000
,,,3.04687500e+008,5.06484938e+000
,,,3.05468750e+008,5.25536680e+000
,,,3.06250000e+008,5.38896132e+000
,,,3.07031250e+008,5.58853626e+000
,,,3.07812500e+008,5.62448406e+000
,,,3.08593750e+008,5.70436096e+000
,,,3.09375000e+008,5.74671030e+000
,,,3.10156250e+008,5.56696892e+000
,,,3.10937500e+008,5.53763628e+000
,,,3.11718750e+008,5.23102236e+000
,,,3.12500000e+008,5.22083044e+000
,,,3.13281250e+008,5.09127760e+000
,,,3.14062500e+008,5.09170771e+000
,,,3.14843750e+008,5.17689466e+000
,,,3.15625000e+008,5.24085951e+000
,,,3.16406250e+008,5.42421579e+000
,,,3.17187500e+008,5.46534681e+000
,,,3.17968750e+008,5.64283323e+000
,,,3.18750000e+008,5.62023163e+000
,,,3.19531250e+008,5.71003294e+000
,,,3.20312500e+008,5.71542692e+000
,,,3.21093750e+008,5.61060572e+000
,,,3.21875000e+008,5.56358004e+000
,,,3.22656250e+008,5.56436157e+000
,,,3.23437500e+008,5.57042456e+000
,,,3.24218750e+008,5.65624666e+000
,,,3.25000000e+008,5.68082809e+000
,,,3.25781250e+008,5.79431772e+000
,,,3.26562500e+008,5.81578302e+000
,,,3.27343750e+008,5.86720419e+000
,,,3.28125000e+008,5.81031799e+000
,,,3.28906250e+008,5.77946138e+000
,,,3.29687500e+008,5.68978786e+000
,,,3.30468750e+008,5.55020380e+000
,,,3.31250000e+008,5.46573544e+000
,,,3.32031250e+008,5.46158361e+000
,,,3.32812500e+008,5.31258965e+000
,,,3.33593750e+008,5.34619999e+000
,,,3.34375000e+008,5.34854889e+000
,,,3.35156250e+008,5.37859058e+000
,,,3.35937500e+008,5.53949833e+000
,,,3.36718750e+008,5.53976774e+000
,,,3.37500000e+008,5.62479067e+000
,,,3.38281250e+008,5.65010500e+000
,,,3.39062500e+008,5.67336321e+000
,,,3.39843750e+008,5.55503130e+000
,,,3.40625000e+008,5.54929066e+000
,,,3.41406250e+008,5.57318068e+000
,,,3.42187500e+008,5.61125517e+000
,,,3.42968750e+008,5.58438778e+000
,,,3.43750000e+008,5.68761492e+000
,,,3.44531250e+008,5.84124947e+000
,,,3.45312500e+008,5.87314844e+000
,,,3.46093750e+008,5.96728230e+000
,,,3.46875000e+008,5.91931677e+000
,,,3.47656250e+008,5.88042164e+000
,,,3.48437500e+008,5.74612856e+000
,,,3.49218750e+008,5.61822796e+000
,,,3.50000000e+008,5.40143013e+000
,,,3.50781250e+008,5.29987335e+000
,,,3.51562500e+008,5.21986628e+000
,,,3.52343750e+008,5.16441488e+000
,,,3.53125000e+008,5.21925259e+000
,,,3.53906250e+008,5.19765043e+000
,,,3.54687500e+008,5.30988550e+000
,,,3.55468750e+008,5.39293528e+000
,,,3.56250000e+008,5.52834225e+000
,,,3.57031250e+008,5.69055462e+000
,,,3.57812500e+008,5.71483994e+000
,,,3.58593750e+008,5.70506525e+000
,,,3.59375000e+008,5.65499735e+000
,,,3.60156250e+008,5.60636187e+000
,,,3.60937500e+008,5.46289730e+000
,,,3.61718750e+008,5.43157387e+000
,,,3.62500000e+008,5.46772289e+000
,,,3.63281250e+008,5.51006079e+000
,,,3.64062500e+008,5.58160973e+000
,,,3.64843750e+008,5.65765762e+000
,,,3.65625000e+008,5.77827168e+000
,,,3.66406250e+008,5.71397495e+000
,,,3.67187500e+008,5.74703169e+000
,,,3.67968750e+008,5.62461567e+000
,,,3.68750000e+008,5.48936367e+000
,,,3.69531250e+008,5.19824648e+000
,,,3.70312500e+008,5.11893463e+000
,,,3.71093750e+008,4.91452074e+000
,,,3.71875000e+008,4.89288139e+000
,,,3.72656250e+008,4.80246687e+000
,,,3.73437500e+008,4.87664652e+000
,,,3.74218750e+008,4.99084044e+000
,,,3.75000000e+008,5.03834963e+000
,,,3.75781250e+008,5.19819736e+000
,,,3.76562500e+008,5.20753860e+000
,,,3.77343750e+008,5.25340748e+000
,,,3.78125000e+008,5.26318550e+000
,,,3.78906250e+008,5.14673662e+000
,,,3.79687500e+008,5.15854359e+000
,,,3.80468750e+008,4.93121147e+000
,,,3.81250000e+008,4.91198921e+000
,,,3.82031250e+008,4.85021400e+000
,,,3.82812500e+008,4.83805323e+000
,,,3.83593750e+008,4.94148254e+000
,,,3.84375000e+008,4.96963501e+000
,,,3.85156250e+008,5.03887606e+000
,,,3.85937500e+008,5.08630466e+000
,,,3.86718750e+008,5.08373213e+000
,,,3.87500000e+008,5.06782436e+000
,,,3.88281250e+008,5.02025604e+000
,,,3.89062500e+008,4.80636406e+000
,,,3.89843750e+008,4.71811390e+000
,,,3.90625000e+008,4.56743145e+000
,,,3.91406250e+008,4.45851660e+000
,,,3.92187500e+008,4.52811718e+000
,,,3.92968750e+008,4.45258617e+000
,,,3.93750000e+008,4.58425808e+000
,,,3.94531250e+008,4.62989807e+000
,,,3.95312500e+008,4.71717405e+000
,,,3.96093750e+008,4.81404400e+000
,,,3.96875000e+008,4.90257835e+000
,,,3.97656250e+008,4.88527822e+000
,,,3.98437500e+008,4.88561153e+000
,,,3.99218750e+008,4.87210417e+000
,,,4.00000000e+008,4.80447292e+000
,,,4.00781250e+008,4.74952030e+000
,,,4.01562500e+008,4.69779062e+000
,,,4.02343750e+008,4.68570948e+000
,,,4.03125000e+008,4.78414583e+000
,,,4.03906250e+008,4.77531576e+000
,,,4.04687500e+008,4.83781242e+000
,,,4.05468750e+008,4.84141254e+000
,,,4.06250000e+008,4.92198515e+000
,,,4.07031250e+008,4.84834862e+000
,,,4.07812500e+008,4.83224487e+000
,,,4.08593750e+008,4.69723463e+000
,,,4.09375000e+008,4.49298716e+000
,,,4.10156250e+008,4.38000870e+000
,,,4.10937500e+008,4.24966717e+000
,,,4.11718750e+008,4.11723232e+000
,,,4.12500000e+008,4.21443748e+000
,,,4.13281250e+008,4.18309402e+000
,,,4.14062500e+008,4.29714108e+000
,,,4.14843750e+008,4.41456366e+000
,,,4.15625000e+008,4.48340082e+000
,,,4.16406250e+008,4.49970198e+000
,,,4.17187500e+008,4.46485233e+000
,,,4.17968750e+008,4.60436630e+000
,,,4.18750000e+008,4.60243225e+000
,,,4.19531250e+008,4.60865593e+000
,,,4.20312500e+008,4.54316425e+000
,,,4.21093750e+008,4.61416721e+000
,,,4.21875000e+008,4.57461071e+000
,,,4.22656250e+008,4.69691181e+000
,,,4.23437500e+008,4.70657349e+000
,,,4.24218750e+008,4.78585768e+000
,,,4.25000000e+008,4.76777411e+000
,,,4.25781250e+008,4.71045065e+000
,,,4.26562500e+008,4.62758732e+000
,,,4.27343750e+008,4.46556187e+000
,,,4.28125000e+008,4.33054018e+000
,,,4.28906250e+008,4.18674755e+000
,,,4.29687500e+008,4.01250744e+000
,,,4.30468750e+008,3.89313316e+000
,,,4.31250000e+008,3.84488583e+000
,,,4.32031250e+008,3.87705469e+000
,,,4.32812500e+008,3.95223069e+000
,,,4.33593750e+008,3.99734545e+000
,,,4.34375000e+008,4.12265444e+000
,,,4.35156250e+008,4.18198824e+000
,,,4.35937500e+008,4.25557566e+000
,,,4.36718750e+008,4.35717821e+000
,,,4.37500000e+008,4.44320679e+000
,,,4.38281250e+008,4.43778706e+000
,,,4.39062500e+008,4.46217823e+000
,,,4.39843750e+008,4.39371729e+000
,,,4.40625000e+008,4.46747303e+000
,,,4.41406250e+008,4.37549257e+000
,,,4.42187500e+008,4.39632607e+000
